#Time,D,C,F,B,A
0,88.829,102.6,0,0.672728,127.608
3.7103e-6,88.8317,102.595,0.00152266,0.721291,127.56
7.77575e-6,88.8346,102.591,0.00319099,0.77448,127.506
1.41824e-5,88.8392,102.583,0.00581994,0.858253,127.423
4.58568e-5,88.8619,102.548,0.0188148,1.27154,127.009
0.000172235,88.9526,102.405,0.0706179,2.90582,125.375
0.000294382,89.0401,102.268,0.120618,4.46328,123.818
0.000423345,89.1323,102.123,0.173336,6.08443,122.197
0.000565938,89.2342,101.963,0.231538,7.8496,120.431
0.000722277,89.3457,101.788,0.295247,9.75255,118.528
0.00105959,89.5856,101.411,0.432331,13.7458,114.535
0.00186105,90.152,100.52,0.756007,22.6487,105.632
0.00268322,90.7279,99.6155,1.0851,30.9914,97.2896
0.00358966,91.3568,98.6272,1.44448,39.3512,88.9297
0.00456586,92.0272,97.5738,1.82754,47.4724,80.8085
0.00561905,92.7424,96.4499,2.23622,55.3207,72.9602
0.00675093,93.5018,95.2565,2.6702,62.822,65.459
0.00790895,94.2691,94.0508,3.10863,69.6175,58.6634
0.00914975,95.0804,92.7758,3.57226,76.0375,52.2434
0.0103906,95.8808,91.5181,4.02959,81.6818,46.5991
0.0123012,97.092,89.6148,4.72172,89.0859,39.195
0.0147376,98.6001,87.245,5.58346,96.6825,31.5984
0.0171739,100.068,84.9378,6.42242,102.661,25.6198
0.0196103,101.498,82.6917,7.2392,107.393,20.8879
0.0221504,102.948,80.4132,8.06775,111.301,16.9799
0.0247275,104.378,78.1656,8.88504,114.439,13.8419
0.0273786,105.807,75.9191,9.70197,116.996,11.2849
0.0301105,107.238,73.6716,10.5192,119.081,9.19946
0.0328828,108.646,71.4588,11.3239,120.758,7.52314
0.0357915,110.078,69.2087,12.1421,122.15,6.13138
0.0387688,111.497,66.9788,12.953,123.275,5.0063
0.0418281,112.907,64.7623,13.759,124.188,4.09267
0.0450971,114.363,62.4749,14.5908,124.957,3.32426
0.0484155,115.788,60.2356,15.4051,125.569,2.71195
0.0519489,117.249,57.9392,16.2401,126.08,2.20099
0.0555443,118.679,55.6925,17.0571,126.487,1.79437
0.0594076,120.153,53.3753,17.8997,126.827,1.45353
0.0634135,121.618,51.0744,18.7364,127.102,1.17918
0.067572,123.071,48.7908,19.5668,127.323,0.958109
0.0720821,124.574,46.4292,20.4255,127.508,0.772993
0.0767438,126.051,44.1085,21.2695,127.655,0.625958
0.0818284,127.577,41.7091,22.1419,127.778,0.503284
0.087227,129.108,39.3044,23.0164,127.876,0.404451
0.0929496,130.634,36.9065,23.8884,127.956,0.325229
0.0993342,132.226,34.4034,24.7986,128.022,0.259036
0.106021,133.779,31.9638,25.6857,128.073,0.207508
0.113575,135.401,29.4151,26.6125,128.116,0.164588
0.121779,137.016,26.8769,27.5355,128.15,0.130671
0.130984,138.663,24.2886,28.4767,128.178,0.103271
0.141328,140.326,21.6763,29.4266,128.199,0.0814381
0.152556,141.928,19.158,30.3424,128.216,0.0647715
0.165765,143.577,16.5671,31.2845,128.23,0.0511762
0.180283,145.133,14.1218,32.1737,128.24,0.0409735
0.19726,146.664,11.7163,33.0485,128.248,0.0329227
0.217278,148.137,9.40054,33.8905,128.254,0.0266705
0.23969,149.444,7.34657,34.6374,128.259,0.0221258
0.264336,150.555,5.60202,35.2718,128.262,0.0188795
0.288982,151.401,4.27173,35.7556,128.264,0.0167284
0.313628,152.047,3.25734,36.1244,128.266,0.0152545
0.338273,152.539,2.48384,36.4057,128.267,0.0142186
0.371743,153.026,1.71882,36.6839,128.268,0.0132635
0.406325,153.372,1.17498,36.8816,128.268,0.0126237
0.447688,153.645,0.745467,37.0378,128.269,0.0121403
0.49255,153.83,0.45511,37.1434,128.269,0.0118241
0.533867,153.936,0.288894,37.2039,128.269,0.0116467
0.584493,154.014,0.165538,37.2487,128.269,0.0115169
0.642034,154.064,0.0879087,37.2769,128.269,0.0114359
0.695466,154.089,0.0488397,37.2911,128.27,0.0113953
0.754653,154.103,0.0254727,37.2996,128.27,0.0113712
0.82717,154.112,0.0114752,37.3047,128.27,0.0113567
0.897411,154.116,0.00529913,37.307,128.27,0.0113503
0.987652,154.118,0.0019663,37.3082,128.27,0.0113469
1.09423,154.119,0.000610124,37.3087,128.27,0.0113455
1.20202,154.119,0.000187249,37.3088,128.27,0.0113451
1.37464,154.12,3.00391e-5,37.3089,128.27,0.0113449
1.55627,154.12,4.09212e-6,37.3089,128.27,0.0113449
1.81568,154.12,1.73274e-6,37.3089,128.27,0.0113449
2.11346,154.12,-9.98226e-8,37.3089,128.27,0.0113449
2.55182,154.12,-5.07364e-7,37.3089,128.27,0.0113449
3.26217,154.12,3.1977e-7,37.3089,128.27,0.0113449
4.18601,154.12,3.08601e-7,37.3089,128.27,0.0113449
5.18601,154.12,8.04198e-8,37.3089,128.27,0.0113449
6.18601,154.12,-1.45237e-7,37.3089,128.27,0.0113449
7.18601,154.12,-7.79997e-8,37.3089,128.27,0.0113449
8.18601,154.12,1.0136e-7,37.3089,128.27,0.0113449
9.18601,154.12,-4.07673e-9,37.3089,128.27,0.0113449
10.186,154.12,-1.72956e-8,37.3089,128.27,0.0113449
11.186,154.12,1.68478e-7,37.3089,128.27,0.0113449
12.186,154.12,-1.97327e-8,37.3089,128.27,0.0113449
13.186,154.12,1.44145e-8,37.3089,128.27,0.0113449
14.186,154.12,-2.84387e-9,37.3089,128.27,0.0113449
15.186,154.12,-2.36989e-10,37.3089,128.27,0.0113449
16.186,154.12,-1.97491e-11,37.3089,128.27,0.0113449
17.186,154.12,-1.64576e-12,37.3089,128.27,0.0113449
18.186,154.12,-1.37146e-13,37.3089,128.27,0.0113449
19.186,154.12,-1.14289e-14,37.3089,128.27,0.0113449
20.186,154.12,-9.52405e-16,37.3089,128.27,0.0113449
21.186,154.12,-7.93671e-17,37.3089,128.27,0.0113449
22.186,154.12,-6.61393e-18,37.3089,128.27,0.0113449
23.186,154.12,-5.51161e-19,37.3089,128.27,0.0113449
24.186,154.12,-4.593e-20,37.3089,128.27,0.0113449
25.186,154.12,-3.8275e-21,37.3089,128.27,0.0113449
26.186,154.12,-3.18959e-22,37.3089,128.27,0.0113449
27.186,154.12,-2.65799e-23,37.3089,128.27,0.0113449
28.186,154.12,-2.21499e-24,37.3089,128.27,0.0113449
29.186,154.12,-1.84583e-25,37.3089,128.27,0.0113449
30.186,154.12,-1.53819e-26,37.3089,128.27,0.0113449
31.186,154.12,-1.28182e-27,37.3089,128.27,0.0113449
32.186,154.12,-1.06819e-28,37.3089,128.27,0.0113449
33.186,154.12,-8.90155e-30,37.3089,128.27,0.0113449
34.186,154.12,-7.41796e-31,37.3089,128.27,0.0113449
35.186,154.12,-6.18163e-32,37.3089,128.27,0.0113449
36.186,154.12,-5.15136e-33,37.3089,128.27,0.0113449
37.186,154.12,-4.2928e-34,37.3089,128.27,0.0113449
38.186,154.12,-3.57733e-35,37.3089,128.27,0.0113449
39.186,154.12,-2.98111e-36,37.3089,128.27,0.0113449
40.186,154.12,-2.48426e-37,37.3089,128.27,0.0113449
41.186,154.12,-2.07022e-38,37.3089,128.27,0.0113449
42.186,154.12,-1.72518e-39,37.3089,128.27,0.0113449
43.186,154.12,-1.43765e-40,37.3089,128.27,0.0113449
44.186,154.12,-1.19804e-41,37.3089,128.27,0.0113449
45.186,154.12,-9.98368e-43,37.3089,128.27,0.0113449
46.186,154.12,-8.31973e-44,37.3089,128.27,0.0113449
47.186,154.12,-6.93311e-45,37.3089,128.27,0.0113449
48.186,154.12,-5.77759e-46,37.3089,128.27,0.0113449
49.186,154.12,-4.81466e-47,37.3089,128.27,0.0113449
50.186,154.12,-4.01222e-48,37.3089,128.27,0.0113449
51.186,154.12,-3.34351e-49,37.3089,128.27,0.0113449
52.186,154.12,-2.78626e-50,37.3089,128.27,0.0113449
53.186,154.12,-2.32189e-51,37.3089,128.27,0.0113449
54.186,154.12,-1.9349e-52,37.3089,128.27,0.0113449
55.186,154.12,-1.61242e-53,37.3089,128.27,0.0113449
56.186,154.12,-1.34368e-54,37.3089,128.27,0.0113449
57.186,154.12,-1.11974e-55,37.3089,128.27,0.0113449
58.186,154.12,-9.33114e-57,37.3089,128.27,0.0113449
59.186,154.12,-7.77595e-58,37.3089,128.27,0.0113449
60.186,154.12,-6.47996e-59,37.3089,128.27,0.0113449
61.186,154.12,-5.39996e-60,37.3089,128.27,0.0113449
62.186,154.12,-4.49997e-61,37.3089,128.27,0.0113449
63.186,154.12,-3.74997e-62,37.3089,128.27,0.0113449
64.186,154.12,-3.12498e-63,37.3089,128.27,0.0113449
65.186,154.12,-2.60415e-64,37.3089,128.27,0.0113449
66.186,154.12,-2.17012e-65,37.3089,128.27,0.0113449
67.186,154.12,-1.80844e-66,37.3089,128.27,0.0113449
68.186,154.12,-1.50703e-67,37.3089,128.27,0.0113449
69.186,154.12,-1.25586e-68,37.3089,128.27,0.0113449
70.186,154.12,-1.04655e-69,37.3089,128.27,0.0113449
71.186,154.12,-8.72124e-71,37.3089,128.27,0.0113449
72.186,154.12,-7.2677e-72,37.3089,128.27,0.0113449
73.186,154.12,-6.05642e-73,37.3089,128.27,0.0113449
74.186,154.12,-5.04701e-74,37.3089,128.27,0.0113449
75.186,154.12,-4.20585e-75,37.3089,128.27,0.0113449
76.186,154.12,-3.50487e-76,37.3089,128.27,0.0113449
77.186,154.12,-2.92073e-77,37.3089,128.27,0.0113449
78.186,154.12,-2.43394e-78,37.3089,128.27,0.0113449
79.186,154.12,-2.02828e-79,37.3089,128.27,0.0113449
80.186,154.12,-1.69024e-80,37.3089,128.27,0.0113449
81.186,154.12,-1.40853e-81,37.3089,128.27,0.0113449
82.186,154.12,-1.17377e-82,37.3089,128.27,0.0113449
83.186,154.12,-9.78145e-84,37.3089,128.27,0.0113449
84.186,154.12,-8.15121e-85,37.3089,128.27,0.0113449
85.186,154.12,-6.79268e-86,37.3089,128.27,0.0113449
86.186,154.12,-5.66056e-87,37.3089,128.27,0.0113449
87.186,154.12,-4.71714e-88,37.3089,128.27,0.0113449
88.186,154.12,-3.93095e-89,37.3089,128.27,0.0113449
89.186,154.12,-3.27579e-90,37.3089,128.27,0.0113449
90.186,154.12,-2.72982e-91,37.3089,128.27,0.0113449
91.186,154.12,-2.27485e-92,37.3089,128.27,0.0113449
92.186,154.12,-1.89571e-93,37.3089,128.27,0.0113449
93.186,154.12,-1.57976e-94,37.3089,128.27,0.0113449
94.186,154.12,-1.31647e-95,37.3089,128.27,0.0113449
95.186,154.12,-1.09706e-96,37.3089,128.27,0.0113449
96.186,154.12,-9.14213e-98,37.3089,128.27,0.0113449
97.186,154.12,-7.61844e-99,37.3089,128.27,0.0113449
98.186,154.12,-6.3487e-100,37.3089,128.27,0.0113449
99.186,154.12,-5.29058e-101,37.3089,128.27,0.0113449
100,154.12,6.73412e-101,37.3089,128.27,0.0113449
