#Time,D,C,F,B,A
0,79.2606,32.041,5.42704,42.2639,108.615
2.76393e-5,79.2668,32.0313,5.43058,42.36,108.519
9.25573e-5,79.2813,32.0084,5.4389,42.5852,108.294
0.000193181,79.3038,31.973,5.45177,42.9332,107.946
0.000755811,79.4294,31.7757,5.52351,44.8519,106.027
0.00159056,79.6142,31.4853,5.62912,47.6148,103.264
0.00242532,79.7973,31.1975,5.73377,50.2816,100.597
0.00352331,80.0357,30.823,5.86996,53.6491,97.2298
0.00634284,80.6347,29.8817,6.21225,61.623,89.2559
0.0092175,81.2266,28.9515,6.55048,68.8597,82.0192
0.0123299,81.8467,27.9771,6.90481,75.8125,75.0664
0.0155229,82.4611,27.0115,7.25593,82.1208,68.7581
0.0188772,83.0838,26.033,7.61175,87.9728,62.9061
0.0222315,83.6839,25.09,7.95467,93.141,57.7379
0.027657,84.6089,23.6364,8.48324,100.288,50.5908
0.0336687,85.5714,22.1239,9.03324,106.787,44.0915
0.0412109,86.6923,20.3625,9.67376,113.312,37.5673
0.0490195,87.7589,18.6865,10.2832,118.621,32.2579
0.0568281,88.7377,17.1484,10.8425,122.83,28.0485
0.0649413,89.6694,15.6843,11.3749,126.326,24.553
0.0733632,90.5525,14.2966,11.8795,129.236,21.6428
0.0826031,91.4317,12.9149,12.382,131.791,19.088
0.0921547,92.2514,11.6268,12.8504,133.9,16.9787
0.102547,93.0507,10.3709,13.3071,135.732,15.1466
0.113562,93.8037,9.18743,13.7374,137.277,13.6016
0.125217,94.5072,8.08193,14.1394,138.578,12.3011
0.1381,95.1868,7.01405,14.5277,139.716,11.163
0.151532,95.7999,6.0506,14.8781,140.652,10.2268
0.166503,96.3845,5.13194,15.2121,141.471,9.40741
0.182571,96.9136,4.30053,15.5145,142.156,8.72255
0.199784,97.3857,3.55869,15.7842,142.725,8.15368
0.219272,97.8226,2.87202,16.0339,143.219,7.66023
0.239793,98.1919,2.2917,16.245,143.612,7.26656
0.263811,98.5305,1.75959,16.4385,143.955,6.9234
0.289149,98.8029,1.33157,16.5941,144.22,6.65916
0.315583,99.0167,0.995594,16.7163,144.42,6.45883
0.342371,99.1784,0.741488,16.8087,144.568,6.31133
0.36987,99.3016,0.547942,16.8791,144.678,6.20125
0.399133,99.3976,0.39713,16.9339,144.762,6.11681
0.429111,99.4686,0.285574,16.9745,144.824,6.05509
0.461064,99.5224,0.200938,17.0052,144.87,6.00868
0.494655,99.5619,0.138861,17.0278,144.904,5.97487
0.529907,99.5903,0.0942238,17.044,144.928,5.95067
0.568705,99.6112,0.0614887,17.056,144.946,5.93299
0.609152,99.6252,0.0394044,17.064,144.958,5.92109
0.654433,99.6351,0.0239433,17.0696,144.966,5.91277
0.703516,99.6414,0.0139521,17.0732,144.971,5.9074
0.75845,99.6454,0.00762212,17.0755,144.975,5.904
0.820728,99.6478,0.00384,17.0769,144.977,5.90197
0.888676,99.6491,0.00181689,17.0776,144.978,5.90089
0.970913,99.6498,0.000733389,17.078,144.979,5.90031
1.06334,99.6501,0.000264129,17.0782,144.979,5.90006
1.18034,99.6502,7.14495e-5,17.0783,144.979,5.89995
1.32517,99.6503,1.36973e-5,17.0783,144.979,5.89992
1.51211,99.6503,8.81878e-7,17.0783,144.979,5.89991
1.85763,99.6503,-1.5453e-6,17.0783,144.979,5.89991
2.25314,99.6503,3.10073e-7,17.0783,144.979,5.89991
2.85103,99.6503,-9.13385e-8,17.0783,144.979,5.89991
3.85103,99.6503,-7.14516e-8,17.0783,144.979,5.89991
4.85103,99.6503,-5.43764e-8,17.0783,144.979,5.89991
5.85103,99.6503,1.45762e-7,17.0783,144.979,5.89991
6.85103,99.6503,-3.96348e-9,17.0783,144.979,5.89991
7.85103,99.6503,5.59945e-9,17.0783,144.979,5.89991
8.85103,99.6503,-5.39155e-8,17.0783,144.979,5.89991
9.85103,99.6503,-8.85047e-9,17.0783,144.979,5.89991
10.851,99.6503,7.40547e-10,17.0783,144.979,5.89991
11.851,99.6503,4.72506e-10,17.0783,144.979,5.89991
12.851,99.6503,4.59791e-11,17.0783,144.979,5.89991
13.851,99.6503,-1.15436e-11,17.0783,144.979,5.89991
14.851,99.6503,-9.61966e-13,17.0783,144.979,5.89991
15.851,99.6503,-8.01638e-14,17.0783,144.979,5.89991
16.851,99.6503,-6.68032e-15,17.0783,144.979,5.89991
17.851,99.6503,-5.56693e-16,17.0783,144.979,5.89991
18.851,99.6503,-4.63911e-17,17.0783,144.979,5.89991
19.851,99.6503,-3.86593e-18,17.0783,144.979,5.89991
20.851,99.6503,-3.2216e-19,17.0783,144.979,5.89991
21.851,99.6503,-2.68467e-20,17.0783,144.979,5.89991
22.851,99.6503,-2.23723e-21,17.0783,144.979,5.89991
23.851,99.6503,-1.86435e-22,17.0783,144.979,5.89991
24.851,99.6503,-1.55363e-23,17.0783,144.979,5.89991
25.851,99.6503,-1.29469e-24,17.0783,144.979,5.89991
26.851,99.6503,-1.07891e-25,17.0783,144.979,5.89991
27.851,99.6503,-8.99091e-27,17.0783,144.979,5.89991
28.851,99.6503,-7.49242e-28,17.0783,144.979,5.89991
29.851,99.6503,-6.24369e-29,17.0783,144.979,5.89991
30.851,99.6503,-5.20307e-30,17.0783,144.979,5.89991
31.851,99.6503,-4.33589e-31,17.0783,144.979,5.89991
32.851,99.6503,-3.61324e-32,17.0783,144.979,5.89991
33.851,99.6503,-3.01104e-33,17.0783,144.979,5.89991
34.851,99.6503,-2.5092e-34,17.0783,144.979,5.89991
35.851,99.6503,-2.091e-35,17.0783,144.979,5.89991
36.851,99.6503,-1.7425e-36,17.0783,144.979,5.89991
37.851,99.6503,-1.45208e-37,17.0783,144.979,5.89991
38.851,99.6503,-1.21007e-38,17.0783,144.979,5.89991
39.851,99.6503,-1.00839e-39,17.0783,144.979,5.89991
40.851,99.6503,-8.40325e-41,17.0783,144.979,5.89991
41.851,99.6503,-7.00271e-42,17.0783,144.979,5.89991
42.851,99.6503,-5.83559e-43,17.0783,144.979,5.89991
43.851,99.6503,-4.86299e-44,17.0783,144.979,5.89991
44.851,99.6503,-4.05249e-45,17.0783,144.979,5.89991
45.851,99.6503,-3.37708e-46,17.0783,144.979,5.89991
46.851,99.6503,-2.81423e-47,17.0783,144.979,5.89991
47.851,99.6503,-2.34519e-48,17.0783,144.979,5.89991
48.851,99.6503,-1.95433e-49,17.0783,144.979,5.89991
49.851,99.6503,-1.62861e-50,17.0783,144.979,5.89991
50.851,99.6503,-1.35717e-51,17.0783,144.979,5.89991
51.851,99.6503,-1.13098e-52,17.0783,144.979,5.89991
52.851,99.6503,-9.4248e-54,17.0783,144.979,5.89991
53.851,99.6503,-7.854e-55,17.0783,144.979,5.89991
54.851,99.6503,-6.545e-56,17.0783,144.979,5.89991
55.851,99.6503,-5.45417e-57,17.0783,144.979,5.89991
56.851,99.6503,-4.54514e-58,17.0783,144.979,5.89991
57.851,99.6503,-3.78762e-59,17.0783,144.979,5.89991
58.851,99.6503,-3.15635e-60,17.0783,144.979,5.89991
59.851,99.6503,-2.63029e-61,17.0783,144.979,5.89991
60.851,99.6503,-2.19191e-62,17.0783,144.979,5.89991
61.851,99.6503,-1.82659e-63,17.0783,144.979,5.89991
62.851,99.6503,-1.52216e-64,17.0783,144.979,5.89991
63.851,99.6503,-1.26847e-65,17.0783,144.979,5.89991
64.851,99.6503,-1.05705e-66,17.0783,144.979,5.89991
65.851,99.6503,-8.80879e-68,17.0783,144.979,5.89991
66.851,99.6503,-7.34066e-69,17.0783,144.979,5.89991
67.851,99.6503,-6.11721e-70,17.0783,144.979,5.89991
68.851,99.6503,-5.09768e-71,17.0783,144.979,5.89991
69.851,99.6503,-4.24807e-72,17.0783,144.979,5.89991
70.851,99.6503,-3.54005e-73,17.0783,144.979,5.89991
71.851,99.6503,-2.95005e-74,17.0783,144.979,5.89991
72.851,99.6503,-2.45837e-75,17.0783,144.979,5.89991
73.851,99.6503,-2.04864e-76,17.0783,144.979,5.89991
74.851,99.6503,-1.7072e-77,17.0783,144.979,5.89991
75.851,99.6503,-1.42267e-78,17.0783,144.979,5.89991
76.851,99.6503,-1.18556e-79,17.0783,144.979,5.89991
77.851,99.6503,-9.87964e-81,17.0783,144.979,5.89991
78.851,99.6503,-8.23304e-82,17.0783,144.979,5.89991
79.851,99.6503,-6.86086e-83,17.0783,144.979,5.89991
80.851,99.6503,-5.71739e-84,17.0783,144.979,5.89991
81.851,99.6503,-4.76449e-85,17.0783,144.979,5.89991
82.851,99.6503,-3.97041e-86,17.0783,144.979,5.89991
83.851,99.6503,-3.30867e-87,17.0783,144.979,5.89991
84.851,99.6503,-2.75723e-88,17.0783,144.979,5.89991
85.851,99.6503,-2.29769e-89,17.0783,144.979,5.89991
86.851,99.6503,-1.91474e-90,17.0783,144.979,5.89991
87.851,99.6503,-1.59562e-91,17.0783,144.979,5.89991
88.851,99.6503,-1.32968e-92,17.0783,144.979,5.89991
89.851,99.6503,-1.10807e-93,17.0783,144.979,5.89991
90.851,99.6503,-9.2339e-95,17.0783,144.979,5.89991
91.851,99.6503,-7.69491e-96,17.0783,144.979,5.89991
92.851,99.6503,-6.41243e-97,17.0783,144.979,5.89991
93.851,99.6503,-5.34369e-98,17.0783,144.979,5.89991
94.851,99.6503,-4.45308e-99,17.0783,144.979,5.89991
95.851,99.6503,-3.7109e-100,17.0783,144.979,5.89991
96.851,99.6503,-3.09241e-101,17.0783,144.979,5.89991
97.851,99.6503,-2.57701e-102,17.0783,144.979,5.89991
98.851,99.6503,-2.14751e-103,17.0783,144.979,5.89991
99.851,99.6503,-1.78959e-104,17.0783,144.979,5.89991
100,99.6503,-6.78226e-105,17.0783,144.979,5.89991
