#Time,D,C,F,B,A
0,0,348.937,247.484,20.8986,26.1965
7.56988e-6,0.0184888,348.907,247.495,20.9677,26.1274
1.74247e-5,0.042556,348.87,247.509,21.0573,26.0378
3.27052e-5,0.0798691,348.811,247.53,21.1957,25.8994
0.000120798,0.294858,348.473,247.653,21.9791,25.116
0.000237796,0.580069,348.025,247.816,22.982,24.1132
0.000354794,0.864913,347.577,247.979,23.9435,23.1516
0.000509376,1.2407,346.987,248.193,25.1536,21.9415
0.000882311,2.14467,345.566,248.71,27.8117,19.2834
0.00124349,3.01661,344.196,249.208,30.0701,17.025
0.00162373,3.93085,342.759,249.73,32.1545,14.9406
0.00200398,4.84127,341.329,250.251,33.9766,13.1185
0.00246235,5.93369,339.612,250.875,35.8721,11.223
0.00320373,7.689,336.854,251.878,38.3613,8.7338
0.00394511,9.43006,334.118,252.873,40.2845,6.81056
0.00468649,11.157,331.404,253.86,41.7735,5.32157
0.0055638,13.1824,328.221,255.017,43.1106,3.98455
0.00662277,15.6013,324.42,256.399,44.2747,2.82038
0.0078817,18.4406,319.958,258.022,45.2151,1.87999
0.00907911,21.1048,315.772,259.544,45.8102,1.28487
0.0103847,23.9701,311.269,261.181,46.2418,0.853292
0.011786,27,306.508,262.913,46.5416,0.5535
0.0132578,30.1322,301.586,264.703,46.7413,0.35383
0.0147754,33.3095,296.593,266.518,46.8704,0.224737
0.0163517,36.554,291.495,268.372,46.9537,0.14138
0.0181552,40.1976,285.769,270.454,47.0111,0.0840134
0.020061,43.9703,279.84,272.61,47.0461,0.0490118
0.0222342,48.1769,273.23,275.014,47.0682,0.0268761
0.0246362,52.7108,266.105,277.605,47.081,0.0140648
0.0273469,57.6857,258.288,280.448,47.0882,0.00691284
0.030579,63.4266,249.266,283.728,47.0921,0.0030468
0.033879,69.0815,240.38,286.959,47.0938,0.0013591
0.0387685,77.0914,227.793,291.537,47.0947,0.000435355
0.0446232,86.1329,213.585,296.703,47.095,0.000121176
0.0505747,94.7459,200.05,301.625,47.0951,3.55595e-5
0.0596017,106.779,181.14,308.501,47.0951,8.4225e-6
0.0692467,118.383,162.906,315.132,47.0951,1.03879e-6
0.0814883,131.443,142.383,322.595,47.0951,5.75208e-7
0.0981907,146.651,118.486,331.285,47.0951,-7.97556e-7
0.121838,163.92,91.3479,341.153,47.0951,-2.3609e-6
0.147748,178.336,68.6941,349.391,47.0951,1.20582e-6
0.174054,189.32,51.434,355.667,47.0951,-2.87821e-7
0.201695,197.901,37.9493,360.571,47.0951,-9.8998e-6
0.223934,203.142,29.7138,363.565,47.0951,1.7099e-6
0.242299,206.6,24.2788,365.542,47.0951,-1.36138e-6
0.257001,208.907,20.6535,366.86,47.0951,-3.19128e-6
0.268791,210.506,18.1413,367.773,47.0951,3.37774e-6
0.27887,211.718,16.2375,368.466,47.0951,2.08012e-6
0.29123,213.031,14.1733,369.216,47.0951,2.29769e-6
0.309148,214.645,11.6379,370.138,47.0951,7.4276e-8
0.335547,216.511,8.70477,371.205,47.0951,-1.51402e-6
0.366878,218.126,6.16713,372.128,47.0951,-2.9268e-6
0.405063,219.472,4.05197,372.897,47.0951,-2.00641e-6
0.440586,220.306,2.74136,373.373,47.0951,-1.73595e-6
0.480062,220.92,1.77577,373.725,47.0951,-1.5788e-6
0.521715,221.336,1.12305,373.962,47.0951,-1.4757e-6
0.562561,221.594,0.716594,374.11,47.0951,-1.42465e-6
0.605017,221.765,0.449218,374.207,47.0951,-1.38803e-6
0.65343,221.883,0.263745,374.274,47.0951,-1.36301e-6
0.699313,221.949,0.159215,374.312,47.0951,-1.35111e-6
0.748787,221.992,0.0923959,374.337,47.0951,-1.34291e-6
0.809792,222.02,0.0472342,374.353,47.0951,-1.3376e-6
0.873382,222.036,0.023469,374.362,47.0951,-1.3347e-6
0.939778,222.043,0.0113084,374.366,47.0951,-1.33323e-6
1.02256,222.048,0.00455153,374.369,47.0951,-1.3324e-6
1.1083,222.049,0.0017727,374.37,47.0951,-1.33207e-6
1.20773,222.05,0.00059587,374.37,47.0951,-1.33192e-6
1.32123,222.05,0.000169827,374.37,47.0951,-1.33187e-6
1.45285,222.05,4.14697e-5,374.37,47.0951,-1.33186e-6
1.64335,222.05,7.38751e-6,374.37,47.0951,-1.33185e-6
1.84571,222.051,-1.31934e-6,374.37,47.0951,-1.33185e-6
2.0914,222.05,1.2774e-6,374.37,47.0951,-1.33185e-6
2.39907,222.05,2.8715e-7,374.37,47.0951,-1.33185e-6
2.88154,222.05,7.74132e-7,374.37,47.0951,-1.33185e-6
3.31001,222.05,1.66539e-7,374.37,47.0951,-1.33185e-6
3.9127,222.051,-4.63166e-7,374.37,47.0951,-1.33185e-6
4.62288,222.05,2.09796e-7,374.37,47.0951,-1.33185e-6
5.62288,222.051,-2.37298e-7,374.37,47.0951,-1.33185e-6
6.62288,222.051,-3.09261e-8,374.37,47.0951,-1.33185e-6
7.62288,222.051,-1.60535e-7,374.37,47.0951,-1.33185e-6
8.62288,222.05,9.52097e-8,374.37,47.0951,-1.33185e-6
9.62288,222.051,-5.88957e-8,374.37,47.0951,-1.33185e-6
10.6229,222.05,1.06796e-8,374.37,47.0951,-1.33185e-6
11.6229,222.05,1.97276e-7,374.37,47.0951,-1.33185e-6
12.6229,222.051,-5.01018e-8,374.37,47.0951,-1.33185e-6
13.6229,222.051,-4.71083e-8,374.37,47.0951,-1.33185e-6
14.6229,222.05,2.77545e-8,374.37,47.0951,-1.33185e-6
15.6229,222.05,7.07838e-10,374.37,47.0951,-1.33185e-6
16.6229,222.05,5.89865e-11,374.37,47.0951,-1.33185e-6
17.6229,222.05,4.91554e-12,374.37,47.0951,-1.33185e-6
18.6229,222.05,4.09628e-13,374.37,47.0951,-1.33185e-6
19.6229,222.051,3.41357e-14,374.37,47.0951,-1.33185e-6
20.6229,222.051,2.84464e-15,374.37,47.0951,-1.33185e-6
21.6229,222.051,2.37053e-16,374.37,47.0951,-1.33185e-6
22.6229,222.051,1.97545e-17,374.37,47.0951,-1.33185e-6
23.6229,222.051,1.6462e-18,374.37,47.0951,-1.33185e-6
24.6229,222.051,1.37184e-19,374.37,47.0951,-1.33185e-6
25.6229,222.051,1.1432e-20,374.37,47.0951,-1.33185e-6
26.6229,222.051,9.52665e-22,374.37,47.0951,-1.33185e-6
27.6229,222.051,7.93887e-23,374.37,47.0951,-1.33185e-6
28.6229,222.051,6.61573e-24,374.37,47.0951,-1.33185e-6
29.6229,222.051,5.51311e-25,374.37,47.0951,-1.33185e-6
30.6229,222.051,4.59425e-26,374.37,47.0951,-1.33185e-6
31.6229,222.051,3.82855e-27,374.37,47.0951,-1.33185e-6
32.6229,222.051,3.19045e-28,374.37,47.0951,-1.33185e-6
33.6229,222.051,2.65871e-29,374.37,47.0951,-1.33185e-6
34.6229,222.051,2.21559e-30,374.37,47.0951,-1.33185e-6
35.6229,222.051,1.84633e-31,374.37,47.0951,-1.33185e-6
36.6229,222.051,1.53861e-32,374.37,47.0951,-1.33185e-6
37.6229,222.051,1.28217e-33,374.37,47.0951,-1.33185e-6
38.6229,222.051,1.06848e-34,374.37,47.0951,-1.33185e-6
39.6229,222.051,8.90397e-36,374.37,47.0951,-1.33185e-6
40.6229,222.051,7.41998e-37,374.37,47.0951,-1.33185e-6
41.6229,222.051,6.18331e-38,374.37,47.0951,-1.33185e-6
42.6229,222.051,5.15276e-39,374.37,47.0951,-1.33185e-6
43.6229,222.051,4.29397e-40,374.37,47.0951,-1.33185e-6
44.6229,222.051,3.57831e-41,374.37,47.0951,-1.33185e-6
45.6229,222.051,2.98192e-42,374.37,47.0951,-1.33185e-6
46.6229,222.051,2.48494e-43,374.37,47.0951,-1.33185e-6
47.6229,222.051,2.07078e-44,374.37,47.0951,-1.33185e-6
48.6229,222.051,1.72565e-45,374.37,47.0951,-1.33185e-6
49.6229,222.051,1.43804e-46,374.37,47.0951,-1.33185e-6
50.6229,222.051,1.19837e-47,374.37,47.0951,-1.33185e-6
51.6229,222.051,9.9864e-49,374.37,47.0951,-1.33185e-6
52.6229,222.051,8.322e-50,374.37,47.0951,-1.33185e-6
53.6229,222.051,6.935e-51,374.37,47.0951,-1.33185e-6
54.6229,222.051,5.77917e-52,374.37,47.0951,-1.33185e-6
55.6229,222.051,4.81597e-53,374.37,47.0951,-1.33185e-6
56.6229,222.051,4.01331e-54,374.37,47.0951,-1.33185e-6
57.6229,222.051,3.34442e-55,374.37,47.0951,-1.33185e-6
58.6229,222.051,2.78702e-56,374.37,47.0951,-1.33185e-6
59.6229,222.051,2.32252e-57,374.37,47.0951,-1.33185e-6
60.6229,222.051,1.93543e-58,374.37,47.0951,-1.33185e-6
61.6229,222.051,1.61286e-59,374.37,47.0951,-1.33185e-6
62.6229,222.051,1.34405e-60,374.37,47.0951,-1.33185e-6
63.6229,222.051,1.12004e-61,374.37,47.0951,-1.33185e-6
64.6229,222.051,9.33367e-63,374.37,47.0951,-1.33185e-6
65.6229,222.051,7.77806e-64,374.37,47.0951,-1.33185e-6
66.6229,222.051,6.48172e-65,374.37,47.0951,-1.33185e-6
67.6229,222.051,5.40143e-66,374.37,47.0951,-1.33185e-6
68.6229,222.051,4.50119e-67,374.37,47.0951,-1.33185e-6
69.6229,222.051,3.75099e-68,374.37,47.0951,-1.33185e-6
70.6229,222.051,3.12583e-69,374.37,47.0951,-1.33185e-6
71.6229,222.051,2.60486e-70,374.37,47.0951,-1.33185e-6
72.6229,222.051,2.17071e-71,374.37,47.0951,-1.33185e-6
73.6229,222.051,1.80893e-72,374.37,47.0951,-1.33185e-6
74.6229,222.051,1.50744e-73,374.37,47.0951,-1.33185e-6
75.6229,222.051,1.2562e-74,374.37,47.0951,-1.33185e-6
76.6229,222.051,1.04683e-75,374.37,47.0951,-1.33185e-6
77.6229,222.051,8.72361e-77,374.37,47.0951,-1.33185e-6
78.6229,222.051,7.26968e-78,374.37,47.0951,-1.33185e-6
79.6229,222.051,6.05807e-79,374.37,47.0951,-1.33185e-6
80.6229,222.051,5.04839e-80,374.37,47.0951,-1.33185e-6
81.6229,222.051,4.20699e-81,374.37,47.0951,-1.33185e-6
82.6229,222.051,3.50583e-82,374.37,47.0951,-1.33185e-6
83.6229,222.051,2.92152e-83,374.37,47.0951,-1.33185e-6
84.6229,222.051,2.4346e-84,374.37,47.0951,-1.33185e-6
85.6229,222.051,2.02883e-85,374.37,47.0951,-1.33185e-6
86.6229,222.051,1.69069e-86,374.37,47.0951,-1.33185e-6
87.6229,222.051,1.40891e-87,374.37,47.0951,-1.33185e-6
88.6229,222.051,1.17409e-88,374.37,47.0951,-1.33185e-6
89.6229,222.051,9.78411e-90,374.37,47.0951,-1.33185e-6
90.6229,222.051,8.15343e-91,374.37,47.0951,-1.33185e-6
91.6229,222.051,6.79452e-92,374.37,47.0951,-1.33185e-6
92.6229,222.051,5.6621e-93,374.37,47.0951,-1.33185e-6
93.6229,222.051,4.71842e-94,374.37,47.0951,-1.33185e-6
94.6229,222.051,3.93202e-95,374.37,47.0951,-1.33185e-6
95.6229,222.051,3.27668e-96,374.37,47.0951,-1.33185e-6
96.6229,222.051,2.73057e-97,374.37,47.0951,-1.33185e-6
97.6229,222.051,2.27547e-98,374.37,47.0951,-1.33185e-6
98.6229,222.051,1.89623e-99,374.37,47.0951,-1.33185e-6
99.6229,222.051,1.58019e-100,374.37,47.0951,-1.33185e-6
100,222.051,3.06935e-101,374.37,47.0951,-1.33185e-6
