#Time,D,C,F,B,A
0,18.6611,68.246,0,122.339,100.156
2.33942e-5,18.6722,68.2285,0.00638493,122.498,99.996
7.55768e-5,18.6971,68.1893,0.0206208,122.854,99.641
0.000156111,18.7356,68.129,0.0425771,123.399,99.0956
0.000596551,18.9451,67.7997,0.162313,126.321,96.1731
0.00113697,19.2008,67.3978,0.308441,129.772,92.7228
0.0016774,19.455,66.9984,0.453703,133.079,89.4157
0.00239067,19.7882,66.4748,0.644107,137.235,85.2591
0.0040754,20.565,65.2542,1.08795,146.189,76.305
0.00569529,21.2984,64.1017,1.50702,153.779,68.7153
0.00741241,22.0616,62.9023,1.94317,160.877,61.617
0.00912952,22.8106,61.7254,2.37116,167.13,55.3648
0.0112482,23.7154,60.3035,2.88821,173.843,48.6515
0.0144213,25.0318,58.235,3.6404,182.183,40.3113
0.0178801,26.4152,56.0609,4.43096,189.413,33.0819
0.0214171,27.7766,53.9216,5.20888,195.259,27.235
0.0252017,29.1758,51.7229,6.0084,200.194,22.3007
0.0291006,30.5576,49.5515,6.79801,204.189,18.3057
0.0329996,31.8814,47.4712,7.55448,207.343,15.1514
0.0369496,33.1659,45.4528,8.28847,209.883,12.6113
0.0410019,34.4269,43.4712,9.00903,211.962,10.5323
0.0453489,35.7185,41.4415,9.74712,213.737,8.7576
0.0497494,36.9647,39.4832,10.4592,215.165,7.32943
0.0544785,38.2383,37.4818,11.187,216.384,6.11012
0.0592636,39.4613,35.5599,11.8859,217.364,5.13062
0.0644278,40.711,33.5962,12.5999,218.203,4.29179
0.0696569,41.906,31.7183,13.2828,218.876,3.61821
0.0753502,43.1313,29.7928,13.983,219.457,3.03719
0.0811919,44.3113,27.9386,14.6573,219.928,2.56603
0.0874329,45.4909,26.0849,15.3313,220.326,2.16808
0.0940039,46.6484,24.266,15.9927,220.657,1.83764
0.100909,47.7779,22.4911,16.6382,220.931,1.5638
0.108446,48.9166,20.7017,17.2889,221.165,1.32902
0.116268,50.0027,18.995,17.9095,221.356,1.13801
0.124891,51.0965,17.276,18.5346,221.521,0.973367
0.134086,52.1541,15.6141,19.1389,221.658,0.836872
0.143875,53.1685,14.0201,19.7185,221.771,0.723977
0.154865,54.1844,12.4236,20.2991,221.868,0.626168
0.166399,55.1264,10.9434,20.8373,221.947,0.547324
0.179483,56.0599,9.47641,21.3708,222.016,0.478987
0.193709,56.9335,8.10368,21.87,222.072,0.422788
0.209696,57.7651,6.79688,22.3452,222.119,0.375426
0.227638,58.5398,5.57951,22.7878,222.158,0.336091
0.247091,59.2238,4.50466,23.1787,222.19,0.3048
0.269853,59.8587,3.5069,23.5415,222.216,0.278367
0.294126,60.3817,2.68511,23.8403,222.236,0.258326
0.319359,60.7958,2.03431,24.077,222.251,0.243484
0.344592,61.1096,1.54124,24.2563,222.262,0.232811
0.374528,61.3848,1.10882,24.4135,222.271,0.223836
0.411357,61.6198,0.739473,24.5478,222.278,0.216446
0.456609,61.8043,0.449519,24.6533,222.284,0.210815
0.499397,61.9117,0.280764,24.7146,222.287,0.207606
0.545335,61.9826,0.169391,24.7551,222.289,0.205515
0.599915,62.0312,0.0929325,24.783,222.29,0.204091
0.654842,62.058,0.0507905,24.7983,222.291,0.203311
0.716299,62.0739,0.0258371,24.8074,222.292,0.20285
0.78574,62.0827,0.0120389,24.8124,222.292,0.202596
0.854491,62.0868,0.00565171,24.8147,222.292,0.202478
0.945378,62.089,0.00208301,24.816,222.292,0.202412
1.04538,62.0899,0.00069334,24.8165,222.292,0.202387
1.15815,62.0902,0.000201867,24.8167,222.292,0.202378
1.2971,62.0903,4.4279e-5,24.8167,222.292,0.202375
1.457,62.0904,8.11737e-6,24.8167,222.292,0.202374
1.71495,62.0904,2.10419e-6,24.8167,222.292,0.202374
1.97508,62.0904,-7.08093e-7,24.8167,222.292,0.202374
2.28702,62.0904,-6.23298e-8,24.8167,222.292,0.202374
2.83314,62.0904,9.37249e-9,24.8167,222.292,0.202374
3.45717,62.0904,-2.99344e-7,24.8167,222.292,0.202374
4.28509,62.0904,1.36611e-7,24.8167,222.292,0.202374
5.28509,62.0904,8.16867e-8,24.8167,222.292,0.202374
6.28509,62.0904,7.80772e-8,24.8167,222.292,0.202374
7.28509,62.0904,4.76305e-10,24.8167,222.292,0.202374
8.28509,62.0904,-1.15017e-8,24.8167,222.292,0.202374
9.28509,62.0904,6.69659e-10,24.8167,222.292,0.202374
10.2851,62.0904,1.95546e-9,24.8167,222.292,0.202374
11.2851,62.0904,2.86087e-10,24.8167,222.292,0.202374
12.2851,62.0904,-3.24444e-11,24.8167,222.292,0.202374
13.2851,62.0904,-1.66346e-11,24.8167,222.292,0.202374
14.2851,62.0904,-1.36376e-12,24.8167,222.292,0.202374
15.2851,62.0904,-1.13647e-13,24.8167,222.292,0.202374
16.2851,62.0904,-9.47055e-15,24.8167,222.292,0.202374
17.2851,62.0904,-7.89212e-16,24.8167,222.292,0.202374
18.2851,62.0904,-6.57677e-17,24.8167,222.292,0.202374
19.2851,62.0904,-5.48064e-18,24.8167,222.292,0.202374
20.2851,62.0904,-4.5672e-19,24.8167,222.292,0.202374
21.2851,62.0904,-3.806e-20,24.8167,222.292,0.202374
22.2851,62.0904,-3.17167e-21,24.8167,222.292,0.202374
23.2851,62.0904,-2.64306e-22,24.8167,222.292,0.202374
24.2851,62.0904,-2.20255e-23,24.8167,222.292,0.202374
25.2851,62.0904,-1.83546e-24,24.8167,222.292,0.202374
26.2851,62.0904,-1.52955e-25,24.8167,222.292,0.202374
27.2851,62.0904,-1.27462e-26,24.8167,222.292,0.202374
28.2851,62.0904,-1.06219e-27,24.8167,222.292,0.202374
29.2851,62.0904,-8.85154e-29,24.8167,222.292,0.202374
30.2851,62.0904,-7.37629e-30,24.8167,222.292,0.202374
31.2851,62.0904,-6.1469e-31,24.8167,222.292,0.202374
32.2851,62.0904,-5.12242e-32,24.8167,222.292,0.202374
33.2851,62.0904,-4.26868e-33,24.8167,222.292,0.202374
34.2851,62.0904,-3.55724e-34,24.8167,222.292,0.202374
35.2851,62.0904,-2.96436e-35,24.8167,222.292,0.202374
36.2851,62.0904,-2.4703e-36,24.8167,222.292,0.202374
37.2851,62.0904,-2.05859e-37,24.8167,222.292,0.202374
38.2851,62.0904,-1.71549e-38,24.8167,222.292,0.202374
39.2851,62.0904,-1.42957e-39,24.8167,222.292,0.202374
40.2851,62.0904,-1.19131e-40,24.8167,222.292,0.202374
41.2851,62.0904,-9.92759e-42,24.8167,222.292,0.202374
42.2851,62.0904,-8.273e-43,24.8167,222.292,0.202374
43.2851,62.0904,-6.89416e-44,24.8167,222.292,0.202374
44.2851,62.0904,-5.74514e-45,24.8167,222.292,0.202374
45.2851,62.0904,-4.78761e-46,24.8167,222.292,0.202374
46.2851,62.0904,-3.98968e-47,24.8167,222.292,0.202374
47.2851,62.0904,-3.32473e-48,24.8167,222.292,0.202374
48.2851,62.0904,-2.77061e-49,24.8167,222.292,0.202374
49.2851,62.0904,-2.30884e-50,24.8167,222.292,0.202374
50.2851,62.0904,-1.92403e-51,24.8167,222.292,0.202374
51.2851,62.0904,-1.60336e-52,24.8167,222.292,0.202374
52.2851,62.0904,-1.33613e-53,24.8167,222.292,0.202374
53.2851,62.0904,-1.11345e-54,24.8167,222.292,0.202374
54.2851,62.0904,-9.27871e-56,24.8167,222.292,0.202374
55.2851,62.0904,-7.73226e-57,24.8167,222.292,0.202374
56.2851,62.0904,-6.44355e-58,24.8167,222.292,0.202374
57.2851,62.0904,-5.36963e-59,24.8167,222.292,0.202374
58.2851,62.0904,-4.47469e-60,24.8167,222.292,0.202374
59.2851,62.0904,-3.72891e-61,24.8167,222.292,0.202374
60.2851,62.0904,-3.10742e-62,24.8167,222.292,0.202374
61.2851,62.0904,-2.58952e-63,24.8167,222.292,0.202374
62.2851,62.0904,-2.15793e-64,24.8167,222.292,0.202374
63.2851,62.0904,-1.79828e-65,24.8167,222.292,0.202374
64.2851,62.0904,-1.49856e-66,24.8167,222.292,0.202374
65.2851,62.0904,-1.2488e-67,24.8167,222.292,0.202374
66.2851,62.0904,-1.04067e-68,24.8167,222.292,0.202374
67.2851,62.0904,-8.67225e-70,24.8167,222.292,0.202374
68.2851,62.0904,-7.22687e-71,24.8167,222.292,0.202374
69.2851,62.0904,-6.02239e-72,24.8167,222.292,0.202374
70.2851,62.0904,-5.01866e-73,24.8167,222.292,0.202374
71.2851,62.0904,-4.18222e-74,24.8167,222.292,0.202374
72.2851,62.0904,-3.48518e-75,24.8167,222.292,0.202374
73.2851,62.0904,-2.90432e-76,24.8167,222.292,0.202374
74.2851,62.0904,-2.42026e-77,24.8167,222.292,0.202374
75.2851,62.0904,-2.01689e-78,24.8167,222.292,0.202374
76.2851,62.0904,-1.68074e-79,24.8167,222.292,0.202374
77.2851,62.0904,-1.40062e-80,24.8167,222.292,0.202374
78.2851,62.0904,-1.16718e-81,24.8167,222.292,0.202374
79.2851,62.0904,-9.7265e-83,24.8167,222.292,0.202374
80.2851,62.0904,-8.10542e-84,24.8167,222.292,0.202374
81.2851,62.0904,-6.75451e-85,24.8167,222.292,0.202374
82.2851,62.0904,-5.62876e-86,24.8167,222.292,0.202374
83.2851,62.0904,-4.69064e-87,24.8167,222.292,0.202374
84.2851,62.0904,-3.90886e-88,24.8167,222.292,0.202374
85.2851,62.0904,-3.25739e-89,24.8167,222.292,0.202374
86.2851,62.0904,-2.71449e-90,24.8167,222.292,0.202374
87.2851,62.0904,-2.26207e-91,24.8167,222.292,0.202374
88.2851,62.0904,-1.88506e-92,24.8167,222.292,0.202374
89.2851,62.0904,-1.57088e-93,24.8167,222.292,0.202374
90.2851,62.0904,-1.30907e-94,24.8167,222.292,0.202374
91.2851,62.0904,-1.09089e-95,24.8167,222.292,0.202374
92.2851,62.0904,-9.09077e-97,24.8167,222.292,0.202374
93.2851,62.0904,-7.57564e-98,24.8167,222.292,0.202374
94.2851,62.0904,-6.31303e-99,24.8167,222.292,0.202374
95.2851,62.0904,-5.26086e-100,24.8167,222.292,0.202374
96.2851,62.0904,-4.38405e-101,24.8167,222.292,0.202374
97.2851,62.0904,-3.65337e-102,24.8167,222.292,0.202374
98.2851,62.0904,-3.04448e-103,24.8167,222.292,0.202374
99.2851,62.0904,-2.53707e-104,24.8167,222.292,0.202374
100,62.0904,-2.86222e-105,24.8167,222.292,0.202374
