#Time,D,C,F,B,A
0,41.6091,33.8088,146.43,0,0
3.1e-5,41.6164,33.7972,146.434,0,0
0.000383223,41.6996,33.6666,146.482,0,0
0.000926453,41.8272,33.4661,146.555,0,0
0.00407669,42.5526,32.3262,146.969,0,0
0.00785716,43.3905,31.0094,147.448,0,0
0.0116376,44.1944,29.7462,147.907,0,0
0.0166483,45.2095,28.151,148.487,0,0
0.0289521,47.4771,24.5877,149.783,0,0
0.04076,49.3829,21.5928,150.872,0,0
0.0532294,51.144,18.8253,151.879,0,0
0.0656987,52.6795,16.4125,152.756,0,0
0.0805626,54.2548,13.9369,153.656,0,0
0.104461,56.3051,10.7151,154.828,0,0
0.12836,57.8814,8.23806,155.729,0,0
0.152258,59.0933,6.33365,156.421,0,0
0.180202,60.1599,4.6576,157.031,0,0
0.214024,61.0807,3.21062,157.557,0,0
0.254371,61.8129,2.05989,157.975,0,0
0.293139,62.268,1.34474,158.235,0,0
0.331474,62.5625,0.88207,158.403,0,0
0.375196,62.7768,0.545303,158.526,0,0
0.417355,62.9055,0.342954,158.599,0,0
0.462283,62.9906,0.209225,158.648,0,0
0.5155,63.0496,0.116519,158.682,0,0
0.569506,63.0828,0.0643289,158.701,0,0
0.626272,63.1019,0.0344556,158.712,0,0
0.695031,63.1135,0.0161755,158.718,0,0
0.763943,63.119,0.00757974,158.721,0,0
0.844569,63.1218,0.003125,158.723,0,0
0.940888,63.1231,0.00108503,158.724,0,0
1.03761,63.1235,0.000374714,158.724,0,0
1.16876,63.1237,9.07541e-5,158.724,0,0
1.31259,63.1238,1.81677e-5,158.724,0,0
1.51651,63.1238,3.35031e-6,158.724,0,0
1.757,63.1238,-2.18264e-8,158.724,0,0
2.10193,63.1238,6.45407e-8,158.724,0,0
2.47809,63.1238,1.92837e-7,158.724,0,0
2.95803,63.1238,7.22929e-8,158.724,0,0
3.66801,63.1238,2.57094e-8,158.724,0,0
4.52654,63.1238,-3.6048e-7,158.724,0,0
5.52654,63.1238,-1.01045e-7,158.724,0,0
6.52654,63.1238,-2.31527e-9,158.724,0,0
7.52654,63.1238,6.6776e-8,158.724,0,0
8.52654,63.1238,1.14614e-8,158.724,0,0
9.52654,63.1238,6.02316e-7,158.724,0,0
10.5265,63.1238,-6.34169e-8,158.724,0,0
11.5265,63.1238,-2.11492e-8,158.724,0,0
12.5265,63.1238,6.36006e-10,158.724,0,0
13.5265,63.1238,2.11014e-8,158.724,0,0
14.5265,63.1238,1.08056e-8,158.724,0,0
15.5265,63.1238,7.61023e-11,158.724,0,0
16.5265,63.1238,-4.20048e-10,158.724,0,0
17.5265,63.1238,-7.02517e-11,158.724,0,0
18.5265,63.1238,5.56163e-12,158.724,0,0
19.5265,63.1238,3.69993e-12,158.724,0,0
20.5265,63.1238,3.08328e-13,158.724,0,0
21.5265,63.1238,2.5694e-14,158.724,0,0
22.5265,63.1238,2.14116e-15,158.724,0,0
23.5265,63.1238,1.7843e-16,158.724,0,0
24.5265,63.1238,1.48692e-17,158.724,0,0
25.5265,63.1238,1.2391e-18,158.724,0,0
26.5265,63.1238,1.03258e-19,158.724,0,0
27.5265,63.1238,8.60486e-21,158.724,0,0
28.5265,63.1238,7.17071e-22,158.724,0,0
29.5265,63.1238,5.9756e-23,158.724,0,0
30.5265,63.1238,4.97966e-24,158.724,0,0
31.5265,63.1238,4.14972e-25,158.724,0,0
32.5265,63.1238,3.4581e-26,158.724,0,0
33.5265,63.1238,2.88175e-27,158.724,0,0
34.5265,63.1238,2.40146e-28,158.724,0,0
35.5265,63.1238,2.00121e-29,158.724,0,0
36.5265,63.1238,1.66768e-30,158.724,0,0
37.5265,63.1238,1.38973e-31,158.724,0,0
38.5265,63.1238,1.15811e-32,158.724,0,0
39.5265,63.1238,9.65092e-34,158.724,0,0
40.5265,63.1238,8.04243e-35,158.724,0,0
41.5265,63.1238,6.70203e-36,158.724,0,0
42.5265,63.1238,5.58502e-37,158.724,0,0
43.5265,63.1238,4.65419e-38,158.724,0,0
44.5265,63.1238,3.87849e-39,158.724,0,0
45.5265,63.1238,3.23207e-40,158.724,0,0
46.5265,63.1238,2.69339e-41,158.724,0,0
47.5265,63.1238,2.2445e-42,158.724,0,0
48.5265,63.1238,1.87041e-43,158.724,0,0
49.5265,63.1238,1.55868e-44,158.724,0,0
50.5265,63.1238,1.2989e-45,158.724,0,0
51.5265,63.1238,1.08241e-46,158.724,0,0
52.5265,63.1238,9.02012e-48,158.724,0,0
53.5265,63.1238,7.51677e-49,158.724,0,0
54.5265,63.1238,6.26398e-50,158.724,0,0
55.5265,63.1238,5.21998e-51,158.724,0,0
56.5265,63.1238,4.34998e-52,158.724,0,0
57.5265,63.1238,3.62499e-53,158.724,0,0
58.5265,63.1238,3.02082e-54,158.724,0,0
59.5265,63.1238,2.51735e-55,158.724,0,0
60.5265,63.1238,2.09779e-56,158.724,0,0
61.5265,63.1238,1.74816e-57,158.724,0,0
62.5265,63.1238,1.4568e-58,158.724,0,0
63.5265,63.1238,1.214e-59,158.724,0,0
64.5265,63.1238,1.01167e-60,158.724,0,0
65.5265,63.1238,8.43056e-62,158.724,0,0
66.5265,63.1238,7.02547e-63,158.724,0,0
67.5265,63.1238,5.85455e-64,158.724,0,0
68.5265,63.1238,4.8788e-65,158.724,0,0
69.5265,63.1238,4.06566e-66,158.724,0,0
70.5265,63.1238,3.38805e-67,158.724,0,0
71.5265,63.1238,2.82338e-68,158.724,0,0
72.5265,63.1238,2.35281e-69,158.724,0,0
73.5265,63.1238,1.96068e-70,158.724,0,0
74.5265,63.1238,1.6339e-71,158.724,0,0
75.5265,63.1238,1.36158e-72,158.724,0,0
76.5265,63.1238,1.13465e-73,158.724,0,0
77.5265,63.1238,9.45543e-75,158.724,0,0
78.5265,63.1238,7.87953e-76,158.724,0,0
79.5265,63.1238,6.56627e-77,158.724,0,0
80.5265,63.1238,5.47189e-78,158.724,0,0
81.5265,63.1238,4.55991e-79,158.724,0,0
82.5265,63.1238,3.79993e-80,158.724,0,0
83.5265,63.1238,3.16661e-81,158.724,0,0
84.5265,63.1238,2.63884e-82,158.724,0,0
85.5265,63.1238,2.19903e-83,158.724,0,0
86.5265,63.1238,1.83253e-84,158.724,0,0
87.5265,63.1238,1.52711e-85,158.724,0,0
88.5265,63.1238,1.27259e-86,158.724,0,0
89.5265,63.1238,1.06049e-87,158.724,0,0
90.5265,63.1238,8.83741e-89,158.724,0,0
91.5265,63.1238,7.36451e-90,158.724,0,0
92.5265,63.1238,6.13709e-91,158.724,0,0
93.5265,63.1238,5.11424e-92,158.724,0,0
94.5265,63.1238,4.26187e-93,158.724,0,0
95.5265,63.1238,3.55156e-94,158.724,0,0
96.5265,63.1238,2.95963e-95,158.724,0,0
97.5265,63.1238,2.46636e-96,158.724,0,0
98.5265,63.1238,2.0553e-97,158.724,0,0
99.5265,63.1238,1.71275e-98,158.724,0,0
100,63.1238,2.75893e-99,158.724,0,0
