#Time,D,C,F,B,A
0,23.4871,420.161,151.626,56.2503,107.386
5.36958e-6,23.5029,420.136,151.635,56.4922,107.144
1.1924e-5,23.5221,420.106,151.646,56.7867,106.849
2.20884e-5,23.552,420.059,151.663,57.2419,106.394
7.69742e-5,23.7134,419.806,151.755,59.6661,103.97
0.000166423,23.9761,419.393,151.905,63.4963,100.14
0.000255873,24.2386,418.98,152.055,67.1818,96.4542
0.00037176,24.5782,418.447,152.249,71.7504,91.8856
0.000676719,25.47,417.045,152.759,82.7409,80.8951
0.000975979,26.3422,415.675,153.257,92.2176,71.4184
0.00129314,27.2634,414.227,153.784,101.024,62.6115
0.00185477,28.8869,411.676,154.712,113.985,49.6512
0.00246078,30.6274,408.941,155.706,124.915,38.7205
0.00306678,32.3564,406.224,156.694,133.39,30.2462
0.00368315,34.1032,403.479,157.692,140.069,23.5666
0.00455054,36.5413,399.647,159.085,147.001,16.6353
0.0056039,39.4711,395.043,160.76,152.69,10.9462
0.00629135,41.365,392.067,161.842,155.284,8.3515
0.00692086,43.0867,389.362,162.826,157.106,6.53046
0.00758407,44.8877,386.532,163.855,158.587,5.04898
0.00825412,46.694,383.693,164.887,159.735,3.90063
0.00895519,48.5697,380.746,165.959,160.652,2.98373
0.00965625,50.431,377.821,167.022,161.349,2.28706
0.0103573,52.278,374.918,168.078,161.879,1.75664
0.0111839,54.4375,371.525,169.312,162.346,1.29034
0.0121897,57.039,367.437,170.798,162.746,0.889833
0.0134565,60.2746,362.352,172.647,163.075,0.56049
0.0147021,63.4124,357.421,174.44,163.278,0.358005
0.0159889,66.6092,352.398,176.267,163.409,0.226757
0.0174956,70.2954,346.605,178.373,163.502,0.13393
0.018964,73.8295,341.052,180.393,163.555,0.0808376
0.0206144,77.734,334.916,182.624,163.59,0.0462807
0.0226241,82.3938,327.593,185.287,163.612,0.0237877
0.0245738,86.8171,320.643,187.814,163.623,0.0126453
0.0270494,92.2988,312.029,190.947,163.63,0.00578132
0.0300925,98.8354,301.757,194.682,163.634,0.00227509
0.0329936,104.867,292.279,198.128,163.635,0.000961547
0.0368167,112.526,280.242,202.506,163.636,0.000324617
0.0411167,120.765,267.296,207.213,163.636,0.000100535
0.0470726,131.552,250.345,213.377,163.636,2.33332e-5
0.0544187,143.919,230.911,220.444,163.636,2.22336e-6
0.0632403,157.508,209.557,228.209,163.636,4.2519e-7
0.0808849,181.034,172.587,241.653,163.636,-4.22016e-7
0.103278,205.013,134.906,255.355,163.636,5.04938e-7
0.126598,224.437,104.382,266.455,163.636,1.838e-7
0.150381,239.728,80.3536,275.192,163.636,-2.25997e-8
0.174164,251.499,61.8564,281.919,163.636,2.76646e-7
0.197948,260.561,47.6172,287.096,163.636,7.45605e-8
0.222045,267.616,36.5297,291.128,163.636,3.80963e-8
0.256568,274.961,24.9874,295.325,163.636,2.78325e-7
0.291812,280.071,16.9573,298.246,163.636,-6.98301e-8
0.328957,283.691,11.2695,300.314,163.636,1.90253e-7
0.366103,286.096,7.48951,301.688,163.636,3.36533e-7
0.403249,287.695,4.97739,302.602,163.636,-3.08779e-7
0.440394,288.757,3.30789,303.209,163.636,2.11961e-7
0.47754,289.463,2.19836,303.612,163.636,3.64185e-7
0.515522,289.941,1.44761,303.885,163.636,-9.28089e-7
0.554254,290.261,0.945408,304.068,163.636,4.84572e-7
0.594529,290.476,0.607044,304.191,163.636,2.83331e-8
0.636645,290.619,0.381968,304.273,163.636,-2.58619e-6
0.680262,290.712,0.236409,304.326,163.636,2.19658e-6
0.726361,290.772,0.142378,304.36,163.636,-2.33965e-6
0.771243,290.807,0.0869043,304.38,163.636,2.40121e-7
0.809795,290.826,0.0568682,304.391,163.636,1.80377e-6
0.857669,290.841,0.0335872,304.4,163.636,1.09026e-6
0.918481,290.851,0.0172077,304.406,163.636,2.05783e-7
0.986552,290.857,0.00813975,304.409,163.636,-4.01838e-8
1.06845,290.86,0.00330954,304.411,163.636,-1.01323e-7
1.16041,290.862,0.00120538,304.411,163.636,-1.30821e-7
1.26966,290.862,0.000364802,304.412,163.636,-1.35097e-7
1.40155,290.862,8.76868e-5,304.412,163.636,-1.41156e-7
1.54205,290.862,1.83719e-5,304.412,163.636,-1.41002e-7
1.71782,290.862,1.89389e-6,304.412,163.636,-1.40148e-7
2.0422,290.862,-1.13239e-6,304.412,163.636,-1.41387e-7
2.43592,290.862,7.02195e-8,304.412,163.636,-1.41834e-7
3.12784,290.862,1.00865e-7,304.412,163.636,-1.41295e-7
4.12784,290.862,-3.75535e-8,304.412,163.636,-1.40964e-7
5.12784,290.862,-2.74356e-8,304.412,163.636,-1.41107e-7
6.12784,290.862,3.64052e-9,304.412,163.636,-1.41018e-7
7.12784,290.862,-7.40266e-9,304.412,163.636,-1.41026e-7
8.12784,290.862,4.90638e-9,304.412,163.636,-1.41028e-7
9.12784,290.862,-4.89921e-9,304.412,163.636,-1.41028e-7
10.1278,290.862,-9.80129e-10,304.412,163.636,-1.41028e-7
11.1278,290.862,3.91478e-11,304.412,163.636,-1.41028e-7
12.1278,290.862,4.54688e-11,304.412,163.636,-1.41028e-7
13.1278,290.862,3.78907e-12,304.412,163.636,-1.41028e-7
14.1278,290.862,3.15756e-13,304.412,163.636,-1.41028e-7
15.1278,290.862,2.6313e-14,304.412,163.636,-1.41028e-7
16.1278,290.862,2.19275e-15,304.412,163.636,-1.41028e-7
17.1278,290.862,1.82729e-16,304.412,163.636,-1.41028e-7
18.1278,290.862,1.52274e-17,304.412,163.636,-1.41028e-7
19.1278,290.862,1.26895e-18,304.412,163.636,-1.41028e-7
20.1278,290.862,1.05746e-19,304.412,163.636,-1.41028e-7
21.1278,290.862,8.81216e-21,304.412,163.636,-1.41028e-7
22.1278,290.862,7.34347e-22,304.412,163.636,-1.41028e-7
23.1278,290.862,6.11956e-23,304.412,163.636,-1.41028e-7
24.1278,290.862,5.09963e-24,304.412,163.636,-1.41028e-7
25.1278,290.862,4.24969e-25,304.412,163.636,-1.41028e-7
26.1278,290.862,3.54141e-26,304.412,163.636,-1.41028e-7
27.1278,290.862,2.95117e-27,304.412,163.636,-1.41028e-7
28.1278,290.862,2.45931e-28,304.412,163.636,-1.41028e-7
29.1278,290.862,2.04943e-29,304.412,163.636,-1.41028e-7
30.1278,290.862,1.70786e-30,304.412,163.636,-1.41028e-7
31.1278,290.862,1.42321e-31,304.412,163.636,-1.41028e-7
32.1278,290.862,1.18601e-32,304.412,163.636,-1.41028e-7
33.1278,290.862,9.88342e-34,304.412,163.636,-1.41028e-7
34.1278,290.862,8.23619e-35,304.412,163.636,-1.41028e-7
35.1278,290.862,6.86349e-36,304.412,163.636,-1.41028e-7
36.1278,290.862,5.71957e-37,304.412,163.636,-1.41028e-7
37.1278,290.862,4.76631e-38,304.412,163.636,-1.41028e-7
38.1278,290.862,3.97193e-39,304.412,163.636,-1.41028e-7
39.1278,290.862,3.30994e-40,304.412,163.636,-1.41028e-7
40.1278,290.862,2.75828e-41,304.412,163.636,-1.41028e-7
41.1278,290.862,2.29857e-42,304.412,163.636,-1.41028e-7
42.1278,290.862,1.91547e-43,304.412,163.636,-1.41028e-7
43.1278,290.862,1.59623e-44,304.412,163.636,-1.41028e-7
44.1278,290.862,1.33019e-45,304.412,163.636,-1.41028e-7
45.1278,290.862,1.10849e-46,304.412,163.636,-1.41028e-7
46.1278,290.862,9.23743e-48,304.412,163.636,-1.41028e-7
47.1278,290.862,7.69786e-49,304.412,163.636,-1.41028e-7
48.1278,290.862,6.41488e-50,304.412,163.636,-1.41028e-7
49.1278,290.862,5.34574e-51,304.412,163.636,-1.41028e-7
50.1278,290.862,4.45478e-52,304.412,163.636,-1.41028e-7
51.1278,290.862,3.71232e-53,304.412,163.636,-1.41028e-7
52.1278,290.862,3.0936e-54,304.412,163.636,-1.41028e-7
53.1278,290.862,2.578e-55,304.412,163.636,-1.41028e-7
54.1278,290.862,2.14833e-56,304.412,163.636,-1.41028e-7
55.1278,290.862,1.79028e-57,304.412,163.636,-1.41028e-7
56.1278,290.862,1.4919e-58,304.412,163.636,-1.41028e-7
57.1278,290.862,1.24325e-59,304.412,163.636,-1.41028e-7
58.1278,290.862,1.03604e-60,304.412,163.636,-1.41028e-7
59.1278,290.862,8.63366e-62,304.412,163.636,-1.41028e-7
60.1278,290.862,7.19472e-63,304.412,163.636,-1.41028e-7
61.1278,290.862,5.9956e-64,304.412,163.636,-1.41028e-7
62.1278,290.862,4.99633e-65,304.412,163.636,-1.41028e-7
63.1278,290.862,4.16361e-66,304.412,163.636,-1.41028e-7
64.1278,290.862,3.46967e-67,304.412,163.636,-1.41028e-7
65.1278,290.862,2.8914e-68,304.412,163.636,-1.41028e-7
66.1278,290.862,2.4095e-69,304.412,163.636,-1.41028e-7
67.1278,290.862,2.00791e-70,304.412,163.636,-1.41028e-7
68.1278,290.862,1.67326e-71,304.412,163.636,-1.41028e-7
69.1278,290.862,1.39438e-72,304.412,163.636,-1.41028e-7
70.1278,290.862,1.16199e-73,304.412,163.636,-1.41028e-7
71.1278,290.862,9.68323e-75,304.412,163.636,-1.41028e-7
72.1278,290.862,8.06935e-76,304.412,163.636,-1.41028e-7
73.1278,290.862,6.72446e-77,304.412,163.636,-1.41028e-7
74.1278,290.862,5.60372e-78,304.412,163.636,-1.41028e-7
75.1278,290.862,4.66977e-79,304.412,163.636,-1.41028e-7
76.1278,290.862,3.89147e-80,304.412,163.636,-1.41028e-7
77.1278,290.862,3.24289e-81,304.412,163.636,-1.41028e-7
78.1278,290.862,2.70241e-82,304.412,163.636,-1.41028e-7
79.1278,290.862,2.25201e-83,304.412,163.636,-1.41028e-7
80.1278,290.862,1.87667e-84,304.412,163.636,-1.41028e-7
81.1278,290.862,1.56389e-85,304.412,163.636,-1.41028e-7
82.1278,290.862,1.30325e-86,304.412,163.636,-1.41028e-7
83.1278,290.862,1.08604e-87,304.412,163.636,-1.41028e-7
84.1278,290.862,9.05032e-89,304.412,163.636,-1.41028e-7
85.1278,290.862,7.54193e-90,304.412,163.636,-1.41028e-7
86.1278,290.862,6.28494e-91,304.412,163.636,-1.41028e-7
87.1278,290.862,5.23745e-92,304.412,163.636,-1.41028e-7
88.1278,290.862,4.36454e-93,304.412,163.636,-1.41028e-7
89.1278,290.862,3.63712e-94,304.412,163.636,-1.41028e-7
90.1278,290.862,3.03093e-95,304.412,163.636,-1.41028e-7
91.1278,290.862,2.52578e-96,304.412,163.636,-1.41028e-7
92.1278,290.862,2.10481e-97,304.412,163.636,-1.41028e-7
93.1278,290.862,1.75401e-98,304.412,163.636,-1.41028e-7
94.1278,290.862,1.46168e-99,304.412,163.636,-1.41028e-7
95.1278,290.862,1.21806e-100,304.412,163.636,-1.41028e-7
96.1278,290.862,1.01505e-101,304.412,163.636,-1.41028e-7
97.1278,290.862,8.45878e-103,304.412,163.636,-1.41028e-7
98.1278,290.862,7.04898e-104,304.412,163.636,-1.41028e-7
99.1278,290.862,5.87415e-105,304.412,163.636,-1.41028e-7
100,290.862,-5.42626e-105,304.412,163.636,-1.41028e-7
