#Time,D,C,F,B,A
0,217.363,132.336,94.0553,0,36.0546
4.08571e-6,217.367,132.33,94.0574,0.0194866,36.0351
8.71428e-6,217.371,132.323,94.0599,0.0415482,36.0131
1.5963e-5,217.378,132.313,94.0637,0.0760723,35.9785
5.16001e-5,217.411,132.261,94.0826,0.245287,35.8093
0.000173758,217.524,132.083,94.1472,0.818821,35.2358
0.000284667,217.626,131.922,94.2057,1.33093,34.7237
0.000442287,217.772,131.694,94.2888,2.04489,34.0097
0.0010035,218.287,130.883,94.5835,4.46064,31.594
0.00161585,218.846,130.004,94.9031,6.88611,29.1685
0.00230545,219.472,129.022,95.2603,9.3782,26.6764
0.00304425,220.136,127.978,95.64,11.7942,24.2604
0.0038475,220.853,126.852,96.0494,14.1543,21.9003
0.00471219,221.617,125.651,96.4861,16.4192,19.6354
0.00563899,222.428,124.377,96.9495,18.5673,17.4873
0.00656579,223.231,123.115,97.4083,20.4621,15.5925
0.0075372,224.063,121.807,97.8841,22.2108,13.8438
0.0085309,224.906,120.482,98.3656,23.7809,12.2737
0.00952461,225.739,119.173,98.8419,25.1587,10.8959
0.0110678,227.016,117.167,99.5713,26.975,9.07964
0.0130443,228.62,114.647,100.488,28.8339,7.22066
0.0150208,230.189,112.181,101.384,30.2839,5.77066
0.0169974,231.724,109.768,102.262,31.4205,4.63413
0.0190555,233.288,107.311,103.155,32.3482,3.70642
0.0211473,234.841,104.87,104.043,33.0858,2.96877
0.0233067,236.407,102.409,104.938,33.6811,2.37349
0.0255447,237.992,99.9182,105.844,34.162,1.89262
0.027862,239.593,97.4034,106.758,34.5488,1.50583
0.0302687,241.212,94.8586,107.683,34.8598,1.19481
0.0328345,242.892,92.2188,108.643,35.1147,0.939881
0.0354698,244.569,89.5839,109.601,35.3149,0.739679
0.0383034,246.318,86.8347,110.601,35.4785,0.576097
0.0412735,248.094,84.0435,111.616,35.6076,0.446985
0.0443848,249.894,81.2159,112.644,35.7089,0.345662
0.0477964,251.797,78.2245,113.732,35.7912,0.263355
0.0513436,253.702,75.231,114.821,35.854,0.200607
0.0552792,255.731,72.0436,115.98,35.9045,0.15014
0.059507,257.814,68.7699,117.17,35.9431,0.11149
0.0640389,259.942,65.4257,118.386,35.9723,0.0822602
0.0692749,262.272,61.7639,119.718,35.9956,0.0589653
0.0748568,264.613,58.0856,121.055,36.0124,0.0422035
0.081326,267.152,54.0959,122.506,36.0252,0.0293621
0.0883567,269.714,50.0699,123.97,36.0342,0.0203607
0.0964666,272.433,45.7967,125.524,36.0408,0.013804
0.105934,275.316,41.267,127.171,36.0455,0.00914256
0.116467,278.189,36.7526,128.813,36.0485,0.00606308
0.129621,281.339,31.8016,130.613,36.0507,0.00386336
0.144537,284.402,26.989,132.363,36.0521,0.00249286
0.163751,287.674,21.8474,134.233,36.053,0.00156002
0.186423,290.742,17.025,135.986,36.0536,0.00100527
0.211507,293.355,12.9197,137.479,36.0539,0.000691464
0.236591,295.337,9.80432,138.612,36.0541,0.000520819
0.261676,296.842,7.44017,139.472,36.0542,0.000420078
0.292814,298.215,5.28239,140.257,36.0543,0.000345322
0.327794,299.289,3.5952,140.87,36.0543,0.000296255
0.366494,300.082,2.34879,141.323,36.0543,0.00026453
0.405901,300.608,1.52263,141.624,36.0544,0.000245394
0.445307,300.948,0.987062,141.818,36.0544,0.000233734
0.485647,301.174,0.633337,141.947,36.0544,0.000226338
0.527065,301.321,0.40158,142.031,36.0544,0.000221619
0.571833,301.42,0.24542,142.088,36.0544,0.000218495
0.618132,301.483,0.147482,142.124,36.0544,0.000216559
0.66962,301.523,0.0837109,142.147,36.0544,0.000215307
0.723121,301.547,0.0464743,142.161,36.0544,0.000214579
0.784309,301.561,0.0237113,142.169,36.0544,0.000214136
0.850559,301.569,0.0114427,142.173,36.0544,0.000213897
0.926491,301.573,0.00496618,142.176,36.0544,0.000213771
1.01305,301.575,0.00191852,142.177,36.0544,0.000213712
1.11129,301.576,0.000653245,142.177,36.0544,0.000213687
1.2321,301.576,0.000175138,142.177,36.0544,0.000213678
1.36379,301.577,4.15846e-5,142.177,36.0544,0.000213675
1.5563,301.577,5.95605e-6,142.177,36.0544,0.000213674
1.76472,301.577,1.38949e-7,142.177,36.0544,0.000213674
2.03439,301.577,2.80047e-7,142.177,36.0544,0.000213674
2.45074,301.577,3.29938e-7,142.177,36.0544,0.000213674
3.00752,301.577,-1.30624e-8,142.177,36.0544,0.000213674
4.00752,301.577,-3.34645e-7,142.177,36.0544,0.000213675
4.94382,301.577,2.24562e-7,142.177,36.0544,0.000213674
5.94382,301.577,-1.7173e-8,142.177,36.0544,0.000213675
6.94382,301.577,6.25329e-8,142.177,36.0544,0.000213674
7.84777,301.577,1.92906e-7,142.177,36.0544,0.000213675
8.84777,301.577,-9.55337e-9,142.177,36.0544,0.000213674
9.84777,301.577,-9.50637e-9,142.177,36.0544,0.000213675
10.8478,301.577,1.07899e-8,142.177,36.0544,0.000213674
11.8478,301.577,-2.32867e-8,142.177,36.0544,0.000213674
12.8478,301.577,4.86046e-8,142.177,36.0544,0.000213674
13.8478,301.577,-1.53855e-8,142.177,36.0544,0.000213674
14.8478,301.577,1.84787e-9,142.177,36.0544,0.000213674
15.8478,301.577,1.53989e-10,142.177,36.0544,0.000213674
16.8478,301.577,1.28325e-11,142.177,36.0544,0.000213674
17.8478,301.577,1.06937e-12,142.177,36.0544,0.000213674
18.8478,301.577,8.91142e-14,142.177,36.0544,0.000213674
19.8478,301.577,7.42619e-15,142.177,36.0544,0.000213674
20.8478,301.577,6.18849e-16,142.177,36.0544,0.000213674
21.8478,301.577,5.15707e-17,142.177,36.0544,0.000213674
22.8478,301.577,4.29756e-18,142.177,36.0544,0.000213674
23.8478,301.577,3.5813e-19,142.177,36.0544,0.000213674
24.8478,301.577,2.98442e-20,142.177,36.0544,0.000213674
25.8478,301.577,2.48701e-21,142.177,36.0544,0.000213674
26.8478,301.577,2.07251e-22,142.177,36.0544,0.000213674
27.8478,301.577,1.72709e-23,142.177,36.0544,0.000213674
28.8478,301.577,1.43924e-24,142.177,36.0544,0.000213674
29.8478,301.577,1.19937e-25,142.177,36.0544,0.000213674
30.8478,301.577,9.99475e-27,142.177,36.0544,0.000213674
31.8478,301.577,8.32896e-28,142.177,36.0544,0.000213674
32.8478,301.577,6.9408e-29,142.177,36.0544,0.000213674
33.8478,301.577,5.784e-30,142.177,36.0544,0.000213674
34.8478,301.577,4.82e-31,142.177,36.0544,0.000213674
35.8478,301.577,4.01667e-32,142.177,36.0544,0.000213674
36.8478,301.577,3.34722e-33,142.177,36.0544,0.000213674
37.8478,301.577,2.78935e-34,142.177,36.0544,0.000213674
38.8478,301.577,2.32446e-35,142.177,36.0544,0.000213674
39.8478,301.577,1.93705e-36,142.177,36.0544,0.000213674
40.8478,301.577,1.61421e-37,142.177,36.0544,0.000213674
41.8478,301.577,1.34517e-38,142.177,36.0544,0.000213674
42.8478,301.577,1.12098e-39,142.177,36.0544,0.000213674
43.8478,301.577,9.34149e-41,142.177,36.0544,0.000213674
44.8478,301.577,7.78457e-42,142.177,36.0544,0.000213674
45.8478,301.577,6.48714e-43,142.177,36.0544,0.000213674
46.8478,301.577,5.40595e-44,142.177,36.0544,0.000213674
47.8478,301.577,4.50496e-45,142.177,36.0544,0.000213674
48.8478,301.577,3.75413e-46,142.177,36.0544,0.000213674
49.8478,301.577,3.12844e-47,142.177,36.0544,0.000213674
50.8478,301.577,2.60704e-48,142.177,36.0544,0.000213674
51.8478,301.577,2.17253e-49,142.177,36.0544,0.000213674
52.8478,301.577,1.81044e-50,142.177,36.0544,0.000213674
53.8478,301.577,1.5087e-51,142.177,36.0544,0.000213674
54.8478,301.577,1.25725e-52,142.177,36.0544,0.000213674
55.8478,301.577,1.04771e-53,142.177,36.0544,0.000213674
56.8478,301.577,8.73091e-55,142.177,36.0544,0.000213674
57.8478,301.577,7.27576e-56,142.177,36.0544,0.000213674
58.8478,301.577,6.06314e-57,142.177,36.0544,0.000213674
59.8478,301.577,5.05261e-58,142.177,36.0544,0.000213674
60.8478,301.577,4.21051e-59,142.177,36.0544,0.000213674
61.8478,301.577,3.50876e-60,142.177,36.0544,0.000213674
62.8478,301.577,2.92397e-61,142.177,36.0544,0.000213674
63.8478,301.577,2.43664e-62,142.177,36.0544,0.000213674
64.8478,301.577,2.03053e-63,142.177,36.0544,0.000213674
65.8478,301.577,1.69211e-64,142.177,36.0544,0.000213674
66.8478,301.577,1.41009e-65,142.177,36.0544,0.000213674
67.8478,301.577,1.17508e-66,142.177,36.0544,0.000213674
68.8478,301.577,9.7923e-68,142.177,36.0544,0.000213674
69.8478,301.577,8.16025e-69,142.177,36.0544,0.000213674
70.8478,301.577,6.80021e-70,142.177,36.0544,0.000213674
71.8478,301.577,5.66684e-71,142.177,36.0544,0.000213674
72.8478,301.577,4.72237e-72,142.177,36.0544,0.000213674
73.8478,301.577,3.93531e-73,142.177,36.0544,0.000213674
74.8478,301.577,3.27942e-74,142.177,36.0544,0.000213674
75.8478,301.577,2.73285e-75,142.177,36.0544,0.000213674
76.8478,301.577,2.27738e-76,142.177,36.0544,0.000213674
77.8478,301.577,1.89781e-77,142.177,36.0544,0.000213674
78.8478,301.577,1.58151e-78,142.177,36.0544,0.000213674
79.8478,301.577,1.31793e-79,142.177,36.0544,0.000213674
80.8478,301.577,1.09827e-80,142.177,36.0544,0.000213674
81.8478,301.577,9.15227e-82,142.177,36.0544,0.000213674
82.8478,301.577,7.62689e-83,142.177,36.0544,0.000213674
83.8478,301.577,6.35574e-84,142.177,36.0544,0.000213674
84.8478,301.577,5.29645e-85,142.177,36.0544,0.000213674
85.8478,301.577,4.41371e-86,142.177,36.0544,0.000213674
86.8478,301.577,3.67809e-87,142.177,36.0544,0.000213674
87.8478,301.577,3.06508e-88,142.177,36.0544,0.000213674
88.8478,301.577,2.55423e-89,142.177,36.0544,0.000213674
89.8478,301.577,2.12852e-90,142.177,36.0544,0.000213674
90.8478,301.577,1.77377e-91,142.177,36.0544,0.000213674
91.8478,301.577,1.47814e-92,142.177,36.0544,0.000213674
92.8478,301.577,1.23178e-93,142.177,36.0544,0.000213674
93.8478,301.577,1.02649e-94,142.177,36.0544,0.000213674
94.8478,301.577,8.55406e-96,142.177,36.0544,0.000213674
95.8478,301.577,7.12839e-97,142.177,36.0544,0.000213674
96.8478,301.577,5.94032e-98,142.177,36.0544,0.000213674
97.8478,301.577,4.95027e-99,142.177,36.0544,0.000213674
98.8478,301.577,4.12522e-100,142.177,36.0544,0.000213674
99.8478,301.577,3.43769e-101,142.177,36.0544,0.000213674
100,301.577,1.28535e-101,142.177,36.0544,0.000213674
