#Time,D,C,F,B,A
0,89.4328,15.9121,247.212,58.7356,69.9077
3.1e-5,89.4363,15.9067,247.213,58.7701,69.8733
0.000201691,89.4552,15.8769,247.224,58.9592,69.6841
0.000466126,89.4846,15.8307,247.241,59.2507,69.3926
0.00170142,89.6206,15.6171,247.319,60.5856,68.0578
0.00355418,89.821,15.302,247.433,62.5074,66.1359
0.00540694,90.0175,14.9933,247.546,64.3379,64.3055
0.00780197,90.2656,14.6035,247.687,66.577,62.0663
0.0131078,90.7924,13.7755,247.988,71.0768,57.5666
0.018323,91.2812,13.0075,248.268,74.9588,53.6845
0.0239094,91.7745,12.2323,248.55,78.6121,50.0313
0.0336884,92.5684,10.9848,249.003,83.9764,44.667
0.0439864,93.317,9.80831,249.431,88.507,40.1363
0.0565404,94.1221,8.5432,249.891,92.8677,35.7756
0.0690944,94.8233,7.44128,250.292,96.278,32.3654
0.0824107,95.4686,6.42735,250.661,99.128,29.5153
0.0965491,96.0577,5.50161,250.997,101.51,27.133
0.111969,96.6039,4.64327,251.309,103.547,25.0962
0.128916,97.1064,3.8536,251.596,105.286,23.3576
0.146927,97.5472,3.16098,251.848,106.711,21.9322
0.167251,97.9502,2.5277,252.079,107.938,20.7052
0.189006,98.2925,1.98976,252.274,108.926,19.7169
0.213265,98.5891,1.52373,252.444,109.744,18.899
0.239442,98.8317,1.14248,252.582,110.388,18.2551
0.265999,99.0158,0.853052,252.688,110.862,17.7811
0.293299,99.1567,0.631763,252.768,111.216,17.4269
0.321344,99.2634,0.464059,252.829,111.48,17.1632
0.351202,99.3461,0.33414,252.876,111.682,16.9617
0.382253,99.4076,0.237458,252.911,111.83,16.8133
0.414536,99.4528,0.166477,252.937,111.938,16.7051
0.449649,99.4867,0.113136,252.957,112.019,16.6243
0.486048,99.5105,0.0758054,252.97,112.075,16.568
0.526173,99.5277,0.0487516,252.98,112.116,16.5273
0.56921,99.5394,0.030364,252.987,112.144,16.4997
0.615269,99.5471,0.0182926,252.991,112.162,16.4816
0.66862,99.5522,0.0101695,252.994,112.174,16.4694
0.725632,99.5552,0.00542987,252.996,112.181,16.4624
0.792571,99.557,0.00259808,252.997,112.185,16.4581
0.866137,99.558,0.00115521,252.997,112.187,16.456
0.953225,99.5584,0.00044151,252.998,112.188,16.4549
1.05922,99.5586,0.000136193,252.998,112.189,16.4544
1.18454,99.5587,3.32292e-5,252.998,112.189,16.4543
1.35985,99.5587,3.62452e-6,252.998,112.189,16.4542
1.56791,99.5587,-1.51772e-8,252.998,112.189,16.4542
2.00136,99.5587,-9.47756e-7,252.998,112.189,16.4542
2.51067,99.5587,2.89533e-7,252.998,112.189,16.4542
3.51067,99.5587,-9.57059e-8,252.998,112.189,16.4542
4.51067,99.5587,9.7321e-10,252.998,112.189,16.4542
5.51067,99.5587,1.12651e-9,252.998,112.189,16.4542
6.51067,99.5587,-2.63735e-8,252.998,112.189,16.4542
7.51067,99.5587,5.67684e-8,252.998,112.189,16.4542
8.51067,99.5587,1.01379e-8,252.998,112.189,16.4542
9.51067,99.5587,-6.48674e-10,252.998,112.189,16.4542
10.5107,99.5587,-5.09303e-10,252.998,112.189,16.4542
11.5107,99.5587,-4.24419e-11,252.998,112.189,16.4542
12.5107,99.5587,-3.53683e-12,252.998,112.189,16.4542
13.5107,99.5587,-2.94736e-13,252.998,112.189,16.4542
14.5107,99.5587,-2.45613e-14,252.998,112.189,16.4542
15.5107,99.5587,-2.04678e-15,252.998,112.189,16.4542
16.5107,99.5587,-1.70565e-16,252.998,112.189,16.4542
17.5107,99.5587,-1.42137e-17,252.998,112.189,16.4542
18.5107,99.5587,-1.18448e-18,252.998,112.189,16.4542
19.5107,99.5587,-9.87064e-20,252.998,112.189,16.4542
20.5107,99.5587,-8.22553e-21,252.998,112.189,16.4542
21.5107,99.5587,-6.85461e-22,252.998,112.189,16.4542
22.5107,99.5587,-5.71218e-23,252.998,112.189,16.4542
23.5107,99.5587,-4.76015e-24,252.998,112.189,16.4542
24.5107,99.5587,-3.96679e-25,252.998,112.189,16.4542
25.5107,99.5587,-3.30566e-26,252.998,112.189,16.4542
26.5107,99.5587,-2.75471e-27,252.998,112.189,16.4542
27.5107,99.5587,-2.2956e-28,252.998,112.189,16.4542
28.5107,99.5587,-1.913e-29,252.998,112.189,16.4542
29.5107,99.5587,-1.59416e-30,252.998,112.189,16.4542
30.5107,99.5587,-1.32847e-31,252.998,112.189,16.4542
31.5107,99.5587,-1.10706e-32,252.998,112.189,16.4542
32.5107,99.5587,-9.22548e-34,252.998,112.189,16.4542
33.5107,99.5587,-7.6879e-35,252.998,112.189,16.4542
34.5107,99.5587,-6.40658e-36,252.998,112.189,16.4542
35.5107,99.5587,-5.33882e-37,252.998,112.189,16.4542
36.5107,99.5587,-4.44902e-38,252.998,112.189,16.4542
37.5107,99.5587,-3.70751e-39,252.998,112.189,16.4542
38.5107,99.5587,-3.0896e-40,252.998,112.189,16.4542
39.5107,99.5587,-2.57466e-41,252.998,112.189,16.4542
40.5107,99.5587,-2.14555e-42,252.998,112.189,16.4542
41.5107,99.5587,-1.78796e-43,252.998,112.189,16.4542
42.5107,99.5587,-1.48997e-44,252.998,112.189,16.4542
43.5107,99.5587,-1.24164e-45,252.998,112.189,16.4542
44.5107,99.5587,-1.0347e-46,252.998,112.189,16.4542
45.5107,99.5587,-8.62249e-48,252.998,112.189,16.4542
46.5107,99.5587,-7.18541e-49,252.998,112.189,16.4542
47.5107,99.5587,-5.98784e-50,252.998,112.189,16.4542
48.5107,99.5587,-4.98987e-51,252.998,112.189,16.4542
49.5107,99.5587,-4.15822e-52,252.998,112.189,16.4542
50.5107,99.5587,-3.46519e-53,252.998,112.189,16.4542
51.5107,99.5587,-2.88766e-54,252.998,112.189,16.4542
52.5107,99.5587,-2.40638e-55,252.998,112.189,16.4542
53.5107,99.5587,-2.00532e-56,252.998,112.189,16.4542
54.5107,99.5587,-1.6711e-57,252.998,112.189,16.4542
55.5107,99.5587,-1.39258e-58,252.998,112.189,16.4542
56.5107,99.5587,-1.16048e-59,252.998,112.189,16.4542
57.5107,99.5587,-9.6707e-61,252.998,112.189,16.4542
58.5107,99.5587,-8.05892e-62,252.998,112.189,16.4542
59.5107,99.5587,-6.71576e-63,252.998,112.189,16.4542
60.5107,99.5587,-5.59647e-64,252.998,112.189,16.4542
61.5107,99.5587,-4.66372e-65,252.998,112.189,16.4542
62.5107,99.5587,-3.88644e-66,252.998,112.189,16.4542
63.5107,99.5587,-3.2387e-67,252.998,112.189,16.4542
64.5107,99.5587,-2.69891e-68,252.998,112.189,16.4542
65.5107,99.5587,-2.2491e-69,252.998,112.189,16.4542
66.5107,99.5587,-1.87425e-70,252.998,112.189,16.4542
67.5107,99.5587,-1.56187e-71,252.998,112.189,16.4542
68.5107,99.5587,-1.30156e-72,252.998,112.189,16.4542
69.5107,99.5587,-1.08463e-73,252.998,112.189,16.4542
70.5107,99.5587,-9.03861e-75,252.998,112.189,16.4542
71.5107,99.5587,-7.53218e-76,252.998,112.189,16.4542
72.5107,99.5587,-6.27681e-77,252.998,112.189,16.4542
73.5107,99.5587,-5.23068e-78,252.998,112.189,16.4542
74.5107,99.5587,-4.3589e-79,252.998,112.189,16.4542
75.5107,99.5587,-3.63242e-80,252.998,112.189,16.4542
76.5107,99.5587,-3.02701e-81,252.998,112.189,16.4542
77.5107,99.5587,-2.52251e-82,252.998,112.189,16.4542
78.5107,99.5587,-2.10209e-83,252.998,112.189,16.4542
79.5107,99.5587,-1.75174e-84,252.998,112.189,16.4542
80.5107,99.5587,-1.45979e-85,252.998,112.189,16.4542
81.5107,99.5587,-1.21649e-86,252.998,112.189,16.4542
82.5107,99.5587,-1.01374e-87,252.998,112.189,16.4542
83.5107,99.5587,-8.44784e-89,252.998,112.189,16.4542
84.5107,99.5587,-7.03986e-90,252.998,112.189,16.4542
85.5107,99.5587,-5.86655e-91,252.998,112.189,16.4542
86.5107,99.5587,-4.88879e-92,252.998,112.189,16.4542
87.5107,99.5587,-4.074e-93,252.998,112.189,16.4542
88.5107,99.5587,-3.395e-94,252.998,112.189,16.4542
89.5107,99.5587,-2.82916e-95,252.998,112.189,16.4542
90.5107,99.5587,-2.35764e-96,252.998,112.189,16.4542
91.5107,99.5587,-1.9647e-97,252.998,112.189,16.4542
92.5107,99.5587,-1.63725e-98,252.998,112.189,16.4542
93.5107,99.5587,-1.36437e-99,252.998,112.189,16.4542
94.5107,99.5587,-1.13698e-100,252.998,112.189,16.4542
95.5107,99.5587,-9.47481e-102,252.998,112.189,16.4542
96.5107,99.5587,-7.89568e-103,252.998,112.189,16.4542
97.5107,99.5587,-6.57973e-104,252.998,112.189,16.4542
98.5107,99.5587,-5.48311e-105,252.998,112.189,16.4542
99.5107,99.5587,-4.56926e-106,252.998,112.189,16.4542
100,99.5587,-7.15887e-107,252.998,112.189,16.4542
