#Time,D,C,F,B,A
0,0,40.1565,0,122.781,135.997
2.89094e-5,0.00812417,40.1438,0.00464238,122.938,135.839
9.76377e-5,0.0274275,40.1134,0.0156729,123.312,135.465
0.000204863,0.0575173,40.0661,0.032867,123.893,134.884
0.000730228,0.204438,39.8353,0.116821,126.695,132.083
0.00166535,0.463857,39.4276,0.265061,131.501,127.277
0.00252196,0.699166,39.0578,0.399523,135.708,123.069
0.00365293,1.00646,38.5749,0.575122,140.994,117.783
0.00628567,1.70717,37.4738,0.975527,152.213,106.564
0.00881868,2.36245,36.4441,1.34997,161.736,97.0417
0.0115092,3.03876,35.3813,1.73643,170.673,88.105
0.0141996,3.69534,34.3496,2.11162,178.561,80.2169
0.0175741,4.49184,33.0979,2.56677,187.188,71.5895
0.022629,5.63103,31.3078,3.21773,197.94,60.8373
0.0281605,6.80715,29.4596,3.8898,207.349,51.428
0.0343579,8.04256,27.5182,4.59575,215.67,43.1072
0.0405552,9.19655,25.7048,5.25517,222.222,36.5555
0.0467525,10.2745,24.0109,5.87114,227.439,31.3381
0.0532339,11.3259,22.3586,6.47196,231.81,26.9673
0.0599566,12.3401,20.7649,7.05151,235.448,23.3299
0.0671576,13.3465,19.1835,7.62655,238.572,20.2059
0.0747165,14.3204,17.653,8.18311,241.196,17.5812
0.082635,15.2575,16.1804,8.71859,243.399,15.3783
0.0911861,16.1819,14.7278,9.2468,245.302,13.4759
0.100023,17.0501,13.3635,9.74292,246.874,11.9039
0.109651,17.9047,12.0206,10.2312,248.242,10.5359
0.119822,18.7143,10.7483,10.6939,249.392,9.38504
0.130554,19.476,9.55139,11.1291,250.36,8.41743
0.142386,20.2177,8.38579,11.553,251.206,7.5711
0.154704,20.894,7.32314,11.9394,251.904,6.87389
0.16838,21.5448,6.30037,12.3113,252.514,6.26356
0.183021,22.1412,5.36317,12.6521,253.026,5.75199
0.198668,22.6809,4.51514,12.9605,253.452,5.32519
0.216318,23.1879,3.71835,13.2502,253.824,4.95308
0.234871,23.6247,3.03193,13.4999,254.124,4.65343
0.256471,24.0328,2.39073,13.733,254.388,4.38992
0.279458,24.3727,1.85658,13.9273,254.596,4.18183
0.305272,24.6647,1.39764,14.0941,254.767,4.01094
0.331085,24.8846,1.05215,14.2198,254.891,3.88691
0.357955,25.0559,0.782908,14.3177,254.985,3.79292
0.385266,25.1852,0.579742,14.3916,255.054,3.72351
0.414456,25.2865,0.420514,14.4495,255.108,3.67
0.444145,25.3611,0.303353,14.4921,255.146,3.63112
0.476035,25.4182,0.213596,14.5247,255.176,3.60161
0.509347,25.4599,0.148063,14.5485,255.197,3.58022
0.544147,25.4899,0.100968,14.5657,255.213,3.56492
0.58249,25.512,0.066221,14.5783,255.224,3.55368
0.622432,25.527,0.0426736,14.5869,255.231,3.54608
0.66703,25.5375,0.0261255,14.5929,255.237,3.54075
0.71532,25.5444,0.0153572,14.5968,255.24,3.53728
0.769267,25.5488,0.00848147,14.5993,255.242,3.53507
0.830284,25.5514,0.00433288,14.6008,255.244,3.53374
0.89676,25.5528,0.0020838,14.6016,255.244,3.53302
0.976811,25.5536,0.000861973,14.6021,255.245,3.53262
1.06663,25.5539,0.000319745,14.6023,255.245,3.53245
1.17952,25.5541,9.07196e-5,14.6023,255.245,3.53238
1.3181,25.5541,1.88599e-5,14.6024,255.245,3.53235
1.49647,25.5541,1.96746e-6,14.6024,255.245,3.53235
1.78925,25.5541,-1.12339e-6,14.6024,255.245,3.53235
2.14114,25.5541,8.88652e-8,14.6024,255.245,3.53235
2.73782,25.5541,2.15694e-7,14.6024,255.245,3.53235
3.73782,25.5541,2.42587e-8,14.6024,255.245,3.53235
4.73782,25.5541,2.07043e-7,14.6024,255.245,3.53235
5.73782,25.5541,9.41603e-8,14.6024,255.245,3.53235
6.73782,25.5541,-2.99471e-9,14.6024,255.245,3.53235
7.73782,25.5541,-3.07393e-9,14.6024,255.245,3.53235
8.73782,25.5541,7.38679e-9,14.6024,255.245,3.53235
9.73782,25.5541,1.30484e-9,14.6024,255.245,3.53235
10.7378,25.5541,-8.66967e-11,14.6024,255.245,3.53235
11.7378,25.5541,-6.60652e-11,14.6024,255.245,3.53235
12.7378,25.5541,-5.50544e-12,14.6024,255.245,3.53235
13.7378,25.5541,-4.58786e-13,14.6024,255.245,3.53235
14.7378,25.5541,-3.82322e-14,14.6024,255.245,3.53235
15.7378,25.5541,-3.18602e-15,14.6024,255.245,3.53235
16.7378,25.5541,-2.65501e-16,14.6024,255.245,3.53235
17.7378,25.5541,-2.21251e-17,14.6024,255.245,3.53235
18.7378,25.5541,-1.84376e-18,14.6024,255.245,3.53235
19.7378,25.5541,-1.53647e-19,14.6024,255.245,3.53235
20.7378,25.5541,-1.28039e-20,14.6024,255.245,3.53235
21.7378,25.5541,-1.06699e-21,14.6024,255.245,3.53235
22.7378,25.5541,-8.89159e-23,14.6024,255.245,3.53235
23.7378,25.5541,-7.40966e-24,14.6024,255.245,3.53235
24.7378,25.5541,-6.17471e-25,14.6024,255.245,3.53235
25.7378,25.5541,-5.1456e-26,14.6024,255.245,3.53235
26.7378,25.5541,-4.288e-27,14.6024,255.245,3.53235
27.7378,25.5541,-3.57333e-28,14.6024,255.245,3.53235
28.7378,25.5541,-2.97777e-29,14.6024,255.245,3.53235
29.7378,25.5541,-2.48148e-30,14.6024,255.245,3.53235
30.7378,25.5541,-2.0679e-31,14.6024,255.245,3.53235
31.7378,25.5541,-1.72325e-32,14.6024,255.245,3.53235
32.7378,25.5541,-1.43604e-33,14.6024,255.245,3.53235
33.7378,25.5541,-1.1967e-34,14.6024,255.245,3.53235
34.7378,25.5541,-9.97251e-36,14.6024,255.245,3.53235
35.7378,25.5541,-8.31042e-37,14.6024,255.245,3.53235
36.7378,25.5541,-6.92535e-38,14.6024,255.245,3.53235
37.7378,25.5541,-5.77113e-39,14.6024,255.245,3.53235
38.7378,25.5541,-4.80927e-40,14.6024,255.245,3.53235
39.7378,25.5541,-4.00773e-41,14.6024,255.245,3.53235
40.7378,25.5541,-3.33977e-42,14.6024,255.245,3.53235
41.7378,25.5541,-2.78314e-43,14.6024,255.245,3.53235
42.7378,25.5541,-2.31929e-44,14.6024,255.245,3.53235
43.7378,25.5541,-1.93274e-45,14.6024,255.245,3.53235
44.7378,25.5541,-1.61062e-46,14.6024,255.245,3.53235
45.7378,25.5541,-1.34218e-47,14.6024,255.245,3.53235
46.7378,25.5541,-1.11848e-48,14.6024,255.245,3.53235
47.7378,25.5541,-9.32069e-50,14.6024,255.245,3.53235
48.7378,25.5541,-7.76724e-51,14.6024,255.245,3.53235
49.7378,25.5541,-6.4727e-52,14.6024,255.245,3.53235
50.7378,25.5541,-5.39392e-53,14.6024,255.245,3.53235
51.7378,25.5541,-4.49493e-54,14.6024,255.245,3.53235
52.7378,25.5541,-3.74578e-55,14.6024,255.245,3.53235
53.7378,25.5541,-3.12148e-56,14.6024,255.245,3.53235
54.7378,25.5541,-2.60123e-57,14.6024,255.245,3.53235
55.7378,25.5541,-2.1677e-58,14.6024,255.245,3.53235
56.7378,25.5541,-1.80641e-59,14.6024,255.245,3.53235
57.7378,25.5541,-1.50534e-60,14.6024,255.245,3.53235
58.7378,25.5541,-1.25445e-61,14.6024,255.245,3.53235
59.7378,25.5541,-1.04538e-62,14.6024,255.245,3.53235
60.7378,25.5541,-8.71148e-64,14.6024,255.245,3.53235
61.7378,25.5541,-7.25957e-65,14.6024,255.245,3.53235
62.7378,25.5541,-6.04964e-66,14.6024,255.245,3.53235
63.7378,25.5541,-5.04137e-67,14.6024,255.245,3.53235
64.7378,25.5541,-4.20114e-68,14.6024,255.245,3.53235
65.7378,25.5541,-3.50095e-69,14.6024,255.245,3.53235
66.7378,25.5541,-2.91746e-70,14.6024,255.245,3.53235
67.7378,25.5541,-2.43121e-71,14.6024,255.245,3.53235
68.7378,25.5541,-2.02601e-72,14.6024,255.245,3.53235
69.7378,25.5541,-1.68834e-73,14.6024,255.245,3.53235
70.7378,25.5541,-1.40695e-74,14.6024,255.245,3.53235
71.7378,25.5541,-1.17246e-75,14.6024,255.245,3.53235
72.7378,25.5541,-9.77051e-77,14.6024,255.245,3.53235
73.7378,25.5541,-8.14209e-78,14.6024,255.245,3.53235
74.7378,25.5541,-6.78507e-79,14.6024,255.245,3.53235
75.7378,25.5541,-5.65423e-80,14.6024,255.245,3.53235
76.7378,25.5541,-4.71186e-81,14.6024,255.245,3.53235
77.7378,25.5541,-3.92655e-82,14.6024,255.245,3.53235
78.7378,25.5541,-3.27212e-83,14.6024,255.245,3.53235
79.7378,25.5541,-2.72677e-84,14.6024,255.245,3.53235
80.7378,25.5541,-2.27231e-85,14.6024,255.245,3.53235
81.7378,25.5541,-1.89359e-86,14.6024,255.245,3.53235
82.7378,25.5541,-1.57799e-87,14.6024,255.245,3.53235
83.7378,25.5541,-1.31499e-88,14.6024,255.245,3.53235
84.7378,25.5541,-1.09583e-89,14.6024,255.245,3.53235
85.7378,25.5541,-9.13189e-91,14.6024,255.245,3.53235
86.7378,25.5541,-7.60991e-92,14.6024,255.245,3.53235
87.7378,25.5541,-6.34159e-93,14.6024,255.245,3.53235
88.7378,25.5541,-5.28466e-94,14.6024,255.245,3.53235
89.7378,25.5541,-4.40388e-95,14.6024,255.245,3.53235
90.7378,25.5541,-3.6699e-96,14.6024,255.245,3.53235
91.7378,25.5541,-3.05825e-97,14.6024,255.245,3.53235
92.7378,25.5541,-2.54854e-98,14.6024,255.245,3.53235
93.7378,25.5541,-2.12379e-99,14.6024,255.245,3.53235
94.7378,25.5541,-1.76982e-100,14.6024,255.245,3.53235
95.7378,25.5541,-1.47485e-101,14.6024,255.245,3.53235
96.7378,25.5541,-1.22904e-102,14.6024,255.245,3.53235
97.7378,25.5541,-1.0242e-103,14.6024,255.245,3.53235
98.7378,25.5541,-8.53502e-105,14.6024,255.245,3.53235
99.7378,25.5541,-7.11252e-106,14.6024,255.245,3.53235
100,25.5541,-1.83126e-106,14.6024,255.245,3.53235
