#Time,D,E,C,B,A
0,0,35.455,56.723,12.6109,4.73471
3.1e-5,0.00505543,35.4517,56.7212,12.6109,4.73471
0.000228471,0.0372485,35.4307,56.71,12.611,4.73466
0.000537759,0.0876446,35.3979,56.6925,12.6111,4.73448
0.00206458,0.335906,35.2361,56.606,12.6142,4.73141
0.00625794,1.01328,34.7956,56.3691,12.6409,4.70472
0.00979434,1.57947,34.4284,56.1701,12.6838,4.66179
0.0126967,2.04074,34.1299,56.0073,12.7325,4.61307
0.0157159,2.51731,33.8222,55.8385,12.7956,4.55003
0.0222431,3.53645,33.1663,55.4752,12.9719,4.37368
0.0290379,4.58134,32.4971,55.0996,13.2067,4.13891
0.0366873,5.73847,31.7599,54.6797,13.521,3.82466
0.0473326,7.31572,30.7616,54.1007,14.0174,3.32821
0.0555003,8.50039,30.017,53.6606,14.4208,2.92478
0.0628493,9.54784,29.3625,53.2677,14.7842,2.5614
0.0694584,10.4752,28.786,52.9168,15.1017,2.24386
0.0756975,11.3381,28.2522,52.5877,15.3873,1.95832
0.0847688,12.5715,27.4937,52.1128,15.7692,1.57642
0.0975283,14.2647,26.4612,51.4521,16.2264,1.11924
0.109025,15.75,25.5641,50.8639,16.5531,0.792558
0.119891,17.1195,24.7442,50.3143,16.7911,0.554501
0.130757,18.4568,23.9506,49.7705,16.9689,0.376705
0.141622,19.7628,23.1825,49.2327,17.0969,0.248673
0.153469,21.1521,22.3731,48.6528,17.1925,0.153141
0.166662,22.6579,21.5049,48.0152,17.2597,0.0859122
0.185689,24.756,20.3117,47.1103,17.3108,0.0348424
0.201016,26.3854,19.3989,46.3937,17.3297,0.0159055
0.216343,27.9629,18.5271,45.688,17.3387,0.00691118
0.231671,29.4905,17.6945,44.9931,17.3427,0.0028627
0.248181,31.0822,16.8394,44.2564,17.3446,0.00105133
0.266226,32.761,15.9521,43.4649,17.3453,0.000330999
0.286902,34.6099,14.9927,42.5755,17.3455,8.14029e-5
0.312928,36.8298,13.8666,41.4817,17.3456,1.2343e-5
0.344344,39.3599,12.6194,40.1988,17.3456,5.1619e-7
0.388361,42.652,11.0583,38.4677,17.3456,-2.04376e-7
0.455052,47.139,9.05312,35.9859,17.3456,8.1639e-8
0.539646,52.0872,7.02392,33.0669,17.3456,1.797e-8
0.62664,56.4556,5.41048,30.3119,17.3456,-6.75775e-8
0.716066,60.3218,4.13735,27.7189,17.3456,3.52739e-8
0.835037,64.6728,2.89547,24.6097,17.3456,1.53551e-6
0.958421,68.4252,1.9997,21.7531,17.3456,-1.44676e-6
1.03131,70.3471,1.60694,20.224,17.3456,1.83086e-6
1.08371,71.6132,1.37319,19.1916,17.3456,8.62662e-8
1.1361,72.7927,1.17345,18.2119,17.3456,-2.82844e-6
1.18232,73.7671,1.02153,17.3894,17.3456,6.28824e-7
1.22544,74.625,0.897561,16.6554,17.3456,9.17451e-7
1.27068,75.4755,0.783671,15.9189,17.3456,-1.21719e-6
1.32309,76.4025,0.669637,15.1059,17.3456,6.49494e-7
1.36611,77.1195,0.588572,14.47,17.3456,6.29411e-7
1.4216,77.991,0.4983,13.6888,17.3456,-3.10877e-7
1.49232,79.0208,0.40305,12.7542,17.3456,6.66159e-8
1.60859,80.5394,0.284365,11.3543,17.3456,4.59526e-7
1.74037,82.0342,0.191503,9.95234,17.3456,1.16858e-7
1.91911,83.7426,0.112025,8.32339,17.3456,-2.2537e-8
2.10924,85.2325,0.0633299,6.88218,17.3456,-1.12037e-8
2.33028,86.6281,0.0326336,5.51733,17.3456,-8.39808e-8
2.56012,87.7772,0.0163783,4.38444,17.3456,-2.1927e-7
2.82929,88.8209,0.00730723,3.34977,17.3456,5.16928e-7
3.00588,89.3662,0.00430257,2.80752,17.3456,-3.65298e-7
3.11757,89.6641,0.00307754,2.51082,17.3456,-5.08954e-8
3.29237,90.068,0.00182136,2.10815,17.3456,1.46843e-9
3.58134,90.5982,0.000763451,1.57907,17.3456,9.57296e-8
3.86484,90.9884,0.000325795,1.18926,17.3456,1.61523e-8
4.17606,91.3067,0.000127606,0.871185,17.3456,4.88958e-8
4.48728,91.5398,5.00308e-5,0.638183,17.3456,3.43373e-8
4.7985,91.7105,1.9604e-5,0.467498,17.3456,1.19254e-8
5.12417,91.8405,7.35238e-6,0.33755,17.3456,-1.92379e-8
5.46315,91.9375,2.64542e-6,0.2405,17.3456,-5.4925e-9
5.82602,92.0107,8.84422e-7,0.167307,17.3456,-1.12424e-9
6.20083,92.063,2.84857e-7,0.115008,17.3456,-3.44723e-10
6.61066,92.1017,8.2013e-8,0.0763354,17.3456,-1.71197e-10
7.04719,92.1287,2.17295e-8,0.049331,17.3456,-9.74238e-11
7.51133,92.147,5.21608e-9,0.0310111,17.3456,3.61521e-10
8.03585,92.1597,1.01978e-9,0.0183512,17.3456,1.05134e-9
8.59801,92.1676,1.73062e-10,0.0104578,17.3456,-4.1029e-10
9.22966,92.1725,1.87504e-11,0.00555847,17.3456,-2.55738e-11
9.95441,92.1753,1.11849e-12,0.00269084,17.3456,-2.36775e-10
10.7494,92.1768,-1.88144e-13,0.00121356,17.3456,-4.93526e-10
11.7267,92.1776,-4.95843e-14,0.000454879,17.3456,3.81332e-9
12.7267,92.1779,1.89692e-14,0.000166505,17.3456,1.53986e-8
13.7267,92.178,-1.05948e-14,5.99278e-5,17.3456,-2.40723e-10
14.7267,92.178,2.07067e-14,2.41847e-5,17.3456,7.7924e-9
15.6681,92.178,-4.64336e-15,9.07179e-6,17.3456,-1.44102e-10
16.6681,92.178,2.00604e-15,3.47998e-6,17.3456,-5.05651e-11
17.6681,92.178,3.63814e-15,1.81412e-6,17.3456,3.31381e-11
18.6681,92.178,-1.60968e-15,5.84868e-7,17.3456,4.8126e-10
19.6681,92.178,-1.11965e-15,1.0507e-7,17.3456,5.29836e-12
20.6681,92.178,-3.18769e-16,-3.29173e-8,17.3456,-1.23741e-12
21.6681,92.178,-1.72696e-17,-4.7348e-8,17.3456,-2.88564e-14
22.6681,92.178,2.77434e-17,-3.12949e-8,17.3456,2.69381e-15
23.6681,92.178,1.42493e-17,-1.55663e-8,17.3456,4.05406e-18
24.6681,92.178,3.56232e-18,-7.78316e-9,17.3456,-2.62812e-17
25.6681,92.178,8.90579e-19,-3.89158e-9,17.3456,-1.33051e-17
26.6681,92.178,2.22645e-19,-1.94579e-9,17.3456,-6.65348e-18
27.6681,92.178,5.56612e-20,-9.72895e-10,17.3456,-3.32675e-18
28.6681,92.178,1.39153e-20,-4.86448e-10,17.3456,-1.66337e-18
29.6681,92.178,3.47882e-21,-2.43224e-10,17.3456,-8.31686e-19
30.6681,92.178,8.69706e-22,-1.21612e-10,17.3456,-4.15843e-19
31.6681,92.178,2.17426e-22,-6.0806e-11,17.3456,-2.07922e-19
32.6681,92.178,5.43566e-23,-3.0403e-11,17.3456,-1.03961e-19
33.6681,92.178,1.35892e-23,-1.52015e-11,17.3456,-5.19804e-20
34.6681,92.178,3.39729e-24,-7.60075e-12,17.3456,-2.59902e-20
35.6681,92.178,8.49322e-25,-3.80037e-12,17.3456,-1.29951e-20
36.6681,92.178,2.12331e-25,-1.90019e-12,17.3456,-6.49755e-21
37.6681,92.178,5.30826e-26,-9.50093e-13,17.3456,-3.24878e-21
38.6681,92.178,1.32707e-26,-4.75047e-13,17.3456,-1.62439e-21
39.6681,92.178,3.31766e-27,-2.37523e-13,17.3456,-8.12194e-22
40.6681,92.178,8.29416e-28,-1.18762e-13,17.3456,-4.06097e-22
41.6681,92.178,2.07354e-28,-5.93808e-14,17.3456,-2.03048e-22
42.6681,92.178,5.18385e-29,-2.96904e-14,17.3456,-1.01524e-22
43.6681,92.178,1.29596e-29,-1.48452e-14,17.3456,-5.07621e-23
44.6681,92.178,3.23991e-30,-7.4226e-15,17.3456,-2.53811e-23
45.6681,92.178,8.09977e-31,-3.7113e-15,17.3456,-1.26905e-23
46.6681,92.178,2.02494e-31,-1.85565e-15,17.3456,-6.34526e-24
47.6681,92.178,5.06235e-32,-9.27825e-16,17.3456,-3.17263e-24
48.6681,92.178,1.26559e-32,-4.63913e-16,17.3456,-1.58632e-24
49.6681,92.178,3.16397e-33,-2.31956e-16,17.3456,-7.93158e-25
50.6681,92.178,7.90993e-34,-1.15978e-16,17.3456,-3.96579e-25
51.6681,92.178,1.97748e-34,-5.79891e-17,17.3456,-1.98289e-25
52.6681,92.178,4.94371e-35,-2.89945e-17,17.3456,-9.91447e-26
53.6681,92.178,1.23593e-35,-1.44973e-17,17.3456,-4.95724e-26
54.6681,92.178,3.08982e-36,-7.24864e-18,17.3456,-2.47862e-26
55.6681,92.178,7.72454e-37,-3.62432e-18,17.3456,-1.23931e-26
56.6681,92.178,1.93114e-37,-1.81216e-18,17.3456,-6.19655e-27
57.6681,92.178,4.82784e-38,-9.0608e-19,17.3456,-3.09827e-27
58.6681,92.178,1.20696e-38,-4.5304e-19,17.3456,-1.54914e-27
59.6681,92.178,3.0174e-39,-2.2652e-19,17.3456,-7.74568e-28
60.6681,92.178,7.5435e-40,-1.1326e-19,17.3456,-3.87284e-28
61.6681,92.178,1.88587e-40,-5.663e-20,17.3456,-1.93642e-28
62.6681,92.178,4.71469e-41,-2.8315e-20,17.3456,-9.6821e-29
63.6681,92.178,1.17867e-41,-1.41575e-20,17.3456,-4.84105e-29
64.6681,92.178,2.94668e-42,-7.07875e-21,17.3456,-2.42053e-29
65.6681,92.178,7.3667e-43,-3.53937e-21,17.3456,-1.21026e-29
66.6681,92.178,1.84167e-43,-1.76969e-21,17.3456,-6.5294e-32
67.6681,92.178,4.60418e-44,-8.84843e-22,17.3456,-3.52262e-34
68.6681,92.178,1.15105e-44,-4.42422e-22,17.3456,-1.90046e-36
69.6681,92.178,2.87762e-45,-2.21211e-22,17.3456,-1.0253e-38
70.6681,92.178,7.19404e-46,-1.10605e-22,17.3456,-5.53154e-41
71.6681,92.178,1.79851e-46,-5.53027e-23,17.3456,-2.98428e-43
72.6681,92.178,4.49627e-47,-2.76514e-23,17.3456,-1.61002e-45
73.6681,92.178,1.12407e-47,-1.38257e-23,17.3456,-8.68612e-48
74.6681,92.178,2.81017e-48,-6.91284e-24,17.3456,-4.68618e-50
75.6681,92.178,7.02543e-49,-3.45642e-24,17.3456,-2.52821e-52
76.6681,92.178,1.75636e-49,-1.72821e-24,17.3456,-1.36397e-54
77.6681,92.178,4.39089e-50,-8.64105e-25,17.3456,-7.35866e-57
78.6681,92.178,1.09772e-50,-4.32052e-25,17.3456,-3.97001e-59
79.6681,92.178,2.74431e-51,-2.16026e-25,17.3456,-2.14183e-61
80.6681,92.178,6.86077e-52,-1.08013e-25,17.3456,-1.15551e-63
81.6681,92.178,1.71519e-52,-5.40065e-26,17.3456,-6.22731e-66
82.6681,92.178,4.28798e-53,-2.70033e-26,17.3456,-3.02518e-68
83.6681,92.178,1.072e-53,-1.35016e-26,17.3456,1.50915e-69
84.6681,92.178,2.67999e-54,-6.75082e-27,17.3456,8.44323e-70
85.6681,92.178,6.69997e-55,-3.37541e-27,17.3456,4.22646e-70
86.6681,92.178,1.67499e-55,-1.6877e-27,17.3456,2.11325e-70
87.6681,92.178,4.18748e-56,-8.43852e-28,17.3456,1.05663e-70
88.6681,92.178,1.04687e-56,-4.21926e-28,17.3456,5.28314e-71
89.6681,92.178,2.61718e-57,-2.10963e-28,17.3456,2.64157e-71
90.6681,92.178,6.54294e-58,-1.05482e-28,17.3456,1.32078e-71
91.6681,92.178,1.63574e-58,-5.27408e-29,17.3456,6.60392e-72
92.6681,92.178,4.08934e-59,-2.63704e-29,17.3456,3.30196e-72
93.6681,92.178,1.02233e-59,-1.31852e-29,17.3456,1.65098e-72
94.6681,92.178,2.55584e-60,-6.5926e-30,17.3456,8.2549e-73
95.6681,92.178,6.38959e-61,-3.2963e-30,17.3456,4.12745e-73
96.6681,92.178,1.5974e-61,-1.64815e-30,17.3456,2.06373e-73
97.6681,92.178,3.99349e-62,-8.24075e-31,17.3456,1.03186e-73
98.6681,92.178,9.98373e-63,-4.12037e-31,17.3456,5.15931e-74
99.6681,92.178,2.49593e-63,-2.06019e-31,17.3456,2.57966e-74
100,92.178,1.25072e-63,-1.54684e-31,17.3456,2.50235e-75
