#Time,D,E,C,B,A
0,182.617,21.0833,21.4499,223.998,0
3.1e-5,182.619,21.0813,21.4493,223.998,0
0.00102443,182.703,21.0186,21.428,223.998,0
0.00232707,182.813,20.9367,21.4001,223.998,0
0.00433626,182.982,20.8109,21.3571,223.998,0
0.0160347,183.948,20.0931,21.1087,223.998,0
0.0299162,185.058,19.2735,20.8178,223.998,0
0.0437976,186.132,18.4873,20.5308,223.998,0
0.0622649,187.504,17.4909,20.1551,223.998,0
0.107751,190.631,15.2599,19.2589,223.998,0
0.15133,193.322,13.3898,18.4376,223.998,0
0.197342,195.878,11.6635,17.6085,223.998,0
0.243355,198.173,10.1597,16.8166,223.998,0
0.298322,200.617,8.61518,15.9172,223.998,0
0.386894,203.977,6.60485,14.568,223.998,0
0.475466,206.753,5.06363,13.3332,223.998,0
0.564038,209.065,3.88205,12.203,223.998,0
0.668241,211.314,2.83986,10.9954,223.998,0
0.79495,213.521,1.94184,9.68688,223.998,0
0.946757,215.596,1.23148,8.32252,223.998,0
1.09017,217.138,0.800909,7.21063,223.998,0
1.23797,218.416,0.514064,6.21989,223.998,0
1.40937,219.602,0.307408,5.24019,223.998,0
1.5741,220.518,0.187538,4.44432,223.998,0
1.75246,221.322,0.109829,3.71829,223.998,0
1.96768,222.094,0.0575885,2.99829,223.998,0
2.18563,222.709,0.0299493,2.41111,223.998,0
2.42226,223.232,0.0147289,1.90305,223.998,0
2.7178,223.728,0.0060721,1.41612,223.998,0
3.00816,224.088,0.00254113,1.05926,223.998,0
3.3838,224.421,0.000826417,0.727552,223.998,0
3.80319,224.671,0.000234412,0.478327,223.998,0
4.27928,224.853,5.73488e-5,0.297145,223.998,0
4.79958,224.973,1.24788e-5,0.176609,223.998,0
5.34526,225.047,2.35377e-6,0.102339,223.998,0
5.96602,225.095,5.69567e-7,0.0550144,223.998,0
6.60787,225.121,7.04879e-8,0.0289572,223.998,0
7.34171,225.136,1.78733e-9,0.0139043,223.998,0
8.1228,225.143,2.33598e-8,0.00636834,223.998,0
9.04803,225.147,-2.57586e-9,0.00252751,223.998,0
10.048,225.149,9.15976e-9,0.000931098,223.998,0
11.048,225.149,-2.0762e-10,0.000344155,223.998,0
12.048,225.15,3.00165e-9,0.000124648,223.998,0
13.048,225.15,-2.23687e-9,4.65891e-5,223.998,0
14.048,225.15,4.34681e-9,1.66016e-5,223.998,0
15.048,225.15,1.0889e-9,6.2619e-6,223.998,0
16.048,225.15,-2.02989e-9,2.95159e-6,223.998,0
17.048,225.15,-1.65911e-9,1.90239e-6,223.998,0
18.048,225.15,-3.24731e-10,1.18838e-6,223.998,0
19.048,225.15,1.73347e-10,5.98386e-7,223.998,0
20.048,225.15,9.39518e-11,2.28252e-7,223.998,0
21.048,225.15,-1.78777e-11,6.46956e-8,223.998,0
22.048,225.15,-2.8299e-11,1.80604e-8,223.998,0
23.048,225.15,-5.53721e-12,1.17253e-8,223.998,0
24.048,225.15,4.11261e-12,1.04649e-8,223.998,0
25.048,225.15,2.31945e-12,6.99771e-9,223.998,0
26.048,225.15,-2.18548e-13,3.24855e-9,223.998,0
27.048,225.15,-5.7185e-13,9.66137e-10,223.998,0
28.048,225.15,-1.27154e-13,1.26407e-10,223.998,0
29.048,225.15,7.02585e-15,-9.21023e-11,223.998,0
30.048,225.15,1.72509e-14,-9.89631e-11,223.998,0
31.048,225.15,6.8864e-15,-6.075e-11,223.998,0
32.048,225.15,1.14386e-15,-2.88074e-11,223.998,0
33.048,225.15,2.85965e-16,-1.44037e-11,223.998,0
34.048,225.15,7.14913e-17,-7.20185e-12,223.998,0
35.048,225.15,1.78728e-17,-3.60093e-12,223.998,0
36.048,225.15,4.4682e-18,-1.80046e-12,223.998,0
37.048,225.15,1.11705e-18,-9.00231e-13,223.998,0
38.048,225.15,2.79263e-19,-4.50116e-13,223.998,0
39.048,225.15,6.98157e-20,-2.25058e-13,223.998,0
40.048,225.15,1.74539e-20,-1.12529e-13,223.998,0
41.048,225.15,4.36348e-21,-5.62645e-14,223.998,0
42.048,225.15,1.09087e-21,-2.81322e-14,223.998,0
43.048,225.15,2.72717e-22,-1.40661e-14,223.998,0
44.048,225.15,6.81794e-23,-7.03306e-15,223.998,0
45.048,225.15,1.70448e-23,-3.51653e-15,223.998,0
46.048,225.15,4.26121e-24,-1.75826e-15,223.998,0
47.048,225.15,1.0653e-24,-8.79132e-16,223.998,0
48.048,225.15,2.66326e-25,-4.39566e-16,223.998,0
49.048,225.15,6.65814e-26,-2.19783e-16,223.998,0
50.048,225.15,1.66454e-26,-1.09892e-16,223.998,0
51.048,225.15,4.16134e-27,-5.49458e-17,223.998,0
52.048,225.15,1.04033e-27,-2.74729e-17,223.998,0
53.048,225.15,2.60084e-28,-1.37364e-17,223.998,0
54.048,225.15,6.50209e-29,-6.86822e-18,223.998,0
55.048,225.15,1.62552e-29,-3.43411e-18,223.998,0
56.048,225.15,4.06381e-30,-1.71706e-18,223.998,0
57.048,225.15,1.01595e-30,-8.58528e-19,223.998,0
58.048,225.15,2.53988e-31,-4.29264e-19,223.998,0
59.048,225.15,6.3497e-32,-2.14632e-19,223.998,0
60.048,225.15,1.58742e-32,-1.07316e-19,223.998,0
61.048,225.15,3.96856e-33,-5.3658e-20,223.998,0
62.048,225.15,9.9214e-34,-2.6829e-20,223.998,0
63.048,225.15,2.48035e-34,-1.34145e-20,223.998,0
64.048,225.15,6.20088e-35,-6.70725e-21,223.998,0
65.048,225.15,1.55022e-35,-3.35362e-21,223.998,0
66.048,225.15,3.87555e-36,-1.67681e-21,223.998,0
67.048,225.15,9.68887e-37,-8.38406e-22,223.998,0
68.048,225.15,2.42222e-37,-4.19203e-22,223.998,0
69.048,225.15,6.05554e-38,-2.09601e-22,223.998,0
70.048,225.15,1.51389e-38,-1.04801e-22,223.998,0
71.048,225.15,3.78472e-39,-5.24004e-23,223.998,0
72.048,225.15,9.46179e-40,-2.62002e-23,223.998,0
73.048,225.15,2.36545e-40,-1.31001e-23,223.998,0
74.048,225.15,5.91362e-41,-6.55005e-24,223.998,0
75.048,225.15,1.4784e-41,-3.27502e-24,223.998,0
76.048,225.15,3.69601e-42,-1.63751e-24,223.998,0
77.048,225.15,9.24003e-43,-8.18756e-25,223.998,0
78.048,225.15,2.31001e-43,-4.09378e-25,223.998,0
79.048,225.15,5.77502e-44,-2.04689e-25,223.998,0
80.048,225.15,1.44375e-44,-1.02344e-25,223.998,0
81.048,225.15,3.60939e-45,-5.11722e-26,223.998,0
82.048,225.15,9.02347e-46,-2.55861e-26,223.998,0
83.048,225.15,2.25587e-46,-1.27931e-26,223.998,0
84.048,225.15,5.63967e-47,-6.39653e-27,223.998,0
85.048,225.15,1.40992e-47,-3.19826e-27,223.998,0
86.048,225.15,3.52479e-48,-1.59913e-27,223.998,0
87.048,225.15,8.81198e-49,-7.99566e-28,223.998,0
88.048,225.15,2.20299e-49,-3.99783e-28,223.998,0
89.048,225.15,5.50749e-50,-1.99892e-28,223.998,0
90.048,225.15,1.37687e-50,-9.99458e-29,223.998,0
91.048,225.15,3.44218e-51,-4.99729e-29,223.998,0
92.048,225.15,8.60545e-52,-2.49864e-29,223.998,0
93.048,225.15,2.15136e-52,-1.24932e-29,223.998,0
94.048,225.15,5.3784e-53,-6.24661e-30,223.998,0
95.048,225.15,1.3446e-53,-3.12331e-30,223.998,0
96.048,225.15,3.3615e-54,-1.56165e-30,223.998,0
97.048,225.15,8.40376e-55,-7.80826e-31,223.998,0
98.048,225.15,2.10094e-55,-3.90413e-31,223.998,0
99.048,225.15,5.25235e-56,-1.95207e-31,223.998,0
100,225.15,9.61956e-57,-9.78284e-32,223.998,0
