#Time,D,E,C,B,A
0,124.215,179.543,4.9403,128.932,169.922
1.00427e-5,124.22,179.537,4.94025,129.355,169.499
2.36068e-5,124.228,179.53,4.94018,129.925,168.929
4.46365e-5,124.239,179.519,4.94008,130.805,168.049
0.00016132,124.302,179.456,4.9395,135.609,163.245
0.000337494,124.398,179.361,4.93863,142.607,156.246
0.000513669,124.494,179.266,4.93776,149.311,149.543
0.00073998,124.616,179.145,4.93665,157.509,141.345
0.00128168,124.91,178.854,4.93397,175.379,123.475
0.00180914,125.195,178.571,4.93137,190.639,108.215
0.00236808,125.497,178.272,4.92861,204.787,94.0666
0.00292703,125.799,177.973,4.92586,217.114,81.7402
0.00358752,126.154,177.621,4.92261,229.645,69.2092
0.00464285,126.721,177.059,4.91742,245.856,52.9983
0.00569819,127.286,176.5,4.91223,258.318,40.5362
0.00675352,127.849,175.942,4.90705,267.886,30.9675
0.00796913,128.495,175.301,4.90109,276.177,22.6764
0.00943387,129.271,174.533,4.89391,283.308,15.5454
0.0110989,130.149,173.663,4.88577,288.761,10.0929
0.0126819,130.979,172.84,4.87804,292.178,6.6756
0.0142977,131.823,172.005,4.87017,294.488,4.3659
0.0159473,132.68,171.155,4.86214,296.032,2.82219
0.0175948,133.532,170.312,4.85414,297.034,1.82015
0.019252,134.385,169.467,4.8461,297.686,1.16758
0.0210316,135.296,168.565,4.83748,298.131,0.722543
0.0228624,136.228,167.641,4.82863,298.414,0.439519
0.0247117,137.164,166.714,4.81971,298.589,0.265103
0.0266381,138.134,165.753,4.81044,298.698,0.15599
0.028715,139.174,164.724,4.80046,298.766,0.0876966
0.0309573,140.289,163.619,4.7897,298.807,0.046866
0.033343,141.467,162.452,4.77829,298.83,0.0239313
0.0360999,142.818,161.114,4.76514,298.843,0.0109319
0.0390131,144.234,159.712,4.75127,298.849,0.00473876
0.0425621,145.942,158.021,4.73444,298.852,0.00169479
0.0463335,147.738,156.243,4.71662,298.853,0.000560967
0.0509624,149.915,154.088,4.69484,298.854,0.0001434
0.0572327,152.815,151.217,4.66549,298.854,2.39006e-5
0.0634499,155.639,148.423,4.63658,298.854,1.6077e-6
0.0709202,158.962,145.133,4.60207,298.854,1.68887e-6
0.0800722,162.935,141.203,4.56014,298.854,3.08091e-8
0.0940906,168.814,135.388,4.49666,298.854,9.27604e-7
0.109913,175.16,129.111,4.42608,298.854,-3.02406e-7
0.132205,183.61,120.759,4.3285,298.854,-4.81541e-7
0.169222,196.46,108.067,4.1712,298.854,-6.12133e-7
0.211878,209.615,95.0857,3.99701,298.854,2.04055e-6
0.26766,224.484,80.4339,3.78016,298.854,-9.88637e-7
0.303918,232.909,72.1438,3.64555,298.854,-3.33161e-7
0.337796,240.002,65.1718,3.52412,298.854,-3.03773e-7
0.380042,247.906,57.414,3.37834,298.854,-4.16929e-9
0.444352,258.19,47.34,3.16791,298.854,1.84627e-7
0.535833,269.829,35.978,2.89097,298.854,6.78056e-8
0.627314,278.717,27.343,2.63824,298.854,1.15104e-8
0.718795,285.51,20.7805,2.4076,298.854,-3.63469e-8
0.810276,290.708,15.793,2.19713,298.854,-6.64916e-8
0.901757,294.69,12.0026,2.00505,298.854,-2.24146e-8
1.01508,298.364,8.54332,1.79023,298.854,2.45075e-7
1.14252,301.293,5.82899,1.57603,298.854,6.95426e-7
1.23889,302.901,4.36545,1.43123,298.854,-1.28398e-6
1.29312,303.632,3.71003,1.35568,298.854,-6.04883e-7
1.33029,304.073,3.31859,1.30622,298.854,-9.91985e-9
1.36513,304.447,2.98917,1.26149,298.854,3.90667e-7
1.39429,304.734,2.73882,1.22524,298.854,-9.81373e-8
1.44642,305.193,2.34231,1.163,298.854,-5.71485e-8
1.54343,305.892,1.75086,1.05548,298.854,-1.38321e-9
1.64044,306.431,1.30876,0.957903,298.854,9.1293e-11
1.73907,306.856,0.973535,0.867932,298.854,7.85283e-10
1.88348,307.315,0.631263,0.751225,298.854,2.04227e-10
2.03308,307.648,0.402992,0.646841,298.854,1.34424e-10
2.20292,307.91,0.24212,0.545807,298.854,1.71909e-10
2.37669,308.095,0.143756,0.458742,298.854,3.58055e-10
2.56629,308.237,0.0813985,0.379513,298.854,-1.09413e-9
2.76939,308.344,0.0442619,0.309759,298.854,-1.5927e-8
2.98757,308.426,0.0230045,0.249041,298.854,3.82765e-8
3.24059,308.494,0.010771,0.193367,298.854,1.26553e-8
3.50924,308.545,0.00481285,0.147812,298.854,1.03847e-8
3.84007,308.59,0.00178687,0.106178,298.854,3.92031e-8
4.19139,308.623,0.00062389,0.0747237,298.854,-5.0606e-7
4.6459,308.65,0.000162547,0.0474321,298.854,-3.57701e-8
5.08949,308.667,4.28151e-5,0.0304386,298.854,1.9302e-7
5.6806,308.681,8.66227e-6,0.0168553,298.854,-3.2575e-8
6.2176,308.688,1.6761e-6,0.00985226,298.854,-5.66977e-8
6.53378,308.691,6.40685e-7,0.00718156,298.854,6.7849e-8
6.85866,308.693,2.43994e-7,0.00518945,298.854,-1.17304e-8
7.55047,308.695,1.23825e-8,0.00259615,298.854,-1.36092e-7
8.40672,308.697,-3.12727e-9,0.00109999,298.854,-8.33999e-10
9.40672,308.697,-1.7535e-9,0.000403048,298.854,1.74901e-7
10.4067,308.698,1.26875e-10,0.000146976,298.854,-4.10225e-9
11.4067,308.698,-4.27291e-10,5.43496e-5,298.854,4.70802e-9
12.4067,308.698,5.50317e-11,2.01001e-5,298.854,-1.20879e-9
13.4067,308.698,-5.41368e-11,7.58011e-6,298.854,1.01935e-9
14.4067,308.698,5.01843e-12,2.61985e-6,298.854,-5.84957e-10
15.4067,308.698,2.03562e-12,8.32306e-7,298.854,1.09802e-11
16.4067,308.698,1.12951e-13,1.54806e-7,298.854,2.58339e-11
17.4067,308.698,-1.75979e-13,-4.26164e-8,298.854,3.82756e-12
18.4067,308.698,-9.0763e-14,-6.50543e-8,298.854,-3.1978e-15
19.4067,308.698,-2.07859e-14,-4.35202e-8,298.854,-7.53532e-15
20.4067,308.698,8.46604e-16,-2.18053e-8,298.854,-1.33022e-15
21.4067,308.698,2.68581e-15,-8.74019e-9,298.854,-1.28862e-16
22.4067,308.698,6.71453e-16,-4.37009e-9,298.854,-2.08381e-19
23.4067,308.698,1.67863e-16,-2.18505e-9,298.854,-3.37079e-22
24.4067,308.698,4.19658e-17,-1.09252e-9,298.854,-5.99563e-25
25.4067,308.698,1.04915e-17,-5.46262e-10,298.854,-2.82077e-26
26.4067,308.698,2.62286e-18,-2.73131e-10,298.854,-1.36647e-26
27.4067,308.698,6.55716e-19,-1.36565e-10,298.854,-6.83165e-27
28.4067,308.698,1.63929e-19,-6.82827e-11,298.854,-3.41582e-27
29.4067,308.698,4.09823e-20,-3.41414e-11,298.854,-1.70791e-27
30.4067,308.698,1.02456e-20,-1.70707e-11,298.854,-8.53956e-28
31.4067,308.698,2.56139e-21,-8.53534e-12,298.854,-4.26978e-28
32.4067,308.698,6.40348e-22,-4.26767e-12,298.854,-2.13489e-28
33.4067,308.698,1.60087e-22,-2.13383e-12,298.854,-1.06744e-28
34.4067,308.698,4.00217e-23,-1.06692e-12,298.854,-5.33722e-29
35.4067,308.698,1.00054e-23,-5.33459e-13,298.854,-2.66861e-29
36.4067,308.698,2.50136e-24,-2.66729e-13,298.854,-1.33431e-29
37.4067,308.698,6.2534e-25,-1.33365e-13,298.854,-6.67153e-30
38.4067,308.698,1.56335e-25,-6.66823e-14,298.854,-3.33576e-30
39.4067,308.698,3.90837e-26,-3.33412e-14,298.854,-1.66788e-30
40.4067,308.698,9.77093e-27,-1.66706e-14,298.854,-8.33941e-31
41.4067,308.698,2.44273e-27,-8.33529e-15,298.854,-4.16971e-31
42.4067,308.698,6.10683e-28,-4.16765e-15,298.854,-2.08485e-31
43.4067,308.698,1.52671e-28,-2.08382e-15,298.854,-1.04243e-31
44.4067,308.698,3.81677e-29,-1.04191e-15,298.854,-5.21213e-32
45.4067,308.698,9.54193e-30,-5.20956e-16,298.854,-2.60607e-32
46.4067,308.698,2.38548e-30,-2.60478e-16,298.854,-1.30303e-32
47.4067,308.698,5.9637e-31,-1.30239e-16,298.854,-6.51517e-33
48.4067,308.698,1.49093e-31,-6.51195e-17,298.854,-3.25758e-33
49.4067,308.698,3.72731e-32,-3.25597e-17,298.854,-1.62879e-33
50.4067,308.698,9.31829e-33,-1.62799e-17,298.854,-8.14396e-34
51.4067,308.698,2.32957e-33,-8.13993e-18,298.854,-4.07198e-34
52.4067,308.698,5.82393e-34,-4.06997e-18,298.854,-2.03599e-34
53.4067,308.698,1.45598e-34,-2.03498e-18,298.854,-1.01799e-34
54.4067,308.698,3.63996e-35,-1.01749e-18,298.854,-5.08997e-35
55.4067,308.698,9.09989e-36,-5.08746e-19,298.854,-2.54499e-35
56.4067,308.698,2.27497e-36,-2.54373e-19,298.854,-1.27249e-35
57.4067,308.698,5.68743e-37,-1.27186e-19,298.854,-6.36247e-36
58.4067,308.698,1.42186e-37,-6.35932e-20,298.854,-3.18123e-36
59.4067,308.698,3.55464e-38,-3.17966e-20,298.854,-1.59062e-36
60.4067,308.698,8.88661e-39,-1.58983e-20,298.854,-7.95308e-37
61.4067,308.698,2.22165e-39,-7.94915e-21,298.854,-3.97654e-37
62.4067,308.698,5.55413e-40,-3.97458e-21,298.854,-1.98827e-37
63.4067,308.698,1.38853e-40,-1.98729e-21,298.854,-9.94135e-38
64.4067,308.698,3.47133e-41,-9.93644e-22,298.854,-4.97068e-38
65.4067,308.698,8.67833e-42,-4.96822e-22,298.854,-2.48534e-38
66.4067,308.698,2.16958e-42,-2.48411e-22,298.854,-1.24267e-38
67.4067,308.698,5.42396e-43,-1.24206e-22,298.854,-6.21335e-39
68.4067,308.698,1.35599e-43,-6.21028e-23,298.854,-3.10667e-39
69.4067,308.698,3.38997e-44,-3.10514e-23,298.854,-1.55334e-39
70.4067,308.698,8.47493e-45,-1.55257e-23,298.854,-7.76668e-40
71.4067,308.698,2.11873e-45,-7.76284e-24,298.854,-3.88334e-40
72.4067,308.698,5.29683e-46,-3.88142e-24,298.854,-1.94167e-40
73.4067,308.698,1.32421e-46,-1.94071e-24,298.854,-9.70835e-41
74.4067,308.698,3.31052e-47,-9.70356e-25,298.854,-4.85418e-41
75.4067,308.698,8.2763e-48,-4.85178e-25,298.854,-2.42709e-41
76.4067,308.698,2.06908e-48,-2.42589e-25,298.854,-1.21354e-41
77.4067,308.698,5.17269e-49,-1.21294e-25,298.854,-6.06772e-42
78.4067,308.698,1.29317e-49,-6.06472e-26,298.854,-3.03386e-42
79.4067,308.698,3.23293e-50,-3.03236e-26,298.854,-1.51693e-42
80.4067,308.698,8.08233e-51,-1.51618e-26,298.854,-7.58465e-43
81.4067,308.698,2.02058e-51,-7.5809e-27,298.854,-3.79233e-43
82.4067,308.698,5.05145e-52,-3.79045e-27,298.854,-1.89616e-43
83.4067,308.698,1.26286e-52,-1.89523e-27,298.854,-9.48081e-44
84.4067,308.698,3.15716e-53,-9.47613e-28,298.854,-4.74041e-44
85.4067,308.698,7.8929e-54,-4.73806e-28,298.854,-7.66565e-47
86.4067,308.698,1.97322e-54,-2.36903e-28,298.854,-1.2396e-49
87.4067,308.698,4.93306e-55,-1.18452e-28,298.854,-2.00455e-52
88.4067,308.698,1.23326e-55,-5.92258e-29,298.854,-3.24153e-55
89.4067,308.698,3.08316e-56,-2.96129e-29,298.854,-5.24183e-58
90.4067,308.698,7.70791e-57,-1.48065e-29,298.854,-8.4765e-61
91.4067,308.698,1.92698e-57,-7.40323e-30,298.854,-1.37072e-63
92.4067,308.698,4.81744e-58,-3.70161e-30,298.854,-2.21658e-66
93.4067,308.698,1.20436e-58,-1.85081e-30,298.854,-3.5844e-69
94.4067,308.698,3.0109e-59,-9.25403e-31,298.854,-5.79629e-72
95.4067,308.698,7.52725e-60,-4.62702e-31,298.854,-9.37311e-75
96.4067,308.698,1.88181e-60,-2.31351e-31,298.854,-1.51571e-77
97.4067,308.698,4.70453e-61,-1.15675e-31,298.854,-2.45104e-80
98.4067,308.698,1.17613e-61,-5.78377e-32,298.854,-3.96355e-83
99.4067,308.698,2.94033e-62,-2.89189e-32,298.854,-6.40787e-86
100,308.698,1.05774e-62,-1.81506e-32,298.854,-1.71099e-88
