#Time,D,E,C,B,A
0,491.501,0.97229,0,3.05327,111.881
0,491.501,0.97229,0,3.07526,111.859
0,491.501,0.972289,0,3.09725,111.837
0,491.501,0.972289,0,3.11923,111.815
0,491.501,0.972288,0,3.14121,111.793
0,491.501,0.972287,0,3.16318,111.771
0,491.501,0.972287,0,3.18515,111.749
0,491.501,0.972286,0,3.20712,111.727
0,491.501,0.972286,0,3.22908,111.705
0,491.501,0.972285,0,3.25104,111.683
0,491.501,0.972284,0,3.27299,111.661
0,491.501,0.972284,0,3.29494,111.639
0,491.501,0.972283,0,3.31688,111.617
0,491.501,0.972283,0,3.34481,111.59
0,491.501,0.972282,0,3.37274,111.562
0,491.501,0.972281,0,3.40066,111.534
0,491.501,0.97228,0,3.42857,111.506
0,491.501,0.97228,0,3.45647,111.478
0,491.501,0.972279,0,3.48437,111.45
0,491.501,0.972278,0,3.51226,111.422
0,491.501,0.972277,0,3.54014,111.394
0,491.501,0.972277,0,3.56802,111.366
0,491.501,0.972276,0,3.59589,111.338
0,491.501,0.972275,0,3.62375,111.311
0,491.501,0.972274,0,3.6516,111.283
0,491.501,0.972274,0,3.67945,111.255
0,491.501,0.972273,0,3.70729,111.227
0,491.501,0.972272,0,3.73513,111.199
0,491.501,0.972271,0,3.76295,111.171
0,491.501,0.972271,0,3.79077,111.144
0,491.501,0.97227,0,3.81859,111.116
0,491.501,0.972269,0,3.84639,111.088
0,491.501,0.972268,0,3.87419,111.06
0,491.501,0.972268,0,3.90199,111.032
0,491.501,0.972267,0,3.92977,111.005
0,491.501,0.972266,0,3.95755,110.977
0,491.501,0.972265,0,3.98532,110.949
0,491.501,0.972265,0,4.01309,110.921
0,491.501,0.972264,0,4.04084,110.894
0,491.501,0.972263,0,4.06859,110.866
0,491.501,0.972263,0,4.09634,110.838
0,491.501,0.972262,0,4.12408,110.81
0,491.501,0.972261,0,4.15181,110.783
0,491.501,0.97226,0,4.17953,110.755
0,491.501,0.97226,0,4.20724,110.727
0,491.501,0.972259,0,4.23495,110.699
0,491.501,0.972258,0,4.26266,110.672
0,491.501,0.972257,0,4.29035,110.644
0,491.501,0.972257,0,4.31804,110.616
0,491.501,0.972256,0,4.34572,110.589
0,491.501,0.972255,0,4.3734,110.561
0,491.501,0.972254,0,4.40106,110.533
0,491.501,0.972254,0,4.42872,110.506
0,491.501,0.972253,0,4.45638,110.478
0,491.501,0.972252,0,4.48402,110.45
0,491.501,0.972251,0,4.51166,110.423
0,491.501,0.972251,0,4.5393,110.395
0,491.501,0.97225,0,4.56692,110.367
0,491.501,0.972249,0,4.59454,110.34
0,491.501,0.972248,0,4.62215,110.312
0,491.501,0.972248,0,4.64976,110.285
0,491.501,0.972247,0,4.67736,110.257
0,491.501,0.972246,0,4.70495,110.229
0,491.501,0.972245,0,4.73253,110.202
0,491.501,0.972245,0,4.76011,110.174
0,491.501,0.972244,0,4.78768,110.147
0,491.501,0.972243,0,4.81525,110.119
0,491.501,0.972242,0,4.8428,110.092
0,491.501,0.972242,0,4.87035,110.064
0,491.501,0.972241,0,4.8979,110.036
0,491.501,0.97224,0,4.92543,110.009
0,491.501,0.972239,0,4.95296,109.981
0,491.501,0.972239,0,4.98049,109.954
0,491.501,0.972238,0,5.008,109.926
0,491.501,0.972237,0,5.03551,109.899
0,491.501,0.972237,0,5.06301,109.871
0,491.501,0.972236,0,5.09051,109.844
0,491.501,0.972235,0,5.11799,109.816
0,491.501,0.972234,0,5.14548,109.789
0,491.501,0.972234,0,5.17295,109.761
0,491.501,0.972233,0,5.20042,109.734
0,491.501,0.972232,0,5.22788,109.706
0,491.501,0.972231,0,5.25533,109.679
0,491.501,0.972231,0,5.28278,109.652
0,491.501,0.97223,0,5.31022,109.624
0,491.501,0.972229,0,5.33765,109.597
0,491.501,0.972228,0,5.36508,109.569
0,491.501,0.972228,0,5.3925,109.542
0,491.501,0.972227,0,5.41991,109.514
0,491.501,0.972226,0,5.44732,109.487
0,491.501,0.972225,0,5.47471,109.46
0,491.501,0.972225,0,5.50211,109.432
0,491.501,0.972224,0,5.52949,109.405
0,491.501,0.972223,0,5.55687,109.377
0,491.501,0.972222,0,5.58424,109.35
0,491.501,0.972222,0,5.61161,109.323
0,491.501,0.972221,0,5.63896,109.295
0,491.501,0.97222,0,5.66631,109.268
0,491.501,0.972219,0,5.69366,109.241
0,491.501,0.972219,0,5.721,109.213
0,491.501,0.972218,0,5.74833,109.186
0,491.501,0.972217,0,5.77565,109.159
0,491.501,0.972216,0,5.80297,109.131
0,491.501,0.972216,0,5.83028,109.104
0,491.501,0.972215,0,5.85758,109.077
0,491.501,0.972214,0,5.89238,109.042
0,491.501,0.972213,0,5.92717,109.007
0,491.501,0.972212,0,5.96194,108.972
0,491.501,0.972211,0,5.99671,108.938
0,491.501,0.97221,0,6.03147,108.903
0,491.501,0.972209,0,6.06621,108.868
0,491.501,0.972208,0,6.10094,108.833
0,491.501,0.972207,0,6.13566,108.799
0,491.501,0.972206,0,6.17037,108.764
0,491.501,0.972206,0,6.20507,108.729
0,491.501,0.972205,0,6.23976,108.695
0,491.501,0.972204,0,6.27444,108.66
0,491.501,0.972203,0,6.30911,108.625
0,491.501,0.972202,0,6.34376,108.591
0,491.501,0.972201,0,6.37841,108.556
0,491.501,0.9722,0,6.41304,108.521
0,491.501,0.972199,0,6.44766,108.487
0,491.501,0.972198,0,6.48227,108.452
0,491.501,0.972197,0,6.51687,108.417
0,491.501,0.972196,0,6.55146,108.383
0,491.501,0.972195,0,6.58604,108.348
0,491.501,0.972194,0,6.62061,108.314
0,491.501,0.972193,0,6.65516,108.279
0,491.501,0.972192,0,6.68971,108.245
0,491.501,0.972191,0,6.72424,108.21
0,491.501,0.97219,0,6.75876,108.176
0,491.502,0.972189,0,6.79328,108.141
0,491.502,0.972188,0,6.82778,108.107
0,491.502,0.972188,0,6.86227,108.072
0,491.502,0.972187,0,6.89675,108.038
0,491.502,0.972186,0,6.93121,108.003
0,491.502,0.972185,0,6.96567,107.969
0,491.502,0.972184,0,7.00012,107.934
0,491.502,0.972183,0,7.03455,107.9
0,491.502,0.972182,0,7.06898,107.865
0,491.502,0.972181,0,7.10339,107.831
0,491.502,0.97218,0,7.13779,107.797
0,491.502,0.972179,0,7.17218,107.762
0,491.502,0.972178,0,7.20656,107.728
0,491.502,0.972177,0,7.24093,107.693
0,491.502,0.972176,0,7.27529,107.659
0,491.502,0.972175,0,7.30964,107.625
0,491.502,0.972174,0,7.34397,107.59
0,491.502,0.972173,0,7.3783,107.556
0,491.502,0.972172,0,7.41261,107.522
0,491.502,0.972171,0,7.44691,107.487
0,491.502,0.97217,0,7.48121,107.453
0,491.502,0.97217,0,7.51549,107.419
0,491.502,0.972169,0,7.54976,107.385
0,491.502,0.972168,0,7.58402,107.35
0,491.502,0.972167,0,7.61827,107.316
0,491.502,0.972166,0,7.6525,107.282
0,491.502,0.972165,0,7.68673,107.248
0,491.502,0.972164,0,7.72095,107.213
0,491.502,0.972163,0,7.75515,107.179
0,491.502,0.972162,0,7.78935,107.145
0,491.502,0.972161,0,7.82353,107.111
0,491.502,0.97216,0,7.8577,107.077
0,491.502,0.972159,0,7.89186,107.043
0,491.502,0.972158,0,7.92601,107.008
0,491.502,0.972157,0,7.96015,106.974
0,491.502,0.972156,0,7.99428,106.94
0,491.502,0.972155,0,8.0284,106.906
0,491.502,0.972154,0,8.06251,106.872
0,491.502,0.972153,0,8.0966,106.838
0,491.502,0.972152,0,8.13069,106.804
0,491.502,0.972152,0,8.16476,106.77
0,491.502,0.972151,0,8.19882,106.736
0,491.502,0.97215,0,8.23288,106.701
0,491.502,0.972149,0,8.26692,106.667
0,491.502,0.972148,0,8.30095,106.633
0,491.502,0.972147,0,8.33497,106.599
0,491.502,0.972146,0,8.36898,106.565
0,491.502,0.972145,0,8.40298,106.531
0,491.502,0.972144,0,8.43696,106.497
0,491.502,0.972143,0,8.47094,106.463
0,491.502,0.972142,0,8.50491,106.429
0,491.502,0.972141,0,8.53886,106.396
0,491.502,0.97214,0,8.5728,106.362
0,491.502,0.972139,0,8.60674,106.328
0,491.502,0.972138,0,8.64066,106.294
0,491.502,0.972137,0,8.67457,106.26
0,491.502,0.972136,0,8.70847,106.226
0,491.502,0.972135,0,8.74236,106.192
0,491.502,0.972134,0,8.77624,106.158
0,491.502,0.972134,0,8.81011,106.124
0,491.502,0.972133,0,8.84397,106.09
0,491.502,0.972132,0,8.87781,106.057
0,491.502,0.972131,0,8.91165,106.023
0,491.502,0.97213,0,8.94547,105.989
0,491.502,0.972129,0,8.97929,105.955
0,491.502,0.972128,0,9.01309,105.921
0,491.502,0.972127,0,9.04688,105.887
0,491.502,0.972126,0,9.08067,105.854
0,491.502,0.972125,0,9.11444,105.82
0,491.502,0.972124,0,9.1482,105.786
0,491.502,0.972123,0,9.18195,105.752
0,491.502,0.972122,0,9.21569,105.719
0,491.502,0.972121,0,9.24941,105.685
0,491.502,0.97212,0,9.28313,105.651
0,491.502,0.972119,0,9.31684,105.618
0,491.502,0.972118,0,9.35053,105.584
0,491.502,0.972117,0,9.38422,105.55
0,491.502,0.972116,0,9.41789,105.516
0,491.502,0.972116,0,9.45156,105.483
0,491.502,0.972115,0,9.48521,105.449
0,491.502,0.972114,0,9.51885,105.416
0,491.502,0.972113,0,9.55248,105.382
0,491.502,0.972112,0,9.5861,105.348
0,491.502,0.972111,0,9.61971,105.315
0,491.502,0.97211,0,9.65331,105.281
0,491.502,0.972109,0,9.6869,105.247
0,491.502,0.972108,0,9.72048,105.214
0,491.502,0.972107,0,9.76321,105.171
0,491.502,0.972106,0,9.80592,105.128
0,491.502,0.972104,0,9.84862,105.086
0,491.502,0.972103,0,9.89129,105.043
0,491.502,0.972102,0,9.93395,105
0,491.502,0.972101,0,9.9766,104.958
0,491.502,0.9721,0,10.0192,104.915
0,491.502,0.972098,0,10.0618,104.873
0,491.502,0.972097,0,10.1044,104.83
0,491.502,0.972096,0,10.147,104.787
0,491.502,0.972095,0,10.1895,104.745
0,491.502,0.972094,0,10.2321,104.702
0,491.502,0.972092,0,10.2746,104.66
0,491.502,0.972091,0,10.3171,104.617
0,491.502,0.97209,0,10.3596,104.575
0,491.502,0.972089,0,10.4021,104.532
0,491.502,0.972087,0,10.4445,104.49
0,491.502,0.972086,0,10.487,104.447
0,491.502,0.972085,0,10.5294,104.405
0,491.502,0.972084,0,10.5718,104.363
0,491.502,0.972083,0,10.6142,104.32
0,491.502,0.972081,0,10.6565,104.278
0,491.502,0.97208,0,10.6989,104.235
0,491.502,0.972079,0,10.7412,104.193
0,491.502,0.972078,0,10.7835,104.151
0,491.502,0.972077,0,10.8258,104.109
0,491.502,0.972075,0,10.8681,104.066
0,491.502,0.972074,0,10.9104,104.024
0,491.502,0.972073,0,10.9526,103.982
0,491.502,0.972072,0,10.9948,103.94
0,491.502,0.972071,0,11.0371,103.897
0,491.502,0.972069,0,11.0792,103.855
0,491.502,0.972068,0,11.1214,103.813
0,491.502,0.972067,0,11.1636,103.771
0,491.502,0.972066,0,11.2057,103.729
0,491.502,0.972065,0,11.2479,103.687
0,491.502,0.972063,0,11.29,103.644
0,491.502,0.972062,0,11.3321,103.602
0,491.502,0.972061,0,11.3741,103.56
0,491.502,0.97206,0,11.4162,103.518
0,491.502,0.972059,0,11.4582,103.476
0,491.502,0.972057,0,11.5003,103.434
0,491.502,0.972056,0,11.5423,103.392
0,491.502,0.972055,0,11.5842,103.35
0,491.502,0.972054,0,11.6262,103.308
0,491.502,0.972053,0,11.6682,103.266
0,491.502,0.972051,0,11.7101,103.224
0,491.502,0.97205,0,11.752,103.182
0,491.502,0.972049,0,11.7939,103.14
0,491.502,0.972048,0,11.8358,103.099
0,491.502,0.972047,0,11.8777,103.057
0,491.502,0.972045,0,11.9195,103.015
0,491.502,0.972044,0,11.9614,102.973
0,491.502,0.972043,0,12.0032,102.931
0,491.502,0.972042,0,12.045,102.889
0,491.502,0.97204,0,12.0868,102.848
0,491.502,0.972039,0,12.1286,102.806
0,491.502,0.972038,0,12.1703,102.764
0,491.502,0.972037,0,12.212,102.722
0,491.502,0.972036,0,12.2538,102.681
0,491.502,0.972034,0,12.2955,102.639
0,491.502,0.972033,0,12.3371,102.597
0,491.502,0.972032,0,12.3788,102.556
0,491.502,0.972031,0,12.4205,102.514
0,491.502,0.97203,0,12.4621,102.472
0,491.502,0.972028,0,12.5037,102.431
0,491.502,0.972027,0,12.5453,102.389
0,491.502,0.972026,0,12.5869,102.347
0,491.502,0.972025,0,12.6285,102.306
0,491.502,0.972024,0,12.67,102.264
0,491.502,0.972022,0,12.7115,102.223
0,491.502,0.972021,0,12.7531,102.181
0,491.502,0.97202,0,12.7946,102.14
0,491.502,0.972019,0,12.836,102.098
0,491.502,0.972018,0,12.8775,102.057
0,491.502,0.972016,0,12.9189,102.015
0,491.502,0.972015,0,12.9604,101.974
0,491.502,0.972014,0,13.0018,101.933
0,491.502,0.972013,0,13.0432,101.891
0,491.502,0.972012,0,13.0846,101.85
0,491.502,0.97201,0,13.1259,101.808
0,491.502,0.972009,0,13.1673,101.767
0,491.502,0.972008,0,13.2086,101.726
0,491.502,0.972007,0,13.2499,101.684
0,491.502,0.972006,0,13.2912,101.643
0,491.502,0.972004,0,13.3325,101.602
0,491.502,0.972003,0,13.3738,101.561
0,491.502,0.972002,0,13.415,101.519
0,491.502,0.972001,0,13.4562,101.478
0,491.502,0.972,0,13.4974,101.437
0,491.502,0.971998,0,13.5386,101.396
0,491.502,0.971997,0,13.5798,101.355
0,491.502,0.971996,0,13.621,101.313
0,491.502,0.971995,0,13.6621,101.272
0,491.502,0.971993,0,13.7033,101.231
0,491.502,0.971992,0,13.7444,101.19
0,491.502,0.971991,0,13.7855,101.149
0,491.502,0.97199,0,13.8265,101.108
0,491.502,0.971989,0,13.8676,101.067
0,491.502,0.971987,0,13.9086,101.026
0,491.502,0.971986,0,13.9497,100.985
0,491.502,0.971985,0,13.9907,100.944
0,491.502,0.971984,0,14.0317,100.903
0,491.502,0.971983,0,14.0727,100.862
0,491.502,0.971981,0,14.1136,100.821
0,491.502,0.97198,0,14.1546,100.78
0,491.502,0.971979,0,14.1955,100.739
0,491.502,0.971978,0,14.2364,100.698
0,491.502,0.971977,0,14.2773,100.657
0,491.502,0.971975,0,14.3182,100.616
0,491.502,0.971974,0,14.359,100.575
0,491.502,0.971973,0,14.3999,100.534
0,491.502,0.971972,0,14.4407,100.494
0,491.502,0.971971,0,14.4815,100.453
0,491.502,0.971969,0,14.5223,100.412
0,491.502,0.971968,0,14.5631,100.371
0,491.502,0.971967,0,14.6039,100.331
0,491.502,0.971966,0,14.6446,100.29
0,491.502,0.971965,0,14.6853,100.249
0,491.502,0.971963,0,14.7261,100.208
0,491.502,0.971962,0,14.7667,100.168
0,491.502,0.971961,0,14.8074,100.127
0,491.502,0.97196,0,14.8481,100.086
0,491.502,0.971959,0,14.8887,100.046
0,491.502,0.971957,0,14.9294,100.005
0,491.502,0.971956,0,14.97,99.9644
0,491.502,0.971955,0,15.0106,99.9238
0,491.502,0.971954,0,15.0512,99.8832
0,491.502,0.971952,0,15.0917,99.8426
0,491.502,0.971951,0,15.1323,99.8021
0,491.502,0.97195,0,15.1728,99.7616
0,491.502,0.971949,0,15.2133,99.721
0,491.502,0.971948,0,15.2538,99.6805
0,491.502,0.971946,0,15.2943,99.6401
0,491.502,0.971945,0,15.3348,99.5996
0,491.502,0.971944,0,15.3752,99.5591
0,491.502,0.971943,0,15.4157,99.5187
0,491.502,0.971942,0,15.4561,99.4783
0,491.502,0.97194,0,15.5075,99.4268
0,491.502,0.971939,0,15.559,99.3754
0,491.502,0.971937,0,15.6104,99.324
0,491.502,0.971936,0,15.6618,99.2726
0,491.502,0.971934,0,15.7132,99.2212
0,491.502,0.971932,0,15.7645,99.1699
0,491.502,0.971931,0,15.8158,99.1186
0,491.502,0.971929,0,15.8671,99.0673
0,491.502,0.971928,0,15.9183,99.016
0,491.502,0.971926,0,15.9696,98.9648
0,491.502,0.971925,0,16.0208,98.9136
0,491.502,0.971923,0,16.072,98.8624
0,491.502,0.971922,0,16.1231,98.8113
0,491.502,0.97192,0,16.1742,98.7601
0,491.502,0.971919,0,16.2253,98.709
0,491.502,0.971917,0,16.2764,98.658
0,491.502,0.971916,0,16.3275,98.6069
0,491.502,0.971914,0,16.3785,98.5559
0,491.502,0.971912,0,16.4295,98.5049
0,491.502,0.971911,0,16.4804,98.4539
0,491.502,0.971909,0,16.5314,98.403
0,491.502,0.971908,0,16.5823,98.3521
0,491.502,0.971906,0,16.6332,98.3012
0,491.502,0.971905,0,16.684,98.2503
0,491.502,0.971903,0,16.7349,98.1995
0,491.502,0.971902,0,16.7857,98.1487
0,491.502,0.9719,0,16.8365,98.0979
0,491.502,0.971899,0,16.8872,98.0471
0,491.502,0.971897,0,16.938,97.9964
0,491.502,0.971896,0,16.9887,97.9457
0,491.502,0.971894,0,17.0393,97.895
0,491.502,0.971893,0,17.09,97.8444
0,491.502,0.971891,0,17.1406,97.7937
0,491.502,0.971889,0,17.1912,97.7431
0,491.502,0.971888,0,17.2418,97.6926
0,491.502,0.971886,0,17.2923,97.642
0,491.502,0.971885,0,17.3429,97.5915
0,491.502,0.971883,0,17.3934,97.541
0,491.502,0.971882,0,17.4438,97.4905
0,491.502,0.97188,0,17.4943,97.4401
0,491.502,0.971879,0,17.5447,97.3897
0,491.502,0.971877,0,17.5951,97.3393
0,491.502,0.971876,0,17.6454,97.2889
0,491.502,0.971874,0,17.6958,97.2386
0,491.502,0.971873,0,17.7461,97.1883
0,491.502,0.971871,0,17.7964,97.138
0,491.502,0.971869,0,17.8466,97.0877
0,491.502,0.971868,0,17.8969,97.0375
0,491.502,0.971866,0,17.9471,96.9873
0,491.502,0.971865,0,17.9973,96.9371
0,491.502,0.971863,0,18.0474,96.887
0,491.502,0.971862,0,18.0975,96.8368
0,491.502,0.97186,0,18.1476,96.7867
0,491.502,0.971859,0,18.1977,96.7366
0,491.502,0.971857,0,18.2478,96.6866
0,491.502,0.971856,0,18.2978,96.6366
0,491.502,0.971854,0,18.3478,96.5866
0,491.502,0.971853,0,18.3978,96.5366
0,491.502,0.971851,0,18.4477,96.4866
0,491.502,0.97185,0,18.4976,96.4367
0,491.502,0.971848,0,18.5475,96.3868
0,491.502,0.971846,0,18.5974,96.337
0,491.502,0.971845,0,18.6473,96.2871
0,491.502,0.971843,0,18.6971,96.2373
0,491.502,0.971842,0,18.7469,96.1875
0,491.502,0.97184,0,18.7966,96.1377
0,491.502,0.971839,0,18.8464,96.088
0,491.502,0.971837,0,18.8961,96.0383
0,491.502,0.971836,0,18.9458,95.9886
0,491.502,0.971834,0,18.9955,95.9389
0,491.502,0.971833,0,19.0451,95.8893
0,491.502,0.971831,0,19.0947,95.8397
0,491.502,0.97183,0,19.1443,95.7901
0,491.502,0.971828,0,19.1939,95.7405
0,491.502,0.971826,0,19.2434,95.691
0,491.502,0.971825,0,19.2929,95.6415
0,491.502,0.971823,0,19.3424,95.592
0,491.502,0.971822,0,19.3919,95.5425
0,491.502,0.97182,0,19.4413,95.4931
0,491.502,0.971819,0,19.4907,95.4437
0,491.502,0.971817,0,19.5401,95.3943
0,491.502,0.971816,0,19.5894,95.3449
0,491.502,0.971814,0,19.6388,95.2956
0,491.502,0.971813,0,19.6881,95.2463
0,491.502,0.971811,0,19.7374,95.197
0,491.502,0.97181,0,19.7866,95.1478
0,491.502,0.971808,0,19.8358,95.0985
0,491.502,0.971807,0,19.8851,95.0493
0,491.502,0.971805,0,19.9342,95.0001
0,491.502,0.971803,0,19.9834,94.951
0,491.502,0.971802,0,20.0325,94.9019
0,491.502,0.9718,0,20.0816,94.8528
0,491.502,0.971799,0,20.1307,94.8037
0,491.502,0.971797,0,20.1797,94.7546
0,491.502,0.971796,0,20.2288,94.7056
0,491.502,0.971794,0,20.2778,94.6566
0,491.502,0.971793,0,20.3268,94.6076
0,491.502,0.971791,0,20.3757,94.5587
0,491.502,0.97179,0,20.4246,94.5097
0,491.502,0.971788,0,20.4735,94.4608
0,491.502,0.971787,0,20.5224,94.412
0,491.502,0.971785,0,20.5713,94.3631
0,491.502,0.971784,0,20.6201,94.3143
0,491.502,0.971782,0,20.6689,94.2655
0,491.502,0.97178,0,20.7176,94.2167
0,491.502,0.971779,0,20.7664,94.168
0,491.502,0.971777,0,20.8151,94.1192
0,491.502,0.971776,0,20.8638,94.0705
0,491.502,0.971774,0,20.9125,94.0219
0,491.502,0.971773,0,20.9611,93.9732
0,491.502,0.971771,0,21.0098,93.9246
0,491.502,0.97177,0,21.0584,93.876
0,491.502,0.971768,0,21.1069,93.8274
0,491.502,0.971767,0,21.1555,93.7789
0,491.502,0.971765,0,21.204,93.7304
0,491.502,0.971764,0,21.2525,93.6819
0,491.502,0.971762,0,21.301,93.6334
0,491.502,0.97176,0,21.3494,93.585
0,491.502,0.971759,0,21.3978,93.5365
0,491.502,0.971757,0,21.4462,93.4881
0,491.502,0.971756,0,21.4946,93.4398
0,491.502,0.971754,0,21.543,93.3914
0,491.502,0.971753,0,21.5913,93.3431
0,491.502,0.971751,0,21.6396,93.2948
0,491.502,0.97175,0,21.6878,93.2465
0,491.502,0.971748,0,21.7361,93.1983
0,491.502,0.971747,0,21.7843,93.1501
0,491.502,0.971745,0,21.8325,93.1019
0,491.502,0.971744,0,21.8807,93.0537
0,491.502,0.971742,0,21.9288,93.0055
0,491.502,0.971741,0,21.9769,92.9574
0,491.502,0.971739,0,22.025,92.9093
0,491.502,0.971737,0,22.0731,92.8613
0,491.502,0.971736,0,22.1212,92.8132
0,491.502,0.971734,0,22.1692,92.7652
0,491.502,0.971733,0,22.2172,92.7172
0,491.502,0.971731,0,22.2652,92.6692
0,491.502,0.97173,0,22.3131,92.6213
0,491.502,0.971728,0,22.361,92.5733
0,491.502,0.971727,0,22.4089,92.5254
0,491.502,0.971725,0,22.4568,92.4776
0,491.502,0.971724,0,22.5046,92.4297
0,491.502,0.971722,0,22.5525,92.3819
0,491.502,0.971721,0,22.6003,92.3341
0,491.502,0.971719,0,22.648,92.2863
0,491.502,0.971717,0,22.6958,92.2386
0,491.502,0.971716,0,22.7435,92.1909
0,491.502,0.971714,0,22.7912,92.1432
0,491.502,0.971713,0,22.8389,92.0955
0,491.502,0.971711,0,22.8865,92.0478
0,491.502,0.97171,0,22.9342,92.0002
0,491.502,0.971708,0,22.9818,91.9526
0,491.502,0.971707,0,23.0293,91.905
0,491.502,0.971705,0,23.0769,91.8575
0,491.502,0.971704,0,23.1244,91.8099
0,491.502,0.971702,0,23.1719,91.7624
0,491.502,0.971701,0,23.2194,91.715
0,491.502,0.971699,0,23.2669,91.6675
0,491.502,0.971698,0,23.3143,91.6201
0,491.502,0.971696,0,23.3617,91.5727
0,491.502,0.971694,0,23.4091,91.5253
0,491.502,0.971693,0,23.4564,91.4779
0,491.502,0.971691,0,23.5038,91.4306
0,491.502,0.971689,0,23.564,91.3704
0,491.502,0.971687,0,23.6241,91.3102
0,491.502,0.971686,0,23.6843,91.2501
0,491.502,0.971684,0,23.7443,91.19
0,491.502,0.971682,0,23.8044,91.13
0,491.502,0.97168,0,23.8644,91.07
0,491.502,0.971678,0,23.9244,91.01
0,491.502,0.971676,0,23.9843,90.9501
0,491.502,0.971674,0,24.0442,90.8902
0,491.502,0.971672,0,24.104,90.8303
0,491.502,0.97167,0,24.1638,90.7705
0,491.502,0.971668,0,24.2236,90.7107
0,491.502,0.971666,0,24.2834,90.651
0,491.502,0.971664,0,24.343,90.5913
0,491.502,0.971662,0,24.4027,90.5317
0,491.502,0.97166,0,24.4623,90.4721
0,491.502,0.971658,0,24.5219,90.4125
0,491.502,0.971656,0,24.5814,90.3529
0,491.502,0.971654,0,24.6409,90.2935
0,491.502,0.971652,0,24.7004,90.234
0,491.502,0.97165,0,24.7598,90.1746
0,491.502,0.971648,0,24.8192,90.1152
0,491.502,0.971646,0,24.8785,90.0559
0,491.502,0.971644,0,24.9378,89.9966
0,491.502,0.971643,0,24.9971,89.9373
0,491.502,0.971641,0,25.0563,89.8781
0,491.502,0.971639,0,25.1155,89.8189
0,491.502,0.971637,0,25.1746,89.7598
0,491.502,0.971635,0,25.2337,89.7006
0,491.502,0.971633,0,25.2928,89.6416
0,491.502,0.971631,0,25.3518,89.5826
0,491.502,0.971629,0,25.4108,89.5236
0,491.502,0.971627,0,25.4698,89.4646
0,491.502,0.971625,0,25.5287,89.4057
0,491.502,0.971623,0,25.5875,89.3468
0,491.502,0.971621,0,25.6464,89.288
0,491.502,0.971619,0,25.7052,89.2292
0,491.502,0.971617,0,25.7639,89.1704
0,491.502,0.971615,0,25.8226,89.1117
0,491.502,0.971613,0,25.8813,89.0531
0,491.502,0.971611,0,25.94,88.9944
0,491.502,0.971609,0,25.9986,88.9358
0,491.502,0.971607,0,26.0571,88.8773
0,491.502,0.971605,0,26.1156,88.8187
0,491.502,0.971603,0,26.1741,88.7602
0,491.502,0.971602,0,26.2326,88.7018
0,491.502,0.9716,0,26.291,88.6434
0,491.502,0.971598,0,26.3494,88.585
0,491.502,0.971596,0,26.4077,88.5267
0,491.502,0.971594,0,26.466,88.4684
0,491.502,0.971592,0,26.5242,88.4101
0,491.502,0.97159,0,26.5824,88.3519
0,491.502,0.971588,0,26.6406,88.2937
0,491.502,0.971586,0,26.6988,88.2356
0,491.502,0.971584,0,26.7569,88.1775
0,491.502,0.971582,0,26.8149,88.1194
0,491.502,0.97158,0,26.873,88.0614
0,491.502,0.971578,0,26.9309,88.0034
0,491.502,0.971576,0,26.9889,87.9455
0,491.502,0.971574,0,27.0468,87.8876
0,491.502,0.971572,0,27.1047,87.8297
0,491.502,0.97157,0,27.1625,87.7719
0,491.502,0.971568,0,27.2203,87.7141
0,491.502,0.971566,0,27.2781,87.6563
0,491.502,0.971564,0,27.3358,87.5986
0,491.502,0.971562,0,27.3935,87.5409
0,491.502,0.97156,0,27.4511,87.4833
0,491.502,0.971559,0,27.5087,87.4257
0,491.502,0.971557,0,27.5663,87.3681
0,491.502,0.971555,0,27.6238,87.3106
0,491.502,0.971553,0,27.6813,87.2531
0,491.502,0.971551,0,27.7388,87.1956
0,491.502,0.971549,0,27.7962,87.1382
0,491.502,0.971547,0,27.8536,87.0808
0,491.502,0.971545,0,27.9109,87.0235
0,491.502,0.971543,0,27.9682,86.9662
0,491.502,0.971541,0,28.0255,86.9089
0,491.502,0.971539,0,28.0827,86.8517
0,491.502,0.971537,0,28.1399,86.7945
0,491.502,0.971535,0,28.197,86.7373
0,491.502,0.971533,0,28.2542,86.6802
0,491.502,0.971531,0,28.3112,86.6231
0,491.502,0.971529,0,28.3683,86.5661
0,491.502,0.971527,0,28.4253,86.5091
0,491.502,0.971525,0,28.4822,86.4521
0,491.502,0.971523,0,28.5392,86.3952
0,491.502,0.971521,0,28.5961,86.3383
0,491.502,0.971519,0,28.6529,86.2815
0,491.502,0.971518,0,28.7097,86.2246
0,491.502,0.971516,0,28.7665,86.1679
0,491.502,0.971514,0,28.8232,86.1111
0,491.502,0.971512,0,28.8799,86.0544
0,491.502,0.97151,0,28.9366,85.9978
0,491.502,0.971508,0,28.9932,85.9411
0,491.502,0.971506,0,29.0498,85.8845
0,491.502,0.971504,0,29.1064,85.828
0,491.502,0.971502,0,29.1629,85.7715
0,491.502,0.9715,0,29.2194,85.715
0,491.502,0.971498,0,29.2758,85.6586
0,491.502,0.971496,0,29.3322,85.6022
0,491.502,0.971494,0,29.3886,85.5458
0,491.502,0.971492,0,29.4449,85.4895
0,491.502,0.97149,0,29.5012,85.4332
0,491.502,0.971488,0,29.5575,85.3769
0,491.502,0.971486,0,29.6137,85.3207
0,491.502,0.971484,0,29.6699,85.2645
0,491.502,0.971482,0,29.726,85.2084
0,491.502,0.97148,0,29.7821,85.1522
0,491.502,0.971478,0,29.8382,85.0962
0,491.502,0.971476,0,29.8942,85.0401
0,491.502,0.971475,0,29.9502,84.9841
0,491.502,0.971473,0,30.0062,84.9282
0,491.502,0.971471,0,30.0621,84.8723
0,491.502,0.971469,0,30.118,84.8164
0,491.502,0.971467,0,30.1738,84.7605
0,491.502,0.971465,0,30.2297,84.7047
0,491.502,0.971463,0,30.2854,84.6489
0,491.502,0.971461,0,30.3412,84.5932
0,491.502,0.971459,0,30.3969,84.5375
0,491.502,0.971457,0,30.4525,84.4818
0,491.502,0.971455,0,30.5082,84.4262
0,491.502,0.971453,0,30.5638,84.3706
0,491.502,0.971451,0,30.6193,84.315
0,491.502,0.971449,0,30.6748,84.2595
0,491.502,0.971447,0,30.7303,84.204
0,491.502,0.971445,0,30.7858,84.1486
0,491.502,0.971443,0,30.8412,84.0932
0,491.502,0.971441,0,30.8966,84.0378
0,491.502,0.971439,0,30.9519,83.9825
0,491.502,0.971437,0,31.0072,83.9272
0,491.502,0.971435,0,31.0625,83.8719
0,491.502,0.971433,0,31.1177,83.8167
0,491.502,0.971432,0,31.1729,83.7615
0,491.502,0.97143,0,31.228,83.7063
0,491.502,0.971428,0,31.2832,83.6512
0,491.502,0.971426,0,31.3382,83.5961
0,491.502,0.971424,0,31.3933,83.5411
0,491.502,0.971422,0,31.4483,83.4861
0,491.502,0.97142,0,31.5033,83.4311
0,491.502,0.971418,0,31.5582,83.3762
0,491.502,0.971416,0,31.6131,83.3213
0,491.502,0.971414,0,31.668,83.2664
0,491.502,0.971412,0,31.7228,83.2116
0,491.502,0.97141,0,31.7776,83.1568
0,491.502,0.971408,0,31.8323,83.102
0,491.502,0.971406,0,31.8871,83.0473
0,491.502,0.971404,0,31.9418,82.9926
0,491.502,0.971402,0,31.9964,82.938
0,491.502,0.9714,0,32.051,82.8833
0,491.502,0.971398,0,32.1056,82.8288
0,491.502,0.971396,0,32.1601,82.7742
0,491.502,0.971394,0,32.2146,82.7197
0,491.502,0.971392,0,32.2691,82.6653
0,491.502,0.971391,0,32.3235,82.6108
0,491.502,0.971389,0,32.3779,82.5564
0,491.502,0.971387,0,32.4323,82.5021
0,491.502,0.971385,0,32.4866,82.4477
0,491.502,0.971383,0,32.5409,82.3934
0,491.502,0.971381,0,32.5952,82.3392
0,491.502,0.971379,0,32.6494,82.285
0,491.502,0.971377,0,32.7036,82.2308
0,491.502,0.971375,0,32.7577,82.1766
0,491.502,0.971373,0,32.8118,82.1225
0,491.502,0.971371,0,32.8659,82.0685
0,491.502,0.971369,0,32.92,82.0144
0,491.502,0.971367,0,32.974,81.9604
0,491.502,0.971365,0,33.0279,81.9064
0,491.502,0.971363,0,33.0819,81.8525
0,491.502,0.971361,0,33.1358,81.7986
0,491.502,0.971359,0,33.1896,81.7447
0,491.502,0.971357,0,33.2435,81.6909
0,491.502,0.971355,0,33.2972,81.6371
0,491.502,0.971353,0,33.351,81.5834
0,491.502,0.971351,0,33.4047,81.5296
0,491.502,0.97135,0,33.4584,81.476
0,491.502,0.971348,0,33.5121,81.4223
0,491.502,0.971346,0,33.5657,81.3687
0,491.502,0.971344,0,33.6193,81.3151
0,491.502,0.971342,0,33.6728,81.2616
0,491.502,0.97134,0,33.7263,81.2081
0,491.502,0.971338,0,33.7798,81.1546
0,491.502,0.971336,0,33.8332,81.1011
0,491.502,0.971334,0,33.8866,81.0477
0,491.502,0.971332,0,33.94,80.9944
0,491.502,0.97133,0,33.9933,80.941
0,491.502,0.971328,0,34.0466,80.8877
0,491.502,0.971326,0,34.0999,80.8345
0,491.502,0.971324,0,34.1676,80.7667
0,491.502,0.971321,0,34.2353,80.6991
0,491.502,0.971319,0,34.3029,80.6314
0,491.502,0.971316,0,34.3705,80.5639
0,491.502,0.971314,0,34.438,80.4963
0,491.502,0.971311,0,34.5055,80.4289
0,491.502,0.971309,0,34.5729,80.3615
0,491.502,0.971306,0,34.6402,80.2941
0,491.502,0.971304,0,34.7075,80.2269
0,491.502,0.971301,0,34.7747,80.1596
0,491.502,0.971299,0,34.8419,80.0925
0,491.502,0.971296,0,34.909,80.0253
0,491.502,0.971294,0,34.9761,79.9583
0,491.502,0.971291,0,35.0431,79.8913
0,491.502,0.971289,0,35.11,79.8243
0,491.502,0.971286,0,35.1769,79.7574
0,491.502,0.971284,0,35.2438,79.6906
0,491.502,0.971281,0,35.3106,79.6238
0,491.502,0.971279,0,35.3773,79.5571
0,491.502,0.971276,0,35.444,79.4904
0,491.502,0.971274,0,35.5106,79.4238
0,491.502,0.971271,0,35.5771,79.3572
0,491.502,0.971269,0,35.6436,79.2907
0,491.502,0.971266,0,35.7101,79.2243
0,491.502,0.971264,0,35.7765,79.1579
0,491.502,0.971261,0,35.8428,79.0916
0,491.502,0.971259,0,35.9091,79.0253
0,491.502,0.971256,0,35.9753,78.9591
0,491.502,0.971254,0,36.0415,78.8929
0,491.502,0.971251,0,36.1076,78.8268
0,491.502,0.971249,0,36.1736,78.7607
0,491.502,0.971247,0,36.2396,78.6947
0,491.502,0.971244,0,36.3056,78.6288
0,491.502,0.971242,0,36.3715,78.5629
0,491.502,0.971239,0,36.4373,78.497
0,491.502,0.971237,0,36.5031,78.4313
0,491.502,0.971234,0,36.5688,78.3655
0,491.502,0.971232,0,36.6345,78.2999
0,491.502,0.971229,0,36.7001,78.2343
0,491.502,0.971227,0,36.7657,78.1687
0,491.502,0.971224,0,36.8312,78.1032
0,491.502,0.971222,0,36.8966,78.0377
0,491.502,0.971219,0,36.962,77.9723
0,491.502,0.971217,0,37.0274,77.907
0,491.502,0.971214,0,37.0927,77.8417
0,491.502,0.971212,0,37.1579,77.7765
0,491.502,0.971209,0,37.2231,77.7113
0,491.502,0.971207,0,37.2882,77.6462
0,491.502,0.971204,0,37.3533,77.5811
0,491.502,0.971202,0,37.4183,77.5161
0,491.502,0.971199,0,37.4832,77.4511
0,491.502,0.971197,0,37.5481,77.3862
0,491.502,0.971194,0,37.613,77.3214
0,491.502,0.971192,0,37.6778,77.2566
0,491.503,0.971189,0,37.7425,77.1918
0,491.503,0.971187,0,37.8072,77.1272
0,491.503,0.971184,0,37.8718,77.0625
0,491.503,0.971182,0,37.9364,76.9979
0,491.503,0.971179,0,38.001,76.9334
0,491.503,0.971177,0,38.0654,76.8689
0,491.503,0.971174,0,38.1298,76.8045
0,491.503,0.971172,0,38.1942,76.7402
0,491.503,0.971169,0,38.2585,76.6759
0,491.503,0.971167,0,38.3228,76.6116
0,491.503,0.971164,0,38.387,76.5474
0,491.503,0.971162,0,38.4511,76.4833
0,491.503,0.971159,0,38.5152,76.4192
0,491.503,0.971157,0,38.5792,76.3551
0,491.503,0.971155,0,38.6432,76.2911
0,491.503,0.971152,0,38.7072,76.2272
0,491.503,0.97115,0,38.771,76.1633
0,491.503,0.971147,0,38.8349,76.0995
0,491.503,0.971145,0,38.8986,76.0357
0,491.503,0.971142,0,38.9624,75.972
0,491.503,0.97114,0,39.026,75.9083
0,491.503,0.971137,0,39.0896,75.8447
0,491.503,0.971135,0,39.1532,75.7812
0,491.503,0.971132,0,39.2167,75.7177
0,491.503,0.97113,0,39.2802,75.6542
0,491.503,0.971127,0,39.3436,75.5908
0,491.503,0.971125,0,39.4069,75.5275
0,491.503,0.971122,0,39.4702,75.4642
0,491.503,0.97112,0,39.5334,75.4009
0,491.503,0.971117,0,39.5966,75.3377
0,491.503,0.971115,0,39.6598,75.2746
0,491.503,0.971112,0,39.7228,75.2115
0,491.503,0.97111,0,39.7859,75.1485
0,491.503,0.971107,0,39.8488,75.0855
0,491.503,0.971105,0,39.9118,75.0226
0,491.503,0.971102,0,39.9746,74.9597
0,491.503,0.9711,0,40.0374,74.8969
0,491.503,0.971097,0,40.1002,74.8342
0,491.503,0.971095,0,40.1629,74.7714
0,491.503,0.971092,0,40.2256,74.7088
0,491.503,0.97109,0,40.2882,74.6462
0,491.503,0.971087,0,40.3507,74.5836
0,491.503,0.971085,0,40.4132,74.5211
0,491.503,0.971082,0,40.4757,74.4587
0,491.503,0.97108,0,40.5381,74.3963
0,491.503,0.971077,0,40.6004,74.3339
0,491.503,0.971075,0,40.6627,74.2716
0,491.503,0.971072,0,40.725,74.2094
0,491.503,0.97107,0,40.7872,74.1472
0,491.503,0.971068,0,40.8493,74.0851
0,491.503,0.971065,0,40.9114,74.023
0,491.503,0.971063,0,40.9734,73.961
0,491.503,0.97106,0,41.0354,73.899
0,491.503,0.971058,0,41.0973,73.837
0,491.503,0.971055,0,41.1592,73.7752
0,491.503,0.971053,0,41.221,73.7133
0,491.503,0.97105,0,41.2828,73.6516
0,491.503,0.971048,0,41.3445,73.5899
0,491.503,0.971045,0,41.4062,73.5282
0,491.503,0.971043,0,41.4678,73.4666
0,491.503,0.97104,0,41.5294,73.405
0,491.503,0.971038,0,41.5909,73.3435
0,491.503,0.971035,0,41.6523,73.282
0,491.503,0.971033,0,41.7138,73.2206
0,491.503,0.97103,0,41.7751,73.1593
0,491.503,0.971028,0,41.8364,73.0979
0,491.503,0.971025,0,41.8977,73.0367
0,491.503,0.971023,0,41.9589,72.9755
0,491.503,0.97102,0,42.02,72.9143
0,491.503,0.971018,0,42.0811,72.8532
0,491.503,0.971015,0,42.1422,72.7922
0,491.503,0.971013,0,42.2032,72.7312
0,491.503,0.97101,0,42.2641,72.6702
0,491.503,0.971008,0,42.325,72.6093
0,491.503,0.971005,0,42.3859,72.5485
0,491.503,0.971003,0,42.4467,72.4877
0,491.503,0.971,0,42.5074,72.4269
0,491.503,0.970998,0,42.5681,72.3662
0,491.503,0.970995,0,42.6288,72.3056
0,491.503,0.970993,0,42.6894,72.245
0,491.503,0.97099,0,42.7499,72.1845
0,491.503,0.970988,0,42.8104,72.124
0,491.503,0.970986,0,42.8708,72.0635
0,491.503,0.970983,0,42.9312,72.0031
0,491.503,0.970981,0,42.9916,71.9428
0,491.503,0.970978,0,43.0519,71.8825
0,491.503,0.970976,0,43.1121,71.8223
0,491.503,0.970973,0,43.1723,71.7621
0,491.503,0.970971,0,43.2324,71.7019
0,491.503,0.970968,0,43.2925,71.6419
0,491.503,0.970966,0,43.3525,71.5818
0,491.503,0.970963,0,43.4125,71.5218
0,491.503,0.970961,0,43.4725,71.4619
0,491.503,0.970958,0,43.5324,71.402
0,491.503,0.970956,0,43.5922,71.3422
0,491.503,0.970953,0,43.652,71.2824
0,491.503,0.970951,0,43.7117,71.2227
0,491.503,0.970948,0,43.7714,71.163
0,491.503,0.970946,0,43.831,71.1033
0,491.503,0.970943,0,43.8906,71.0438
0,491.503,0.970941,0,43.9501,70.9842
0,491.503,0.970938,0,44.0096,70.9247
0,491.503,0.970936,0,44.0691,70.8653
0,491.503,0.970933,0,44.1285,70.8059
0,491.503,0.970931,0,44.1878,70.7466
0,491.503,0.970928,0,44.2471,70.6873
0,491.503,0.970926,0,44.3063,70.6281
0,491.503,0.970923,0,44.3655,70.5689
0,491.503,0.970921,0,44.4246,70.5097
0,491.503,0.970918,0,44.4837,70.4506
0,491.503,0.970916,0,44.5428,70.3916
0,491.503,0.970913,0,44.6018,70.3326
0,491.503,0.970911,0,44.6607,70.2737
0,491.503,0.970908,0,44.7196,70.2148
0,491.503,0.970906,0,44.7784,70.1559
0,491.503,0.970903,0,44.8372,70.0972
0,491.503,0.970901,0,44.896,70.0384
0,491.503,0.970899,0,44.9547,69.9797
0,491.503,0.970896,0,45.0133,69.9211
0,491.503,0.970894,0,45.0719,69.8625
0,491.503,0.970891,0,45.1304,69.8039
0,491.503,0.970889,0,45.1889,69.7454
0,491.503,0.970886,0,45.2474,69.687
0,491.503,0.970884,0,45.3058,69.6286
0,491.503,0.970881,0,45.3641,69.5702
0,491.503,0.970879,0,45.4224,69.5119
0,491.503,0.970876,0,45.4807,69.4537
0,491.503,0.970874,0,45.5389,69.3955
0,491.503,0.970871,0,45.597,69.3373
0,491.503,0.970869,0,45.6551,69.2792
0,491.503,0.970866,0,45.7132,69.2212
0,491.503,0.970864,0,45.7712,69.1632
0,491.503,0.970861,0,45.8292,69.1052
0,491.503,0.970859,0,45.8871,69.0473
0,491.503,0.970856,0,45.9449,68.9894
0,491.503,0.970854,0,46.0028,68.9316
0,491.503,0.970851,0,46.0605,68.8738
0,491.503,0.970849,0,46.1182,68.8161
0,491.503,0.970846,0,46.1759,68.7585
0,491.503,0.970844,0,46.2335,68.7008
0,491.503,0.970841,0,46.2911,68.6433
0,491.503,0.970839,0,46.3486,68.5857
0,491.503,0.970836,0,46.4061,68.5283
0,491.503,0.970834,0,46.4635,68.4708
0,491.503,0.970831,0,46.5209,68.4135
0,491.503,0.970829,0,46.5782,68.3561
0,491.503,0.970826,0,46.6355,68.2988
0,491.503,0.970824,0,46.6928,68.2416
0,491.503,0.970821,0,46.7499,68.1844
0,491.503,0.970819,0,46.8071,68.1273
0,491.503,0.970817,0,46.8642,68.0702
3.02692e-6,491.503,0.970808,0,47.0663,67.8681
6.28747e-6,491.503,0.970798,0,47.2834,67.651
1.1343e-5,491.503,0.970783,0,47.6187,67.3157
3.92965e-5,491.503,0.970702,0,49.4433,65.4911
8.25793e-5,491.503,0.970576,0,52.1715,62.7629
0.000122896,491.503,0.970459,0,54.6104,60.324
0.000177256,491.503,0.9703,0,57.7493,57.1851
0.000315709,491.504,0.969897,0,65.0256,49.9088
0.000447396,491.504,0.969514,0,71.0855,43.8489
0.000586247,491.505,0.969111,0,76.6799,38.2545
0.000725098,491.505,0.968707,0,81.5605,33.3739
0.000890253,491.505,0.968227,0,86.5618,28.3726
0.00115533,491.506,0.967458,0,93.0702,21.8642
0.0014204,491.507,0.966688,0,98.0856,16.8488
0.00168547,491.508,0.96592,0,101.951,12.9838
0.00199358,491.509,0.965028,0,105.343,9.59099
0.00236478,491.51,0.963954,0,108.276,6.65874
0.00280998,491.511,0.962667,0,110.636,4.29864
0.00323099,491.512,0.961452,0,112.093,2.84181
0.00365051,491.513,0.960243,0,113.053,1.88145
0.00411615,491.515,0.958902,0,113.744,1.19043
0.00458303,491.516,0.95756,0,114.182,0.752286
0.00506727,491.518,0.95617,0,114.467,0.46736
0.00557981,491.519,0.954701,0,114.652,0.282386
0.00610971,491.521,0.953184,0,114.767,0.167734
0.00667703,491.522,0.951563,0,114.838,0.0960353
0.00726582,491.524,0.949884,0,114.881,0.053836
0.0079347,491.526,0.94798,0,114.906,0.0278966
0.00865732,491.528,0.945927,0,114.921,0.0137119
0.00948262,491.53,0.943588,0,114.928,0.00609462
0.0104188,491.533,0.940942,0,114.932,0.00243004
0.011477,491.536,0.937959,0,114.934,0.000860757
0.0127663,491.539,0.934338,0,114.934,0.000244567
0.0141742,491.543,0.9304,0,114.934,6.18281e-5
0.0161341,491.549,0.924946,0,114.934,1.00689e-5
0.0181993,491.554,0.919233,0,114.934,1.18387e-6
0.0210894,491.562,0.911297,0,114.934,6.86577e-7
0.024275,491.571,0.90263,0,114.934,3.77407e-7
0.0287118,491.583,0.890695,0,114.934,-1.29651e-7
0.0359787,491.602,0.871487,0,114.934,3.8847e-7
0.0421099,491.618,0.855604,0,114.934,4.06066e-7
0.0502066,491.639,0.835072,0,114.934,6.13981e-7
0.0623979,491.669,0.805082,0,114.934,3.61964e-7
0.0763422,491.702,0.772098,0,114.934,-1.37286e-7
0.093768,491.741,0.732771,0,114.934,-1.02213e-7
0.117648,491.792,0.682111,0,114.934,2.60175e-7
0.148864,491.853,0.621133,0,114.934,1.93151e-8
0.189782,491.924,0.549381,0,114.934,1.21984e-6
0.244845,492.008,0.465728,0,114.934,7.05605e-8
0.323145,492.105,0.368228,0,114.934,-1.44556e-6
0.395695,492.177,0.296205,0,114.934,-7.00112e-7
0.447471,492.22,0.253591,0,114.934,7.49501e-6
0.466099,492.234,0.239809,0,114.934,3.80663e-7
0.472647,492.239,0.235144,0,114.934,-3.61997e-7
0.481392,492.245,0.229055,0,114.934,1.25723e-7
0.498801,492.256,0.217399,0,114.934,1.58987e-7
0.525198,492.273,0.200847,0,114.934,2.21164e-8
0.581271,492.304,0.16975,0,114.934,-7.01185e-8
0.667916,492.343,0.130894,0,114.934,-5.15132e-8
0.810201,492.388,0.0854119,0,114.934,-1.48208e-9
0.947132,492.417,0.0566364,0,114.934,-5.27631e-10
1.11799,492.44,0.0339183,0,114.934,-9.47903e-11
1.29088,492.454,0.0201895,0,114.934,-3.46684e-11
1.4812,492.462,0.0114044,0,114.934,-5.66506e-11
1.68645,492.468,0.00615914,0,114.934,-1.11363e-10
1.91945,492.471,0.00305968,0,114.934,2.98266e-10
2.19034,492.472,0.00135566,0,114.934,8.39801e-11
2.49046,492.473,0.000549534,0,114.934,7.60554e-11
2.86899,492.474,0.000174881,0,114.934,-3.65882e-10
3.30476,492.474,4.6499e-5,0,114.934,-1.15322e-9
3.89833,492.474,6.94307e-6,0,114.934,-1.8622e-6
4.16033,492.474,3.23238e-6,0,114.934,-3.09745e-7
4.40609,492.474,1.54756e-6,0,114.934,-7.91097e-9
4.98899,492.474,3.3642e-7,0,114.934,1.41879e-10
5.98899,492.474,2.01093e-7,0,114.934,5.11451e-10
6.98899,492.474,-2.60883e-8,0,114.934,-6.8787e-10
7.98899,492.474,-7.21699e-9,0,114.934,2.52519e-10
8.98899,492.474,4.36914e-10,0,114.934,-9.26995e-11
9.98899,492.474,1.09228e-10,0,114.934,-9.42232e-14
10.989,492.474,2.73071e-11,0,114.934,-9.54922e-17
11.989,492.474,6.82678e-12,0,114.934,-2.69962e-20
12.989,492.474,1.70669e-12,0,114.934,1.74891e-20
13.989,492.474,4.26674e-13,0,114.934,4.39691e-21
14.989,492.474,1.06668e-13,0,114.934,1.09925e-21
15.989,492.474,2.66671e-14,0,114.934,2.74813e-22
16.989,492.474,6.66677e-15,0,114.934,6.87033e-23
17.989,492.474,1.66669e-15,0,114.934,1.71758e-23
18.989,492.474,4.16673e-16,0,114.934,4.29395e-24
19.989,492.474,1.04168e-16,0,114.934,1.07349e-24
20.989,492.474,2.60421e-17,0,114.934,2.68372e-25
21.989,492.474,6.51052e-18,0,114.934,6.7093e-26
22.989,492.474,1.62763e-18,0,114.934,1.67733e-26
23.989,492.474,4.06908e-19,0,114.934,4.19332e-27
24.989,492.474,1.01727e-19,0,114.934,1.04833e-27
25.989,492.474,2.54317e-20,0,114.934,2.62082e-28
26.989,492.474,6.35793e-21,0,114.934,6.55205e-29
27.989,492.474,1.58948e-21,0,114.934,1.63801e-29
28.989,492.474,3.97371e-22,0,114.934,4.09503e-30
29.989,492.474,9.93427e-23,0,114.934,1.02376e-30
30.989,492.474,2.48357e-23,0,114.934,2.5594e-31
31.989,492.474,6.20892e-24,0,114.934,6.39849e-32
32.989,492.474,1.55223e-24,0,114.934,1.59962e-32
33.989,492.474,3.88057e-25,0,114.934,3.99906e-33
34.989,492.474,9.70143e-26,0,114.934,9.99764e-34
35.989,492.474,2.42536e-26,0,114.934,2.49941e-34
36.989,492.474,6.0634e-27,0,114.934,6.24853e-35
37.989,492.474,1.51585e-27,0,114.934,1.56213e-35
38.989,492.474,3.78962e-28,0,114.934,3.90533e-36
39.989,492.474,9.47406e-29,0,114.934,9.76332e-37
40.989,492.474,2.36851e-29,0,114.934,2.44083e-37
41.989,492.474,5.92129e-30,0,114.934,6.10208e-38
42.989,492.474,1.48032e-30,0,114.934,1.52552e-38
43.989,492.474,3.7008e-31,0,114.934,3.8138e-39
44.989,492.474,9.25201e-32,0,114.934,9.53449e-40
45.989,492.474,2.313e-32,0,114.934,2.38362e-40
46.989,492.474,5.78251e-33,0,114.934,5.95906e-41
47.989,492.474,1.44563e-33,0,114.934,1.48976e-41
48.989,492.474,3.61407e-34,0,114.934,3.72441e-42
49.989,492.474,9.03516e-35,0,114.934,9.31103e-43
50.989,492.474,2.25879e-35,0,114.934,2.32776e-43
51.989,492.474,5.64698e-36,0,114.934,2.36093e-46
52.989,492.474,1.41174e-36,0,114.934,2.39459e-49
53.989,492.474,3.52936e-37,0,114.934,2.42871e-52
54.989,492.474,8.8234e-38,0,114.934,2.46333e-55
55.989,492.474,2.20585e-38,0,114.934,2.49844e-58
56.989,492.474,5.51463e-39,0,114.934,2.53405e-61
57.989,492.474,1.37866e-39,0,114.934,2.57017e-64
58.989,492.474,3.44664e-40,0,114.934,2.6068e-67
59.989,492.474,8.6166e-41,0,114.934,2.64396e-70
60.989,492.474,2.15415e-41,0,114.934,2.68164e-73
61.989,492.474,5.38538e-42,0,114.934,2.71986e-76
62.989,492.474,1.34634e-42,0,114.934,2.75862e-79
63.989,492.474,3.36586e-43,0,114.934,2.79611e-82
64.989,492.474,8.41465e-44,0,114.934,2.37824e-85
65.989,492.474,2.10366e-44,0,114.934,-1.12019e-86
66.989,492.474,5.25916e-45,0,114.934,-2.87213e-87
67.989,492.474,1.31479e-45,0,114.934,-7.18105e-88
68.989,492.474,3.28697e-46,0,114.934,-1.79526e-88
69.989,492.474,8.21743e-47,0,114.934,-4.48816e-89
70.989,492.474,2.05436e-47,0,114.934,-1.12204e-89
71.989,492.474,5.1359e-48,0,114.934,-2.8051e-90
72.989,492.474,1.28397e-48,0,114.934,-7.01275e-91
73.989,492.474,3.20994e-49,0,114.934,-1.75319e-91
74.989,492.474,8.02484e-50,0,114.934,-4.38297e-92
75.989,492.474,2.00621e-50,0,114.934,-1.09574e-92
76.989,492.474,5.01552e-51,0,114.934,-2.73935e-93
77.989,492.474,1.25388e-51,0,114.934,-6.84839e-94
78.989,492.474,3.1347e-52,0,114.934,-1.7121e-94
79.989,492.474,7.83676e-53,0,114.934,-4.28024e-95
80.989,492.474,1.95919e-53,0,114.934,-1.07006e-95
81.989,492.474,4.89797e-54,0,114.934,-2.67515e-96
82.989,492.474,1.22449e-54,0,114.934,-6.68788e-97
83.989,492.474,3.06123e-55,0,114.934,-1.67197e-97
84.989,492.474,7.65308e-56,0,114.934,-4.17992e-98
85.989,492.474,1.91327e-56,0,114.934,-1.04498e-98
86.989,492.474,4.78318e-57,0,114.934,-2.61245e-99
87.989,492.474,1.19579e-57,0,114.934,-6.53113e-100
88.989,492.474,2.98949e-58,0,114.934,-1.63278e-100
89.989,492.474,7.47371e-59,0,114.934,-4.08196e-101
90.989,492.474,1.86843e-59,0,114.934,-1.02049e-101
91.989,492.474,4.67107e-60,0,114.934,-2.55122e-102
92.989,492.474,1.16777e-60,0,114.934,-6.37806e-103
93.989,492.474,2.91942e-61,0,114.934,-1.59451e-103
94.989,492.474,7.29855e-62,0,114.934,-3.98629e-104
95.989,492.474,1.82464e-62,0,114.934,-9.96571e-105
96.989,492.474,4.56159e-63,0,114.934,-2.49143e-105
97.989,492.474,1.1404e-63,0,114.934,-6.22857e-106
98.989,492.474,2.851e-64,0,114.934,-1.55714e-106
99.989,492.474,7.12749e-65,0,114.934,-3.89286e-107
100,492.474,6.89968e-65,0,114.934,-3.28784e-108
