#Time,D,E,C,B,A
0,3.06265,80.7641,0,0,96.3272
1.1e-5,3.06532,80.7614,0,0.00649407,96.3207
2.6e-5,3.06895,80.7578,0,0.0153581,96.3118
5.25285e-5,3.07538,80.7514,0,0.0310561,96.2961
0.000188346,3.10827,80.7185,0,0.111897,96.2153
0.000687307,3.22901,80.5977,0,0.415652,95.9115
0.00121583,3.3567,80.47,0,0.748907,95.5783
0.0018936,3.52015,80.3066,0,1.19335,95.1338
0.00452294,4.15112,79.6756,0,3.09321,93.234
0.00710361,4.76559,79.0611,0,5.2143,91.1129
0.0100081,5.45149,78.3752,0,7.87858,88.4486
0.0133865,6.24183,77.5849,0,11.305,85.0222
0.0176037,7.21722,76.6095,0,15.9971,80.3301
0.0242534,8.73037,75.0964,0,24.0822,72.245
0.0296519,9.93679,73.8899,0,31.009,65.3181
0.0345737,11.0198,72.8069,0,37.4114,58.9157
0.0392573,12.0356,71.7911,0,43.4426,52.8846
0.0439409,13.0373,70.7894,0,49.3028,47.0244
0.0486245,14.025,69.8017,0,54.9014,41.4257
0.0550234,15.3522,68.4745,0,62.0014,34.3257
0.0637108,17.1137,66.713,0,70.4389,25.8882
0.0720426,18.7606,65.0662,0,77.1285,19.1986
0.0796631,20.2312,63.5955,0,82.0642,14.2629
0.0872836,21.6686,62.1581,0,85.9632,10.3639
0.0949041,23.0735,60.7532,0,88.9578,7.3694
0.10392,24.6948,59.132,0,91.5369,4.79023
0.113634,26.3931,57.4336,0,93.4111,2.91603
0.123526,28.0724,55.7543,0,94.6259,1.70128
0.133468,29.7108,54.1159,0,95.3694,0.957741
0.143754,31.3552,52.4715,0,95.8162,0.510987
0.157155,33.4229,50.4039,0,96.1127,0.214452
0.16999,35.3268,48.4999,0,96.2384,0.0887267
0.181688,36.9993,46.8274,0,96.2891,0.0380719
0.193398,38.6158,45.2109,0,96.3115,0.0157049
0.205538,40.2327,43.594,0,96.3211,0.00603145
0.220127,42.0997,41.7271,0,96.3253,0.00181742
0.235295,43.9558,39.8709,0,96.3267,0.000490197
0.251806,45.8826,37.9442,0,96.327,0.000113044
0.274537,48.3839,35.4428,0,96.3271,1.53755e-5
0.296114,50.6055,33.2212,0,96.3272,4.57126e-7
0.324074,53.2784,30.5483,0,96.3272,3.50135e-7
0.363389,56.677,27.1497,0,96.3272,1.74732e-7
0.422354,61.0789,22.7479,0,96.3272,-1.13294e-7
0.505514,66.1015,17.7252,0,96.3272,-1.33258e-6
0.600346,70.4903,13.3364,0,96.3272,1.83355e-7
0.657545,72.5932,11.2335,0,96.3272,7.28609e-7
0.711541,74.2732,9.55353,0,96.3272,8.31292e-8
0.771986,75.8576,7.96912,0,96.3272,-1.94798e-7
0.8566,77.6442,6.18257,0,96.3272,1.04646e-7
0.98176,79.5795,4.24719,0,96.3272,3.8093e-8
1.11798,81.0043,2.82247,0,96.3272,8.17791e-8
1.26,81.9835,1.84328,0,96.3272,1.24441e-7
1.40407,82.6303,1.19643,0,96.3272,1.00367e-7
1.55018,83.0549,0.771847,0,96.3272,5.14631e-8
1.70097,83.3357,0.490982,0,96.3272,-6.21071e-8
1.85878,83.5209,0.305821,0,96.3272,-4.39644e-7
2.02788,83.6426,0.184145,0,96.3272,-4.23884e-7
2.2041,83.7182,0.108537,0,96.3272,-2.80444e-7
2.3932,83.7652,0.0615475,0,96.3272,6.41113e-8
2.59132,83.7928,0.0339708,0,96.3272,1.04518e-6
2.76576,83.8066,0.02013,0,96.3272,6.10477e-7
2.94759,83.8151,0.0116668,0,96.3272,6.10254e-7
3.15756,83.8205,0.00621462,0,96.3272,5.20448e-7
3.35233,83.8233,0.00346473,0,96.3272,4.11552e-7
3.54854,83.8248,0.0019233,0,96.3272,1.57934e-7
3.7924,83.8258,0.000925564,0,96.3272,1.24321e-7
4.08881,83.8264,0.000380732,0,96.3272,1.0989e-7
4.46368,83.8266,0.000124097,0,96.3272,8.80061e-8
4.90246,83.8267,3.36443e-5,0,96.3272,3.22056e-7
5.53225,83.8267,6.40062e-6,0,96.3272,3.6982e-8
6.26039,83.8267,8.04008e-7,0,96.3272,-2.74178e-7
7.26039,83.8267,4.31142e-7,0,96.3272,-1.68986e-8
8.26039,83.8267,-8.84198e-7,0,96.3272,2.0808e-8
9.12442,83.8267,3.62753e-7,0,96.3272,-2.14323e-8
10.1244,83.8267,-1.90514e-7,0,96.3272,1.07256e-7
11.1244,83.8267,2.58856e-7,0,96.3272,-4.5095e-11
12.1244,83.8267,-5.42373e-7,0,96.3272,8.29443e-11
13.1244,83.8267,-7.84799e-8,0,96.3272,-3.94603e-11
14.1244,83.8267,3.38014e-8,0,96.3272,3.14127e-11
15.1244,83.8267,-1.0003e-8,0,96.3272,5.59845e-11
16.1244,83.8267,-8.2015e-9,0,96.3272,5.69492e-13
17.1244,83.8267,-2.53366e-9,0,96.3272,-1.58828e-13
18.1244,83.8267,-2.14795e-10,0,96.3272,-3.57721e-15
19.1244,83.8267,1.86054e-10,0,96.3272,4.29953e-16
20.1244,83.8267,1.06557e-10,0,96.3272,1.84787e-17
21.1244,83.8267,2.66392e-11,0,96.3272,5.80717e-19
22.1244,83.8267,6.6598e-12,0,96.3272,1.2121e-19
23.1244,83.8267,1.66495e-12,0,96.3272,3.01602e-20
24.1244,83.8267,4.16237e-13,0,96.3272,7.5392e-21
25.1244,83.8267,1.04059e-13,0,96.3272,1.88479e-21
26.1244,83.8267,2.60148e-14,0,96.3272,4.71199e-22
27.1244,83.8267,6.50371e-15,0,96.3272,1.178e-22
28.1244,83.8267,1.62593e-15,0,96.3272,2.94499e-23
29.1244,83.8267,4.06482e-16,0,96.3272,7.36248e-24
30.1244,83.8267,1.0162e-16,0,96.3272,1.84062e-24
31.1244,83.8267,2.54051e-17,0,96.3272,4.60155e-25
32.1244,83.8267,6.35128e-18,0,96.3272,1.15039e-25
33.1244,83.8267,1.58782e-18,0,96.3272,2.87597e-26
34.1244,83.8267,3.96955e-19,0,96.3272,7.18992e-27
35.1244,83.8267,9.92387e-20,0,96.3272,1.79748e-27
36.1244,83.8267,2.48097e-20,0,96.3272,4.4937e-28
37.1244,83.8267,6.20242e-21,0,96.3272,1.12343e-28
38.1244,83.8267,1.5506e-21,0,96.3272,2.80856e-29
39.1244,83.8267,3.87651e-22,0,96.3272,7.02141e-30
40.1244,83.8267,9.69128e-23,0,96.3272,1.75535e-30
41.1244,83.8267,2.42282e-23,0,96.3272,4.38838e-31
42.1244,83.8267,6.05705e-24,0,96.3272,1.09709e-31
43.1244,83.8267,1.51426e-24,0,96.3272,2.74274e-32
44.1244,83.8267,3.78566e-25,0,96.3272,6.85684e-33
45.1244,83.8267,9.46414e-26,0,96.3272,1.71421e-33
46.1244,83.8267,2.36603e-26,0,96.3272,4.28553e-34
47.1244,83.8267,5.91509e-27,0,96.3272,1.07138e-34
48.1244,83.8267,1.47877e-27,0,96.3272,2.67845e-35
49.1244,83.8267,3.69693e-28,0,96.3272,6.69614e-36
50.1244,83.8267,9.24232e-29,0,96.3272,1.67403e-36
51.1244,83.8267,2.31058e-29,0,96.3272,4.18509e-37
52.1244,83.8267,5.77645e-30,0,96.3272,1.04627e-37
53.1244,83.8267,1.44411e-30,0,96.3272,2.61568e-38
54.1244,83.8267,3.61028e-31,0,96.3272,6.5392e-39
55.1244,83.8267,9.02571e-32,0,96.3272,1.6348e-39
56.1244,83.8267,2.25643e-32,0,96.3272,4.087e-40
57.1244,83.8267,5.64107e-33,0,96.3272,1.02175e-40
58.1244,83.8267,1.41027e-33,0,96.3272,2.55437e-41
59.1244,83.8267,3.52567e-34,0,96.3272,6.38593e-42
60.1244,83.8267,8.81417e-35,0,96.3272,1.59648e-42
61.1244,83.8267,2.20354e-35,0,96.3272,3.99121e-43
62.1244,83.8267,5.50885e-36,0,96.3272,9.97802e-44
63.1244,83.8267,1.37721e-36,0,96.3272,5.91629e-46
64.1244,83.8267,3.44303e-37,0,96.3272,3.50795e-48
65.1244,83.8267,8.60758e-38,0,96.3272,2.07998e-50
66.1244,83.8267,2.1519e-38,0,96.3272,1.23328e-52
67.1244,83.8267,5.37974e-39,0,96.3272,7.31254e-55
68.1244,83.8267,1.34493e-39,0,96.3272,4.33584e-57
69.1244,83.8267,3.36234e-40,0,96.3272,2.57085e-59
70.1244,83.8267,8.40584e-41,0,96.3272,1.52434e-61
71.1244,83.8267,2.10146e-41,0,96.3272,9.03831e-64
72.1244,83.8267,5.25365e-42,0,96.3272,5.3591e-66
73.1244,83.8267,1.31341e-42,0,96.3272,3.17758e-68
74.1244,83.8267,3.28353e-43,0,96.3272,1.88409e-70
75.1244,83.8267,8.20883e-44,0,96.3272,1.11714e-72
76.1244,83.8267,2.05221e-44,0,96.3272,6.62385e-75
77.1244,83.8267,5.13052e-45,0,96.3272,3.92749e-77
78.1244,83.8267,1.28263e-45,0,96.3272,2.32874e-79
79.1244,83.8267,3.20657e-46,0,96.3272,1.38078e-81
80.1244,83.8267,8.01644e-47,0,96.3272,8.18706e-84
81.1244,83.8267,2.00411e-47,0,96.3272,4.85369e-86
82.1244,83.8267,5.01027e-48,0,96.3272,2.86083e-88
83.1244,83.8267,1.25257e-48,0,96.3272,1.26943e-90
84.1244,83.8267,3.13142e-49,0,96.3272,-9.91851e-92
85.1244,83.8267,7.82855e-50,0,96.3272,-2.72661e-92
86.1244,83.8267,1.95714e-50,0,96.3272,-6.83117e-93
87.1244,83.8267,4.89284e-51,0,96.3272,-1.70788e-93
88.1244,83.8267,1.22321e-51,0,96.3272,-4.2697e-94
89.1244,83.8267,3.05803e-52,0,96.3272,-1.06743e-94
90.1244,83.8267,7.64507e-53,0,96.3272,-2.66856e-95
91.1244,83.8267,1.91127e-53,0,96.3272,-6.67141e-96
92.1244,83.8267,4.77817e-54,0,96.3272,-1.66785e-96
93.1244,83.8267,1.19454e-54,0,96.3272,-4.16963e-97
94.1244,83.8267,2.98636e-55,0,96.3272,-1.04241e-97
95.1244,83.8267,7.46589e-56,0,96.3272,-2.60602e-98
96.1244,83.8267,1.86647e-56,0,96.3272,-6.51505e-99
97.1244,83.8267,4.66618e-57,0,96.3272,-1.62876e-99
98.1244,83.8267,1.16655e-57,0,96.3272,-4.0719e-100
99.1244,83.8267,2.91636e-58,0,96.3272,-1.01798e-100
100,83.8267,2.86385e-59,0,96.3272,8.30408e-103
