#Time,D,E,C,B,A
0,39.7243,123.957,125.485,383.09,56.1822
2.36084e-5,39.736,123.948,125.482,383.195,56.0769
7.64335e-5,39.7623,123.929,125.475,383.43,55.8421
0.000157818,39.8028,123.898,125.465,383.79,55.4817
0.000580681,40.0129,123.741,125.412,385.632,53.6403
0.00128869,40.3642,123.479,125.323,388.599,50.6729
0.0019967,40.7149,123.217,125.235,391.426,47.8457
0.00285067,41.1371,122.902,125.128,394.656,44.6155
0.00503472,42.2127,122.099,124.855,402.082,37.1901
0.00726981,43.3074,121.283,124.576,408.552,30.7195
0.00959436,44.4395,120.44,124.287,414.221,25.0514
0.0118125,45.5137,119.641,124.011,418.752,20.52
0.0138179,46.4797,118.924,123.763,422.209,17.0631
0.0158233,47.441,118.21,123.515,425.138,14.1339
0.0178287,48.3975,117.501,123.267,427.609,11.6625
0.0197428,49.306,116.829,123.032,429.599,9.67337
0.0214742,50.1241,116.223,122.819,431.128,8.14356
0.0234874,51.0709,115.523,122.572,432.629,6.64256
0.0268708,52.6516,114.357,122.158,434.595,4.67648
0.0302543,54.2191,113.202,121.745,436.014,3.25745
0.0336377,55.7735,112.059,121.334,437.027,2.24516
0.0370212,57.3151,110.927,120.924,437.741,1.53133
0.0404046,58.8438,109.807,120.516,438.238,1.03365
0.0440542,60.4785,108.611,120.077,438.603,0.668719
0.0485232,62.4603,107.165,119.541,438.886,0.386043
0.0536034,64.687,105.544,118.936,439.07,0.202353
0.058821,66.9451,103.905,118.317,439.17,0.101821
0.064094,69.1981,102.274,117.694,439.222,0.0496676
0.0696407,71.5368,100.586,117.043,439.249,0.0227554
0.0755855,74.0086,98.8081,116.35,439.262,0.0095806
0.0821876,76.712,96.8703,115.584,439.268,0.0035437
0.0892097,79.5401,94.8509,114.775,439.271,0.00118421
0.0977088,82.8994,92.463,113.804,439.272,0.000299735
0.106839,86.4319,89.9648,112.77,439.272,6.45337e-5
0.118572,90.859,86.8531,111.454,439.272,9.4656e-6
0.13637,97.3407,82.3375,109.488,439.272,1.21331e-6
0.156381,104.308,77.5398,107.319,439.272,-4.22953e-7
0.184797,113.65,71.2037,104.312,439.272,2.86738e-7
0.240607,130.29,60.2267,98.6501,439.272,1.47351e-7
0.307034,147.512,49.3448,92.3099,439.272,-1.35569e-6
0.35021,157.407,43.3499,88.4092,439.272,-1.4633e-7
0.383728,164.469,39.2028,85.4949,439.272,4.75842e-7
0.427625,172.977,34.3658,81.8232,439.272,-2.44213e-7
0.452593,177.475,31.8858,79.8055,439.272,7.78572e-7
0.469134,180.328,30.342,78.4963,439.272,-1.32839e-8
0.483283,182.692,29.0809,77.3935,439.272,-1.78942e-9
0.501787,185.681,27.5106,75.9746,439.272,-1.18726e-9
0.546377,192.439,24.0661,72.6613,439.272,8.03149e-9
0.589502,198.426,21.1456,69.5944,439.272,2.48183e-9
0.635242,204.249,18.4343,66.4828,439.272,-5.77858e-9
0.680981,209.585,16.0707,63.5104,439.272,1.30363e-8
0.735499,215.38,13.646,60.1407,439.272,3.24873e-8
0.823106,223.578,10.4921,55.0961,439.272,2.08654e-9
0.910712,230.624,8.06714,50.4748,439.272,2.14778e-9
0.998319,236.723,6.20265,46.241,439.272,1.19745e-9
1.10083,242.87,4.56061,41.7358,439.272,1.01966e-9
1.22495,249.16,3.14272,36.864,439.272,-1.54635e-9
1.37251,255.341,2.01863,31.8067,439.272,-5.37415e-9
1.51212,260.176,1.32787,27.6621,439.272,3.12519e-9
1.65265,264.26,0.871091,24.0355,439.272,1.35639e-9
1.81791,268.261,0.530591,20.3743,439.272,-8.65692e-8
1.96605,271.257,0.340208,17.5689,439.272,2.44129e-7
2.13243,274.084,0.206529,14.8761,439.272,-7.90481e-8
2.29313,276.371,0.127531,12.6677,439.272,-1.60822e-8
2.47172,278.496,0.0746348,10.5959,439.272,-4.69079e-8
2.69267,280.633,0.0384694,8.49529,439.272,-8.62615e-7
2.89993,282.241,0.0206589,6.90504,439.272,-7.69481e-7
3.05264,283.226,0.0130664,5.92718,439.272,-9.82016e-8
3.25802,284.333,0.00705656,4.82669,439.272,-7.24536e-9
3.52523,285.468,0.00316678,3.69489,439.272,-2.45216e-8
3.84457,286.48,0.00121722,2.68483,439.272,1.20895e-9
4.24711,287.371,0.00036534,1.79514,439.272,-3.85959e-7
4.64244,287.957,0.000111756,1.20895,439.272,-1.82076e-7
5.10792,288.407,2.82195e-5,0.759029,439.272,-9.96327e-9
5.57337,288.69,6.96747e-6,0.476563,439.272,-1.97132e-9
6.07361,288.877,1.61664e-6,0.288985,439.272,-4.9778e-10
6.58858,288.994,3.78043e-7,0.172677,439.272,-2.71802e-10
7.12168,289.065,6.56893e-8,0.101327,439.272,-1.51718e-10
7.72218,289.111,2.19858e-8,0.0555841,439.272,-1.38003e-9
8.34964,289.137,3.3051e-9,0.029681,439.272,-3.03121e-11
9.08164,289.152,3.29414e-10,0.014278,439.272,-3.42119e-10
9.85086,289.16,1.07485e-9,0.00661746,439.272,-1.02689e-9
10.7778,289.164,-1.29106e-10,0.00262183,439.272,-3.86236e-10
11.7778,289.165,4.77424e-10,0.000965793,439.272,-1.23671e-8
12.7778,289.166,3.99177e-11,0.000356736,439.272,8.77927e-10
13.7778,289.166,2.2538e-10,0.000129452,439.272,-1.5466e-9
14.7778,289.166,-2.11138e-10,4.98491e-5,439.272,-1.35291e-7
15.7778,289.166,9.72321e-11,1.73777e-5,439.272,-1.16618e-9
16.7778,289.166,-1.23875e-10,7.05386e-6,439.272,1.43675e-9
17.7778,289.166,6.63032e-11,2.16683e-6,439.272,3.13838e-8
18.7778,289.166,-8.7982e-11,1.02568e-6,439.272,6.57964e-10
19.7778,289.166,-4.66302e-11,6.41158e-7,439.272,-5.36634e-10
20.7778,289.166,4.12003e-11,2.09999e-7,439.272,1.89258e-10
21.7778,289.166,2.79552e-13,7.28626e-8,439.272,-1.62782e-11
22.7778,289.166,4.53901e-14,3.25298e-8,439.272,-2.01258e-16
23.7778,289.166,1.13475e-14,1.62649e-8,439.272,-9.43943e-20
24.7778,289.166,2.83688e-15,8.13245e-9,439.272,1.26347e-19
25.7778,289.166,7.09221e-16,4.06622e-9,439.272,6.34728e-20
26.7778,289.166,1.77305e-16,2.03311e-9,439.272,3.17369e-20
27.7778,289.166,4.43263e-17,1.01656e-9,439.272,1.58684e-20
28.7778,289.166,1.10816e-17,5.08278e-10,439.272,7.93421e-21
29.7778,289.166,2.77039e-18,2.54139e-10,439.272,3.96711e-21
30.7778,289.166,6.92599e-19,1.2707e-10,439.272,1.98355e-21
31.7778,289.166,1.7315e-19,6.35348e-11,439.272,9.91777e-22
32.7778,289.166,4.32874e-20,3.17674e-11,439.272,4.95888e-22
33.7778,289.166,1.08219e-20,1.58837e-11,439.272,2.47944e-22
34.7778,289.166,2.70546e-21,7.94184e-12,439.272,1.23972e-22
35.7778,289.166,6.76366e-22,3.97092e-12,439.272,6.1986e-23
36.7778,289.166,1.69091e-22,1.98546e-12,439.272,3.0993e-23
37.7778,289.166,4.22729e-23,9.92731e-13,439.272,1.54965e-23
38.7778,289.166,1.05682e-23,4.96365e-13,439.272,7.74825e-24
39.7778,289.166,2.64205e-24,2.48183e-13,439.272,3.87413e-24
40.7778,289.166,6.60514e-25,1.24091e-13,439.272,1.93706e-24
41.7778,289.166,1.65128e-25,6.20457e-14,439.272,9.68532e-25
42.7778,289.166,4.12821e-26,3.10228e-14,439.272,4.84266e-25
43.7778,289.166,1.03205e-26,1.55114e-14,439.272,2.42133e-25
44.7778,289.166,2.58013e-27,7.75571e-15,439.272,1.21066e-25
45.7778,289.166,6.45033e-28,3.87785e-15,439.272,6.05332e-26
46.7778,289.166,1.61258e-28,1.93893e-15,439.272,3.02666e-26
47.7778,289.166,4.03145e-29,9.69463e-16,439.272,1.51333e-26
48.7778,289.166,1.00786e-29,4.84732e-16,439.272,7.56666e-27
49.7778,289.166,2.51966e-30,2.42366e-16,439.272,3.78333e-27
50.7778,289.166,6.29915e-31,1.21183e-16,439.272,1.89166e-27
51.7778,289.166,1.57479e-31,6.05915e-17,439.272,9.45832e-28
52.7778,289.166,3.93697e-32,3.02957e-17,439.272,4.72916e-28
53.7778,289.166,9.84242e-33,1.51479e-17,439.272,2.36458e-28
54.7778,289.166,2.4606e-33,7.57393e-18,439.272,1.18229e-28
55.7778,289.166,6.15151e-34,3.78697e-18,439.272,5.91145e-29
56.7778,289.166,1.53788e-34,1.89348e-18,439.272,2.95572e-29
57.7778,289.166,3.8447e-35,9.46742e-19,439.272,1.47786e-29
58.7778,289.166,9.61174e-36,4.73371e-19,439.272,7.38931e-30
59.7778,289.166,2.40293e-36,2.36685e-19,439.272,3.69466e-30
60.7778,289.166,6.00734e-37,1.18343e-19,439.272,1.84733e-30
61.7778,289.166,1.50183e-37,5.91714e-20,439.272,9.23664e-31
62.7778,289.166,3.75459e-38,2.95857e-20,439.272,4.61832e-31
63.7778,289.166,9.38646e-39,1.47928e-20,439.272,2.30916e-31
64.7778,289.166,2.34662e-39,7.39642e-21,439.272,1.15458e-31
65.7778,289.166,5.86654e-40,3.69821e-21,439.272,5.7729e-32
66.7778,289.166,1.46663e-40,1.8491e-21,439.272,2.88645e-32
67.7778,289.166,3.66659e-41,9.24552e-22,439.272,1.44322e-32
68.7778,289.166,9.16647e-42,4.62276e-22,439.272,7.21612e-33
69.7778,289.166,2.29162e-42,2.31138e-22,439.272,3.60806e-33
70.7778,289.166,5.72904e-43,1.15569e-22,439.272,1.80403e-33
71.7778,289.166,1.43226e-43,5.77845e-23,439.272,9.02016e-34
72.7778,289.166,3.58065e-44,2.88923e-23,439.272,4.51008e-34
73.7778,289.166,8.95163e-45,1.44461e-23,439.272,2.25504e-34
74.7778,289.166,2.23791e-45,7.22307e-24,439.272,1.12752e-34
75.7778,289.166,5.59477e-46,3.61153e-24,439.272,5.6376e-35
76.7778,289.166,1.39869e-46,1.80577e-24,439.272,2.8188e-35
77.7778,289.166,3.49673e-47,9.02883e-25,439.272,1.4094e-35
78.7778,289.166,8.74182e-48,4.51442e-25,439.272,7.047e-36
79.7778,289.166,2.18546e-48,2.25721e-25,439.272,3.5235e-36
80.7778,289.166,5.46364e-49,1.1286e-25,439.272,1.76175e-36
81.7778,289.166,1.36591e-49,5.64302e-26,439.272,8.80875e-37
82.7778,289.166,3.41478e-50,2.82151e-26,439.272,4.40437e-37
83.7778,289.166,8.53694e-51,1.41076e-26,439.272,2.20219e-37
84.7778,289.166,2.13423e-51,7.05378e-27,439.272,1.10109e-37
85.7778,289.166,5.33559e-52,3.52689e-27,439.272,5.50547e-38
86.7778,289.166,1.3339e-52,1.76344e-27,439.272,9.50312e-41
87.7778,289.166,3.33474e-53,8.81722e-28,439.272,1.64036e-43
88.7778,289.166,8.33685e-54,4.40861e-28,439.272,2.83146e-46
89.7778,289.166,2.08421e-54,2.2043e-28,439.272,4.88745e-49
90.7778,289.166,5.21053e-55,1.10215e-28,439.272,8.43635e-52
91.7778,289.166,1.30263e-55,5.51076e-29,439.272,1.45622e-54
92.7778,289.166,3.25658e-56,2.75538e-29,439.272,2.51361e-57
93.7778,289.166,8.14146e-57,1.37769e-29,439.272,4.33881e-60
94.7778,289.166,2.03536e-57,6.88845e-30,439.272,7.48932e-63
95.7778,289.166,5.08841e-58,3.44423e-30,439.272,1.29275e-65
96.7778,289.166,1.2721e-58,1.72211e-30,439.272,2.23145e-68
97.7778,289.166,3.18026e-59,8.61057e-31,439.272,3.85176e-71
98.7778,289.166,7.95064e-60,4.30528e-31,439.272,6.64861e-74
99.7778,289.166,1.98766e-60,2.15264e-31,439.272,1.14763e-76
100,289.166,1.19265e-60,1.76128e-31,439.272,8.86167e-79
