#Time,D,E,C,B,A
0,24.0575,51.1523,78.4957,68.5243,64.6041
3.1e-5,24.0647,51.1475,78.4932,68.6206,64.5078
0.000106,24.0821,51.136,78.4874,68.853,64.2754
0.000235197,24.112,51.1162,78.4772,69.2519,63.8765
0.000926897,24.2723,51.0103,78.423,71.3543,61.774
0.00223162,24.5738,50.811,78.3207,75.1686,57.9598
0.00353634,24.8744,50.6125,78.2186,78.7901,54.3383
0.00502246,25.2157,50.3873,78.1024,82.6882,50.4402
0.00948247,26.233,49.7177,77.7549,93.0306,40.0978
0.01437,27.3357,48.994,77.3758,102.267,30.8611
0.0185446,28.2678,48.3842,77.0534,108.66,24.4682
0.0222668,29.0914,47.8469,76.7672,113.364,19.7642
0.0257628,29.8585,47.3477,76.4992,117.045,16.0833
0.0290954,30.584,46.8767,76.2447,119.979,13.1491
0.0321014,31.2337,46.4559,76.0159,122.209,10.9193
0.0351073,31.8789,46.0389,75.7877,124.096,9.03245
0.0381132,32.5197,45.6255,75.5603,125.686,7.44281
0.0413934,33.2139,45.1788,75.3128,127.129,5.9992
0.0463619,34.2556,44.5104,74.9395,128.838,4.29046
0.0518824,35.3992,43.7793,74.527,130.208,2.92076
0.0573406,36.5159,43.0682,74.1213,131.156,1.9725
0.0623339,37.5255,42.4279,73.7521,131.766,1.36284
0.0673272,38.5237,41.797,73.3848,132.196,0.932223
0.0728422,39.6131,41.1112,72.9812,132.523,0.605854
0.0800506,41.0168,40.2317,72.457,132.79,0.338799
0.0877317,42.4877,39.3152,71.9026,132.95,0.178392
0.0959057,44.0254,38.3629,71.3172,133.04,0.0879558
0.104222,45.5613,37.4176,70.7266,133.087,0.0417553
0.112769,47.1105,36.4703,70.1246,133.109,0.0189117
0.122235,48.7923,35.4492,69.464,133.121,0.00763082
0.132271,50.5373,34.3978,68.7703,133.126,0.00281723
0.143711,52.48,33.2374,67.9881,133.128,0.000868839
0.156798,54.6436,31.9577,67.1041,133.128,0.000215142
0.171986,57.0786,30.5342,66.0926,133.128,4.02066e-5
0.191769,60.1327,28.7748,64.798,133.128,5.92214e-6
0.217609,63.9319,26.6285,63.1451,133.128,-5.91673e-7
0.2541,68.9558,23.8673,60.8824,133.128,-3.94211e-7
0.309306,75.8687,20.2244,57.6124,133.128,5.6734e-8
0.393138,84.9988,15.7272,52.9795,133.128,2.87999e-7
0.487038,93.6082,11.8661,48.2312,133.128,1.88408e-8
0.580937,100.844,8.95294,43.9084,133.128,2.18754e-7
0.674837,106.977,6.75497,39.9731,133.128,-7.23848e-7
0.768736,112.218,5.09661,36.3905,133.128,1.71482e-6
0.820169,114.771,4.36787,34.5661,133.128,1.42696e-6
0.858322,116.538,3.89549,33.2722,133.128,-6.7504e-7
0.907446,118.667,3.36171,31.6772,133.128,-4.6932e-8
0.956571,120.646,2.90107,30.1587,133.128,-7.8176e-7
1.0057,122.489,2.50355,28.7129,133.128,-4.99933e-7
1.038,123.633,2.27229,27.8001,133.128,-6.85423e-7
1.06717,124.623,2.08189,27.0009,133.128,4.90936e-7
1.10795,125.941,1.84219,25.9221,133.128,-1.37651e-7
1.16298,127.61,1.56185,24.5341,133.128,2.48442e-9
1.21801,129.161,1.32417,23.2205,133.128,3.7377e-10
1.28,130.781,1.09946,21.8247,133.128,-5.67196e-10
1.37398,133.009,0.82933,19.867,133.128,3.88105e-11
1.47481,135.131,0.612852,17.9615,133.128,3.05735e-11
1.5833,137.148,0.442587,16.1148,133.128,1.18302e-11
1.69179,138.928,0.319626,14.458,133.128,2.4426e-14
1.80528,140.571,0.227393,12.9069,133.128,-9.59226e-12
1.92645,142.113,0.158087,11.434,133.128,-1.77467e-11
2.05411,143.534,0.107785,10.0637,133.128,3.12335e-11
2.18912,144.841,0.0718853,8.79268,133.128,7.55149e-12
2.3355,146.064,0.0463341,7.59537,133.128,5.3145e-12
2.49737,147.217,0.0285084,6.46029,133.128,-6.57347e-12
2.66946,148.25,0.0170101,5.43894,133.128,-5.00509e-11
2.86622,149.229,0.00942398,4.46745,133.128,2.84952e-10
3.07924,150.09,0.00497209,3.61032,133.128,-1.75002e-9
3.32233,150.872,0.00239589,2.83121,133.128,2.77069e-8
3.59642,151.552,0.00105132,2.15246,133.128,2.16118e-9
3.87851,152.082,0.000450213,1.6234,133.128,4.13221e-10
4.16059,152.481,0.000192816,1.22437,133.128,6.61927e-11
4.49691,152.831,7.04458e-5,0.874688,133.128,-6.95556e-12
4.91046,153.127,2.0633e-5,0.578439,133.128,-1.72479e-11
5.42616,153.36,4.4144e-6,0.345382,133.128,2.42822e-11
5.91267,153.493,9.87697e-7,0.212327,133.128,-2.47168e-10
6.43523,153.58,2.12845e-7,0.125915,133.128,-2.52672e-10
7.07141,153.639,2.42265e-8,0.0666518,133.128,9.49371e-13
7.72253,153.671,3.53051e-9,0.0347577,133.128,3.98903e-11
8.41051,153.688,7.75914e-10,0.0174715,133.128,9.46854e-11
9.25846,153.698,-7.58392e-10,0.00748587,133.128,-1.7309e-10
10.1347,153.702,-7.88037e-11,0.00311837,133.128,-8.58875e-10
11.1347,153.704,-2.40772e-10,0.00114989,133.128,-3.88741e-11
12.1347,153.705,5.207e-11,0.000421436,133.128,1.54766e-11
13.1347,153.705,7.8111e-12,0.000156104,133.128,-4.69568e-10
14.1347,153.705,-4.36741e-11,5.70707e-5,133.128,-1.12055e-11
15.1347,153.705,4.2629e-10,2.17997e-5,133.128,1.70567e-10
16.1347,153.705,1.68845e-10,8.2547e-6,133.128,2.6877e-11
17.1347,153.705,-1.60498e-10,2.67984e-6,133.128,-5.82438e-11
18.1347,153.705,5.00862e-10,1.45157e-6,133.128,1.99498e-10
19.1347,153.705,-1.13179e-9,2.32979e-7,133.128,2.1486e-9
20.1347,153.705,-1.23823e-9,-2.86293e-7,133.128,1.10821e-9
21.1347,153.705,-3.82768e-10,-2.55703e-7,133.128,5.43648e-13
22.1347,153.705,6.86429e-11,-9.17681e-8,133.128,-3.08947e-12
23.1347,153.705,7.60011e-11,4.52438e-9,133.128,1.11622e-12
24.1347,153.705,-5.27701e-13,2.32909e-8,133.128,4.82262e-14
25.1347,153.705,-1.91801e-11,1.14695e-8,133.128,-7.88699e-15
26.1347,153.705,-6.49966e-12,3.45942e-10,133.128,7.47355e-16
27.1347,153.705,1.88178e-12,-2.96568e-9,133.128,1.15691e-16
28.1347,153.705,1.86237e-12,-1.97392e-9,133.128,-9.05071e-18
29.1347,153.705,6.18634e-13,-9.86004e-10,133.128,-3.35858e-19
30.1347,153.705,6.80183e-14,-3.94018e-10,133.128,1.93747e-20
31.1347,153.705,-3.85067e-14,-1.18014e-10,133.128,-1.16381e-21
32.1347,153.705,-2.46717e-14,-1.56074e-11,133.128,-3.58482e-21
33.1347,153.705,-6.16792e-15,-7.80369e-12,133.128,1.8525e-22
34.1347,153.705,-1.54198e-15,-3.90185e-12,133.128,9.86405e-23
35.1347,153.705,-3.85495e-16,-1.95092e-12,133.128,4.92926e-23
36.1347,153.705,-9.63738e-17,-9.75462e-13,133.128,2.46246e-23
37.1347,153.705,-2.40934e-17,-4.87731e-13,133.128,1.23068e-23
38.1347,153.705,-6.02336e-18,-2.43865e-13,133.128,6.15202e-24
39.1347,153.705,-1.50584e-18,-1.21933e-13,133.128,3.07566e-24
40.1347,153.705,-3.7646e-19,-6.09664e-14,133.128,1.53775e-24
41.1347,153.705,-9.4115e-20,-3.04832e-14,133.128,7.68851e-25
42.1347,153.705,-2.35287e-20,-1.52416e-14,133.128,3.8442e-25
43.1347,153.705,-5.88219e-21,-7.62079e-15,133.128,1.92209e-25
44.1347,153.705,-1.47055e-21,-3.8104e-15,133.128,9.61041e-26
45.1347,153.705,-3.67637e-22,-1.9052e-15,133.128,4.8052e-26
46.1347,153.705,-9.19092e-23,-9.52599e-16,133.128,2.4026e-26
47.1347,153.705,-2.29773e-23,-4.763e-16,133.128,1.2013e-26
48.1347,153.705,-5.74432e-24,-2.3815e-16,133.128,6.00648e-27
49.1347,153.705,-1.43608e-24,-1.19075e-16,133.128,3.00324e-27
50.1347,153.705,-3.5902e-25,-5.95375e-17,133.128,1.50162e-27
51.1347,153.705,-8.97551e-26,-2.97687e-17,133.128,7.5081e-28
52.1347,153.705,-2.24388e-26,-1.48844e-17,133.128,3.75405e-28
53.1347,153.705,-5.60969e-27,-7.44218e-18,133.128,1.87703e-28
54.1347,153.705,-1.40242e-27,-3.72109e-18,133.128,6.08612e-31
55.1347,153.705,-3.50606e-28,-1.86055e-18,133.128,1.97338e-33
56.1347,153.705,-8.76514e-29,-9.30273e-19,133.128,6.39854e-36
57.1347,153.705,-2.19129e-29,-4.65136e-19,133.128,2.07468e-38
58.1347,153.705,-5.47821e-30,-2.32568e-19,133.128,6.727e-41
59.1347,153.705,-1.36955e-30,-1.16284e-19,133.128,2.18118e-43
60.1347,153.705,-3.42388e-31,-5.8142e-20,133.128,7.07232e-46
61.1347,153.705,-8.55971e-32,-2.9071e-20,133.128,2.29315e-48
62.1347,153.705,-2.13993e-32,-1.45355e-20,133.128,7.43636e-51
63.1347,153.705,-5.34982e-33,-7.26776e-21,133.128,2.46068e-53
64.1347,153.705,-1.33745e-33,-3.63388e-21,133.128,3.27258e-55
65.1347,153.705,-3.34364e-34,-1.81694e-21,133.128,1.24797e-55
66.1347,153.705,-8.35909e-35,-9.0847e-22,133.128,6.22728e-56
67.1347,153.705,-2.08977e-35,-4.54235e-22,133.128,3.1136e-56
68.1347,153.705,-5.22443e-36,-2.27117e-22,133.128,1.5568e-56
69.1347,153.705,-1.30611e-36,-1.13559e-22,133.128,7.784e-57
70.1347,153.705,-3.26527e-37,-5.67793e-23,133.128,3.892e-57
71.1347,153.705,-8.16317e-38,-2.83897e-23,133.128,1.946e-57
72.1347,153.705,-2.04079e-38,-1.41948e-23,133.128,9.73e-58
73.1347,153.705,-5.10198e-39,-7.09742e-24,133.128,4.865e-58
74.1347,153.705,-1.2755e-39,-3.54871e-24,133.128,2.4325e-58
75.1347,153.705,-3.18874e-40,-1.77435e-24,133.128,1.21625e-58
76.1347,153.705,-7.97185e-41,-8.87177e-25,133.128,6.08125e-59
77.1347,153.705,-1.99296e-41,-4.43589e-25,133.128,3.04062e-59
78.1347,153.705,-4.98241e-42,-2.21794e-25,133.128,1.52031e-59
79.1347,153.705,-1.2456e-42,-1.10897e-25,133.128,7.60156e-60
80.1347,153.705,-3.114e-43,-5.54486e-26,133.128,3.80078e-60
81.1347,153.705,-7.78501e-44,-2.77243e-26,133.128,1.90039e-60
82.1347,153.705,-1.94625e-44,-1.38621e-26,133.128,9.50195e-61
83.1347,153.705,-4.86563e-45,-6.93107e-27,133.128,4.75098e-61
84.1347,153.705,-1.21641e-45,-3.46554e-27,133.128,2.37549e-61
85.1347,153.705,-3.04102e-46,-1.73277e-27,133.128,1.18774e-61
86.1347,153.705,-7.60255e-47,-8.66384e-28,133.128,5.93872e-62
87.1347,153.705,-1.90064e-47,-4.33192e-28,133.128,2.96936e-62
88.1347,153.705,-4.75159e-48,-2.16596e-28,133.128,1.48468e-62
89.1347,153.705,-1.1879e-48,-1.08298e-28,133.128,7.4234e-63
90.1347,153.705,-2.96975e-49,-5.4149e-29,133.128,3.7117e-63
91.1347,153.705,-7.42436e-50,-2.70745e-29,133.128,1.85585e-63
92.1347,153.705,-1.85609e-50,-1.35373e-29,133.128,9.27925e-64
93.1347,153.705,-4.64023e-51,-6.76863e-30,133.128,4.63962e-64
94.1347,153.705,-1.16006e-51,-3.38431e-30,133.128,2.31981e-64
95.1347,153.705,-2.90014e-52,-1.69216e-30,133.128,1.15991e-64
96.1347,153.705,-7.25036e-53,-8.46078e-31,133.128,5.79953e-65
97.1347,153.705,-1.81259e-53,-4.23039e-31,133.128,2.89977e-65
98.1347,153.705,-4.53147e-54,-2.1152e-31,133.128,1.44988e-65
99.1347,153.705,-1.13287e-54,-1.0576e-31,133.128,7.24941e-66
100,153.705,-1.00605e-55,-5.38388e-32,133.128,2.85114e-66
