#Time,D,E,C,B,A
0,71.2221,58.2397,0,219.113,41.8466
1.51204e-5,71.2247,58.237,0,219.203,41.7567
4.24816e-5,71.2295,58.2322,0,219.365,41.5943
8.46764e-5,71.2369,58.2249,0,219.615,41.3451
0.000326229,71.279,58.1827,0,221.014,39.9459
0.000627254,71.3316,58.1302,0,222.693,38.2672
0.00092828,71.384,58.0777,0,224.302,36.6579
0.00132231,71.4526,58.0091,0,226.308,34.6517
0.00228384,71.6197,57.842,0,230.762,30.1982
0.00321162,71.7805,57.6812,0,234.523,26.4364
0.00419273,71.95,57.5117,0,238,22.9595
0.00517384,72.1191,57.3427,0,241.027,19.9332
0.00633577,72.3186,57.1431,0,244.106,16.8535
0.00819735,72.6368,56.8249,0,248.092,12.8675
0.0100589,72.9533,56.5084,0,251.147,9.81269
0.0119205,73.268,56.1937,0,253.485,7.4743
0.0140807,73.631,55.8307,0,255.518,5.44195
0.0167004,74.0681,55.3937,0,257.264,3.69585
0.0197329,74.5697,54.892,0,258.605,2.35484
0.022616,75.0424,54.4193,0,259.43,1.52978
0.0256452,75.5347,53.927,0,259.99,0.969476
0.0288859,76.0565,53.4053,0,260.367,0.593187
0.0322322,76.5899,52.8718,0,260.604,0.355921
0.0356171,77.1241,52.3376,0,260.748,0.211542
0.0391464,77.6753,51.7864,0,260.837,0.122498
0.0429789,78.2673,51.1944,0,260.892,0.0673899
0.0471108,78.898,50.5637,0,260.925,0.0352038
0.0515624,79.5688,49.8929,0,260.942,0.017389
0.0567157,80.3342,49.1275,0,260.952,0.00763037
0.0621883,81.1342,48.3276,0,260.957,0.00315506
0.0689416,82.1034,47.3583,0,260.959,0.00105045
0.0761302,83.1138,46.3479,0,260.959,0.000321292
0.0852743,84.368,45.0938,0,260.96,7.15348e-5
0.0976067,86.0058,43.4559,0,260.96,1.07073e-5
0.110006,87.5926,41.8691,0,260.96,-1.25423e-7
0.125694,89.5174,39.9443,0,260.96,2.63768e-7
0.147491,92.0459,37.4158,0,260.96,-8.60439e-7
0.177962,95.3146,34.1472,0,260.96,1.69359e-7
0.218578,99.2318,30.2299,0,260.96,5.07097e-7
0.259753,102.745,26.7172,0,260.96,-3.40937e-7
0.312307,106.642,22.8202,0,260.96,-4.35561e-8
0.375814,110.6,18.8615,0,260.96,-1.95848e-7
0.458671,114.751,14.7104,0,260.96,-6.92779e-8
0.535317,117.773,11.6886,0,260.96,1.87491e-6
0.601781,119.886,9.57565,0,260.96,1.18767e-6
0.659305,121.404,8.0579,0,260.96,8.87307e-7
0.710148,122.544,6.91798,0,260.96,-1.2612e-7
0.754578,123.407,6.05469,0,260.96,-1.74669e-6
0.790233,124.021,5.44048,0,260.96,-1.68561e-6
0.820429,124.492,4.9693,0,260.96,1.24455e-6
0.842902,124.816,4.64533,0,260.96,6.08421e-6
0.856192,124.998,4.46375,0,260.96,-1.13865e-6
0.866652,125.136,4.32586,0,260.96,5.90778e-7
0.884425,125.36,4.10125,0,260.96,-8.1652e-7
0.90625,125.62,3.84133,0,260.96,1.81363e-7
0.94495,126.041,3.42026,0,260.96,-7.2168e-8
1.01417,126.683,2.77889,0,260.96,2.96855e-7
1.10618,127.353,2.10856,0,260.96,-2.11128e-7
1.1982,127.862,1.59993,0,260.96,1.40958e-6
1.28572,128.231,1.23046,0,260.96,1.32047e-6
1.35772,128.47,0.991421,0,260.96,-2.99476e-7
1.42683,128.656,0.805792,0,260.96,-4.40111e-8
1.53157,128.873,0.588503,0,260.96,-5.47438e-9
1.64264,129.04,0.421727,0,260.96,3.00672e-10
1.75371,129.16,0.302213,0,260.96,-8.54438e-12
1.86923,129.248,0.213698,0,260.96,-6.54089e-12
1.98917,129.313,0.149115,0,260.96,-1.36284e-12
2.12061,129.361,0.100521,0,260.96,-5.49536e-13
2.25696,129.395,0.0667722,0,260.96,-1.47727e-13
2.40743,129.419,0.0425139,0,260.96,1.06616e-13
2.56922,129.436,0.0261633,0,260.96,7.4525e-14
2.74276,129.446,0.0155429,0,260.96,3.22025e-14
2.94464,129.453,0.00847989,0,260.96,9.09212e-14
3.1608,129.457,0.00443173,0,260.96,2.36219e-15
3.41604,129.46,0.00205865,0,260.96,7.01157e-13
3.69745,129.461,0.000883604,0,260.96,-8.9697e-13
4.0331,129.461,0.000321197,0,260.96,-1.05097e-12
4.44541,129.462,9.18979e-5,0,260.96,-5.11429e-12
4.93542,129.462,2.01578e-5,0,260.96,-1.89719e-12
5.63906,129.462,1.28588e-6,0,260.96,6.22559e-12
6.47996,129.462,-1.68968e-7,0,260.96,-2.63542e-11
7.47996,129.462,-2.59902e-7,0,260.96,-1.84048e-11
8.47996,129.462,-2.00149e-7,0,260.96,1.05588e-13
9.47996,129.462,2.59764e-7,0,260.96,4.4989e-14
10.48,129.462,-5.66931e-7,0,260.96,-1.30687e-13
11.48,129.462,4.29109e-7,0,260.96,3.4185e-13
12.48,129.462,-3.48895e-7,0,260.96,-8.94628e-13
13.48,129.462,6.5603e-8,0,260.96,7.4189e-13
14.48,129.462,8.8315e-9,0,260.96,4.21955e-12
15.48,129.462,-3.36411e-9,0,260.96,1.21629e-13
16.48,129.462,-2.47644e-9,0,260.96,-6.67553e-15
17.48,129.462,-7.26849e-10,0,260.96,-4.48125e-16
18.48,129.462,-1.81712e-10,0,260.96,-4.84127e-18
19.48,129.462,-4.5428e-11,0,260.96,-3.73366e-20
20.48,129.462,-1.1357e-11,0,260.96,-3.47051e-22
21.48,129.462,-2.83925e-12,0,260.96,-2.89673e-24
22.48,129.462,-7.09813e-13,0,260.96,-2.51528e-26
23.48,129.462,-1.77453e-13,0,260.96,-7.94758e-29
24.48,129.462,-4.43633e-14,0,260.96,3.33193e-29
25.48,129.462,-1.10908e-14,0,260.96,8.79486e-30
26.48,129.462,-2.77271e-15,0,260.96,2.20274e-30
27.48,129.462,-6.93177e-16,0,260.96,5.50719e-31
28.48,129.462,-1.73294e-16,0,260.96,1.3768e-31
29.48,129.462,-4.33236e-17,0,260.96,3.442e-32
30.48,129.462,-1.08309e-17,0,260.96,8.605e-33
31.48,129.462,-2.70772e-18,0,260.96,2.15125e-33
32.48,129.462,-6.76931e-19,0,260.96,5.37813e-34
33.48,129.462,-1.69233e-19,0,260.96,1.34453e-34
34.48,129.462,-4.23082e-20,0,260.96,3.36133e-35
35.48,129.462,-1.0577e-20,0,260.96,8.40332e-36
36.48,129.462,-2.64426e-21,0,260.96,2.10083e-36
37.48,129.462,-6.61065e-22,0,260.96,5.25208e-37
38.48,129.462,-1.65266e-22,0,260.96,1.31302e-37
39.48,129.462,-4.13166e-23,0,260.96,5.05156e-40
40.48,129.462,-1.03291e-23,0,260.96,1.94348e-42
41.48,129.462,-2.58229e-24,0,260.96,7.47712e-45
42.48,129.462,-6.45571e-25,0,260.96,2.87666e-47
43.48,129.462,-1.61393e-25,0,260.96,1.10673e-49
44.48,129.462,-4.03482e-26,0,260.96,4.25796e-52
45.48,129.462,-1.00871e-26,0,260.96,1.63893e-54
46.48,129.462,-2.52176e-27,0,260.96,6.49774e-57
47.48,129.462,-6.30441e-28,0,260.96,7.308e-59
48.48,129.462,-1.5761e-28,0,260.96,1.23015e-59
49.48,129.462,-3.94025e-29,0,260.96,3.05241e-60
50.48,129.462,-9.85064e-30,0,260.96,7.63014e-61
51.48,129.462,-2.46266e-30,0,260.96,1.90753e-61
52.48,129.462,-6.15665e-31,0,260.96,4.76883e-62
53.48,129.462,-1.53916e-31,0,260.96,1.19221e-62
54.48,129.462,-3.84791e-32,0,260.96,2.98052e-63
55.48,129.462,-9.61976e-33,0,260.96,7.45129e-64
56.48,129.462,-2.40494e-33,0,260.96,1.86282e-64
57.48,129.462,-6.01235e-34,0,260.96,4.65706e-65
58.48,129.462,-1.50309e-34,0,260.96,1.16426e-65
59.48,129.462,-3.75772e-35,0,260.96,2.91066e-66
60.48,129.462,-9.3943e-36,0,260.96,7.27665e-67
61.48,129.462,-2.34857e-36,0,260.96,1.81916e-67
62.48,129.462,-5.87144e-37,0,260.96,4.54791e-68
63.48,129.462,-1.46786e-37,0,260.96,1.13698e-68
64.48,129.462,-3.66965e-38,0,260.96,2.84244e-69
65.48,129.462,-9.17412e-39,0,260.96,7.1061e-70
66.48,129.462,-2.29353e-39,0,260.96,1.77653e-70
67.48,129.462,-5.73383e-40,0,260.96,4.44132e-71
68.48,129.462,-1.43346e-40,0,260.96,1.11033e-71
69.48,129.462,-3.58364e-41,0,260.96,2.77582e-72
70.48,129.462,-8.9591e-42,0,260.96,6.93956e-73
71.48,129.462,-2.23978e-42,0,260.96,1.73489e-73
72.48,129.462,-5.59944e-43,0,260.96,4.33722e-74
73.48,129.462,-1.39986e-43,0,260.96,1.08431e-74
74.48,129.462,-3.49965e-44,0,260.96,2.71076e-75
75.48,129.462,-8.74912e-45,0,260.96,6.77691e-76
76.48,129.462,-2.18728e-45,0,260.96,1.69423e-76
77.48,129.462,-5.4682e-46,0,260.96,4.23557e-77
78.48,129.462,-1.36705e-46,0,260.96,1.05889e-77
79.48,129.462,-3.41763e-47,0,260.96,2.64723e-78
80.48,129.462,-8.54407e-48,0,260.96,6.61808e-79
81.48,129.462,-2.13602e-48,0,260.96,2.54616e-81
82.48,129.462,-5.34004e-49,0,260.96,9.79582e-84
83.48,129.462,-1.33501e-49,0,260.96,3.76873e-86
84.48,129.462,-3.33753e-50,0,260.96,1.44994e-88
85.48,129.462,-8.34381e-51,0,260.96,5.57833e-91
86.48,129.462,-2.08595e-51,0,260.96,2.14614e-93
87.48,129.462,-5.21488e-52,0,260.96,8.25683e-96
88.48,129.462,-1.30372e-52,0,260.96,3.17664e-98
89.48,129.462,-3.2593e-53,0,260.96,1.22214e-100
90.48,129.462,-8.14826e-54,0,260.96,4.70193e-103
91.48,129.462,-2.03706e-54,0,260.96,1.80897e-105
92.48,129.462,-5.09266e-55,0,260.96,6.95962e-108
93.48,129.462,-1.27317e-55,0,260.96,2.67757e-110
94.48,129.462,-3.18291e-56,0,260.96,1.03014e-112
95.48,129.462,-7.95728e-57,0,260.96,3.96323e-115
96.48,129.462,-1.98932e-57,0,260.96,1.52477e-117
97.48,129.462,-4.9733e-58,0,260.96,5.86622e-120
98.48,129.462,-1.24333e-58,0,260.96,2.2569e-122
99.48,129.462,-3.10831e-59,0,260.96,8.68294e-125
100,129.462,-1.21412e-59,0,260.96,6.40094e-127
