#Time,D,E,C,B,A
0,0,101.46,60.7292,28.5264,0
3.1e-5,0.0113176,101.451,60.7274,28.5264,0
0.000154053,0.0562319,101.413,60.7199,28.5264,0
0.000347886,0.126954,101.354,60.7081,28.5264,0
0.00131368,0.478795,101.061,60.6495,28.5264,0
0.00577819,2.09351,99.7167,60.3793,28.5264,0
0.0103793,3.73766,98.3497,60.1022,28.5264,0
0.0154773,5.53601,96.857,59.7966,28.5264,0
0.0213568,7.57998,95.1635,59.446,28.5264,0
0.0428678,14.7923,89.2163,58.1809,28.5264,0
0.0734781,24.3741,81.3885,56.427,28.5264,0
0.108652,34.475,73.2379,54.4767,28.5264,0
0.146451,44.3469,65.3866,52.456,28.5264,0
0.187415,54.0135,57.8254,50.3506,28.5264,0
0.231559,63.3601,50.6531,48.1763,28.5264,0
0.276714,71.9043,44.236,46.0493,28.5264,0
0.321869,79.5417,38.6317,44.0161,28.5264,0
0.389625,89.5312,31.5258,41.1326,28.5264,0
0.47624,100.158,24.3116,37.7198,28.5264,0
0.562855,108.851,18.7484,34.5902,28.5264,0
0.64947,116.011,14.4581,31.7202,28.5264,0
0.76549,123.736,10.2083,28.2455,28.5264,0
0.884696,129.979,7.1391,25.0714,28.5264,0
1.02245,135.622,4.72246,21.8451,28.5264,0
1.1865,140.763,2.88692,18.54,28.5264,0
1.31972,144.026,1.93579,16.2274,28.5264,0
1.46646,146.93,1.24645,14.0127,28.5264,0
1.62766,149.494,0.768531,11.9266,28.5264,0
1.78324,151.499,0.481906,10.2082,28.5264,0
1.94466,153.206,0.296935,8.6865,28.5264,0
2.12846,154.79,0.171079,7.22804,28.5264,0
2.30631,156.039,0.100341,6.05035,28.5264,0
2.51375,157.219,0.0538574,4.9169,28.5264,0
2.7382,158.234,0.0274695,3.92838,28.5264,0
2.98135,159.096,0.0132476,3.08044,28.5264,0
3.25848,159.849,0.00577134,2.33485,28.5264,0
3.55315,160.448,0.00238589,1.73895,28.5264,0
3.92828,160.994,0.000777529,1.19501,28.5264,0
4.327,161.387,0.000236082,0.802065,28.5264,0
4.80886,161.694,5.71826e-5,0.495391,28.5264,0
5.29824,161.886,1.328e-5,0.30368,28.5264,0
5.80341,162.006,3.03697e-6,0.183245,28.5264,0
6.34125,162.083,6.51391e-7,0.107019,28.5264,0
6.92418,162.13,1.04564e-7,0.0597472,28.5264,0
7.56833,162.158,3.14546e-8,0.0313762,28.5264,0
8.25489,162.174,2.54502e-9,0.015794,28.5264,0
9.06266,162.182,4.26455e-10,0.00704445,28.5264,0
9.91735,162.187,2.3474e-9,0.00299835,28.5264,0
10.9174,162.188,-3.83983e-10,0.00110536,28.5264,0
11.9174,162.189,7.58236e-9,0.000404485,28.5264,0
12.78,162.189,-5.56348e-9,0.000173097,28.5264,0
13.7505,162.189,4.06996e-9,6.37834e-5,28.5264,0
14.7505,162.19,-5.45332e-9,2.41711e-5,28.5264,0
15.7505,162.19,1.18582e-8,7.55948e-6,28.5264,0
16.7505,162.19,-3.33808e-10,2.74931e-6,28.5264,0
17.7505,162.19,2.31196e-10,1.25911e-6,28.5264,0
18.7505,162.19,-1.69638e-11,4.17798e-7,28.5264,0
19.7505,162.19,-3.32279e-11,8.24162e-8,28.5264,0
20.7505,162.19,-1.28831e-11,-1.76266e-8,28.5264,0
21.7505,162.19,-2.03383e-12,-3.05845e-8,28.5264,0
22.7505,162.19,5.27531e-13,-2.09423e-8,28.5264,0
23.7505,162.19,4.60439e-13,-1.06369e-8,28.5264,0
24.7505,162.19,1.1511e-13,-5.31847e-9,28.5264,0
25.7505,162.19,2.87774e-14,-2.65923e-9,28.5264,0
26.7505,162.19,7.19436e-15,-1.32962e-9,28.5264,0
27.7505,162.19,1.79859e-15,-6.64809e-10,28.5264,0
28.7505,162.19,4.49647e-16,-3.32404e-10,28.5264,0
29.7505,162.19,1.12412e-16,-1.66202e-10,28.5264,0
30.7505,162.19,2.81029e-17,-8.31011e-11,28.5264,0
31.7505,162.19,7.02574e-18,-4.15505e-11,28.5264,0
32.7505,162.19,1.75643e-18,-2.07753e-11,28.5264,0
33.7505,162.19,4.39109e-19,-1.03876e-11,28.5264,0
34.7505,162.19,1.09777e-19,-5.19382e-12,28.5264,0
35.7505,162.19,2.74443e-20,-2.59691e-12,28.5264,0
36.7505,162.19,6.86107e-21,-1.29845e-12,28.5264,0
37.7505,162.19,1.71527e-21,-6.49227e-13,28.5264,0
38.7505,162.19,4.28817e-22,-3.24614e-13,28.5264,0
39.7505,162.19,1.07204e-22,-1.62307e-13,28.5264,0
40.7505,162.19,2.68011e-23,-8.11534e-14,28.5264,0
41.7505,162.19,6.70027e-24,-4.05767e-14,28.5264,0
42.7505,162.19,1.67507e-24,-2.02883e-14,28.5264,0
43.7505,162.19,4.18767e-25,-1.01442e-14,28.5264,0
44.7505,162.19,1.04692e-25,-5.07209e-15,28.5264,0
45.7505,162.19,2.61729e-26,-2.53604e-15,28.5264,0
46.7505,162.19,6.54323e-27,-1.26802e-15,28.5264,0
47.7505,162.19,1.63581e-27,-6.34011e-16,28.5264,0
48.7505,162.19,4.08952e-28,-3.17005e-16,28.5264,0
49.7505,162.19,1.02238e-28,-1.58503e-16,28.5264,0
50.7505,162.19,2.55595e-29,-7.92514e-17,28.5264,0
51.7505,162.19,6.38987e-30,-3.96257e-17,28.5264,0
52.7505,162.19,1.59747e-30,-1.98128e-17,28.5264,0
53.7505,162.19,3.99367e-31,-9.90642e-18,28.5264,0
54.7505,162.19,9.98417e-32,-4.95321e-18,28.5264,0
55.7505,162.19,2.49604e-32,-2.4766e-18,28.5264,0
56.7505,162.19,6.24011e-33,-1.2383e-18,28.5264,0
57.7505,162.19,1.56003e-33,-6.19151e-19,28.5264,0
58.7505,162.19,3.90007e-34,-3.09576e-19,28.5264,0
59.7505,162.19,9.75017e-35,-1.54788e-19,28.5264,0
60.7505,162.19,2.43754e-35,-7.73939e-20,28.5264,0
61.7505,162.19,6.09386e-36,-3.86969e-20,28.5264,0
62.7505,162.19,1.52346e-36,-1.93485e-20,28.5264,0
63.7505,162.19,3.80866e-37,-9.67424e-21,28.5264,0
64.7505,162.19,9.52165e-38,-4.83712e-21,28.5264,0
65.7505,162.19,2.38041e-38,-2.41856e-21,28.5264,0
66.7505,162.19,5.95103e-39,-1.20928e-21,28.5264,0
67.7505,162.19,1.48776e-39,-6.0464e-22,28.5264,0
68.7505,162.19,3.71939e-40,-3.0232e-22,28.5264,0
69.7505,162.19,9.29849e-41,-1.5116e-22,28.5264,0
70.7505,162.19,2.32462e-41,-7.558e-23,28.5264,0
71.7505,162.19,5.81155e-42,-3.779e-23,28.5264,0
72.7505,162.19,1.45289e-42,-1.8895e-23,28.5264,0
73.7505,162.19,3.63222e-43,-9.4475e-24,28.5264,0
74.7505,162.19,9.08055e-44,-4.72375e-24,28.5264,0
75.7505,162.19,2.27014e-44,-2.36187e-24,28.5264,0
76.7505,162.19,5.67535e-45,-1.18094e-24,28.5264,0
77.7505,162.19,1.41884e-45,-5.90469e-25,28.5264,0
78.7505,162.19,3.54709e-46,-2.95234e-25,28.5264,0
79.7505,162.19,8.86773e-47,-1.47617e-25,28.5264,0
80.7505,162.19,2.21693e-47,-7.38086e-26,28.5264,0
81.7505,162.19,5.54233e-48,-3.69043e-26,28.5264,0
82.7505,162.19,1.38558e-48,-1.84521e-26,28.5264,0
83.7505,162.19,3.46396e-49,-9.22607e-27,28.5264,0
84.7505,162.19,8.65989e-50,-4.61304e-27,28.5264,0
85.7505,162.19,2.16497e-50,-2.30652e-27,28.5264,0
86.7505,162.19,5.41243e-51,-1.15326e-27,28.5264,0
87.7505,162.19,1.35311e-51,-5.76629e-28,28.5264,0
88.7505,162.19,3.38277e-52,-2.88315e-28,28.5264,0
89.7505,162.19,8.45692e-53,-1.44157e-28,28.5264,0
90.7505,162.19,2.11423e-53,-7.20787e-29,28.5264,0
91.7505,162.19,5.28558e-54,-3.60393e-29,28.5264,0
92.7505,162.19,1.32139e-54,-1.80197e-29,28.5264,0
93.7505,162.19,3.30349e-55,-9.00984e-30,28.5264,0
94.7505,162.19,8.25871e-56,-4.50492e-30,28.5264,0
95.7505,162.19,2.06468e-56,-2.25246e-30,28.5264,0
96.7505,162.19,5.1617e-57,-1.12623e-30,28.5264,0
97.7505,162.19,1.29042e-57,-5.63115e-31,28.5264,0
98.7505,162.19,3.22606e-58,-2.81557e-31,28.5264,0
99.7505,162.19,8.06515e-59,-1.40779e-31,28.5264,0
100,162.19,4.61238e-59,-1.12665e-31,28.5264,0
