#Time,D,E,C,B,A
0,48.7001,191.762,60.2947,0,133.131
3.0e-6,48.702,191.76,60.2945,0.0388945,133.092
8.34724e-6,48.7054,191.757,60.2942,0.108199,133.023
3.67635e-5,48.7235,191.74,60.2925,0.475971,132.655
0.000181848,48.8157,191.657,60.2837,2.34002,130.791
0.000353913,48.925,191.558,60.2734,4.52126,128.61
0.000534196,49.0394,191.455,60.2625,6.77275,126.358
0.000730913,49.1642,191.342,60.2506,9.19037,123.941
0.000955245,49.3065,191.213,60.2371,11.8983,121.233
0.0011896,49.455,191.078,60.223,14.672,118.459
0.00152344,49.6663,190.887,60.2029,18.5278,114.603
0.00269645,50.4075,190.217,60.1323,31.2211,101.91
0.00408659,51.2826,189.425,60.0488,44.6555,88.4757
0.00562142,52.2449,188.555,59.9567,57.654,75.4772
0.00719221,53.2255,187.668,59.8626,69.1774,63.9538
0.00876299,54.2017,186.786,59.7686,79.1078,54.0234
0.0103338,55.1737,185.908,59.6748,87.6356,45.4956
0.0126896,56.6234,184.599,59.5344,98.1702,34.961
0.0158089,58.5282,182.879,59.349,108.72,24.4109
0.0189282,60.4164,181.176,59.1642,116.287,16.844
0.0220475,62.2882,179.488,58.9799,121.644,11.4871
0.024737,63.889,178.046,58.8215,124.95,8.18142
0.0274265,65.4777,176.615,58.6635,127.354,5.77723
0.030116,67.0546,175.196,58.5059,129.086,4.04494
0.0328055,68.6196,173.788,58.3488,130.323,2.80824
0.0353824,70.1081,172.45,58.1986,131.167,1.96414
0.0377452,71.4635,171.232,58.0613,131.725,1.4057
0.0408841,73.2503,169.627,57.8793,132.239,0.892525
0.0443886,75.2268,167.853,57.6768,132.601,0.530447
0.0484718,77.5055,165.809,57.4418,132.847,0.284314
0.0529501,79.9749,163.596,57.1851,132.991,0.140449
0.0566801,82.0082,161.776,56.9722,133.054,0.076756
0.061246,84.4686,159.575,56.7127,133.095,0.0358946
0.0662532,87.131,157.196,56.4294,133.116,0.0152026
0.071172,89.7105,154.893,56.1525,133.125,0.00637147
0.0774281,92.9407,152.013,55.8023,133.129,0.0020354
0.08397,96.2588,149.059,55.4385,133.131,0.000590593
0.0911897,99.8514,145.865,55.0397,133.131,0.000144594
0.100594,104.424,141.808,54.5245,133.131,2.24653e-5
0.110468,109.099,137.668,53.9887,133.131,2.58322e-6
0.123787,115.206,132.276,53.2745,133.131,3.38525e-7
0.140898,122.729,125.657,52.3706,133.131,5.33376e-7
0.163012,131.94,117.592,51.2252,133.131,-9.96387e-8
0.18731,141.436,109.325,49.9955,133.131,-1.97944e-6
0.210216,149.829,102.065,48.8634,133.131,4.69608e-7
0.229779,156.593,96.2469,47.9168,133.131,1.63175e-6
0.245969,161.925,91.6839,47.1472,133.131,-9.84036e-8
0.261811,166.922,87.4284,46.4062,133.131,-5.10308e-7
0.282073,173.009,82.2723,45.4754,133.131,6.42453e-7
0.307779,180.269,76.166,44.3213,133.131,2.33483e-7
0.347661,190.591,67.5771,42.5884,133.131,1.61979e-7
0.399331,202.439,57.8735,40.4438,133.131,1.15366e-7
0.471721,216.561,46.5762,37.6195,133.131,-3.42652e-7
0.543977,228.26,37.4993,34.9972,133.131,-2.03372e-7
0.624937,239.068,29.4132,32.2755,133.131,7.68303e-7
0.703716,247.704,23.2221,29.8304,133.131,1.11009e-6
0.766142,253.475,19.2561,28.0251,133.131,2.22326e-7
0.826945,258.339,16.0453,26.3719,133.131,1.00896e-6
0.879429,262.025,13.7078,25.0235,133.131,-4.18552e-7
0.920797,264.639,12.108,24.0094,133.131,-4.85198e-6
0.942539,265.92,11.3434,23.4931,133.131,5.20414e-8
0.954358,266.591,10.9483,23.217,133.131,5.66466e-7
0.970884,267.501,10.4187,22.8365,133.131,-3.83361e-7
0.994848,268.765,9.69596,22.2957,133.131,3.86491e-8
1.04608,271.26,8.31452,21.1822,133.131,-2.15715e-8
1.0934,273.339,7.21419,20.2032,133.131,-2.95872e-9
1.14072,275.227,6.25948,19.2695,133.131,1.71476e-11
1.19668,277.244,5.29213,18.2208,133.131,9.18425e-11
1.28579,280.038,4.05073,16.6674,133.131,3.03515e-11
1.37603,282.437,3.08995,15.2291,133.131,7.31063e-12
1.46856,284.532,2.34099,13.8833,133.131,2.76359e-12
1.56108,286.326,1.77357,12.6564,133.131,9.10396e-13
1.65361,287.875,1.34368,11.5379,133.131,4.00991e-13
1.76289,289.445,0.968097,10.3435,133.131,-1.74522e-13
1.90374,291.137,0.634475,8.98456,133.131,-5.31437e-14
2.06477,292.717,0.391389,7.64822,133.131,2.61828e-14
2.22911,294.028,0.239055,6.48915,133.131,8.59631e-15
2.41371,295.224,0.137405,5.39533,133.131,6.97936e-16
2.60259,296.212,0.0779697,4.46671,133.131,-1.12399e-16
2.80791,297.077,0.0421168,3.63765,133.131,2.28448e-16
3.03077,297.824,0.0215839,2.91094,133.131,3.18122e-15
3.2806,298.479,0.0102033,2.26742,133.131,1.46944e-14
3.56436,299.045,0.00435761,1.70725,133.131,2.36154e-14
3.87856,299.508,0.00169985,1.24693,133.131,2.12288e-14
4.27126,299.914,0.000526299,0.841967,133.131,3.79118e-14
4.6693,300.191,0.000159512,0.565496,133.131,3.79723e-14
5.15802,300.41,3.76447e-5,0.346887,133.131,9.50039e-14
5.66417,300.547,8.27296e-6,0.209111,133.131,5.45108e-13
6.21434,300.636,1.68181e-6,0.120631,133.131,-3.6822e-14
6.79861,300.689,3.61466e-7,0.0672553,133.131,-1.22936e-11
7.41541,300.72,3.62612e-8,0.0362979,133.131,1.01921e-12
8.12165,300.739,2.52284e-8,0.0179158,133.131,-6.66046e-12
8.86477,300.748,4.18476e-9,0.00852287,133.131,-1.47784e-11
9.76716,300.753,-9.72508e-10,0.00345992,133.131,2.02092e-10
10.724,300.755,5.66154e-9,0.00133028,133.131,-2.65072e-9
11.724,300.756,3.59745e-10,0.000491667,133.131,-1.82546e-9
12.6522,300.756,4.31604e-10,0.000192117,133.131,1.51018e-8
13.6522,300.756,-1.89623e-10,7.23937e-5,133.131,-1.1193e-11
14.6522,300.756,2.02281e-10,2.69871e-5,133.131,-1.39914e-9
15.6522,300.756,7.19099e-11,1.0744e-5,133.131,1.03029e-11
16.6522,300.756,-1.16447e-11,3.77941e-6,133.131,-1.95504e-12
17.6522,300.756,-7.38525e-12,9.38983e-7,133.131,-3.87755e-12
18.6522,300.756,-1.98847e-12,-4.69574e-9,133.131,-1.04924e-14
19.6522,300.756,-6.31819e-14,-1.91553e-7,133.131,3.18189e-15
20.6522,300.756,1.9286e-13,-1.52303e-7,133.131,1.55474e-15
21.6522,300.756,9.27359e-14,-8.35321e-8,133.131,8.67229e-18
22.6522,300.756,1.9787e-14,-3.6365e-8,133.131,-6.78026e-19
23.6522,300.756,-1.50975e-15,-1.23856e-8,133.131,-6.20469e-19
24.6522,300.756,-2.86956e-15,-2.63546e-9,133.131,-5.03624e-21
25.6522,300.756,-7.1739e-16,-1.31773e-9,133.131,-3.64604e-22
26.6522,300.756,-1.79348e-16,-6.58865e-10,133.131,-2.33514e-24
27.6522,300.756,-4.48369e-17,-3.29433e-10,133.131,-1.50316e-25
28.6522,300.756,-1.12092e-17,-1.64716e-10,133.131,-2.19653e-27
29.6522,300.756,-2.80231e-18,-8.23582e-11,133.131,-6.28098e-28
30.6522,300.756,-7.00576e-19,-4.11791e-11,133.131,-2.8442e-28
31.6522,300.756,-1.75144e-19,-2.05895e-11,133.131,-1.41996e-28
32.6522,300.756,-4.3786e-20,-1.02948e-11,133.131,-7.09859e-29
33.6522,300.756,-1.09465e-20,-5.14738e-12,133.131,-3.54929e-29
34.6522,300.756,-2.73663e-21,-2.57369e-12,133.131,-1.77464e-29
35.6522,300.756,-6.84157e-22,-1.28685e-12,133.131,-8.87322e-30
36.6522,300.756,-1.71039e-22,-6.43423e-13,133.131,-4.43661e-30
37.6522,300.756,-4.27598e-23,-3.21712e-13,133.131,-2.2183e-30
38.6522,300.756,-1.06899e-23,-1.60856e-13,133.131,-1.10915e-30
39.6522,300.756,-2.67249e-24,-8.04279e-14,133.131,-5.54576e-31
40.6522,300.756,-6.68122e-25,-4.02139e-14,133.131,-2.77288e-31
41.6522,300.756,-1.6703e-25,-2.0107e-14,133.131,-1.38644e-31
42.6522,300.756,-4.17576e-26,-1.00535e-14,133.131,-6.9322e-32
43.6522,300.756,-1.04394e-26,-5.02674e-15,133.131,-3.4661e-32
44.6522,300.756,-2.60985e-27,-2.51337e-15,133.131,-1.73305e-32
45.6522,300.756,-6.52463e-28,-1.25669e-15,133.131,-8.66525e-33
46.6522,300.756,-1.63116e-28,-6.28343e-16,133.131,-1.43818e-35
47.6522,300.756,-4.07789e-29,-3.14171e-16,133.131,-2.38698e-38
48.6522,300.756,-1.01947e-29,-1.57086e-16,133.131,-3.9617e-41
49.6522,300.756,-2.54868e-30,-7.85429e-17,133.131,-6.57531e-44
50.6522,300.756,-6.37171e-31,-3.92714e-17,133.131,-1.09187e-46
51.6522,300.756,-1.59293e-31,-1.96357e-17,133.131,-2.0909e-49
52.6522,300.756,-3.98232e-32,-9.81786e-18,133.131,-1.42824e-50
53.6522,300.756,-9.95579e-33,-4.90893e-18,133.131,-6.99137e-51
54.6522,300.756,-2.48895e-33,-2.45446e-18,133.131,-3.49544e-51
55.6522,300.756,-6.22237e-34,-1.22723e-18,133.131,-1.74772e-51
56.6522,300.756,-1.55559e-34,-6.13616e-19,133.131,-8.73859e-52
57.6522,300.756,-3.88898e-35,-3.06808e-19,133.131,-4.3693e-52
58.6522,300.756,-9.72245e-36,-1.53404e-19,133.131,-2.18465e-52
59.6522,300.756,-2.43061e-36,-7.6702e-20,133.131,-1.09232e-52
60.6522,300.756,-6.07653e-37,-3.8351e-20,133.131,-5.46162e-53
61.6522,300.756,-1.51913e-37,-1.91755e-20,133.131,-2.73081e-53
62.6522,300.756,-3.79783e-38,-9.58775e-21,133.131,-1.36541e-53
63.6522,300.756,-9.49458e-39,-4.79388e-21,133.131,-6.82703e-54
64.6522,300.756,-2.37365e-39,-2.39694e-21,133.131,-3.41351e-54
65.6522,300.756,-5.93411e-40,-1.19847e-21,133.131,-1.70676e-54
66.6522,300.756,-1.48353e-40,-5.99234e-22,133.131,-8.53378e-55
67.6522,300.756,-3.70882e-41,-2.99617e-22,133.131,-4.26689e-55
68.6522,300.756,-9.27205e-42,-1.49809e-22,133.131,-2.13345e-55
69.6522,300.756,-2.31801e-42,-7.49043e-23,133.131,-1.06672e-55
70.6522,300.756,-5.79503e-43,-3.74522e-23,133.131,-5.33361e-56
71.6522,300.756,-1.44876e-43,-1.87261e-23,133.131,-2.66681e-56
72.6522,300.756,-3.6219e-44,-9.36304e-24,133.131,-1.3334e-56
73.6522,300.756,-9.05474e-45,-4.68152e-24,133.131,-6.66702e-57
74.6522,300.756,-2.26368e-45,-2.34076e-24,133.131,-3.33351e-57
75.6522,300.756,-5.65921e-46,-1.17038e-24,133.131,-1.66675e-57
76.6522,300.756,-1.4148e-46,-5.8519e-25,133.131,-8.33377e-58
77.6522,300.756,-3.53701e-47,-2.92595e-25,133.131,-4.16689e-58
78.6522,300.756,-8.84252e-48,-1.46297e-25,133.131,-2.08344e-58
79.6522,300.756,-2.21063e-48,-7.31487e-26,133.131,-1.04172e-58
80.6522,300.756,-5.52657e-49,-3.65744e-26,133.131,-5.20861e-59
81.6522,300.756,-1.38164e-49,-1.82872e-26,133.131,-2.6043e-59
82.6522,300.756,-3.45411e-50,-9.14359e-27,133.131,-1.30215e-59
83.6522,300.756,-8.63527e-51,-4.5718e-27,133.131,-6.51076e-60
84.6522,300.756,-2.15882e-51,-2.2859e-27,133.131,-3.25538e-60
85.6522,300.756,-5.39704e-52,-1.14295e-27,133.131,-1.62769e-60
86.6522,300.756,-1.34926e-52,-5.71475e-28,133.131,-8.13845e-61
87.6522,300.756,-3.37315e-53,-2.85737e-28,133.131,-4.06923e-61
88.6522,300.756,-8.43288e-54,-1.42869e-28,133.131,-6.75376e-64
89.6522,300.756,-2.10822e-54,-7.14343e-29,133.131,-1.12093e-66
90.6522,300.756,-5.27055e-55,-3.57172e-29,133.131,-1.86043e-69
91.6522,300.756,-1.31764e-55,-1.78586e-29,133.131,-3.08778e-72
92.6522,300.756,-3.29409e-56,-8.92929e-30,133.131,-5.12484e-75
93.6522,300.756,-8.23524e-57,-4.46464e-30,133.131,-8.50577e-78
94.6522,300.756,-2.05881e-57,-2.23232e-30,133.131,-1.41172e-80
95.6522,300.756,-5.14702e-58,-1.11616e-30,133.131,-2.34305e-83
96.6522,300.756,-1.28676e-58,-5.58081e-31,133.131,-3.88879e-86
97.6522,300.756,-3.21689e-59,-2.7904e-31,133.131,-6.45429e-89
98.6522,300.756,-8.04222e-60,-1.3952e-31,133.131,-1.07123e-91
99.6522,300.756,-2.01056e-60,-6.97601e-32,133.131,-1.77793e-94
100,300.756,-9.83979e-61,-5.17599e-32,133.131,-8.45892e-97
