#Time,D,E,C,B,A
0,171.943,120.922,151.57,158.054,18.7262
8.6308e-6,171.947,120.918,151.569,158.109,18.6708
2.0077e-5,171.953,120.914,151.567,158.182,18.5975
3.7731e-5,171.962,120.908,151.564,158.295,18.4849
0.000140031,172.015,120.871,151.549,158.934,17.8457
0.000263091,172.078,120.826,151.53,159.674,17.1058
0.000386151,172.142,120.782,151.511,160.383,16.3963
0.000549126,172.225,120.723,151.487,161.278,15.5014
0.000949925,172.431,120.577,151.426,163.278,13.5014
0.00133454,172.628,120.438,151.368,164.956,11.8234
0.00174093,172.837,120.292,151.306,166.505,10.2748
0.00214731,173.045,120.145,151.245,167.852,8.92752
0.00263177,173.292,119.971,151.172,169.231,7.54853
0.00341194,173.691,119.69,151.054,171.021,5.75829
0.00419211,174.088,119.41,150.936,172.39,4.38992
0.00497228,174.485,119.131,150.818,173.435,3.34464
0.00588961,174.951,118.804,150.68,174.352,2.42738
0.00700882,175.518,118.406,150.511,175.14,1.63979
0.00838202,176.211,117.919,150.305,175.768,1.01165
0.00973293,176.891,117.442,150.102,176.152,0.627866
0.0110799,177.566,116.968,149.9,176.39,0.389518
0.0126019,178.327,116.435,149.672,176.553,0.226616
0.0140703,179.059,115.924,149.452,176.646,0.134085
0.0156808,179.858,115.365,149.212,176.705,0.0752243
0.0175935,180.803,114.705,148.927,176.742,0.0377396
0.0195303,181.756,114.04,148.639,176.761,0.0187013
0.021728,182.832,113.291,148.312,176.771,0.00839518
0.0244127,184.138,112.382,147.915,176.777,0.00313735
0.0270023,185.39,111.512,147.532,176.779,0.0012049
0.0305602,187.098,110.328,147.008,176.779,0.000323195
0.0344906,188.968,109.035,146.431,176.78,7.43404e-5
0.0391104,191.144,107.534,145.756,176.78,1.39328e-5
0.0444096,193.61,105.838,144.986,176.78,1.11924e-6
0.0550186,198.456,102.523,143.456,176.78,-1.19095e-6
0.0672248,203.882,98.8366,141.716,176.78,2.43255e-7
0.0856615,211.789,93.5184,139.127,176.78,2.45042e-7
0.113656,223.163,85.9851,135.286,176.78,-5.43845e-8
0.16131,240.913,74.5309,128.99,176.78,7.04888e-7
0.236844,265.41,59.4187,119.606,176.78,2.62108e-7
0.325369,289.402,45.56,109.473,176.78,6.79786e-7
0.372023,300.342,39.6094,104.483,176.78,6.5868e-7
0.446096,315.695,31.7168,97.0233,176.78,1.07275e-6
0.472826,320.698,29.2727,94.4643,176.78,2.95379e-7
0.491915,324.113,27.6435,92.6781,176.78,-5.79631e-7
0.520969,329.074,25.336,90.0242,176.78,-2.3422e-8
0.562913,335.768,22.3404,86.3263,176.78,7.58811e-9
0.613889,343.226,19.1724,82.036,176.78,5.18504e-10
0.679886,351.909,15.7286,76.7967,176.78,-1.05444e-9
0.759341,361.111,12.3928,70.9309,176.78,-1.11714e-9
0.852179,370.412,9.38013,64.6422,176.78,2.21781e-9
0.947211,378.599,7.05329,58.7821,176.78,1.50188e-8
1.04224,385.678,5.30365,53.4531,176.78,-4.21324e-8
1.13727,391.839,3.98803,48.6073,176.78,-2.26e-8
1.25413,398.379,2.80872,43.2465,176.78,-1.42915e-7
1.38473,404.585,1.89825,37.9518,176.78,-4.71891e-7
1.52665,410.264,1.2401,32.9306,176.78,2.84012e-7
1.61963,413.49,0.93822,30.0065,176.78,-5.79581e-7
1.68526,415.564,0.770548,28.1005,176.78,-9.37042e-7
1.7433,417.271,0.647407,26.5159,176.78,1.26227e-6
1.7906,418.582,0.561763,25.2909,176.78,1.16517e-6
1.84242,419.94,0.480882,24.0137,176.78,5.9353e-7
1.8841,420.977,0.424366,23.0335,176.78,-1.04031e-7
1.92806,422.02,0.371929,22.0428,176.78,-2.15054e-7
2.00005,423.623,0.299686,20.5117,176.78,1.27049e-7
2.12092,426.05,0.208534,18.1765,176.78,2.05255e-8
2.24248,428.194,0.144809,16.096,176.78,6.91094e-9
2.3852,430.385,0.0943671,13.9551,176.78,2.88462e-9
2.52793,432.274,0.0614963,12.099,176.78,9.86721e-10
2.68138,434.018,0.0388051,10.3778,176.78,-9.85133e-10
2.84535,435.603,0.0237254,8.80832,176.78,-8.67962e-9
3.02639,437.071,0.0137806,7.34968,176.78,1.12443e-9
3.23017,438.432,0.00747541,5.99468,176.78,-6.9739e-10
3.45046,439.621,0.00385858,4.80947,176.78,3.26653e-9
3.71165,440.729,0.00176042,3.70391,176.78,2.20844e-8
3.97876,441.598,0.000788949,2.83567,176.78,-7.13054e-8
4.25246,442.278,0.000346592,2.15668,176.78,-7.84696e-8
4.52946,442.8,0.000150746,1.63488,176.78,1.03042e-6
4.79493,443.181,6.78854e-5,1.25369,176.78,1.96172e-7
5.00391,443.417,3.62569e-5,1.01726,176.78,2.50446e-7
5.25946,443.647,1.68261e-5,0.787852,176.78,2.15603e-8
5.55917,443.851,6.82682e-6,0.58382,176.78,2.36676e-10
5.87605,444.009,2.63073e-6,0.425261,176.78,-3.91225e-11
6.20932,444.13,9.63207e-7,0.304729,176.78,-1.48852e-11
6.55733,444.219,3.37315e-7,0.215165,176.78,-4.22514e-12
6.91957,444.285,1.12905e-7,0.149776,176.78,6.257e-12
7.31265,444.334,3.43412e-8,0.101093,176.78,4.32741e-11
7.72053,444.367,9.96585e-9,0.0672299,176.78,1.74208e-13
8.17185,444.392,2.50047e-9,0.0428085,176.78,6.67973e-13
8.65674,444.408,5.6411e-10,0.0263579,176.78,5.67975e-13
9.17655,444.419,1.09857e-10,0.0156711,176.78,2.02238e-13
9.78123,444.426,1.53675e-11,0.00855802,176.78,-1.50753e-12
10.4286,444.43,1.70106e-12,0.00447749,176.78,-4.38389e-12
11.1929,444.433,-8.00381e-15,0.00208299,176.78,4.34303e-11
12.0353,444.434,2.51475e-14,0.00089562,176.78,5.99142e-13
13.0353,444.434,-9.96049e-15,0.000327832,176.78,-2.82307e-12
14.0353,444.434,2.06813e-15,0.000120021,176.78,1.72127e-13
15.0353,444.435,-9.45367e-15,4.35473e-5,176.78,-3.87862e-13
16.0353,444.435,-3.8238e-15,1.48273e-5,176.78,-1.24058e-13
17.0353,444.435,3.13098e-15,6.01085e-6,176.78,1.21003e-13
18.0353,444.435,-2.27277e-15,2.56051e-6,176.78,-2.3327e-13
19.0353,444.435,5.65914e-15,7.54277e-7,176.78,-2.61278e-12
20.0353,444.435,6.31569e-15,9.29252e-8,176.78,-1.44634e-12
21.0353,444.435,2.00706e-15,3.04672e-10,176.78,-3.69632e-14
22.0353,444.435,-3.23997e-16,3.98653e-8,176.78,1.35042e-15
23.0353,444.435,-3.88416e-16,5.29814e-8,176.78,-4.44849e-16
24.0353,444.435,-2.11764e-18,3.50287e-8,176.78,-3.05772e-17
25.0353,444.435,9.68841e-17,1.37302e-8,176.78,6.98658e-19
26.0353,444.435,3.40048e-17,2.2264e-9,176.78,-8.25759e-20
27.0353,444.435,4.34834e-18,-9.64925e-10,176.78,-2.29433e-21
28.0353,444.435,-1.84571e-18,-1.21722e-9,176.78,1.92935e-22
29.0353,444.435,-1.30347e-18,-7.8079e-10,176.78,6.99745e-23
30.0353,444.435,-3.74239e-19,-3.81188e-10,176.78,2.18381e-23
31.0353,444.435,-9.35597e-20,-1.90594e-10,176.78,5.74441e-24
32.0353,444.435,-2.33899e-20,-9.52971e-11,176.78,2.86655e-24
33.0353,444.435,-5.84748e-21,-4.76486e-11,176.78,1.43322e-24
34.0353,444.435,-1.46187e-21,-2.38243e-11,176.78,7.16608e-25
35.0353,444.435,-3.65468e-22,-1.19121e-11,176.78,3.58304e-25
36.0353,444.435,-9.13669e-23,-5.95607e-12,176.78,1.79152e-25
37.0353,444.435,-2.28417e-23,-2.97803e-12,176.78,8.9576e-26
38.0353,444.435,-5.71043e-24,-1.48902e-12,176.78,4.4788e-26
39.0353,444.435,-1.42761e-24,-7.44509e-13,176.78,2.2394e-26
40.0353,444.435,-3.56902e-25,-3.72254e-13,176.78,1.1197e-26
41.0353,444.435,-8.92255e-26,-1.86127e-13,176.78,5.5985e-27
42.0353,444.435,-2.23064e-26,-9.30636e-14,176.78,2.79925e-27
43.0353,444.435,-5.5766e-27,-4.65318e-14,176.78,1.39962e-27
44.0353,444.435,-1.39415e-27,-2.32659e-14,176.78,6.99812e-28
45.0353,444.435,-3.48537e-28,-1.16329e-14,176.78,3.49906e-28
46.0353,444.435,-8.71343e-29,-5.81647e-15,176.78,1.74953e-28
47.0353,444.435,-2.17836e-29,-2.90824e-15,176.78,8.74765e-29
48.0353,444.435,-5.44589e-30,-1.45412e-15,176.78,4.37383e-29
49.0353,444.435,-1.36147e-30,-7.27059e-16,176.78,2.18691e-29
50.0353,444.435,-3.40368e-31,-3.6353e-16,176.78,1.09346e-29
51.0353,444.435,-8.50921e-32,-1.81765e-16,176.78,5.46728e-30
52.0353,444.435,-2.1273e-32,-9.08824e-17,176.78,6.14392e-33
53.0353,444.435,-5.31826e-33,-4.54412e-17,176.78,6.90429e-36
54.0353,444.435,-1.32956e-33,-2.27206e-17,176.78,7.75877e-39
55.0353,444.435,-3.32391e-34,-1.13603e-17,176.78,8.719e-42
56.0353,444.435,-8.30977e-35,-5.68015e-18,176.78,9.79807e-45
57.0353,444.435,-2.07744e-35,-2.84008e-18,176.78,1.10107e-47
58.0353,444.435,-5.19361e-36,-1.42004e-18,176.78,1.23734e-50
59.0353,444.435,-1.2984e-36,-7.10019e-19,176.78,1.39047e-53
60.0353,444.435,-3.24601e-37,-3.55009e-19,176.78,1.56256e-56
61.0353,444.435,-8.11501e-38,-1.77505e-19,176.78,1.75606e-59
62.0353,444.435,-2.02875e-38,-8.87524e-20,176.78,2.0331e-62
63.0353,444.435,-5.07188e-39,-4.43762e-20,176.78,3.21376e-64
64.0353,444.435,-1.26797e-39,-2.21881e-20,176.78,1.49625e-64
65.0353,444.435,-3.16993e-40,-1.1094e-20,176.78,7.48002e-65
66.0353,444.435,-7.92482e-41,-5.54702e-21,176.78,3.74001e-65
67.0353,444.435,-1.9812e-41,-2.77351e-21,176.78,1.87001e-65
68.0353,444.435,-4.95301e-42,-1.38676e-21,176.78,9.35003e-66
69.0353,444.435,-1.23825e-42,-6.93378e-22,176.78,4.67501e-66
70.0353,444.435,-3.09563e-43,-3.46689e-22,176.78,2.33751e-66
71.0353,444.435,-7.73908e-44,-1.73344e-22,176.78,1.16875e-66
72.0353,444.435,-1.93477e-44,-8.66722e-23,176.78,5.84377e-67
73.0353,444.435,-4.83693e-45,-4.33361e-23,176.78,2.92188e-67
74.0353,444.435,-1.20923e-45,-2.16681e-23,176.78,1.46094e-67
75.0353,444.435,-3.02308e-46,-1.0834e-23,176.78,7.30471e-68
76.0353,444.435,-7.5577e-47,-5.41701e-24,176.78,3.65235e-68
77.0353,444.435,-1.88942e-47,-2.70851e-24,176.78,1.82618e-68
78.0353,444.435,-4.72356e-48,-1.35425e-24,176.78,9.13088e-69
79.0353,444.435,-1.18089e-48,-6.77127e-25,176.78,4.56544e-69
80.0353,444.435,-2.95223e-49,-3.38563e-25,176.78,2.28272e-69
81.0353,444.435,-7.38056e-50,-1.69282e-25,176.78,1.14136e-69
82.0353,444.435,-1.84514e-50,-8.46408e-26,176.78,5.7068e-70
83.0353,444.435,-4.61285e-51,-4.23204e-26,176.78,2.8534e-70
84.0353,444.435,-1.15321e-51,-2.11602e-26,176.78,1.4267e-70
85.0353,444.435,-2.88303e-52,-1.05801e-26,176.78,7.1335e-71
86.0353,444.435,-7.20758e-53,-5.29005e-27,176.78,3.56675e-71
87.0353,444.435,-1.8019e-53,-2.64503e-27,176.78,1.78338e-71
88.0353,444.435,-4.50474e-54,-1.32251e-27,176.78,8.91688e-72
89.0353,444.435,-1.12618e-54,-6.61257e-28,176.78,4.45844e-72
90.0353,444.435,-2.81546e-55,-3.30628e-28,176.78,2.22922e-72
91.0353,444.435,-7.03865e-56,-1.65314e-28,176.78,1.11461e-72
92.0353,444.435,-1.75966e-56,-8.26571e-29,176.78,5.57305e-73
93.0353,444.435,-4.39916e-57,-4.13285e-29,176.78,2.78652e-73
94.0353,444.435,-1.09979e-57,-2.06643e-29,176.78,1.39326e-73
95.0353,444.435,-2.74947e-58,-1.03321e-29,176.78,6.96631e-74
96.0353,444.435,-6.87368e-59,-5.16607e-30,176.78,3.48316e-74
97.0353,444.435,-1.71842e-59,-2.58303e-30,176.78,1.74158e-74
98.0353,444.435,-4.29605e-60,-1.29152e-30,176.78,8.70789e-75
99.0353,444.435,-1.07401e-60,-6.45758e-31,176.78,4.35395e-75
100,444.435,-2.14578e-61,-3.23283e-31,176.78,2.03157e-75
