#Time,D,E,C,B,A
0,241.947,40.1839,0,76.7146,106.421
5.50036e-6,241.947,40.1833,0,76.9974,106.139
1.22509e-5,241.948,40.1824,0,77.3433,105.793
2.27174e-5,241.949,40.1812,0,77.8777,105.258
8.08569e-5,241.956,40.1742,0,80.7979,102.338
0.00016837,241.967,40.1636,0,85.0416,98.0945
0.000255883,241.977,40.1531,0,89.1096,94.0265
0.000369524,241.991,40.1394,0,94.1413,88.9948
0.000643525,242.024,40.1064,0,105.194,77.9417
0.000909797,242.056,40.0744,0,114.62,68.516
0.00119131,242.09,40.0406,0,123.35,59.7864
0.00147281,242.124,40.0068,0,130.968,52.1681
0.0018076,242.164,39.9666,0,138.776,44.36
0.00234444,242.228,39.9023,0,148.934,34.2022
0.00288129,242.292,39.8381,0,156.767,26.3687
0.00341813,242.357,39.774,0,162.808,20.3279
0.00404085,242.431,39.6997,0,168.105,15.0308
0.00478999,242.52,39.6106,0,172.684,10.4522
0.00567257,242.625,39.5059,0,176.324,6.81168
0.0065605,242.73,39.4008,0,178.709,4.42681
0.00740963,242.83,39.3005,0,180.205,2.9311
0.00833005,242.938,39.1922,0,181.262,1.87437
0.00928584,243.051,39.0799,0,181.958,1.17795
0.0101075,243.147,38.9837,0,182.346,0.79002
0.0110986,243.263,38.868,0,182.648,0.487844
0.012168,243.387,38.7435,0,182.846,0.289915
0.0131733,243.504,38.6268,0,182.958,0.177704
0.0143103,243.635,38.4953,0,183.034,0.10213
0.015659,243.791,38.3399,0,183.083,0.0529267
0.0169049,243.934,38.1968,0,183.107,0.0288263
0.0184694,244.113,38.018,0,183.123,0.0134368
0.0201644,244.305,37.8251,0,183.13,0.00587211
0.0220104,244.514,37.6162,0,183.134,0.0023836
0.0243392,244.776,37.3543,0,183.135,0.0007657
0.0266863,245.038,37.0923,0,183.136,0.000241151
0.029723,245.375,36.7559,0,183.136,5.70795e-5
0.0330271,245.737,36.3933,0,183.136,1.08077e-5
0.0374697,246.219,35.9115,0,183.136,2.35784e-6
0.0432809,246.84,35.2909,0,183.136,4.89643e-7
0.0513906,247.688,34.4426,0,183.136,6.26184e-8
0.0610573,248.672,33.4581,0,183.136,2.04816e-7
0.0785425,250.382,31.7483,0,183.136,-2.93669e-8
0.106571,252.943,29.1879,0,183.136,1.31407e-7
0.148177,256.368,25.7629,0,183.136,4.38724e-7
0.187804,259.255,22.8752,0,183.136,8.81269e-8
0.23902,262.513,19.6172,0,183.136,-5.20317e-7
0.315979,266.558,15.5728,0,183.136,-3.94028e-7
0.39904,269.992,12.1381,0,183.136,-1.63825e-7
0.490599,272.908,9.22271,0,183.136,-3.42263e-8
0.627524,276.015,6.11594,0,183.136,4.69376e-8
0.765205,278.084,4.04654,0,183.136,1.45954e-9
0.90583,279.477,2.6538,0,183.136,1.34656e-9
1.04645,280.39,1.74042,0,183.136,5.74339e-10
1.18708,280.989,1.1414,0,183.136,2.68677e-10
1.33347,281.395,0.735709,0,183.136,-1.76855e-10
1.48288,281.661,0.469955,0,183.136,-5.65128e-10
1.64401,281.841,0.289819,0,183.136,-1.32958e-10
1.81134,281.955,0.175437,0,183.136,-9.21151e-11
1.99281,282.029,0.101789,0,183.136,-7.53196e-10
2.18817,282.074,0.0566476,0,183.136,-6.24351e-9
2.3984,282.1,0.0301517,0,183.136,-6.4933e-9
2.64035,282.116,0.0145935,0,183.136,3.47643e-7
2.8969,282.124,0.00676119,0,183.136,1.37581e-6
3.0302,282.126,0.0045326,0,183.136,5.24797e-7
3.1277,282.127,0.00338313,0,183.136,-7.29917e-8
3.25519,282.128,0.0023078,0,183.136,-1.69815e-8
3.47513,282.129,0.00119233,0,183.136,-3.21494e-8
3.8006,282.13,0.000446849,0,183.136,-2.46736e-10
4.17964,282.13,0.000142218,0,183.136,-1.05644e-10
4.6707,282.13,3.08492e-5,0,183.136,5.45931e-11
5.30614,282.131,3.75075e-6,0,183.136,4.44257e-12
6.21059,282.131,-8.13817e-7,0,183.136,-2.51376e-12
7.21059,282.131,1.01923e-7,0,183.136,-1.08919e-13
8.21059,282.131,-3.06681e-7,0,183.136,3.77408e-14
9.21059,282.131,-5.66226e-8,0,183.136,-2.03348e-14
10.2106,282.131,5.02033e-8,0,183.136,4.06099e-14
11.2106,282.131,-2.24881e-8,0,183.136,1.59793e-13
12.2106,282.131,-1.55729e-8,0,183.136,5.28894e-16
13.2106,282.131,-4.42259e-9,0,183.136,-1.39347e-16
14.2106,282.131,-2.35278e-10,0,183.136,-9.59581e-19
15.2106,282.131,3.86831e-10,0,183.136,1.19623e-19
16.2106,282.131,1.98067e-10,0,183.136,1.16156e-21
17.2106,282.131,4.95167e-11,0,183.136,-1.56577e-23
18.2106,282.131,1.23792e-11,0,183.136,-4.45588e-24
19.2106,282.131,3.0948e-12,0,183.136,-1.11493e-24
20.2106,282.131,7.73699e-13,0,183.136,-2.78733e-25
21.2106,282.131,1.93425e-13,0,183.136,-6.96834e-26
22.2106,282.131,4.83562e-14,0,183.136,-1.74208e-26
23.2106,282.131,1.2089e-14,0,183.136,-4.35521e-27
24.2106,282.131,3.02226e-15,0,183.136,-1.0888e-27
25.2106,282.131,7.55565e-16,0,183.136,-2.72201e-28
26.2106,282.131,1.88891e-16,0,183.136,-6.80502e-29
27.2106,282.131,4.72228e-17,0,183.136,-1.70125e-29
28.2106,282.131,1.18057e-17,0,183.136,-4.25314e-30
29.2106,282.131,2.95143e-18,0,183.136,-1.06328e-30
30.2106,282.131,7.37857e-19,0,183.136,-2.65821e-31
31.2106,282.131,1.84464e-19,0,183.136,-6.64552e-32
32.2106,282.131,4.61161e-20,0,183.136,-1.66138e-32
33.2106,282.131,1.1529e-20,0,183.136,-4.15345e-33
34.2106,282.131,2.88225e-21,0,183.136,-1.03836e-33
35.2106,282.131,7.20563e-22,0,183.136,-2.59591e-34
36.2106,282.131,1.80141e-22,0,183.136,-6.48977e-35
37.2106,282.131,4.50352e-23,0,183.136,-1.62244e-35
38.2106,282.131,1.12588e-23,0,183.136,-4.05611e-36
39.2106,282.131,2.8147e-24,0,183.136,-1.01403e-36
40.2106,282.131,7.03675e-25,0,183.136,-2.53507e-37
41.2106,282.131,1.75919e-25,0,183.136,-6.33767e-38
42.2106,282.131,4.39797e-26,0,183.136,-1.58442e-38
43.2106,282.131,1.09949e-26,0,183.136,-3.96104e-39
44.2106,282.131,2.74873e-27,0,183.136,-9.9026e-40
45.2106,282.131,6.87183e-28,0,183.136,-2.47565e-40
46.2106,282.131,1.71796e-28,0,183.136,-6.18913e-41
47.2106,282.131,4.29489e-29,0,183.136,-1.54728e-41
48.2106,282.131,1.07372e-29,0,183.136,-3.8682e-42
49.2106,282.131,2.68431e-30,0,183.136,-9.67051e-43
50.2106,282.131,6.71077e-31,0,183.136,-2.41763e-43
51.2106,282.131,1.67769e-31,0,183.136,-6.04407e-44
52.2106,282.131,4.19423e-32,0,183.136,-1.51102e-44
53.2106,282.131,1.04856e-32,0,183.136,-3.77754e-45
54.2106,282.131,2.62139e-33,0,183.136,-9.44386e-46
55.2106,282.131,6.55349e-34,0,183.136,-2.36096e-46
56.2106,282.131,1.63837e-34,0,183.136,-5.90241e-47
57.2106,282.131,4.09593e-35,0,183.136,-1.4756e-47
58.2106,282.131,1.02398e-35,0,183.136,-3.68901e-48
59.2106,282.131,2.55996e-36,0,183.136,-6.5262e-51
60.2106,282.131,6.39989e-37,0,183.136,-1.15455e-53
61.2106,282.131,1.59997e-37,0,183.136,-2.0425e-56
62.2106,282.131,3.99993e-38,0,183.136,-3.61338e-59
63.2106,282.131,9.99983e-39,0,183.136,-6.3924e-62
64.2106,282.131,2.49996e-39,0,183.136,-1.13088e-64
65.2106,282.131,6.24989e-40,0,183.136,-2.00063e-67
66.2106,282.131,1.56247e-40,0,183.136,-3.5393e-70
67.2106,282.131,3.90618e-41,0,183.136,-6.26135e-73
68.2106,282.131,9.76545e-42,0,183.136,-1.10769e-75
69.2106,282.131,2.44136e-42,0,183.136,-1.95961e-78
70.2106,282.131,6.10341e-43,0,183.136,-3.46674e-81
71.2106,282.131,1.52585e-43,0,183.136,-6.13298e-84
72.2106,282.131,3.81463e-44,0,183.136,-1.08498e-86
73.2106,282.131,9.53658e-45,0,183.136,-1.91921e-89
74.2106,282.131,2.38414e-45,0,183.136,-3.33925e-92
75.2106,282.131,5.96036e-46,0,183.136,8.09602e-95
76.2106,282.131,1.49009e-46,0,183.136,3.51519e-95
77.2106,282.131,3.72523e-47,0,183.136,8.81435e-96
78.2106,282.131,9.31306e-48,0,183.136,2.20363e-96
79.2106,282.131,2.32827e-48,0,183.136,5.50909e-97
80.2106,282.131,5.82066e-49,0,183.136,1.37727e-97
81.2106,282.131,1.45517e-49,0,183.136,3.44318e-98
82.2106,282.131,3.63792e-50,0,183.136,8.60795e-99
83.2106,282.131,9.09479e-51,0,183.136,2.15199e-99
84.2106,282.131,2.2737e-51,0,183.136,5.37997e-100
85.2106,282.131,5.68424e-52,0,183.136,1.34499e-100
86.2106,282.131,1.42106e-52,0,183.136,3.36248e-101
87.2106,282.131,3.55265e-53,0,183.136,8.4062e-102
88.2106,282.131,8.88163e-54,0,183.136,2.10155e-102
89.2106,282.131,2.22041e-54,0,183.136,5.25388e-103
90.2106,282.131,5.55102e-55,0,183.136,1.31347e-103
91.2106,282.131,1.38775e-55,0,183.136,3.28367e-104
92.2106,282.131,3.46939e-56,0,183.136,8.20918e-105
93.2106,282.131,8.67347e-57,0,183.136,2.05229e-105
94.2106,282.131,2.16837e-57,0,183.136,5.13074e-106
95.2106,282.131,5.42092e-58,0,183.136,1.28268e-106
96.2106,282.131,1.35523e-58,0,183.136,3.20671e-107
97.2106,282.131,3.38807e-59,0,183.136,8.01678e-108
98.2106,282.131,8.47018e-60,0,183.136,2.00419e-108
99.2106,282.131,2.11755e-60,0,183.136,5.01049e-109
100,282.131,6.28682e-61,0,183.136,9.31236e-110
