#Time,D,E,C,B,A
0,0,0,117.839,7.77491,0
3.1e-5,0.00365292,0,117.836,7.77491,0
0.000383397,0.0451681,0,117.794,7.77491,0
0.000937706,0.110444,0,117.729,7.77491,0
0.00368834,0.433826,0,117.405,7.77491,0
0.01631,1.90637,0,115.933,7.77491,0
0.0292118,3.39252,0,114.447,7.77491,0
0.0434909,5.01511,0,112.824,7.77491,0
0.0599362,6.85537,0,110.984,7.77491,0
0.119937,13.3187,0,104.521,7.77491,0
0.205537,21.8933,0,95.9459,7.77491,0
0.304638,30.9456,0,86.8936,7.77491,0
0.409709,39.6122,0,78.227,7.77491,0
0.524441,48.0915,0,69.7477,7.77491,0
0.648129,56.2061,0,61.6331,7.77491,0
0.777638,63.6928,0,54.1464,7.77491,0
0.907148,70.27,0,47.5692,7.77491,0
1.11331,79.1322,0,38.707,7.77491,0
1.38144,88.2358,0,29.6034,7.77491,0
1.64956,95.1983,0,22.6409,7.77491,0
1.91769,100.523,0,17.316,7.77491,0
2.26081,105.553,0,12.2866,7.77491,0
2.64821,109.499,0,8.34043,7.77491,0
3.05817,112.304,0,5.53538,7.77491,0
3.4745,114.189,0,3.65039,7.77491,0
3.89083,115.432,0,2.4073,7.77491,0
4.30871,116.254,0,1.58508,7.77491,0
4.72969,116.799,0,1.04046,7.77491,0
5.17224,117.171,0,0.668389,7.77491,0
5.62448,117.414,0,0.425234,7.77491,0
6.11394,117.579,0,0.260655,7.77491,0
6.62274,117.682,0,0.156712,7.77491,0
7.17628,117.749,0,0.0900984,7.77491,0
7.77316,117.79,0,0.0496039,7.77491,0
8.4167,117.813,0,0.0260657,7.77491,0
9.15981,117.827,0,0.0124004,7.77491,0
9.94921,117.834,0,0.00563308,7.77491,0
10.9147,117.837,0,0.0021479,7.77491,0
11.9147,117.838,0,0.000791314,7.77491,0
12.9147,117.839,0,0.00029244,7.77491,0
13.9147,117.839,0,0.000104959,7.77491,0
14.9147,117.839,0,3.97207e-5,7.77491,0
15.9147,117.839,0,1.32994e-5,7.77491,0
16.9147,117.839,0,6.85922e-6,7.77491,0
17.9147,117.839,0,1.13207e-6,7.77491,0
18.9147,117.839,0,3.32018e-7,7.77491,0
19.9147,117.839,0,4.24727e-8,7.77491,0
20.9147,117.839,0,-3.24256e-8,7.77491,0
21.9147,117.839,0,-3.4435e-8,7.77491,0
22.9147,117.839,0,-2.10629e-8,7.77491,0
23.9147,117.839,0,-1.05314e-8,7.77491,0
24.9147,117.839,0,-5.26572e-9,7.77491,0
25.9147,117.839,0,-2.63286e-9,7.77491,0
26.9147,117.839,0,-1.31643e-9,7.77491,0
27.9147,117.839,0,-6.58215e-10,7.77491,0
28.9147,117.839,0,-3.29107e-10,7.77491,0
29.9147,117.839,0,-1.64554e-10,7.77491,0
30.9147,117.839,0,-8.22768e-11,7.77491,0
31.9147,117.839,0,-4.11384e-11,7.77491,0
32.9147,117.839,0,-2.05692e-11,7.77491,0
33.9147,117.839,0,-1.02846e-11,7.77491,0
34.9147,117.839,0,-5.1423e-12,7.77491,0
35.9147,117.839,0,-2.57115e-12,7.77491,0
36.9147,117.839,0,-1.28558e-12,7.77491,0
37.9147,117.839,0,-6.42788e-13,7.77491,0
38.9147,117.839,0,-3.21394e-13,7.77491,0
39.9147,117.839,0,-1.60697e-13,7.77491,0
40.9147,117.839,0,-8.03485e-14,7.77491,0
41.9147,117.839,0,-4.01742e-14,7.77491,0
42.9147,117.839,0,-2.00871e-14,7.77491,0
43.9147,117.839,0,-1.00436e-14,7.77491,0
44.9147,117.839,0,-5.02178e-15,7.77491,0
45.9147,117.839,0,-2.51089e-15,7.77491,0
46.9147,117.839,0,-1.25544e-15,7.77491,0
47.9147,117.839,0,-6.27722e-16,7.77491,0
48.9147,117.839,0,-3.13861e-16,7.77491,0
49.9147,117.839,0,-1.56931e-16,7.77491,0
50.9147,117.839,0,-7.84653e-17,7.77491,0
51.9147,117.839,0,-3.92327e-17,7.77491,0
52.9147,117.839,0,-1.96163e-17,7.77491,0
53.9147,117.839,0,-9.80816e-18,7.77491,0
54.9147,117.839,0,-4.90408e-18,7.77491,0
55.9147,117.839,0,-2.45204e-18,7.77491,0
56.9147,117.839,0,-1.22602e-18,7.77491,0
57.9147,117.839,0,-6.1301e-19,7.77491,0
58.9147,117.839,0,-3.06505e-19,7.77491,0
59.9147,117.839,0,-1.53253e-19,7.77491,0
60.9147,117.839,0,-7.66263e-20,7.77491,0
61.9147,117.839,0,-3.83131e-20,7.77491,0
62.9147,117.839,0,-1.91566e-20,7.77491,0
63.9147,117.839,0,-9.57828e-21,7.77491,0
64.9147,117.839,0,-4.78914e-21,7.77491,0
65.9147,117.839,0,-2.39457e-21,7.77491,0
66.9147,117.839,0,-1.19729e-21,7.77491,0
67.9147,117.839,0,-5.98643e-22,7.77491,0
68.9147,117.839,0,-2.99321e-22,7.77491,0
69.9147,117.839,0,-1.49661e-22,7.77491,0
70.9147,117.839,0,-7.48303e-23,7.77491,0
71.9147,117.839,0,-3.74152e-23,7.77491,0
72.9147,117.839,0,-1.87076e-23,7.77491,0
73.9147,117.839,0,-9.35379e-24,7.77491,0
74.9147,117.839,0,-4.6769e-24,7.77491,0
75.9147,117.839,0,-2.33845e-24,7.77491,0
76.9147,117.839,0,-1.16922e-24,7.77491,0
77.9147,117.839,0,-5.84612e-25,7.77491,0
78.9147,117.839,0,-2.92306e-25,7.77491,0
79.9147,117.839,0,-1.46153e-25,7.77491,0
80.9147,117.839,0,-7.30765e-26,7.77491,0
81.9147,117.839,0,-3.65383e-26,7.77491,0
82.9147,117.839,0,-1.82691e-26,7.77491,0
83.9147,117.839,0,-9.13456e-27,7.77491,0
84.9147,117.839,0,-4.56728e-27,7.77491,0
85.9147,117.839,0,-2.28364e-27,7.77491,0
86.9147,117.839,0,-1.14182e-27,7.77491,0
87.9147,117.839,0,-5.7091e-28,7.77491,0
88.9147,117.839,0,-2.85455e-28,7.77491,0
89.9147,117.839,0,-1.42728e-28,7.77491,0
90.9147,117.839,0,-7.13638e-29,7.77491,0
91.9147,117.839,0,-3.56819e-29,7.77491,0
92.9147,117.839,0,-1.78409e-29,7.77491,0
93.9147,117.839,0,-8.92047e-30,7.77491,0
94.9147,117.839,0,-4.46024e-30,7.77491,0
95.9147,117.839,0,-2.23012e-30,7.77491,0
96.9147,117.839,0,-1.11506e-30,7.77491,0
97.9147,117.839,0,-5.5753e-31,7.77491,0
98.9147,117.839,0,-2.78765e-31,7.77491,0
99.9147,117.839,0,-1.39382e-31,7.77491,0
100,117.839,0,-1.28433e-31,7.77491,0
