#Time,F,E,D,C,B,A
0,42.0538,266.957,163.614,0,0,51.7218
0,42.054,266.957,163.614,0,0.00559505,51.7162
0,42.0545,266.957,163.614,0,0.0147721,51.707
0,42.0549,266.956,163.614,0,0.0239476,51.6978
0,42.0553,266.956,163.614,0,0.0331215,51.6886
0,42.0558,266.955,163.614,0,0.0422937,51.6795
0,42.0562,266.955,163.614,0,0.0514642,51.6703
0,42.0567,266.954,163.614,0,0.0606332,51.6611
0,42.0571,266.954,163.614,0,0.0698005,51.652
0,42.0575,266.954,163.614,0,0.0789662,51.6428
0,42.058,266.953,163.614,0,0.0881303,51.6336
0,42.0584,266.953,163.614,0,0.0972927,51.6245
0,42.0588,266.952,163.614,0,0.106454,51.6153
0,42.0593,266.952,163.614,0,0.115613,51.6062
0,42.0597,266.951,163.614,0,0.12477,51.597
0,42.0601,266.951,163.614,0,0.133926,51.5878
0,42.0606,266.951,163.614,0,0.143081,51.5787
0,42.061,266.95,163.614,0,0.152233,51.5695
0,42.0614,266.95,163.614,0,0.161384,51.5604
0,42.0619,266.949,163.614,0,0.170534,51.5512
0,42.0623,266.949,163.614,0,0.179682,51.5421
0,42.0627,266.948,163.614,0,0.188828,51.5329
0,42.0632,266.948,163.614,0,0.197972,51.5238
0,42.0636,266.947,163.614,0,0.207115,51.5147
0,42.064,266.947,163.614,0,0.216257,51.5055
0,42.0645,266.947,163.614,0,0.225396,51.4964
0,42.0649,266.946,163.614,0,0.234535,51.4872
0,42.0653,266.946,163.614,0,0.243671,51.4781
0,42.0658,266.945,163.614,0,0.252806,51.469
0,42.0662,266.945,163.614,0,0.261939,51.4598
0,42.0666,266.944,163.614,0,0.271071,51.4507
0,42.0671,266.944,163.614,0,0.280201,51.4416
0,42.0675,266.944,163.614,0,0.289329,51.4324
0,42.0679,266.943,163.614,0,0.298456,51.4233
0,42.0684,266.943,163.614,0,0.307581,51.4142
0,42.0688,266.942,163.614,0,0.316704,51.4051
0,42.0692,266.942,163.614,0,0.325826,51.3959
0,42.0697,266.941,163.614,0,0.334947,51.3868
0,42.0701,266.941,163.614,0,0.344065,51.3777
0,42.0706,266.941,163.614,0,0.353182,51.3686
0,42.071,266.94,163.614,0,0.362298,51.3595
0,42.0714,266.94,163.614,0,0.371411,51.3504
0,42.0719,266.939,163.614,0,0.380524,51.3412
0,42.0723,266.939,163.614,0,0.389634,51.3321
0,42.0727,266.938,163.614,0,0.398743,51.323
0,42.0732,266.938,163.614,0,0.40785,51.3139
0,42.0736,266.937,163.614,0,0.416956,51.3048
0,42.074,266.937,163.614,0,0.42606,51.2957
0,42.0745,266.937,163.614,0,0.435163,51.2866
0,42.0749,266.936,163.614,0,0.444264,51.2775
0,42.0753,266.936,163.614,0,0.453363,51.2684
0,42.0758,266.935,163.614,0,0.462461,51.2593
0,42.0762,266.935,163.614,0,0.471557,51.2502
0,42.0766,266.934,163.614,0,0.480651,51.2411
0,42.0771,266.934,163.614,0,0.489744,51.232
0,42.0775,266.934,163.614,0,0.498835,51.2229
0,42.0779,266.933,163.614,0,0.507925,51.2138
0,42.0784,266.933,163.614,0,0.517012,51.2048
0,42.0788,266.932,163.614,0,0.526099,51.1957
0,42.0792,266.932,163.614,0,0.535184,51.1866
0,42.0797,266.931,163.614,0,0.544267,51.1775
0,42.0801,266.931,163.614,0,0.553348,51.1684
0,42.0805,266.931,163.614,0,0.562428,51.1593
0,42.081,266.93,163.614,0,0.571506,51.1503
0,42.0814,266.93,163.614,0,0.580583,51.1412
0,42.0818,266.929,163.614,0,0.589658,51.1321
0,42.0823,266.929,163.614,0,0.598732,51.123
0,42.0827,266.928,163.614,0,0.607803,51.114
0,42.0831,266.928,163.614,0,0.616874,51.1049
0,42.0837,266.927,163.614,0,0.628441,51.0933
0,42.0843,266.927,163.614,0,0.640005,51.0818
0,42.0848,266.926,163.614,0,0.651567,51.0702
0,42.0854,266.926,163.614,0,0.663127,51.0586
0,42.0859,266.925,163.614,0,0.674683,51.0471
0,42.0865,266.925,163.614,0,0.686238,51.0355
0,42.087,266.924,163.614,0,0.697789,51.024
0,42.0876,266.924,163.614,0,0.709338,51.0124
0,42.0881,266.923,163.614,0,0.720884,51.0009
0,42.0887,266.922,163.614,0,0.732428,50.9893
0,42.0892,266.922,163.614,0,0.743969,50.9778
0,42.0898,266.921,163.614,0,0.755507,50.9663
0,42.0903,266.921,163.614,0,0.767043,50.9547
0,42.0909,266.92,163.614,0,0.778576,50.9432
0,42.0915,266.92,163.614,0,0.790107,50.9317
0,42.092,266.919,163.614,0,0.801635,50.9201
0,42.0926,266.919,163.614,0,0.81316,50.9086
0,42.0931,266.918,163.614,0,0.824683,50.8971
0,42.0937,266.917,163.614,0,0.836203,50.8856
0,42.0942,266.917,163.614,0,0.847721,50.874
0,42.0948,266.916,163.614,0,0.859236,50.8625
0,42.0953,266.916,163.614,0,0.870748,50.851
0,42.0959,266.915,163.614,0,0.882258,50.8395
0,42.0964,266.915,163.614,0,0.893765,50.828
0,42.097,266.914,163.614,0,0.90527,50.8165
0,42.0976,266.914,163.614,0,0.916772,50.805
0,42.0981,266.913,163.614,0,0.928271,50.7935
0,42.0987,266.912,163.614,0,0.939768,50.782
0,42.0992,266.912,163.614,0,0.951262,50.7705
0,42.0998,266.911,163.614,0,0.962753,50.759
0,42.1003,266.911,163.614,0,0.974242,50.7475
0,42.1009,266.91,163.614,0,0.985729,50.736
0,42.1014,266.91,163.614,0,0.997212,50.7246
0,42.102,266.909,163.614,0,1.00869,50.7131
0,42.1025,266.909,163.614,0,1.02017,50.7016
0,42.1031,266.908,163.614,0,1.03165,50.6901
0,42.1036,266.907,163.614,0,1.04312,50.6786
0,42.1042,266.907,163.614,0,1.05459,50.6672
0,42.1048,266.906,163.614,0,1.06606,50.6557
0,42.1053,266.906,163.614,0,1.07753,50.6442
0,42.1059,266.905,163.614,0,1.08899,50.6328
0,42.1064,266.905,163.614,0,1.10045,50.6213
0,42.107,266.904,163.614,0,1.11191,50.6099
0,42.1075,266.904,163.614,0,1.12336,50.5984
0,42.1081,266.903,163.614,0,1.13481,50.587
0,42.1086,266.902,163.614,0,1.14626,50.5755
0,42.1092,266.902,163.614,0,1.15771,50.5641
0,42.1097,266.901,163.614,0,1.16916,50.5526
0,42.1103,266.901,163.614,0,1.1806,50.5412
0,42.1108,266.9,163.614,0,1.19204,50.5297
0,42.1114,266.9,163.614,0,1.20348,50.5183
0,42.112,266.899,163.614,0,1.21491,50.5069
0,42.1125,266.899,163.614,0,1.22634,50.4954
0,42.1131,266.898,163.614,0,1.23777,50.484
0,42.1136,266.897,163.614,0,1.2492,50.4726
0,42.1142,266.897,163.614,0,1.26062,50.4611
0,42.1147,266.896,163.614,0,1.27204,50.4497
0,42.1153,266.896,163.614,0,1.28346,50.4383
0,42.1158,266.895,163.614,0,1.29488,50.4269
0,42.1164,266.895,163.614,0,1.30629,50.4155
0,42.1169,266.894,163.614,0,1.3177,50.4041
0,42.1175,266.894,163.614,0,1.32911,50.3927
0,42.118,266.893,163.614,0,1.34052,50.3813
0,42.1186,266.892,163.614,0,1.35192,50.3698
0,42.1192,266.892,163.614,0,1.36332,50.3584
0,42.1197,266.891,163.614,0,1.37472,50.347
0,42.1203,266.891,163.614,0,1.38612,50.3357
0,42.1208,266.89,163.614,0,1.39751,50.3243
0,42.1214,266.89,163.614,0,1.4089,50.3129
0,42.1219,266.889,163.614,0,1.42029,50.3015
0,42.1225,266.889,163.614,0,1.43167,50.2901
0,42.123,266.888,163.614,0,1.44306,50.2787
0,42.1236,266.887,163.614,0,1.45444,50.2673
0,42.1241,266.887,163.614,0,1.46581,50.256
0,42.1247,266.886,163.614,0,1.47719,50.2446
0,42.1252,266.886,163.614,0,1.48856,50.2332
0,42.1258,266.885,163.614,0,1.49993,50.2218
0,42.1264,266.885,163.614,0,1.5113,50.2105
0,42.1269,266.884,163.614,0,1.52266,50.1991
0,42.1275,266.884,163.614,0,1.53403,50.1877
0,42.128,266.883,163.614,0,1.54538,50.1764
0,42.1286,266.883,163.614,0,1.55674,50.165
0,42.1291,266.882,163.614,0,1.5681,50.1537
0,42.1297,266.881,163.614,0,1.57945,50.1423
0,42.1304,266.881,163.614,0,1.59392,50.1279
0,42.1311,266.88,163.614,0,1.60839,50.1134
0,42.1318,266.879,163.614,0,1.62285,50.0989
0,42.1325,266.879,163.614,0,1.63731,50.0845
0,42.1332,266.878,163.614,0,1.65176,50.07
0,42.1339,266.877,163.614,0,1.66621,50.0556
0,42.1346,266.876,163.614,0,1.68066,50.0411
0,42.1353,266.876,163.614,0,1.6951,50.0267
0,42.136,266.875,163.614,0,1.70954,50.0122
0,42.1367,266.874,163.614,0,1.72397,49.9978
0,42.1375,266.874,163.614,0,1.7384,49.9834
0,42.1382,266.873,163.614,0,1.75282,49.9689
0,42.1389,266.872,163.614,0,1.76725,49.9545
0,42.1396,266.872,163.614,0,1.78166,49.9401
0,42.1403,266.871,163.614,0,1.79607,49.9257
0,42.141,266.87,163.614,0,1.81048,49.9113
0,42.1417,266.869,163.614,0,1.82489,49.8969
0,42.1424,266.869,163.614,0,1.83929,49.8825
0,42.1431,266.868,163.614,0,1.85368,49.8681
0,42.1438,266.867,163.614,0,1.86808,49.8537
0,42.1445,266.867,163.614,0,1.88246,49.8393
0,42.1452,266.866,163.614,0,1.89685,49.8249
0,42.1459,266.865,163.614,0,1.91123,49.8105
0,42.1466,266.864,163.614,0,1.9256,49.7962
0,42.1473,266.864,163.614,0,1.93997,49.7818
0,42.148,266.863,163.614,0,1.95434,49.7674
0,42.1488,266.862,163.614,0,1.9687,49.7531
0,42.1495,266.862,163.614,0,1.98306,49.7387
0,42.1502,266.861,163.614,0,1.99742,49.7244
0,42.1509,266.86,163.614,0,2.01177,49.71
0,42.1516,266.86,163.614,0,2.02611,49.6957
0,42.1523,266.859,163.614,0,2.04045,49.6813
0,42.153,266.858,163.614,0,2.05479,49.667
0,42.1537,266.857,163.614,0,2.06913,49.6526
0,42.1544,266.857,163.614,0,2.08346,49.6383
0,42.1551,266.856,163.614,0,2.09778,49.624
0,42.1558,266.855,163.614,0,2.1121,49.6097
0,42.1565,266.855,163.614,0,2.12642,49.5954
0,42.1572,266.854,163.614,0,2.14073,49.581
0,42.1579,266.853,163.614,0,2.15504,49.5667
0,42.1586,266.852,163.614,0,2.16935,49.5524
0,42.1593,266.852,163.614,0,2.18365,49.5381
0,42.1601,266.851,163.614,0,2.19794,49.5238
0,42.1608,266.85,163.614,0,2.21224,49.5095
0,42.1615,266.85,163.614,0,2.22652,49.4952
0,42.1622,266.849,163.614,0,2.24081,49.481
0,42.1629,266.848,163.614,0,2.25509,49.4667
0,42.1636,266.847,163.614,0,2.26936,49.4524
0,42.1643,266.847,163.614,0,2.28364,49.4381
0,42.165,266.846,163.614,0,2.2979,49.4239
0,42.1657,266.845,163.614,0,2.31217,49.4096
0,42.1664,266.845,163.614,0,2.32643,49.3953
0,42.1671,266.844,163.614,0,2.34068,49.3811
0,42.1678,266.843,163.614,0,2.35493,49.3668
0,42.1685,266.843,163.614,0,2.36918,49.3526
0,42.1692,266.842,163.614,0,2.38342,49.3383
0,42.1699,266.841,163.614,0,2.39766,49.3241
0,42.1706,266.84,163.614,0,2.4119,49.3099
0,42.1714,266.84,163.614,0,2.42613,49.2956
0,42.1721,266.839,163.614,0,2.44036,49.2814
0,42.1728,266.838,163.614,0,2.45458,49.2672
0,42.1735,266.838,163.614,0,2.4688,49.253
0,42.1742,266.837,163.614,0,2.48301,49.2388
0,42.1749,266.836,163.614,0,2.49722,49.2245
0,42.1756,266.835,163.614,0,2.51143,49.2103
0,42.1763,266.835,163.614,0,2.52563,49.1961
0,42.177,266.834,163.614,0,2.53983,49.1819
0,42.1777,266.833,163.614,0,2.55402,49.1677
0,42.1784,266.833,163.614,0,2.56821,49.1536
0,42.1791,266.832,163.614,0,2.5824,49.1394
0,42.1798,266.831,163.614,0,2.59658,49.1252
0,42.1805,266.831,163.614,0,2.61076,49.111
0,42.1812,266.83,163.614,0,2.62493,49.0968
0,42.1819,266.829,163.614,0,2.6391,49.0827
0,42.1827,266.828,163.614,0,2.65326,49.0685
0,42.1834,266.828,163.614,0,2.66742,49.0543
0,42.1841,266.827,163.614,0,2.68158,49.0402
0,42.1848,266.826,163.614,0,2.69573,49.026
0,42.1855,266.826,163.614,0,2.70988,49.0119
0,42.1862,266.825,163.614,0,2.72403,48.9977
0,42.1869,266.824,163.614,0,2.73817,48.9836
0,42.1876,266.823,163.614,0,2.7523,48.9695
0,42.1883,266.823,163.614,0,2.76644,48.9553
0,42.189,266.822,163.614,0,2.78057,48.9412
0,42.1897,266.821,163.614,0,2.79469,48.9271
0,42.1904,266.821,163.614,0,2.80881,48.913
0,42.1911,266.82,163.614,0,2.82293,48.8988
0,42.1918,266.819,163.614,0,2.83704,48.8847
0,42.1925,266.819,163.614,0,2.85115,48.8706
0,42.1932,266.818,163.614,0,2.86525,48.8565
0,42.1939,266.817,163.614,0,2.87935,48.8424
0,42.1947,266.816,163.614,0,2.89345,48.8283
0,42.1954,266.816,163.614,0,2.90754,48.8142
0,42.1961,266.815,163.614,0,2.92163,48.8001
0,42.1968,266.814,163.614,0,2.93571,48.7861
0,42.1975,266.814,163.614,0,2.94979,48.772
0,42.1982,266.813,163.614,0,2.96386,48.7579
0,42.1989,266.812,163.614,0,2.97794,48.7438
0,42.1996,266.811,163.614,0,2.992,48.7298
0,42.2003,266.811,163.614,0,3.00607,48.7157
0,42.201,266.81,163.614,0,3.02013,48.7016
0,42.2017,266.809,163.614,0,3.03418,48.6876
0,42.2024,266.809,163.614,0,3.04823,48.6735
3.12991e-6,42.2049,266.806,163.614,0,3.09805,48.6237
6.50146e-6,42.2076,266.803,163.614,0,3.15165,48.5701
1.17519e-5,42.2118,266.799,163.614,0,3.23503,48.4867
3.76558e-5,42.2326,266.779,163.614,0,3.64429,48.0775
0.000106518,42.2877,266.723,163.614,0,4.71555,47.0062
0.000180058,42.3465,266.665,163.614,0,5.83325,45.8885
0.000272993,42.4208,266.59,163.614,0,7.20775,44.514
0.000553965,42.6455,266.366,163.614,0,11.1179,40.6039
0.000859409,42.8894,266.122,163.614,0,14.98,36.7418
0.00120372,43.1642,265.847,163.614,0,18.8948,32.8269
0.00156774,43.4543,265.557,163.614,0,22.5812,29.1406
0.00195915,43.766,265.245,163.614,0,26.0843,25.6374
0.00235933,44.0842,264.927,163.614,0,29.2309,22.4908
0.00298979,44.5848,264.426,163.614,0,33.4236,18.2982
0.00380439,45.2302,263.781,163.614,0,37.7053,14.0165
0.00461899,45.8741,263.137,163.614,0,40.985,10.7368
0.00543359,46.5164,262.495,163.614,0,43.4973,8.22444
0.00650178,47.3562,261.655,163.614,0,45.9234,5.79834
0.00771598,48.3076,260.704,163.614,0,47.8246,3.8972
0.00898091,49.295,259.716,163.614,0,49.1455,2.57627
0.0102712,50.2984,258.713,163.614,0,50.0328,1.68899
0.0115826,51.3142,257.697,163.614,0,50.6221,1.09967
0.0129217,52.3474,256.664,163.614,0,51.0123,0.709505
0.0143176,53.4199,255.591,163.614,0,51.2724,0.449358
0.0157906,54.5469,254.464,163.614,0,51.4443,0.277501
0.0173179,55.7102,253.301,163.614,0,51.5534,0.168353
0.01901,56.9928,252.018,163.614,0,51.625,0.0967747
0.0207694,58.3195,250.692,163.614,0,51.6674,0.0544186
0.0228026,59.844,249.167,163.614,0,51.6938,0.0279797
0.0249288,61.4282,247.583,163.614,0,51.7078,0.0139552
0.0274406,63.2868,245.724,163.614,0,51.7156,0.00613751
0.0302053,65.3165,243.695,163.614,0,51.7193,0.00248511
0.0334784,67.6977,241.313,163.614,0,51.7209,0.000854296
0.037453,70.558,238.453,163.614,0,51.7215,0.000235187
0.0414896,73.4282,235.583,163.614,0,51.7217,6.29858e-5
0.047051,77.326,231.685,163.614,0,51.7218,1.18312e-5
0.0534834,81.7541,227.257,163.614,0,51.7218,1.6786e-6
0.063286,88.3399,220.671,163.614,0,51.7218,1.66914e-6
0.0747792,95.8189,213.192,163.614,0,51.7218,-3.15662e-7
0.0943903,108,201.011,163.614,0,51.7218,-7.68157e-7
0.116831,121.087,187.924,163.614,0,51.7218,6.39233e-7
0.144015,135.804,173.207,163.614,0,51.7218,-1.44013e-7
0.181608,154.277,154.734,163.614,0,51.7218,6.47424e-9
0.245352,181.21,127.801,163.614,0,51.7218,4.04987e-7
0.310176,203.796,105.215,163.614,0,51.7218,7.78193e-8
0.394329,227.271,81.74,163.614,0,51.7218,-4.39784e-7
0.520371,253.007,56.0041,163.614,0,51.7218,-1.09768e-7
0.651489,271.22,37.791,163.614,0,51.7218,1.35356e-8
0.787357,283.871,25.1403,163.614,0,51.7218,1.15087e-9
0.927778,292.514,16.4976,163.614,0,51.7218,7.72005e-10
1.05673,297.806,11.2051,163.614,0,51.7218,4.28993e-9
1.18987,301.496,7.5154,163.614,0,51.7218,3.08298e-9
1.33262,304.114,4.89745,163.614,0,51.7218,-5.4724e-9
1.46667,305.735,3.27578,163.614,0,51.7218,2.33738e-8
1.60407,306.842,2.16922,163.614,0,51.7218,-1.10729e-8
1.74892,307.606,1.40469,163.614,0,51.7218,-2.337e-7
1.89292,308.099,0.911922,163.614,0,51.7218,2.30045e-7
2.04204,308.428,0.583011,163.614,0,51.7218,7.57674e-7
2.14768,308.586,0.424662,163.614,0,51.7218,1.08831e-6
2.18755,308.634,0.376786,163.614,0,51.7218,2.62225e-7
2.23867,308.688,0.323222,163.614,0,51.7218,-1.07737e-7
2.32001,308.758,0.253231,163.614,0,51.7218,9.4143e-8
2.445,308.837,0.174045,163.614,0,51.7218,2.20592e-8
2.5748,308.893,0.117905,163.614,0,51.7218,1.45662e-9
2.71122,308.933,0.0783039,163.614,0,51.7218,-3.05412e-10
2.85355,308.96,0.0510876,163.614,0,51.7218,-1.03855e-9
3.01338,308.979,0.0316264,163.614,0,51.7218,-3.25905e-9
3.1808,308.992,0.019137,163.614,0,51.7218,-2.46583e-9
3.37523,309,0.010677,163.614,0,51.7218,3.19139e-8
3.58392,309.005,0.00570708,163.614,0,51.7218,4.83713e-9
3.8215,309.008,0.0027961,163.614,0,51.7218,1.49033e-9
4.09674,309.01,0.00122271,163.614,0,51.7218,-8.00387e-9
4.4025,309.011,0.000487203,163.614,0,51.7218,-3.38375e-8
4.79392,309.011,0.000148953,163.614,0,51.7218,3.96871e-7
5.07704,309.011,6.33764e-5,163.614,0,51.7218,-1.33167e-7
5.30131,309.011,3.2309e-5,163.614,0,51.7218,5.83478e-8
5.69218,309.011,9.84237e-6,163.614,0,51.7218,-1.02137e-8
6.26711,309.011,1.4873e-6,163.614,0,51.7218,1.15771e-9
7.26711,309.011,-6.88701e-7,163.614,0,51.7218,-1.38001e-9
8.26711,309.011,-1.11469e-7,163.614,0,51.7218,-1.81849e-9
9.26711,309.011,-1.80628e-7,163.614,0,51.7218,1.7483e-9
10.2671,309.011,1.44763e-8,163.614,0,51.7218,-1.84797e-9
11.2671,309.011,-2.7356e-8,163.614,0,51.7218,4.75003e-9
12.2671,309.011,1.05739e-9,163.614,0,51.7218,-3.14114e-11
13.2671,309.011,1.72282e-10,163.614,0,51.7218,-4.2045e-13
14.2671,309.011,4.30704e-11,163.614,0,51.7218,-1.28097e-15
15.2671,309.011,1.07676e-11,163.614,0,51.7218,-3.9027e-18
16.2671,309.011,2.6919e-12,163.614,0,51.7218,-1.18902e-20
17.2671,309.011,6.72975e-13,163.614,0,51.7218,-3.62255e-23
18.2671,309.011,1.68244e-13,163.614,0,51.7218,-1.10367e-25
19.2671,309.011,4.20609e-14,163.614,0,51.7218,-3.36252e-28
20.2671,309.011,1.05152e-14,163.614,0,51.7218,-1.02445e-30
21.2671,309.011,2.62881e-15,163.614,0,51.7218,-3.12115e-33
22.2671,309.011,6.57202e-16,163.614,0,51.7218,-9.50909e-36
23.2671,309.011,1.64301e-16,163.614,0,51.7218,-2.8971e-38
24.2671,309.011,4.10751e-17,163.614,0,51.7218,-8.8265e-41
25.2671,309.011,1.02688e-17,163.614,0,51.7218,-2.68914e-43
26.2671,309.011,2.5672e-18,163.614,0,51.7218,-8.19292e-46
27.2671,309.011,6.41799e-19,163.614,0,51.7218,-2.49611e-48
28.2671,309.011,1.6045e-19,163.614,0,51.7218,-7.60481e-51
29.2671,309.011,4.01124e-20,163.614,0,51.7218,-2.31693e-53
30.2671,309.011,1.00281e-20,163.614,0,51.7218,-7.05892e-56
31.2671,309.011,2.50703e-21,163.614,0,51.7218,-2.15062e-58
32.2671,309.011,6.26757e-22,163.614,0,51.7218,-6.55221e-61
33.2671,309.011,1.56689e-22,163.614,0,51.7218,-1.99624e-63
34.2671,309.011,3.91723e-23,163.614,0,51.7218,-6.08188e-66
35.2671,309.011,9.79308e-24,163.614,0,51.7218,-1.85295e-68
36.2671,309.011,2.44827e-24,163.614,0,51.7218,-5.64531e-71
37.2671,309.011,6.12067e-25,163.614,0,51.7218,-1.71994e-73
38.2671,309.011,1.53017e-25,163.614,0,51.7218,-5.24007e-76
39.2671,309.011,3.82542e-26,163.614,0,51.7218,-1.59648e-78
40.2671,309.011,9.56355e-27,163.614,0,51.7218,-4.86393e-81
41.2671,309.011,2.39089e-27,163.614,0,51.7218,-1.48188e-83
42.2671,309.011,5.97722e-28,163.614,0,51.7218,-4.51478e-86
43.2671,309.011,1.4943e-28,163.614,0,51.7218,-1.3755e-88
44.2671,309.011,3.73576e-29,163.614,0,51.7218,-4.1907e-91
45.2671,309.011,9.33941e-30,163.614,0,51.7218,-1.27677e-93
46.2671,309.011,2.33485e-30,163.614,0,51.7218,-3.88988e-96
47.2671,309.011,5.83713e-31,163.614,0,51.7218,-1.18512e-98
48.2671,309.011,1.45928e-31,163.614,0,51.7218,-3.61066e-101
49.2671,309.011,3.64821e-32,163.614,0,51.7218,-1.10005e-103
50.2671,309.011,9.12051e-33,163.614,0,51.7218,-3.35148e-106
51.2671,309.011,2.28013e-33,163.614,0,51.7218,-1.02108e-108
52.2671,309.011,5.70032e-34,163.614,0,51.7218,-3.1109e-111
53.2671,309.011,1.42508e-34,163.614,0,51.7218,-9.47787e-114
54.2671,309.011,3.5627e-35,163.614,0,51.7218,-2.88759e-116
55.2671,309.011,8.90675e-36,163.614,0,51.7218,-8.79753e-119
56.2671,309.011,2.22669e-36,163.614,0,51.7218,-2.68031e-121
57.2671,309.011,5.56672e-37,163.614,0,51.7218,-8.16602e-124
58.2671,309.011,1.39168e-37,163.614,0,51.7218,-2.48791e-126
59.2671,309.011,3.4792e-38,163.614,0,51.7218,-7.57985e-129
60.2671,309.011,8.698e-39,163.614,0,51.7218,-2.30933e-131
61.2671,309.011,2.1745e-39,163.614,0,51.7218,-7.03575e-134
62.2671,309.011,5.43625e-40,163.614,0,51.7218,-2.14356e-136
63.2671,309.011,1.35906e-40,163.614,0,51.7218,-6.5307e-139
64.2671,309.011,3.39766e-41,163.614,0,51.7218,-1.98969e-141
65.2671,309.011,8.49414e-42,163.614,0,51.7218,-6.06191e-144
66.2671,309.011,2.12353e-42,163.614,0,51.7218,-1.84686e-146
67.2671,309.011,5.30884e-43,163.614,0,51.7218,-5.62678e-149
68.2671,309.011,1.32721e-43,163.614,0,51.7218,-1.71429e-151
69.2671,309.011,3.31802e-44,163.614,0,51.7218,-5.22287e-154
70.2671,309.011,8.29506e-45,163.614,0,51.7218,-1.59123e-156
71.2671,309.011,2.07376e-45,163.614,0,51.7218,-4.84796e-159
72.2671,309.011,5.18441e-46,163.614,0,51.7218,-1.47701e-161
73.2671,309.011,1.2961e-46,163.614,0,51.7218,-4.49996e-164
74.2671,309.011,3.24026e-47,163.614,0,51.7218,-1.37099e-166
75.2671,309.011,8.10064e-48,163.614,0,51.7218,-4.17695e-169
76.2671,309.011,2.02516e-48,163.614,0,51.7218,-1.27258e-171
77.2671,309.011,5.0629e-49,163.614,0,51.7218,-3.87711e-174
78.2671,309.011,1.26573e-49,163.614,0,51.7218,-1.18123e-176
79.2671,309.011,3.16431e-50,163.614,0,51.7218,-3.59881e-179
80.2671,309.011,7.91078e-51,163.614,0,51.7218,-1.09644e-181
81.2671,309.011,1.9777e-51,163.614,0,51.7218,-3.34047e-184
82.2671,309.011,4.94424e-52,163.614,0,51.7218,-1.01773e-186
83.2671,309.011,1.23606e-52,163.614,0,51.7218,-3.10069e-189
84.2671,309.011,3.09015e-53,163.614,0,51.7218,-9.44676e-192
85.2671,309.011,7.72537e-54,163.614,0,51.7218,-2.87811e-194
86.2671,309.011,1.93134e-54,163.614,0,51.7218,-8.76865e-197
87.2671,309.011,4.82836e-55,163.614,0,51.7218,-2.67152e-199
88.2671,309.011,1.20709e-55,163.614,0,51.7218,-8.13922e-202
89.2671,309.011,3.01772e-56,163.614,0,51.7218,-2.47975e-204
90.2671,309.011,7.54431e-57,163.614,0,51.7218,-7.55496e-207
91.2671,309.011,1.88608e-57,163.614,0,51.7218,-2.30175e-209
92.2671,309.011,4.71519e-58,163.614,0,51.7218,-7.01265e-212
93.2671,309.011,1.1788e-58,163.614,0,51.7218,-2.13652e-214
94.2671,309.011,2.947e-59,163.614,0,51.7218,-6.50927e-217
95.2671,309.011,7.36749e-60,163.614,0,51.7218,-1.98316e-219
96.2671,309.011,1.84187e-60,163.614,0,51.7218,-6.04201e-222
97.2671,309.011,4.60468e-61,163.614,0,51.7218,-1.8408e-224
98.2671,309.011,1.15117e-61,163.614,0,51.7218,-5.6083e-227
99.2671,309.011,2.87793e-62,163.614,0,51.7218,-1.70866e-229
100,309.011,8.99726e-63,163.614,0,51.7218,-7.09514e-232
