#Time,F,E,D,C,B,A
0,112.97,88.4705,0,59.1375,0,230.278
1.37123e-5,112.974,88.4668,0.000810905,59.1366,3.72462e-6,230.278
3.68494e-5,112.98,88.4607,0.00217913,59.1353,2.20854e-5,230.278
7.25229e-5,112.99,88.4512,0.00428865,59.1332,7.58111e-5,230.278
0.000237416,113.033,88.4075,0.0140385,59.1234,0.000772141,230.277
0.0012946,113.313,88.1275,0.0765096,59.061,0.0228155,230.255
0.00253063,113.639,87.8014,0.149466,58.988,0.0871213,230.191
0.00406607,114.043,87.3978,0.239969,58.8975,0.22473,230.053
0.00708202,114.83,86.6106,0.417333,58.7201,0.680389,229.597
0.010222,115.642,85.7986,0.601425,58.536,1.41373,228.864
0.013362,116.447,84.9942,0.784939,58.3525,2.40791,227.87
0.0167993,117.319,84.1222,0.985167,58.1523,3.79021,226.488
0.0206542,118.286,83.155,1.20891,57.9286,5.69787,224.58
0.0248141,119.317,82.1237,1.44939,57.6881,8.16779,222.11
0.0294377,120.448,80.9924,1.7155,57.422,11.3945,218.883
0.0344677,121.661,79.7794,2.0036,57.1339,15.4513,214.826
0.0401793,123.017,78.4241,2.329,56.8085,20.7025,209.575
0.0464685,124.483,76.9583,2.68516,56.4523,27.2088,203.069
0.0538267,126.163,75.278,3.09902,56.0384,35.671,194.607
0.0627539,128.152,73.2888,3.59706,55.5404,46.9642,183.314
0.0758491,130.975,70.4654,4.31963,54.8178,65.02,165.258
0.0876219,133.421,68.0201,4.96121,54.1763,82.1274,148.15
0.0979858,135.503,65.9378,5.51979,53.6177,97.3786,132.899
0.10835,137.522,63.9192,6.07261,53.0649,112.425,117.853
0.118714,139.478,61.9624,6.61973,52.5177,126.953,103.325
0.127715,141.129,60.3116,7.09033,52.0471,138.949,91.3283
0.136716,142.736,58.7048,7.5567,51.5808,150.231,80.0468
0.14697,144.514,56.9263,8.08293,51.0545,162.093,68.1853
0.163095,147.203,54.2381,8.89957,50.2379,178.428,51.8501
0.17922,149.764,51.6768,9.70315,49.4343,191.866,38.4116
0.194655,152.102,49.3385,10.4603,48.6772,202.14,28.1379
0.208709,154.139,47.3014,11.1397,47.9978,209.508,20.7701
0.222764,156.092,45.3485,11.8095,47.3279,215.234,15.0436
0.238763,158.217,43.2233,12.5607,46.5767,220.092,10.1861
0.256481,160.455,40.9858,13.3787,45.7588,223.845,6.43256
0.275868,162.771,38.67,14.2573,44.8802,226.514,3.76422
0.295792,165.014,36.4264,15.1426,43.9949,228.182,2.09537
0.315436,167.099,34.3417,15.9984,43.139,229.141,1.13647
0.33747,169.296,32.1451,16.9385,42.1989,229.728,0.549977
0.36233,171.606,29.8349,17.9747,41.1628,230.047,0.230865
0.383433,173.436,28.0046,18.8342,40.3032,230.172,0.106169
0.40461,175.16,26.2808,19.6787,39.4587,230.231,0.0469685
0.425786,176.778,24.6632,20.5056,38.6319,230.258,0.0200571
0.44763,178.342,23.0988,21.3403,37.7972,230.27,0.00804186
0.470961,179.903,21.5373,22.2119,36.9255,230.275,0.00291254
0.497473,181.55,19.8906,23.178,35.9594,230.277,0.000875826
0.525973,183.18,18.2607,24.1884,34.9491,230.278,0.000227908
0.562422,185.072,16.3692,25.4393,33.6981,230.278,3.88338e-5
0.602526,186.927,14.5137,26.764,32.3734,230.278,4.63084e-6
0.654649,189.028,12.4127,28.4082,30.7293,230.278,4.38914e-7
0.707279,190.841,10.5998,29.9836,29.1538,230.278,3.56755e-7
0.781377,192.954,8.48701,32.0658,27.0717,230.278,-8.89119e-7
0.87676,195.066,6.37504,34.5286,24.6088,230.278,-2.14694e-7
1.00929,197.157,4.2837,37.5831,21.5544,230.278,4.62755e-7
1.14223,198.566,2.87484,40.2662,18.8712,230.278,2.83247e-7
1.28105,199.545,1.89561,42.7123,16.4252,230.278,-1.49625e-8
1.42983,200.228,1.21313,44.9829,14.1545,230.278,-2.51421e-6
1.55681,200.612,0.828838,46.6708,12.4666,230.278,-1.3711e-6
1.65817,200.829,0.611507,47.8726,11.2649,230.278,-6.99135e-7
1.7687,201.002,0.438927,49.0513,10.0861,230.278,3.25675e-6
1.85512,201.102,0.338694,49.8863,9.25114,230.278,4.71106e-7
1.92453,201.166,0.275026,50.5067,8.63079,230.278,-3.65111e-6
1.98179,201.209,0.231617,50.987,8.15048,230.278,1.43669e-8
2.03951,201.246,0.194792,51.4441,7.69337,230.278,4.74096e-7
2.10824,201.282,0.158497,51.9551,7.18234,230.278,-3.89639e-7
2.20374,201.322,0.119014,52.6093,6.52818,230.278,-4.29199e-7
2.32942,201.359,0.0816305,53.3803,5.75718,230.278,3.68603e-7
2.44118,201.382,0.0583758,53.9891,5.14837,230.278,9.41689e-7
2.54086,201.397,0.043288,54.4775,4.65995,230.278,8.6435e-7
2.63328,201.408,0.0328059,54.8889,4.24857,230.278,-1.06477e-7
2.73703,201.417,0.0240314,55.3076,3.82988,230.278,-3.76981e-7
2.85643,201.424,0.0167963,55.7386,3.39883,230.278,2.25494e-7
3.01552,201.43,0.010422,56.2385,2.89895,230.278,2.50298e-7
3.21702,201.435,0.00569438,56.7676,2.36989,230.278,-2.28548e-7
3.52182,201.438,0.00228465,57.3902,1.74725,230.278,-3.78397e-7
3.84754,201.44,0.000860969,57.8759,1.26153,230.278,-2.0865e-7
4.17874,201.44,0.00031983,58.2316,0.905859,230.278,4.19561e-7
4.39927,201.441,0.000165009,58.4109,0.726583,230.278,6.7214e-9
4.6666,201.441,7.40559e-5,58.5813,0.556143,230.278,5.49758e-7
4.89014,201.441,3.78661e-5,58.6927,0.444737,230.278,1.85755e-7
5.09417,201.441,2.05281e-5,58.7748,0.362657,230.278,2.15223e-7
5.33562,201.441,9.95297e-6,58.8526,0.284863,230.278,-6.69968e-7
5.65645,201.441,3.8057e-6,58.9308,0.206681,230.278,-3.35861e-7
6.08157,201.441,1.07739e-6,59.0024,0.135107,230.278,-4.16008e-8
6.6131,201.441,2.28686e-7,59.0581,0.0794052,230.278,2.52794e-7
7.19419,201.441,4.19522e-8,59.093,0.0444118,230.278,9.74802e-7
7.85755,201.441,7.40869e-9,59.1146,0.02288,230.278,3.6154e-7
8.28553,201.441,1.91362e-9,59.1225,0.0149142,230.278,-4.44363e-7
8.5292,201.441,9.1334e-10,59.1258,0.0116889,230.278,-1.63361e-7
8.89353,201.441,3.20377e-10,59.1293,0.00811962,230.278,1.12e-7
9.38247,201.441,7.41894e-11,59.1325,0.00497903,230.278,3.14125e-9
10.1492,201.441,-5.12289e-12,59.1351,0.00231039,230.278,-1.03232e-9
10.9771,201.441,-5.07986e-13,59.1365,0.00100784,230.278,-8.82592e-11
11.9771,201.441,-6.02487e-13,59.1371,0.000369015,230.278,-7.99902e-11
12.9771,201.441,7.50231e-14,59.1373,0.000135027,230.278,5.68696e-11
13.9771,201.441,-6.23132e-13,59.1374,4.93055e-5,230.278,4.37069e-11
14.9771,201.441,-3.50271e-13,59.1374,1.69212e-5,230.278,-3.2128e-11
15.9771,201.441,3.29001e-13,59.1375,6.86333e-6,230.278,3.56678e-11
16.9771,201.441,-2.18884e-13,59.1375,2.83246e-6,230.278,-5.91336e-11
17.9771,201.441,5.48494e-13,59.1375,9.17952e-7,230.278,-6.06767e-10
18.9771,201.441,5.96481e-13,59.1375,2.48623e-7,230.278,-3.1878e-10
19.9771,201.441,1.84912e-13,59.1375,1.10504e-7,230.278,-5.96198e-12
20.9771,201.441,-3.25147e-14,59.1375,9.33743e-8,230.278,2.17139e-12
21.9771,201.441,-3.64314e-14,59.1375,6.96148e-8,230.278,-7.25644e-13
22.9771,201.441,2.30746e-16,59.1375,3.72767e-8,230.278,-7.64446e-14
23.9771,201.441,9.20711e-15,59.1375,1.35998e-8,230.278,1.21528e-14
24.9771,201.441,3.13064e-15,59.1375,2.85503e-9,230.278,-4.70033e-16
25.9771,201.441,3.68383e-16,59.1375,-4.35937e-10,230.278,-3.32886e-17
26.9771,201.441,-1.84123e-16,59.1375,-9.19756e-10,230.278,2.02787e-17
27.9771,201.441,-1.22764e-16,59.1375,-6.48617e-10,230.278,9.13011e-18
28.9771,201.441,-3.41036e-17,59.1375,-3.34942e-10,230.278,3.06947e-18
29.9771,201.441,-8.5259e-18,59.1375,-1.67471e-10,230.278,7.33529e-19
30.9771,201.441,-2.13148e-18,59.1375,-8.37356e-11,230.278,3.60117e-19
31.9771,201.441,-5.32869e-19,59.1375,-4.18678e-11,230.278,1.79963e-19
32.9771,201.441,-1.33217e-19,59.1375,-2.09339e-11,230.278,8.99802e-20
33.9771,201.441,-3.33043e-20,59.1375,-1.0467e-11,230.278,4.49901e-20
34.9771,201.441,-8.32608e-21,59.1375,-5.23348e-12,230.278,2.24951e-20
35.9771,201.441,-2.08152e-21,59.1375,-2.61674e-12,230.278,1.12475e-20
36.9771,201.441,-5.2038e-22,59.1375,-1.30837e-12,230.278,5.62376e-21
37.9771,201.441,-1.30095e-22,59.1375,-6.54185e-13,230.278,2.81188e-21
38.9771,201.441,-3.25237e-23,59.1375,-3.27092e-13,230.278,1.40594e-21
39.9771,201.441,-8.13094e-24,59.1375,-1.63546e-13,230.278,7.0297e-22
40.9771,201.441,-2.03273e-24,59.1375,-8.17731e-14,230.278,3.51485e-22
41.9771,201.441,-5.08184e-25,59.1375,-4.08865e-14,230.278,1.75743e-22
42.9771,201.441,-1.27046e-25,59.1375,-2.04433e-14,230.278,8.78713e-23
43.9771,201.441,-3.17615e-26,59.1375,-1.02216e-14,230.278,4.39357e-23
44.9771,201.441,-7.94037e-27,59.1375,-5.11082e-15,230.278,2.19678e-23
45.9771,201.441,-1.98509e-27,59.1375,-2.55541e-15,230.278,1.09839e-23
46.9771,201.441,-4.96273e-28,59.1375,-1.2777e-15,230.278,5.49196e-24
47.9771,201.441,-1.24068e-28,59.1375,-6.38852e-16,230.278,2.74598e-24
48.9771,201.441,-3.10171e-29,59.1375,-3.19426e-16,230.278,1.37299e-24
49.9771,201.441,-7.75427e-30,59.1375,-1.59713e-16,230.278,6.86495e-25
50.9771,201.441,-1.93857e-30,59.1375,-7.98565e-17,230.278,5.75557e-27
51.9771,201.441,-4.84642e-31,59.1375,-3.99283e-17,230.278,4.82546e-29
52.9771,201.441,-1.2116e-31,59.1375,-1.99641e-17,230.278,4.04566e-31
53.9771,201.441,-3.02901e-32,59.1375,-9.98206e-18,230.278,3.39188e-33
54.9771,201.441,-7.57252e-33,59.1375,-4.99103e-18,230.278,2.84375e-35
55.9771,201.441,-1.89313e-33,59.1375,-2.49552e-18,230.278,2.3842e-37
56.9771,201.441,-4.73283e-34,59.1375,-1.24776e-18,230.278,1.99891e-39
57.9771,201.441,-1.18321e-34,59.1375,-6.23879e-19,230.278,1.67588e-41
58.9771,201.441,-2.95802e-35,59.1375,-3.1194e-19,230.278,1.40506e-43
59.9771,201.441,-7.39504e-36,59.1375,-1.5597e-19,230.278,1.178e-45
60.9771,201.441,-1.84876e-36,59.1375,-7.79849e-20,230.278,9.87635e-48
61.9771,201.441,-4.6219e-37,59.1375,-3.89924e-20,230.278,8.28033e-50
62.9771,201.441,-1.15548e-37,59.1375,-1.94962e-20,230.278,6.94222e-52
63.9771,201.441,-2.88869e-38,59.1375,-9.74811e-21,230.278,5.82035e-54
64.9771,201.441,-7.22172e-39,59.1375,-4.87405e-21,230.278,4.87977e-56
65.9771,201.441,-1.80543e-39,59.1375,-2.43703e-21,230.278,4.0909e-58
66.9771,201.441,-4.51358e-40,59.1375,-1.21851e-21,230.278,3.41479e-60
67.9771,201.441,-1.12839e-40,59.1375,-6.09257e-22,230.278,2.11241e-62
68.9771,201.441,-2.82099e-41,59.1375,-3.04628e-22,230.278,-3.57567e-63
69.9771,201.441,-7.05246e-42,59.1375,-1.52314e-22,230.278,-1.90636e-63
70.9771,201.441,-1.76312e-42,59.1375,-7.61571e-23,230.278,-9.54175e-64
71.9771,201.441,-4.40779e-43,59.1375,-3.80786e-23,230.278,-4.77096e-64
72.9771,201.441,-1.10195e-43,59.1375,-1.90393e-23,230.278,-2.38548e-64
73.9771,201.441,-2.75487e-44,59.1375,-9.51964e-24,230.278,-1.19274e-64
74.9771,201.441,-6.88717e-45,59.1375,-4.75982e-24,230.278,-5.9637e-65
75.9771,201.441,-1.72179e-45,59.1375,-2.37991e-24,230.278,-2.98185e-65
76.9771,201.441,-4.30448e-46,59.1375,-1.18995e-24,230.278,-1.49093e-65
77.9771,201.441,-1.07612e-46,59.1375,-5.94977e-25,230.278,-7.45463e-66
78.9771,201.441,-2.6903e-47,59.1375,-2.97489e-25,230.278,-3.72731e-66
79.9771,201.441,-6.72575e-48,59.1375,-1.48744e-25,230.278,-1.86366e-66
80.9771,201.441,-1.68144e-48,59.1375,-7.43722e-26,230.278,-9.31828e-67
81.9771,201.441,-4.2036e-49,59.1375,-3.71861e-26,230.278,-4.65914e-67
82.9771,201.441,-1.0509e-49,59.1375,-1.8593e-26,230.278,-2.32957e-67
83.9771,201.441,-2.62725e-50,59.1375,-9.29652e-27,230.278,-1.16479e-67
84.9771,201.441,-6.56812e-51,59.1375,-4.64826e-27,230.278,-5.82393e-68
85.9771,201.441,-1.64203e-51,59.1375,-2.32413e-27,230.278,-2.91196e-68
86.9771,201.441,-4.10507e-52,59.1375,-1.16207e-27,230.278,-1.45598e-68
87.9771,201.441,-1.02627e-52,59.1375,-5.81033e-28,230.278,-7.27991e-69
88.9771,201.441,-2.56567e-53,59.1375,-2.90516e-28,230.278,-3.63995e-69
89.9771,201.441,-6.41418e-54,59.1375,-1.45258e-28,230.278,-1.81998e-69
90.9771,201.441,-1.60354e-54,59.1375,-7.26291e-29,230.278,-9.09989e-70
91.9771,201.441,-4.00886e-55,59.1375,-3.63145e-29,230.278,-4.54994e-70
92.9771,201.441,-1.00222e-55,59.1375,-1.81573e-29,230.278,-2.27497e-70
93.9771,201.441,-2.50554e-56,59.1375,-9.07863e-30,230.278,-1.13749e-70
94.9771,201.441,-6.26385e-57,59.1375,-4.53932e-30,230.278,-5.68743e-71
95.9771,201.441,-1.56596e-57,59.1375,-2.26966e-30,230.278,-2.84371e-71
96.9771,201.441,-3.9149e-58,59.1375,-1.13483e-30,230.278,-1.42186e-71
97.9771,201.441,-9.78726e-59,59.1375,-5.67415e-31,230.278,-7.10929e-72
98.9771,201.441,-2.44681e-59,59.1375,-2.83707e-31,230.278,-3.55464e-72
99.9771,201.441,-6.11704e-60,59.1375,-1.41854e-31,230.278,-1.77732e-72
100,201.441,-5.72443e-60,59.1375,-1.38683e-31,230.278,-4.79847e-73
