#Time,F,E,D,C,B,A
0,73.8315,104.865,8.6245,0,0,342.657
8.99609e-6,73.8343,104.862,8.6245,0,0.0531654,342.604
2.09902e-5,73.8381,104.858,8.6245,0,0.124036,342.533
4.0363e-5,73.8442,104.852,8.6245,0,0.238477,342.418
0.000140101,73.8756,104.821,8.6245,0,0.827062,341.83
0.000706904,74.0537,104.643,8.6245,0,4.15278,338.504
0.00139437,74.2693,104.427,8.6245,0,8.14311,334.514
0.00214546,74.5043,104.192,8.6245,0,12.449,330.208
0.00301138,74.7746,103.922,8.6245,0,17.3444,325.312
0.00628508,75.7902,102.906,8.6245,0,35.2051,307.452
0.0110846,77.2613,101.435,8.6245,0,59.6327,283.024
0.0166922,78.9535,99.7428,8.6245,0,85.7259,256.931
0.0226538,80.7215,97.9747,8.6245,0,110.833,231.824
0.029185,82.6225,96.0737,8.6245,0,135.532,207.125
0.0362403,84.6346,94.0616,8.6245,0,159.265,183.392
0.0436351,86.6983,91.9979,8.6245,0,181.226,161.431
0.0510299,88.7168,89.9795,8.6245,0,200.558,142.099
0.062993,91.8888,86.8074,8.6245,0,227.053,115.604
0.0766546,95.3747,83.3215,8.6245,0,251.323,91.3338
0.0922336,99.1793,79.5169,8.6245,0,272.846,69.8112
0.107122,102.653,76.0435,8.6245,0,288.657,54.0001
0.1225,106.081,72.615,8.6245,0,301.238,41.4185
0.137878,109.355,69.3411,8.6245,0,310.888,31.7683
0.157623,113.343,65.3529,8.6245,0,320.058,22.5986
0.180078,117.601,61.0955,8.6245,0,327.315,15.3416
0.203317,121.715,56.9812,8.6245,0,332.382,10.2751
0.226948,125.615,53.0815,8.6245,0,335.821,6.83541
0.250579,129.248,49.4486,8.6245,0,338.11,4.54718
0.27421,132.632,46.0644,8.6245,0,339.632,3.02496
0.297841,135.784,42.9118,8.6245,0,340.644,2.01232
0.322257,138.815,39.8809,8.6245,0,341.336,1.32067
0.347036,141.672,37.0239,8.6245,0,341.795,0.861342
0.373044,144.451,34.245,8.6245,0,342.107,0.549987
0.400116,147.123,31.5737,8.6245,0,342.312,0.34479
0.428819,149.728,28.9687,8.6245,0,342.447,0.210158
0.459724,152.293,26.4036,8.6245,0,342.533,0.123322
0.492082,154.735,23.961,8.6245,0,342.586,0.070576
0.528757,157.232,21.4645,8.6245,0,342.619,0.0374933
0.567134,159.566,19.1302,8.6245,0,342.637,0.0193419
0.612901,162.02,16.6759,8.6245,0,342.648,0.00878636
0.661121,164.266,14.43,8.6245,0,342.653,0.00382595
0.720334,166.615,12.0814,8.6245,0,342.655,0.00138074
0.786718,168.796,9.89984,8.6245,0,342.656,0.000440806
0.862363,170.806,7.8899,8.6245,0,342.657,0.000121042
0.970153,172.986,5.70997,8.6245,0,342.657,2.1422e-5
1.08695,174.674,4.02224,8.6245,0,342.657,2.28993e-6
1.2259,176.045,2.65112,8.6245,0,342.657,4.3061e-7
1.37155,176.984,1.71262,8.6245,0,342.657,8.85898e-8
1.5049,177.548,1.14797,8.6245,0,342.657,-5.38907e-8
1.65794,177.971,0.725339,8.6245,0,342.657,-7.08614e-9
1.81909,178.249,0.447275,8.6245,0,342.657,-1.29103e-8
1.98123,178.421,0.275006,8.6245,0,342.657,-2.87124e-9
2.16478,178.538,0.158562,8.6245,0,342.657,1.18348e-9
2.3517,178.606,0.0905081,8.6245,0,342.657,3.46484e-10
2.55191,178.647,0.0496434,8.6245,0,342.657,-4.39379e-10
2.7695,178.67,0.0258466,8.6245,0,342.657,2.68334e-10
3.0116,178.684,0.0125043,8.6245,0,342.657,7.86946e-11
3.287,178.691,0.00547551,8.6245,0,342.657,-1.04882e-10
3.58913,178.694,0.00221402,8.6245,0,342.657,1.86393e-12
3.96462,178.695,0.000720634,8.6245,0,342.657,7.10384e-11
4.3731,178.696,0.000212994,8.6245,0,342.657,-2.51922e-10
4.90319,178.696,4.60351e-5,8.6245,0,342.657,-8.48561e-11
5.46127,178.696,8.17681e-6,8.6245,0,342.657,1.67135e-10
6.23505,178.696,2.09745e-6,8.6245,0,342.657,-4.51199e-11
7.23505,178.696,2.27173e-7,8.6245,0,342.657,-3.76377e-10
8.23505,178.696,4.30094e-7,8.6245,0,342.657,-4.61957e-11
9.23505,178.696,-6.42936e-7,8.6245,0,342.657,2.22508e-10
10.2351,178.696,5.80414e-7,8.6245,0,342.657,-1.15754e-10
11.2351,178.696,-6.97434e-7,8.6245,0,342.657,1.25278e-10
12.2351,178.696,5.76186e-7,8.6245,0,342.657,-3.16545e-10
13.2351,178.696,-3.9001e-7,8.6245,0,342.657,-3.22269e-11
14.2351,178.696,2.35306e-8,8.6245,0,342.657,-2.72599e-10
15.2351,178.696,5.23053e-8,8.6245,0,342.657,-3.37079e-11
16.2351,178.696,2.06323e-8,8.6245,0,342.657,3.67399e-12
17.2351,178.696,3.3582e-9,8.6245,0,342.657,1.29084e-12
18.2351,178.696,-7.9994e-10,8.6245,0,342.657,3.97184e-14
19.2351,178.696,-7.28663e-10,8.6245,0,342.657,-3.01873e-14
20.2351,178.696,-2.34968e-10,8.6245,0,342.657,-4.27937e-15
21.2351,178.696,-2.34676e-11,8.6245,0,342.657,3.48548e-16
22.2351,178.696,1.56775e-11,8.6245,0,342.657,1.51303e-16
23.2351,178.696,3.91937e-12,8.6245,0,342.657,8.29104e-18
24.2351,178.696,9.79843e-13,8.6245,0,342.657,4.54328e-19
25.2351,178.696,2.44961e-13,8.6245,0,342.657,2.48961e-20
26.2351,178.696,6.12402e-14,8.6245,0,342.657,1.36424e-21
27.2351,178.696,1.531e-14,8.6245,0,342.657,7.47572e-23
28.2351,178.696,3.82751e-15,8.6245,0,342.657,4.09651e-24
29.2351,178.696,9.56877e-16,8.6245,0,342.657,2.24479e-25
30.2351,178.696,2.39219e-16,8.6245,0,342.657,1.23009e-26
31.2351,178.696,5.98048e-17,8.6245,0,342.657,6.74058e-28
32.2351,178.696,1.49512e-17,8.6245,0,342.657,3.69367e-29
33.2351,178.696,3.7378e-18,8.6245,0,342.657,2.02404e-30
34.2351,178.696,9.34451e-19,8.6245,0,342.657,1.10913e-31
35.2351,178.696,2.33613e-19,8.6245,0,342.657,6.07774e-33
36.2351,178.696,5.84032e-20,8.6245,0,342.657,3.33045e-34
37.2351,178.696,1.46008e-20,8.6245,0,342.657,1.825e-35
38.2351,178.696,3.6502e-21,8.6245,0,342.657,1.00006e-36
39.2351,178.696,9.12549e-22,8.6245,0,342.657,5.48007e-38
40.2351,178.696,2.28137e-22,8.6245,0,342.657,3.00294e-39
41.2351,178.696,5.70343e-23,8.6245,0,342.657,1.64554e-40
42.2351,178.696,1.42586e-23,8.6245,0,342.657,9.01715e-42
43.2351,178.696,3.56465e-24,8.6245,0,342.657,4.94118e-43
44.2351,178.696,8.91162e-25,8.6245,0,342.657,2.70764e-44
45.2351,178.696,2.2279e-25,8.6245,0,342.657,1.48372e-45
46.2351,178.696,5.56976e-26,8.6245,0,342.657,8.13043e-47
47.2351,178.696,1.39244e-26,8.6245,0,342.657,4.45528e-48
48.2351,178.696,3.4811e-27,8.6245,0,342.657,2.44138e-49
49.2351,178.696,8.70275e-28,8.6245,0,342.657,1.33782e-50
50.2351,178.696,2.17569e-28,8.6245,0,342.657,7.33091e-52
51.2351,178.696,5.43922e-29,8.6245,0,342.657,4.01716e-53
52.2351,178.696,1.3598e-29,8.6245,0,342.657,2.2013e-54
53.2351,178.696,3.39951e-30,8.6245,0,342.657,1.20626e-55
54.2351,178.696,8.49878e-31,8.6245,0,342.657,6.61001e-57
55.2351,178.696,2.12469e-31,8.6245,0,342.657,3.62212e-58
56.2351,178.696,5.31174e-32,8.6245,0,342.657,1.98483e-59
57.2351,178.696,1.32793e-32,8.6245,0,342.657,1.08764e-60
58.2351,178.696,3.31984e-33,8.6245,0,342.657,5.96e-62
59.2351,178.696,8.29959e-34,8.6245,0,342.657,3.26593e-63
60.2351,178.696,2.0749e-34,8.6245,0,342.657,1.78965e-64
61.2351,178.696,5.18724e-35,8.6245,0,342.657,9.80685e-66
62.2351,178.696,1.29681e-35,8.6245,0,342.657,5.37391e-67
63.2351,178.696,3.24203e-36,8.6245,0,342.657,2.94477e-68
64.2351,178.696,8.10507e-37,8.6245,0,342.657,1.61366e-69
65.2351,178.696,2.02627e-37,8.6245,0,342.657,8.84248e-71
66.2351,178.696,5.06567e-38,8.6245,0,342.657,4.84546e-72
67.2351,178.696,1.26642e-38,8.6245,0,342.657,2.65519e-73
68.2351,178.696,3.16604e-39,8.6245,0,342.657,1.45498e-74
69.2351,178.696,7.9151e-40,8.6245,0,342.657,7.97293e-76
70.2351,178.696,1.97878e-40,8.6245,0,342.657,4.36897e-77
71.2351,178.696,4.94694e-41,8.6245,0,342.657,2.39409e-78
72.2351,178.696,1.23674e-41,8.6245,0,342.657,1.3119e-79
73.2351,178.696,3.09184e-42,8.6245,0,342.657,7.1889e-81
74.2351,178.696,7.72959e-43,8.6245,0,342.657,3.93934e-82
75.2351,178.696,1.9324e-43,8.6245,0,342.657,2.15866e-83
76.2351,178.696,4.831e-44,8.6245,0,342.657,1.18289e-84
77.2351,178.696,1.20775e-44,8.6245,0,342.657,6.48197e-86
78.2351,178.696,3.01937e-45,8.6245,0,342.657,3.55196e-87
79.2351,178.696,7.54843e-46,8.6245,0,342.657,1.94639e-88
80.2351,178.696,1.88711e-46,8.6245,0,342.657,1.06657e-89
81.2351,178.696,4.71777e-47,8.6245,0,342.657,5.84455e-91
82.2351,178.696,1.17944e-47,8.6245,0,342.657,3.20267e-92
83.2351,178.696,2.94861e-48,8.6245,0,342.657,1.75498e-93
84.2351,178.696,7.37152e-49,8.6245,0,342.657,9.61688e-95
85.2351,178.696,1.84288e-49,8.6245,0,342.657,5.26981e-96
86.2351,178.696,4.6072e-50,8.6245,0,342.657,2.88773e-97
87.2351,178.696,1.1518e-50,8.6245,0,342.657,1.5824e-98
88.2351,178.696,2.8795e-51,8.6245,0,342.657,8.67119e-100
89.2351,178.696,7.19875e-52,8.6245,0,342.657,4.7516e-101
90.2351,178.696,1.79969e-52,8.6245,0,342.657,2.60376e-102
91.2351,178.696,4.49922e-53,8.6245,0,342.657,1.4268e-103
92.2351,178.696,1.1248e-53,8.6245,0,342.657,7.81849e-105
93.2351,178.696,2.81201e-54,8.6245,0,342.657,4.28434e-106
94.2351,178.696,7.03003e-55,8.6245,0,342.657,2.34771e-107
95.2351,178.696,1.75751e-55,8.6245,0,342.657,1.28649e-108
96.2351,178.696,4.39377e-56,8.6245,0,342.657,7.04964e-110
97.2351,178.696,1.09844e-56,8.6245,0,342.657,3.86303e-111
98.2351,178.696,2.7461e-57,8.6245,0,342.657,2.11685e-112
99.2351,178.696,6.86526e-58,8.6245,0,342.657,1.15998e-113
100,178.696,2.08364e-58,8.6245,0,342.657,8.172e-115
