#Time,F,E,D,C,B,A
0,76.3011,0,30.505,21.5906,0,29.1098
8.78573e-6,76.3011,0,30.5052,21.5904,0.0155975,29.0942
2.04643e-5,76.3011,0,30.5054,21.5901,0.0363179,29.0735
3.87379e-5,76.3011,0,30.5058,21.5897,0.0687131,29.0411
0.000128342,76.3011,0,30.5078,21.5878,0.227049,28.8828
0.000435065,76.3011,0,30.5144,21.5812,0.762623,28.3472
0.000716588,76.3011,0,30.5204,21.5751,1.24555,27.8643
0.00111295,76.3011,0,30.529,21.5666,1.91171,27.1981
0.00251938,76.3011,0,30.5593,21.5363,4.15089,24.9589
0.00406156,76.3011,0,30.5925,21.5031,6.39709,22.7127
0.0058209,76.3011,0,30.6303,21.4653,8.71634,20.3935
0.00768686,76.3011,0,30.6703,21.4253,10.9206,18.1893
0.00970491,76.3011,0,30.7135,21.3821,13.0398,16.0701
0.0118074,76.3011,0,30.7584,21.3372,14.988,14.1218
0.0155971,76.3011,0,30.8391,21.2564,17.9282,11.1817
0.0197777,76.3011,0,30.9278,21.1678,20.4728,8.63697
0.0244942,76.3011,0,31.0274,21.0682,22.6614,6.44841
0.0292961,76.3011,0,31.1283,20.9672,24.3254,4.78442
0.0340979,76.3011,0,31.2288,20.8668,25.5634,3.54638
0.0388998,76.3011,0,31.3287,20.7668,26.4836,2.62618
0.0447649,76.3011,0,31.4502,20.6454,27.2926,1.81725
0.0512995,76.3011,0,31.5846,20.5109,27.9061,1.20373
0.0586997,76.3011,0,31.7359,20.3597,28.3564,0.753404
0.0662297,76.3011,0,31.8886,20.207,28.6432,0.466621
0.0739687,76.3011,0,32.0444,20.0512,28.8253,0.284506
0.0820998,76.3011,0,32.2067,19.8888,28.9411,0.168736
0.0907866,76.3011,0,32.3788,19.7168,29.0135,0.0962859
0.100273,76.3011,0,32.5649,19.5306,29.0578,0.052002
0.110265,76.3011,0,32.7591,19.3365,29.0827,0.0270761
0.121808,76.3011,0,32.981,19.1145,29.0971,0.0126802
0.13395,76.3011,0,33.2117,18.8839,29.1041,0.00567786
0.149017,76.3011,0,33.4941,18.6015,29.1077,0.00208153
0.164974,76.3011,0,33.7886,18.307,29.1091,0.000712609
0.185411,76.3011,0,34.1589,17.9367,29.1096,0.000180332
0.208865,76.3011,0,34.5747,17.5209,29.1098,3.6915e-5
0.236341,76.3011,0,35.0496,17.046,29.1098,6.3873e-6
0.27922,76.3011,0,35.765,16.3305,29.1098,2.55599e-6
0.318189,76.3011,0,36.3892,15.7064,29.1098,-8.87698e-7
0.36695,76.3011,0,37.1366,14.9589,29.1098,3.7395e-7
0.44274,76.3011,0,38.2285,13.8671,29.1098,-6.80836e-7
0.536901,76.3011,0,39.4746,12.6209,29.1098,-3.05866e-7
0.674117,76.3011,0,41.0929,11.0027,29.1098,1.07943e-7
0.871112,76.3011,0,43.0602,9.03535,29.1098,-1.31979e-7
1.11427,76.3011,0,45.0105,7.08502,29.1098,-1.26302e-6
1.46959,76.3011,0,47.1293,4.9663,29.1098,-6.36078e-7
1.7817,76.3011,0,48.4607,3.63484,29.1098,9.21462e-8
2.05425,76.3011,0,49.3279,2.76769,29.1098,2.15981e-7
2.34284,76.3011,0,50.0217,2.07389,29.1098,3.5496e-7
2.68133,76.3011,0,50.6172,1.47836,29.1098,1.5384e-6
2.92409,76.3011,0,50.9358,1.15972,29.1098,-1.32317e-7
3.14608,76.3011,0,51.1667,0.928839,29.1098,-2.56454e-8
3.46328,76.3011,0,51.4192,0.676369,29.1098,1.12342e-7
3.84544,76.3011,0,51.634,0.461546,29.1098,3.7893e-8
4.33924,76.3011,0,51.8139,0.281688,29.1098,1.31416e-8
4.91175,76.3011,0,51.9367,0.158907,29.1098,-3.61337e-8
5.38799,76.3011,0,51.9969,0.0986999,29.1098,-1.49099e-9
5.98667,76.3011,0,52.0413,0.0542425,29.1098,8.037e-8
6.66357,76.3011,0,52.068,0.0275667,29.1098,-1.23989e-9
7.38704,76.3011,0,52.0822,0.0133743,29.1098,2.19326e-9
8.24388,76.3011,0,52.0899,0.00568057,29.1098,6.60558e-9
9.24388,76.3011,0,52.0935,0.00209087,29.1098,-2.29939e-8
10.2439,76.3011,0,52.0948,0.000771573,29.1098,-3.77618e-10
11.2439,76.3011,0,52.0953,0.000282624,29.1098,1.45556e-9
12.2439,76.3011,0,52.0955,0.000106053,29.1098,-3.19848e-9
13.2439,76.3011,0,52.0955,3.63297e-5,29.1098,-2.36159e-8
14.2439,76.3011,0,52.0955,1.39576e-5,29.1098,-8.81296e-9
15.2439,76.3011,0,52.0956,4.41867e-6,29.1098,-6.21987e-10
16.2439,76.3011,0,52.0956,1.01237e-6,29.1098,1.17051e-9
17.2439,76.3011,0,52.0956,7.74108e-7,29.1098,-1.2013e-9
18.2439,76.3011,0,52.0956,-4.02907e-7,29.1098,5.27389e-9
19.2439,76.3011,0,52.0956,5.93781e-7,29.1098,-2.00152e-8
20.2439,76.3011,0,52.0956,1.53124e-7,29.1098,2.43451e-9
21.2439,76.3011,0,52.0956,2.60231e-8,29.1098,-4.57643e-10
22.2439,76.3011,0,52.0956,1.06489e-9,29.1098,9.94259e-11
23.2439,76.3011,0,52.0956,-1.57004e-9,29.1098,9.33786e-10
24.2439,76.3011,0,52.0956,-1.46901e-9,29.1098,2.00211e-11
25.2439,76.3011,0,52.0956,-7.34506e-10,29.1098,2.16191e-13
26.2439,76.3011,0,52.0956,-3.67253e-10,29.1098,2.3432e-15
27.2439,76.3011,0,52.0956,-1.83627e-10,29.1098,2.6101e-17
28.2439,76.3011,0,52.0956,-9.18133e-11,29.1098,6.47476e-19
29.2439,76.3011,0,52.0956,-4.59067e-11,29.1098,1.89437e-19
30.2439,76.3011,0,52.0956,-2.29533e-11,29.1098,9.32642e-20
31.2439,76.3011,0,52.0956,-1.14767e-11,29.1098,4.66164e-20
32.2439,76.3011,0,52.0956,-5.73833e-12,29.1098,2.3308e-20
33.2439,76.3011,0,52.0956,-2.86917e-12,29.1098,1.1654e-20
34.2439,76.3011,0,52.0956,-1.43458e-12,29.1098,5.827e-21
35.2439,76.3011,0,52.0956,-7.17291e-13,29.1098,2.9135e-21
36.2439,76.3011,0,52.0956,-3.58646e-13,29.1098,1.45675e-21
37.2439,76.3011,0,52.0956,-1.79323e-13,29.1098,7.28375e-22
38.2439,76.3011,0,52.0956,-8.96614e-14,29.1098,3.64188e-22
39.2439,76.3011,0,52.0956,-4.48307e-14,29.1098,1.82094e-22
40.2439,76.3011,0,52.0956,-2.24154e-14,29.1098,9.10469e-23
41.2439,76.3011,0,52.0956,-1.12077e-14,29.1098,4.55234e-23
42.2439,76.3011,0,52.0956,-5.60384e-15,29.1098,2.27617e-23
43.2439,76.3011,0,52.0956,-2.80192e-15,29.1098,1.13809e-23
44.2439,76.3011,0,52.0956,-1.40096e-15,29.1098,5.69043e-24
45.2439,76.3011,0,52.0956,-7.0048e-16,29.1098,2.84522e-24
46.2439,76.3011,0,52.0956,-3.5024e-16,29.1098,2.70481e-26
47.2439,76.3011,0,52.0956,-1.7512e-16,29.1098,2.57132e-28
48.2439,76.3011,0,52.0956,-8.756e-17,29.1098,2.44443e-30
49.2439,76.3011,0,52.0956,-4.378e-17,29.1098,2.3238e-32
50.2439,76.3011,0,52.0956,-2.189e-17,29.1098,2.20912e-34
51.2439,76.3011,0,52.0956,-1.0945e-17,29.1098,2.1001e-36
52.2439,76.3011,0,52.0956,-5.4725e-18,29.1098,1.99646e-38
53.2439,76.3011,0,52.0956,-2.73625e-18,29.1098,1.89794e-40
54.2439,76.3011,0,52.0956,-1.36812e-18,29.1098,1.80428e-42
55.2439,76.3011,0,52.0956,-6.84062e-19,29.1098,1.71524e-44
56.2439,76.3011,0,52.0956,-3.42031e-19,29.1098,1.63059e-46
57.2439,76.3011,0,52.0956,-1.71016e-19,29.1098,1.55012e-48
58.2439,76.3011,0,52.0956,-8.55078e-20,29.1098,1.47363e-50
59.2439,76.3011,0,52.0956,-4.27539e-20,29.1098,1.4009e-52
60.2439,76.3011,0,52.0956,-2.1377e-20,29.1098,1.33176e-54
61.2439,76.3011,0,52.0956,-1.06885e-20,29.1098,1.2658e-56
62.2439,76.3011,0,52.0956,-5.34424e-21,29.1098,1.19139e-58
63.2439,76.3011,0,52.0956,-2.67212e-21,29.1098,5.35388e-61
64.2439,76.3011,0,52.0956,-1.33606e-21,29.1098,-2.93515e-61
65.2439,76.3011,0,52.0956,-6.6803e-22,29.1098,-1.52093e-61
66.2439,76.3011,0,52.0956,-3.34015e-22,29.1098,-7.60972e-62
67.2439,76.3011,0,52.0956,-1.67007e-22,29.1098,-3.80491e-62
68.2439,76.3011,0,52.0956,-8.35037e-23,29.1098,-1.90245e-62
69.2439,76.3011,0,52.0956,-4.17519e-23,29.1098,-9.51227e-63
70.2439,76.3011,0,52.0956,-2.08759e-23,29.1098,-4.75613e-63
71.2439,76.3011,0,52.0956,-1.0438e-23,29.1098,-2.37807e-63
72.2439,76.3011,0,52.0956,-5.21898e-24,29.1098,-1.18903e-63
73.2439,76.3011,0,52.0956,-2.60949e-24,29.1098,-5.94517e-64
74.2439,76.3011,0,52.0956,-1.30475e-24,29.1098,-2.97258e-64
75.2439,76.3011,0,52.0956,-6.52373e-25,29.1098,-1.48629e-64
76.2439,76.3011,0,52.0956,-3.26186e-25,29.1098,-7.43146e-65
77.2439,76.3011,0,52.0956,-1.63093e-25,29.1098,-3.71573e-65
78.2439,76.3011,0,52.0956,-8.15466e-26,29.1098,-1.85786e-65
79.2439,76.3011,0,52.0956,-4.07733e-26,29.1098,-9.28932e-66
80.2439,76.3011,0,52.0956,-2.03867e-26,29.1098,-4.64466e-66
81.2439,76.3011,0,52.0956,-1.01933e-26,29.1098,-2.32233e-66
82.2439,76.3011,0,52.0956,-5.09666e-27,29.1098,-1.16117e-66
83.2439,76.3011,0,52.0956,-2.54833e-27,29.1098,-5.80583e-67
84.2439,76.3011,0,52.0956,-1.27417e-27,29.1098,-2.90291e-67
85.2439,76.3011,0,52.0956,-6.37083e-28,29.1098,-1.45146e-67
86.2439,76.3011,0,52.0956,-3.18541e-28,29.1098,-7.25728e-68
87.2439,76.3011,0,52.0956,-1.59271e-28,29.1098,-3.62864e-68
88.2439,76.3011,0,52.0956,-7.96354e-29,29.1098,-1.81432e-68
89.2439,76.3011,0,52.0956,-3.98177e-29,29.1098,-9.0716e-69
90.2439,76.3011,0,52.0956,-1.99088e-29,29.1098,-4.5358e-69
91.2439,76.3011,0,52.0956,-9.95442e-30,29.1098,-2.2679e-69
92.2439,76.3011,0,52.0956,-4.97721e-30,29.1098,-1.13395e-69
93.2439,76.3011,0,52.0956,-2.4886e-30,29.1098,-5.66975e-70
94.2439,76.3011,0,52.0956,-1.2443e-30,29.1098,-2.83488e-70
95.2439,76.3011,0,52.0956,-6.22151e-31,29.1098,-1.41744e-70
96.2439,76.3011,0,52.0956,-3.11076e-31,29.1098,-7.08719e-71
97.2439,76.3011,0,52.0956,-1.55538e-31,29.1098,-3.5436e-71
98.2439,76.3011,0,52.0956,-7.77689e-32,29.1098,-1.7718e-71
99.2439,76.3011,0,52.0956,-3.88844e-32,29.1098,-8.85899e-72
100,76.3011,0,52.0956,-2.21423e-32,29.1098,-1.11041e-73
