#Time,F,E,D,C,B,A
0,206.456,8.32185,73.1977,0,172.562,462
1.1e-5,206.456,8.32158,73.1977,0,173.305,461.257
2.6e-5,206.457,8.32121,73.1977,0,174.317,460.246
5.02188e-5,206.457,8.3206,73.1977,0,175.946,458.617
0.000179145,206.46,8.31738,73.1977,0,184.521,450.042
0.000421657,206.466,8.31133,73.1977,0,200.219,434.344
0.000664169,206.472,8.30529,73.1977,0,215.369,419.194
0.000973318,206.48,8.29759,73.1977,0,233.918,400.645
0.00180601,206.501,8.27689,73.1977,0,279.898,354.665
0.00267227,206.522,8.25541,73.1977,0,322.139,312.424
0.00362287,206.546,8.2319,73.1977,0,362.726,271.837
0.00457347,206.569,8.20846,73.1977,0,398.041,236.522
0.0056818,206.597,8.18121,73.1977,0,433.466,201.097
0.0074129,206.639,8.13883,73.1977,0,478.484,156.078
0.00917055,206.682,8.09603,73.1977,0,513.895,120.668
0.0109813,206.726,8.05217,73.1977,0,541.994,92.5689
0.0130395,206.775,8.0026,73.1977,0,566.076,68.487
0.0156804,206.838,7.93945,73.1977,0,588.036,46.5272
0.0183628,206.902,7.87582,73.1977,0,603.146,31.417
0.0211282,206.967,7.81075,73.1977,0,613.605,20.9577
0.0238936,207.032,7.74621,73.1977,0,620.582,13.9805
0.0266591,207.096,7.68222,73.1977,0,625.237,9.32614
0.0294245,207.159,7.61875,73.1977,0,628.342,6.22129
0.0321899,207.222,7.5558,73.1977,0,630.413,4.15011
0.0349554,207.284,7.49337,73.1977,0,631.794,2.76846
0.037772,207.347,7.43032,73.1977,0,632.73,1.83301
0.040623,207.411,7.36704,73.1977,0,633.355,1.20754
0.0435981,207.476,7.30158,73.1977,0,633.782,0.781183
0.0466757,207.543,7.23448,73.1977,0,634.065,0.497835
0.0499067,207.613,7.16469,73.1977,0,634.253,0.310217
0.0533631,207.687,7.09078,73.1977,0,634.376,0.187033
0.0569552,207.763,7.01478,73.1977,0,634.452,0.110548
0.0609897,207.847,6.93039,73.1977,0,634.502,0.0612438
0.0651967,207.934,6.84347,73.1977,0,634.53,0.0330834
0.0701245,208.035,6.74305,73.1977,0,634.547,0.0160839
0.0752979,208.139,6.6392,73.1977,0,634.555,0.00754319
0.0815199,208.261,6.51642,73.1977,0,634.56,0.00303661
0.0884103,208.395,6.3831,73.1977,0,634.562,0.00110905
0.0962178,208.542,6.23533,73.1977,0,634.562,0.000355497
0.107057,208.742,6.03584,73.1977,0,634.563,7.55578e-5
0.117136,208.922,5.85606,73.1977,0,634.563,1.557e-5
0.130108,209.145,5.63254,73.1977,0,634.563,2.41887e-6
0.152058,209.504,5.27359,73.1977,0,634.563,-5.39918e-7
0.1862,210.018,4.76018,73.1977,0,634.563,3.78555e-8
0.245142,210.789,3.98868,73.1977,0,634.563,-2.98273e-7
0.315377,211.547,3.23088,73.1977,0,634.563,5.26414e-8
0.420194,212.419,2.35916,73.1977,0,634.563,3.53874e-8
0.525513,213.058,1.72004,73.1977,0,634.563,2.63065e-7
0.668687,213.658,1.11944,73.1977,0,634.563,3.10566e-8
0.81434,214.055,0.723164,73.1977,0,634.563,-1.64117e-8
0.975554,214.332,0.445862,73.1977,0,634.563,-7.38637e-9
1.13861,214.504,0.273378,73.1977,0,634.563,-3.28238e-9
1.30534,214.612,0.165781,73.1977,0,634.563,-1.01016e-9
1.4913,214.683,0.0949014,73.1977,0,634.563,-9.75719e-11
1.68493,214.725,0.0530894,73.1977,0,634.563,1.90392e-9
1.90677,214.75,0.0272917,73.1977,0,634.563,9.42097e-10
2.13896,214.764,0.0136007,73.1977,0,634.563,1.03408e-9
2.41486,214.772,0.00594725,73.1977,0,634.563,2.80868e-9
2.71371,214.775,0.00242784,73.1977,0,634.563,7.96193e-8
3.05469,214.777,0.000874809,73.1977,0,634.563,-8.48169e-8
3.48729,214.778,0.00024084,73.1977,0,634.563,1.34758e-7
3.96375,214.778,5.87745e-5,73.1977,0,634.563,-1.73855e-9
4.61279,214.778,1.02e-5,73.1977,0,634.563,-4.00647e-8
5.33997,214.778,1.15573e-6,73.1977,0,634.563,1.83266e-7
6.33997,214.778,9.59417e-7,73.1977,0,634.563,1.27435e-8
7.30049,214.778,-2.83501e-7,73.1977,0,634.563,6.59094e-8
8.30049,214.778,3.70042e-7,73.1977,0,634.563,4.00992e-9
9.30049,214.778,-4.82584e-7,73.1977,0,634.563,-3.02751e-8
10.2029,214.778,2.47161e-7,73.1977,0,634.563,-1.41009e-10
11.2029,214.778,-1.10269e-7,73.1977,0,634.563,3.35021e-10
12.2029,214.778,-1.03462e-7,73.1977,0,634.563,3.74747e-10
13.2029,214.778,-1.5433e-8,73.1977,0,634.563,-6.09782e-11
14.2029,214.778,6.97462e-9,73.1977,0,634.563,-6.26695e-10
15.2029,214.778,4.81461e-9,73.1977,0,634.563,-8.26869e-12
16.2029,214.778,1.36487e-9,73.1977,0,634.563,2.00689e-12
17.2029,214.778,7.16511e-11,73.1977,0,634.563,5.50939e-14
18.2029,214.778,1.79128e-11,73.1977,0,634.563,3.73783e-16
19.2029,214.778,4.4782e-12,73.1977,0,634.563,2.53592e-18
20.2029,214.778,1.11955e-12,73.1977,0,634.563,1.72049e-20
21.2029,214.778,2.79887e-13,73.1977,0,634.563,1.16726e-22
22.2029,214.778,6.99718e-14,73.1977,0,634.563,7.91923e-25
23.2029,214.778,1.7493e-14,73.1977,0,634.563,5.37278e-27
24.2029,214.778,4.37324e-15,73.1977,0,634.563,3.64515e-29
25.2029,214.778,1.09331e-15,73.1977,0,634.563,2.47304e-31
26.2029,214.778,2.73327e-16,73.1977,0,634.563,1.67783e-33
27.2029,214.778,6.83319e-17,73.1977,0,634.563,1.13832e-35
28.2029,214.778,1.7083e-17,73.1977,0,634.563,7.72287e-38
29.2029,214.778,4.27074e-18,73.1977,0,634.563,5.23956e-40
30.2029,214.778,1.06769e-18,73.1977,0,634.563,3.55476e-42
31.2029,214.778,2.66921e-19,73.1977,0,634.563,2.41172e-44
32.2029,214.778,6.67303e-20,73.1977,0,634.563,1.63622e-46
33.2029,214.778,1.66826e-20,73.1977,0,634.563,1.11009e-48
34.2029,214.778,4.17065e-21,73.1977,0,634.563,7.53138e-51
35.2029,214.778,1.04266e-21,73.1977,0,634.563,5.10964e-53
36.2029,214.778,2.60665e-22,73.1977,0,634.563,3.46662e-55
37.2029,214.778,6.51663e-23,73.1977,0,634.563,2.35192e-57
38.2029,214.778,1.62916e-23,73.1977,0,634.563,1.59565e-59
39.2029,214.778,4.0729e-24,73.1977,0,634.563,1.08257e-61
40.2029,214.778,1.01822e-24,73.1977,0,634.563,7.34463e-64
41.2029,214.778,2.54556e-25,73.1977,0,634.563,4.98295e-66
42.2029,214.778,6.3639e-26,73.1977,0,634.563,3.38066e-68
43.2029,214.778,1.59098e-26,73.1977,0,634.563,2.2936e-70
44.2029,214.778,3.97744e-27,73.1977,0,634.563,1.55609e-72
45.2029,214.778,9.94359e-28,73.1977,0,634.563,1.05572e-74
46.2029,214.778,2.4859e-28,73.1977,0,634.563,7.16252e-77
47.2029,214.778,6.21475e-29,73.1977,0,634.563,4.85939e-79
48.2029,214.778,1.55369e-29,73.1977,0,634.563,3.29684e-81
49.2029,214.778,3.88422e-30,73.1977,0,634.563,2.23673e-83
50.2029,214.778,9.71054e-31,73.1977,0,634.563,1.5175e-85
51.2029,214.778,2.42764e-31,73.1977,0,634.563,1.02955e-87
52.2029,214.778,6.06909e-32,73.1977,0,634.563,6.98492e-90
53.2029,214.778,1.51727e-32,73.1977,0,634.563,4.7389e-92
54.2029,214.778,3.79318e-33,73.1977,0,634.563,3.21509e-94
55.2029,214.778,9.48295e-34,73.1977,0,634.563,2.18127e-96
56.2029,214.778,2.37074e-34,73.1977,0,634.563,1.47988e-98
57.2029,214.778,5.92684e-35,73.1977,0,634.563,1.00402e-100
58.2029,214.778,1.48171e-35,73.1977,0,634.563,6.81173e-103
59.2029,214.778,3.70428e-36,73.1977,0,634.563,4.6214e-105
60.2029,214.778,9.26069e-37,73.1977,0,634.563,3.13537e-107
61.2029,214.778,2.31517e-37,73.1977,0,634.563,2.12718e-109
62.2029,214.778,5.78793e-38,73.1977,0,634.563,1.44318e-111
63.2029,214.778,1.44698e-38,73.1977,0,634.563,9.79123e-114
64.2029,214.778,3.61746e-39,73.1977,0,634.563,6.64283e-116
65.2029,214.778,9.04365e-40,73.1977,0,634.563,4.50681e-118
66.2029,214.778,2.26091e-40,73.1977,0,634.563,3.05763e-120
67.2029,214.778,5.65228e-41,73.1977,0,634.563,2.07444e-122
68.2029,214.778,1.41307e-41,73.1977,0,634.563,1.4074e-124
69.2029,214.778,3.53267e-42,73.1977,0,634.563,9.54845e-127
70.2029,214.778,8.83169e-43,73.1977,0,634.563,6.47812e-129
71.2029,214.778,2.20792e-43,73.1977,0,634.563,4.39506e-131
72.2029,214.778,5.5198e-44,73.1977,0,634.563,2.98181e-133
73.2029,214.778,1.37995e-44,73.1977,0,634.563,2.023e-135
74.2029,214.778,3.44988e-45,73.1977,0,634.563,1.3725e-137
75.2029,214.778,8.62469e-46,73.1977,0,634.563,9.31169e-140
76.2029,214.778,2.15617e-46,73.1977,0,634.563,6.31749e-142
77.2029,214.778,5.39043e-47,73.1977,0,634.563,4.28608e-144
78.2029,214.778,1.34761e-47,73.1977,0,634.563,2.90788e-146
79.2029,214.778,3.36902e-48,73.1977,0,634.563,1.97284e-148
80.2029,214.778,8.42255e-49,73.1977,0,634.563,1.33847e-150
81.2029,214.778,2.10564e-49,73.1977,0,634.563,9.0808e-153
82.2029,214.778,5.2641e-50,73.1977,0,634.563,6.16084e-155
83.2029,214.778,1.31602e-50,73.1977,0,634.563,4.17981e-157
84.2029,214.778,3.29006e-51,73.1977,0,634.563,2.83578e-159
85.2029,214.778,8.22515e-52,73.1977,0,634.563,1.92392e-161
86.2029,214.778,2.05629e-52,73.1977,0,634.563,1.30528e-163
87.2029,214.778,5.14072e-53,73.1977,0,634.563,8.85564e-166
88.2029,214.778,1.28518e-53,73.1977,0,634.563,6.00808e-168
89.2029,214.778,3.21295e-54,73.1977,0,634.563,4.07617e-170
90.2029,214.778,8.03237e-55,73.1977,0,634.563,2.76546e-172
91.2029,214.778,2.00809e-55,73.1977,0,634.563,1.87622e-174
92.2029,214.778,5.02023e-56,73.1977,0,634.563,1.27292e-176
93.2029,214.778,1.25506e-56,73.1977,0,634.563,8.63606e-179
94.2029,214.778,3.13765e-57,73.1977,0,634.563,5.85911e-181
95.2029,214.778,7.84411e-58,73.1977,0,634.563,3.9751e-183
96.2029,214.778,1.96103e-58,73.1977,0,634.563,2.69689e-185
97.2029,214.778,4.90257e-59,73.1977,0,634.563,1.8297e-187
98.2029,214.778,1.22564e-59,73.1977,0,634.563,1.24135e-189
99.2029,214.778,3.06411e-60,73.1977,0,634.563,8.42192e-192
100,214.778,9.03543e-61,73.1977,0,634.563,7.15618e-194
