#Time,F,E,D,C,B,A
0,139.552,65.7834,0,29.7158,118.217,0
3.1e-5,139.558,65.7773,0.000921167,29.7149,118.217,0
0.000624092,139.675,65.6604,0.0185378,29.6973,118.217,0
0.00132623,139.813,65.5223,0.0393796,29.6765,118.217,0
0.00242492,140.029,65.3067,0.0719664,29.6439,118.217,0
0.00781438,141.076,64.2593,0.231301,29.4845,118.217,0
0.0239045,144.104,61.2309,0.701919,29.0139,118.217,0
0.0379783,146.636,58.6993,1.1074,28.6084,118.217,0
0.0563661,149.786,55.5489,1.62864,28.0872,118.217,0
0.101003,156.748,48.587,2.8548,26.861,118.217,0
0.143873,162.612,42.7235,3.98198,25.7338,118.217,0
0.189405,168.066,37.2688,5.12744,24.5884,118.217,0
0.234938,172.825,32.5104,6.2219,23.4939,118.217,0
0.28907,177.698,27.6373,7.45987,22.256,118.217,0
0.375854,184.033,21.3022,9.30989,20.4059,118.217,0
0.462638,188.916,16.4192,11.0061,18.7097,118.217,0
0.549422,192.68,12.6556,12.5614,17.1545,118.217,0
0.650398,195.987,9.34808,14.209,15.5069,118.217,0
0.772114,198.847,6.48846,15.9861,13.7298,118.217,0
0.917192,201.136,4.1988,17.8402,11.8756,118.217,0
1.0574,202.578,2.75704,19.3939,10.322,118.217,0
1.19587,203.515,1.81989,20.7285,8.98729,118.217,0
1.34853,204.184,1.15117,22.001,7.71484,118.217,0
1.50117,204.607,0.728243,23.0931,6.62275,118.217,0
1.66116,204.885,0.450644,24.0722,5.64359,118.217,0
1.82922,205.063,0.272191,24.9453,4.77052,118.217,0
2.00296,205.174,0.161629,25.7061,4.0097,118.217,0
2.18962,205.243,0.0923311,26.3889,3.32698,118.217,0
2.38346,205.284,0.0516193,26.9751,2.74073,118.217,0
2.60594,205.309,0.026485,27.5218,2.19404,118.217,0
2.84294,205.322,0.0130096,27.9848,1.73107,118.217,0
3.11667,205.329,0.00572598,28.3993,1.31655,118.217,0
3.42385,205.333,0.00228027,28.7475,0.968346,118.217,0
3.78029,205.334,0.000785034,29.0378,0.678003,118.217,0
4.22218,205.335,0.000211322,29.28,0.435838,118.217,0
4.66018,205.335,5.69099e-5,29.4346,0.281259,118.217,0
5.19708,205.335,1.23217e-5,29.5514,0.164417,118.217,0
5.74207,205.335,2.15429e-6,29.6205,0.0953373,118.217,0
6.3179,205.335,4.07442e-7,29.6622,0.0536049,118.217,0
7.04658,205.335,1.01581e-7,29.69,0.0258706,118.217,0
7.8139,205.335,3.16741e-8,29.7038,0.0120117,118.217,0
8.63318,205.335,4.13899e-9,29.7105,0.00529647,118.217,0
9.63318,205.335,5.46012e-8,29.7139,0.00195059,118.217,0
10.6332,205.335,6.89524e-9,29.7151,0.000718395,118.217,0
11.6332,205.335,-2.48107e-8,29.7156,0.000266613,118.217,0
12.5182,205.335,1.81191e-8,29.7157,0.000107429,118.217,0
13.5182,205.335,-7.33514e-9,29.7158,4.04053e-5,118.217,0
14.5182,205.335,1.8154e-8,29.7158,1.35658e-5,118.217,0
15.5182,205.335,3.80581e-9,29.7158,4.1139e-6,118.217,0
16.5182,205.335,-1.82543e-9,29.7158,1.802e-6,118.217,0
17.5182,205.335,4.60878e-9,29.7158,3.19966e-7,118.217,0
18.5182,205.335,-2.88807e-8,29.7158,1.084e-6,118.217,0
19.5182,205.335,-1.15938e-8,29.7158,1.07324e-6,118.217,0
20.5182,205.335,1.71953e-8,29.7158,-2.13367e-8,118.217,0
21.5182,205.335,-6.60231e-9,29.7158,-8.22287e-8,118.217,0
22.5182,205.335,-4.84495e-9,29.7158,-6.15156e-8,118.217,0
23.5182,205.335,-1.41972e-9,29.7158,-3.27668e-8,118.217,0
24.5182,205.335,-9.26597e-11,29.7158,-1.39103e-8,118.217,0
25.5182,205.335,1.16565e-10,29.7158,-4.57487e-9,118.217,0
26.5182,205.335,6.21021e-11,29.7158,-8.77843e-10,118.217,0
27.5182,205.335,1.55255e-11,29.7158,-4.38921e-10,118.217,0
28.5182,205.335,3.88138e-12,29.7158,-2.19461e-10,118.217,0
29.5182,205.335,9.70346e-13,29.7158,-1.0973e-10,118.217,0
30.5182,205.335,2.42586e-13,29.7158,-5.48652e-11,118.217,0
31.5182,205.335,6.06466e-14,29.7158,-2.74326e-11,118.217,0
32.5182,205.335,1.51617e-14,29.7158,-1.37163e-11,118.217,0
33.5182,205.335,3.79041e-15,29.7158,-6.85815e-12,118.217,0
34.5182,205.335,9.47603e-16,29.7158,-3.42907e-12,118.217,0
35.5182,205.335,2.36901e-16,29.7158,-1.71454e-12,118.217,0
36.5182,205.335,5.92252e-17,29.7158,-8.57268e-13,118.217,0
37.5182,205.335,1.48063e-17,29.7158,-4.28634e-13,118.217,0
38.5182,205.335,3.70158e-18,29.7158,-2.14317e-13,118.217,0
39.5182,205.335,9.25394e-19,29.7158,-1.07159e-13,118.217,0
40.5182,205.335,2.31348e-19,29.7158,-5.35793e-14,118.217,0
41.5182,205.335,5.78371e-20,29.7158,-2.67896e-14,118.217,0
42.5182,205.335,1.44593e-20,29.7158,-1.33948e-14,118.217,0
43.5182,205.335,3.61482e-21,29.7158,-6.69741e-15,118.217,0
44.5182,205.335,9.03705e-22,29.7158,-3.3487e-15,118.217,0
45.5182,205.335,2.25926e-22,29.7158,-1.67435e-15,118.217,0
46.5182,205.335,5.64816e-23,29.7158,-8.37176e-16,118.217,0
47.5182,205.335,1.41204e-23,29.7158,-4.18588e-16,118.217,0
48.5182,205.335,3.5301e-24,29.7158,-2.09294e-16,118.217,0
49.5182,205.335,8.82524e-25,29.7158,-1.04647e-16,118.217,0
50.5182,205.335,2.20631e-25,29.7158,-5.23235e-17,118.217,0
51.5182,205.335,5.51578e-26,29.7158,-2.61618e-17,118.217,0
52.5182,205.335,1.37894e-26,29.7158,-1.30809e-17,118.217,0
53.5182,205.335,3.44736e-27,29.7158,-6.54044e-18,118.217,0
54.5182,205.335,8.6184e-28,29.7158,-3.27022e-18,118.217,0
55.5182,205.335,2.1546e-28,29.7158,-1.63511e-18,118.217,0
56.5182,205.335,5.3865e-29,29.7158,-8.17555e-19,118.217,0
57.5182,205.335,1.34663e-29,29.7158,-4.08777e-19,118.217,0
58.5182,205.335,3.36656e-30,29.7158,-2.04389e-19,118.217,0
59.5182,205.335,8.41641e-31,29.7158,-1.02194e-19,118.217,0
60.5182,205.335,2.1041e-31,29.7158,-5.10972e-20,118.217,0
61.5182,205.335,5.26026e-32,29.7158,-2.55486e-20,118.217,0
62.5182,205.335,1.31506e-32,29.7158,-1.27743e-20,118.217,0
63.5182,205.335,3.28766e-33,29.7158,-6.38715e-21,118.217,0
64.5182,205.335,8.21915e-34,29.7158,-3.19357e-21,118.217,0
65.5182,205.335,2.05479e-34,29.7158,-1.59679e-21,118.217,0
66.5182,205.335,5.13697e-35,29.7158,-7.98393e-22,118.217,0
67.5182,205.335,1.28424e-35,29.7158,-3.99197e-22,118.217,0
68.5182,205.335,3.21061e-36,29.7158,-1.99598e-22,118.217,0
69.5182,205.335,8.02651e-37,29.7158,-9.97992e-23,118.217,0
70.5182,205.335,2.00663e-37,29.7158,-4.98996e-23,118.217,0
71.5182,205.335,5.01657e-38,29.7158,-2.49498e-23,118.217,0
72.5182,205.335,1.25414e-38,29.7158,-1.24749e-23,118.217,0
73.5182,205.335,3.13536e-39,29.7158,-6.23745e-24,118.217,0
74.5182,205.335,7.83839e-40,29.7158,-3.11872e-24,118.217,0
75.5182,205.335,1.9596e-40,29.7158,-1.55936e-24,118.217,0
76.5182,205.335,4.89899e-41,29.7158,-7.79681e-25,118.217,0
77.5182,205.335,1.22475e-41,29.7158,-3.89841e-25,118.217,0
78.5182,205.335,3.06187e-42,29.7158,-1.9492e-25,118.217,0
79.5182,205.335,7.65468e-43,29.7158,-9.74601e-26,118.217,0
80.5182,205.335,1.91367e-43,29.7158,-4.87301e-26,118.217,0
81.5182,205.335,4.78417e-44,29.7158,-2.4365e-26,118.217,0
82.5182,205.335,1.19604e-44,29.7158,-1.21825e-26,118.217,0
83.5182,205.335,2.99011e-45,29.7158,-6.09126e-27,118.217,0
84.5182,205.335,7.47527e-46,29.7158,-3.04563e-27,118.217,0
85.5182,205.335,1.86882e-46,29.7158,-1.52281e-27,118.217,0
86.5182,205.335,4.67205e-47,29.7158,-7.61407e-28,118.217,0
87.5182,205.335,1.16801e-47,29.7158,-3.80704e-28,118.217,0
88.5182,205.335,2.92003e-48,29.7158,-1.90352e-28,118.217,0
89.5182,205.335,7.30007e-49,29.7158,-9.51759e-29,118.217,0
90.5182,205.335,1.82502e-49,29.7158,-4.7588e-29,118.217,0
91.5182,205.335,4.56254e-50,29.7158,-2.3794e-29,118.217,0
92.5182,205.335,1.14064e-50,29.7158,-1.1897e-29,118.217,0
93.5182,205.335,2.85159e-51,29.7158,-5.94849e-30,118.217,0
94.5182,205.335,7.12898e-52,29.7158,-2.97425e-30,118.217,0
95.5182,205.335,1.78224e-52,29.7158,-1.48712e-30,118.217,0
96.5182,205.335,4.45561e-53,29.7158,-7.43562e-31,118.217,0
97.5182,205.335,1.1139e-53,29.7158,-3.71781e-31,118.217,0
98.5182,205.335,2.78476e-54,29.7158,-1.8589e-31,118.217,0
99.5182,205.335,6.96189e-55,29.7158,-9.29452e-32,118.217,0
100,205.335,2.84693e-55,29.7158,-6.27245e-32,118.217,0
