#Time,F,E,D,C,B,A
0,65.919,12.8541,268.565,119.544,56.3426,1.05814
7.61318e-6,65.9193,12.8538,268.566,119.543,56.3469,1.05383
1.7533e-5,65.9197,12.8534,268.567,119.542,56.3525,1.04823
3.28606e-5,65.9203,12.8528,268.569,119.54,56.3611,1.03964
0.000100743,65.9229,12.8502,268.577,119.532,56.3983,1.00241
0.000208217,65.9271,12.8461,268.59,119.519,56.4545,0.946174
0.000308839,65.9309,12.8422,268.602,119.507,56.5043,0.896383
0.000440512,65.936,12.8371,268.618,119.491,56.5655,0.835165
0.000750095,65.9479,12.8252,268.655,119.454,56.6935,0.707196
0.00105258,65.9596,12.8136,268.691,119.418,56.7996,0.601107
0.00137492,65.972,12.8012,268.729,119.38,56.8952,0.505501
0.00196434,65.9946,12.7786,268.8,119.309,57.0325,0.368229
0.00259908,66.0189,12.7543,268.875,119.234,57.1389,0.261753
0.00327957,66.0449,12.7282,268.956,119.153,57.2192,0.181526
0.00396912,66.0712,12.7019,269.039,119.07,57.2754,0.125261
0.00473051,66.1002,12.673,269.129,118.98,57.3176,0.0831467
0.00551969,66.1301,12.643,269.223,118.886,57.3463,0.0543644
0.00639094,66.1631,12.61,269.327,118.782,57.3667,0.0340021
0.00733159,66.1987,12.5745,269.438,118.671,57.3802,0.0204816
0.00835546,66.2372,12.5359,269.56,118.549,57.3889,0.0117927
0.00952239,66.281,12.4921,269.698,118.411,57.3944,0.00628311
0.0107988,66.3288,12.4443,269.849,118.26,57.3975,0.00315382
0.0122688,66.3836,12.3896,270.023,118.086,57.3993,0.00142436
0.0140125,66.4482,12.3249,270.228,117.881,57.4001,0.000553665
0.0159699,66.5204,12.2528,270.459,117.65,57.4005,0.000191018
0.018542,66.6145,12.1586,270.761,117.348,57.4007,4.60005e-5
0.0215484,66.7237,12.0494,271.113,116.996,57.4007,8.25519e-6
0.0261567,66.8891,11.884,271.651,116.458,57.4007,-6.15261e-7
0.0338322,67.1597,11.6135,272.542,115.567,57.4007,7.0903e-7
0.046731,67.6005,11.1727,274.023,114.086,57.4007,-4.59639e-8
0.0790315,68.6323,10.1408,277.649,110.46,57.4007,1.26742e-7
0.128671,70.0354,8.73776,282.998,105.111,57.4007,-1.90311e-8
0.173878,71.1435,7.62961,287.644,100.465,57.4007,-7.47871e-10
0.220766,72.1447,6.62847,292.246,95.8628,57.4007,9.55237e-10
0.305443,73.6317,5.14147,300.029,88.0796,57.4007,5.52627e-11
0.397609,74.8737,3.89945,307.784,80.3246,57.4007,3.0704e-12
0.489775,75.8157,2.95746,314.857,73.2523,57.4007,9.10212e-14
0.583271,76.539,2.23411,321.395,66.7139,57.4007,-3.04985e-12
0.714789,77.2674,1.50576,329.617,58.4923,57.4007,-3.92031e-13
0.86889,77.8248,0.948378,337.97,50.1388,57.4007,-2.59928e-12
1.00167,78.1363,0.636782,344.204,43.9046,57.4007,-1.47846e-12
1.16402,78.3819,0.391263,350.784,37.3251,57.4007,4.03655e-12
1.34339,78.5447,0.22844,356.913,31.1961,57.4007,3.22538e-11
1.50083,78.6307,0.142447,361.457,26.6518,57.4007,-4.45404e-10
1.70349,78.6956,0.0775581,366.346,21.7626,57.4007,-3.05525e-9
1.91103,78.7315,0.0416157,370.425,17.684,57.4007,-2.28767e-9
2.14994,78.7528,0.0203263,374.183,13.9258,57.4007,-6.07242e-10
2.4031,78.7636,0.00951288,377.298,10.8112,57.4007,-1.29323e-10
2.68701,78.7691,0.00406148,379.97,8.13909,57.4007,-5.74568e-11
3.01613,78.7716,0.00151507,382.252,5.85651,57.4007,6.23762e-10
3.38347,78.7726,0.000505163,384.053,4.05608,57.4007,-7.58455e-11
3.80557,78.773,0.000143602,385.45,2.65946,57.4007,1.60286e-10
4.24006,78.7731,3.92272e-5,386.387,1.72226,57.4007,1.09907e-10
4.67455,78.7731,1.08217e-5,386.994,1.11533,57.4007,-4.09252e-10
5.11292,78.7731,2.91285e-6,387.39,0.719498,57.4007,-1.58263e-9
5.56884,78.7731,7.49787e-7,387.653,0.456064,57.4007,-7.12194e-9
6.04687,78.7731,1.89231e-7,387.826,0.282767,57.4007,-3.90443e-8
6.54771,78.7731,4.02054e-8,387.938,0.171365,57.4007,1.5783e-9
7.10131,78.7731,9.70546e-9,388.01,0.0985165,57.4007,-2.01894e-8
7.67905,78.7731,1.88925e-9,388.054,0.0552866,57.4007,-2.55755e-8
8.3393,78.7731,1.05369e-10,388.08,0.0285706,57.4007,1.53645e-7
9.03044,78.7731,1.81666e-10,388.095,0.0143157,57.4007,1.59623e-6
9.5672,78.7731,2.02102e-11,388.101,0.00837008,57.4007,1.53118e-7
10.0371,78.7731,-2.14267e-11,388.104,0.00523188,57.4007,2.47877e-9
10.6235,78.7731,-6.4163e-12,388.106,0.00291109,57.4007,5.25775e-7
11.5493,78.7731,-4.74993e-11,388.108,0.00115509,57.4007,3.28011e-8
12.5493,78.7731,-8.72075e-13,388.109,0.000425841,57.4007,3.62713e-8
13.5493,78.7731,-1.27756e-11,388.109,0.000157343,57.4007,2.66083e-10
14.5493,78.7731,3.51894e-11,388.109,5.54463e-5,57.4007,3.93168e-10
15.5493,78.7731,-2.74644e-11,388.109,2.20825e-5,57.4007,-7.96353e-10
16.5493,78.7731,3.79454e-11,388.109,6.4541e-6,57.4007,1.01388e-9
17.5493,78.7731,-4.5556e-11,388.109,4.20691e-6,57.4007,4.81845e-10
18.5493,78.7731,3.83483e-11,388.109,6.65071e-7,57.4007,-1.24478e-9
19.5493,78.7731,-3.32071e-12,388.109,1.84153e-7,57.4007,4.3826e-8
20.5493,78.7731,-9.89261e-13,388.109,5.16326e-8,57.4007,-1.72492e-8
21.5493,78.7731,-1.43683e-14,388.109,5.03213e-9,57.4007,-7.95481e-11
22.5493,78.7731,1.03532e-13,388.109,-6.30082e-9,57.4007,9.18184e-12
23.5493,78.7731,2.5883e-14,388.109,-3.15041e-9,57.4007,1.48442e-13
24.5493,78.7731,6.47075e-15,388.109,-1.57521e-9,57.4007,3.40587e-16
25.5493,78.7731,1.61769e-15,388.109,-7.87603e-10,57.4007,5.73778e-18
26.5493,78.7731,4.04422e-16,388.109,-3.93801e-10,57.4007,1.46697e-18
27.5493,78.7731,1.01105e-16,388.109,-1.96901e-10,57.4007,7.29062e-19
28.5493,78.7731,2.52764e-17,388.109,-9.84504e-11,57.4007,3.64503e-19
29.5493,78.7731,6.31909e-18,388.109,-4.92252e-11,57.4007,1.82251e-19
30.5493,78.7731,1.57977e-18,388.109,-2.46126e-11,57.4007,9.11256e-20
31.5493,78.7731,3.94943e-19,388.109,-1.23063e-11,57.4007,4.55628e-20
32.5493,78.7731,9.87358e-20,388.109,-6.15315e-12,57.4007,2.27814e-20
33.5493,78.7731,2.46839e-20,388.109,-3.07657e-12,57.4007,1.13907e-20
34.5493,78.7731,6.17098e-21,388.109,-1.53829e-12,57.4007,5.69535e-21
35.5493,78.7731,1.54275e-21,388.109,-7.69143e-13,57.4007,2.84768e-21
36.5493,78.7731,3.85687e-22,388.109,-3.84572e-13,57.4007,1.42384e-21
37.5493,78.7731,9.64216e-23,388.109,-1.92286e-13,57.4007,7.11919e-22
38.5493,78.7731,2.41054e-23,388.109,-9.61429e-14,57.4007,3.55959e-22
39.5493,78.7731,6.02635e-24,388.109,-4.80715e-14,57.4007,1.7798e-22
40.5493,78.7731,1.50659e-24,388.109,-2.40357e-14,57.4007,8.89898e-23
41.5493,78.7731,3.76647e-25,388.109,-1.20179e-14,57.4007,4.44949e-23
42.5493,78.7731,9.41618e-26,388.109,-6.00893e-15,57.4007,2.22475e-23
43.5493,78.7731,2.35404e-26,388.109,-3.00447e-15,57.4007,1.11237e-23
44.5493,78.7731,5.88511e-27,388.109,-1.50223e-15,57.4007,1.43122e-26
45.5493,78.7731,1.47128e-27,388.109,-7.51117e-16,57.4007,1.84147e-29
46.5493,78.7731,3.67819e-28,388.109,-3.75558e-16,57.4007,2.36931e-32
47.5493,78.7731,9.19548e-29,388.109,-1.87779e-16,57.4007,3.04845e-35
48.5493,78.7731,2.29887e-29,388.109,-9.38896e-17,57.4007,3.92226e-38
49.5493,78.7731,5.74718e-30,388.109,-4.69448e-17,57.4007,5.04654e-41
50.5493,78.7731,1.43679e-30,388.109,-2.34724e-17,57.4007,6.49308e-44
51.5493,78.7731,3.59199e-31,388.109,-1.17362e-17,57.4007,8.35425e-47
52.5493,78.7731,8.97996e-32,388.109,-5.8681e-18,57.4007,1.07491e-49
53.5493,78.7731,2.24499e-32,388.109,-2.93405e-18,57.4007,1.39097e-52
54.5493,78.7731,5.61248e-33,388.109,-1.46702e-18,57.4007,5.76574e-55
55.5493,78.7731,1.40312e-33,388.109,-7.33512e-19,57.4007,1.99545e-55
56.5493,78.7731,3.5078e-34,388.109,-3.66756e-19,57.4007,9.96583e-56
57.5493,78.7731,8.7695e-35,388.109,-1.83378e-19,57.4007,4.9829e-56
58.5493,78.7731,2.19237e-35,388.109,-9.1689e-20,57.4007,2.49145e-56
59.5493,78.7731,5.48094e-36,388.109,-4.58445e-20,57.4007,1.24572e-56
60.5493,78.7731,1.37023e-36,388.109,-2.29223e-20,57.4007,6.22862e-57
61.5493,78.7731,3.42558e-37,388.109,-1.14611e-20,57.4007,3.11431e-57
62.5493,78.7731,8.56396e-38,388.109,-5.73057e-21,57.4007,1.55716e-57
63.5493,78.7731,2.14099e-38,388.109,-2.86528e-21,57.4007,7.78578e-58
64.5493,78.7731,5.35248e-39,388.109,-1.43264e-21,57.4007,3.89289e-58
65.5493,78.7731,1.33812e-39,388.109,-7.16321e-22,57.4007,1.94645e-58
66.5493,78.7731,3.3453e-40,388.109,-3.5816e-22,57.4007,9.73223e-59
67.5493,78.7731,8.36324e-41,388.109,-1.7908e-22,57.4007,4.86611e-59
68.5493,78.7731,2.09081e-41,388.109,-8.95401e-23,57.4007,2.43306e-59
69.5493,78.7731,5.22703e-42,388.109,-4.477e-23,57.4007,1.21653e-59
70.5493,78.7731,1.30676e-42,388.109,-2.2385e-23,57.4007,6.08264e-60
71.5493,78.7731,3.26689e-43,388.109,-1.11925e-23,57.4007,3.04132e-60
72.5493,78.7731,8.16723e-44,388.109,-5.59626e-24,57.4007,1.52066e-60
73.5493,78.7731,2.04181e-44,388.109,-2.79813e-24,57.4007,7.6033e-61
74.5493,78.7731,5.10452e-45,388.109,-1.39906e-24,57.4007,3.80165e-61
75.5493,78.7731,1.27613e-45,388.109,-6.99532e-25,57.4007,1.90083e-61
76.5493,78.7731,3.19032e-46,388.109,-3.49766e-25,57.4007,9.50413e-62
77.5493,78.7731,7.97581e-47,388.109,-1.74883e-25,57.4007,4.75206e-62
78.5493,78.7731,1.99395e-47,388.109,-8.74415e-26,57.4007,2.37603e-62
79.5493,78.7731,4.98488e-48,388.109,-4.37207e-26,57.4007,1.18802e-62
80.5493,78.7731,1.24622e-48,388.109,-2.18604e-26,57.4007,5.94008e-63
81.5493,78.7731,3.11555e-49,388.109,-1.09302e-26,57.4007,2.97004e-63
82.5493,78.7731,7.78888e-50,388.109,-5.46509e-27,57.4007,1.48502e-63
83.5493,78.7731,1.94722e-50,388.109,-2.73255e-27,57.4007,7.4251e-64
84.5493,78.7731,4.86805e-51,388.109,-1.36627e-27,57.4007,3.71255e-64
85.5493,78.7731,1.21701e-51,388.109,-6.83137e-28,57.4007,1.85627e-64
86.5493,78.7731,3.04253e-52,388.109,-3.41568e-28,57.4007,2.38836e-67
87.5493,78.7731,7.60633e-53,388.109,-1.70784e-28,57.4007,3.07296e-70
88.5493,78.7731,1.90158e-53,388.109,-8.53921e-29,57.4007,3.95379e-73
89.5493,78.7731,4.75395e-54,388.109,-4.2696e-29,57.4007,5.08711e-76
90.5493,78.7731,1.18849e-54,388.109,-2.1348e-29,57.4007,6.54528e-79
91.5493,78.7731,2.97122e-55,388.109,-1.0674e-29,57.4007,8.42142e-82
92.5493,78.7731,7.42805e-56,388.109,-5.337e-30,57.4007,1.08353e-84
93.5493,78.7731,1.85701e-56,388.109,-2.6685e-30,57.4007,1.39412e-87
94.5493,78.7731,4.64253e-57,388.109,-1.33425e-30,57.4007,1.79373e-90
95.5493,78.7731,1.16063e-57,388.109,-6.67126e-31,57.4007,2.30788e-93
96.5493,78.7731,2.90158e-58,388.109,-3.33563e-31,57.4007,2.96942e-96
97.5493,78.7731,7.25396e-59,388.109,-1.66781e-31,57.4007,3.82057e-99
98.5493,78.7731,1.81349e-59,388.109,-8.33907e-32,57.4007,4.9157e-102
99.5493,78.7731,4.53372e-60,388.109,-4.16954e-32,57.4007,6.32474e-105
100,78.7731,1.92746e-60,388.109,-2.87411e-32,57.4007,1.80264e-107
