#Time,F,E,D,C,B,A
0,93.2462,54.7698,239.865,69.8513,0,36.343
0,93.2462,54.7698,239.865,69.8513,0.00382125,36.3392
0,93.2463,54.7697,239.865,69.8512,0.0115092,36.3315
0,93.2464,54.7697,239.865,69.8512,0.0191956,36.3238
0,93.2465,54.7696,239.865,69.8512,0.0268804,36.3161
0,93.2465,54.7695,239.865,69.8511,0.0345635,36.3085
0,93.2466,54.7694,239.865,69.8511,0.042245,36.3008
0,93.2467,54.7694,239.865,69.8511,0.0499249,36.2931
0,93.2467,54.7693,239.865,69.851,0.0576031,36.2854
0,93.2468,54.7692,239.865,69.851,0.0652798,36.2777
0,93.2469,54.7692,239.865,69.851,0.0729548,36.2701
0,93.247,54.7691,239.865,69.851,0.0806281,36.2624
0,93.247,54.769,239.865,69.8509,0.0882999,36.2547
0,93.2471,54.7689,239.865,69.8509,0.09597,36.247
0,93.2472,54.7689,239.865,69.8509,0.103639,36.2394
0,93.2473,54.7688,239.865,69.8508,0.111305,36.2317
0,93.2473,54.7687,239.865,69.8508,0.118971,36.224
0,93.2474,54.7686,239.865,69.8508,0.126634,36.2164
0,93.2475,54.7686,239.865,69.8507,0.134296,36.2087
0,93.2475,54.7685,239.865,69.8507,0.141957,36.2011
0,93.2476,54.7684,239.865,69.8507,0.149616,36.1934
0,93.2477,54.7684,239.865,69.8506,0.157273,36.1857
0,93.2478,54.7683,239.865,69.8506,0.164928,36.1781
0,93.2478,54.7682,239.865,69.8506,0.172582,36.1704
0,93.2479,54.7681,239.866,69.8506,0.180235,36.1628
0,93.248,54.7681,239.866,69.8505,0.187885,36.1551
0,93.248,54.768,239.866,69.8505,0.195534,36.1475
0,93.2481,54.7679,239.866,69.8505,0.203182,36.1398
0,93.2482,54.7678,239.866,69.8504,0.210828,36.1322
0,93.2483,54.7678,239.866,69.8504,0.218472,36.1245
0,93.2483,54.7677,239.866,69.8504,0.226115,36.1169
0,93.2484,54.7676,239.866,69.8503,0.233756,36.1093
0,93.2485,54.7676,239.866,69.8503,0.241395,36.1016
0,93.2486,54.7675,239.866,69.8503,0.249033,36.094
0,93.2486,54.7674,239.866,69.8502,0.256669,36.0864
0,93.2487,54.7673,239.866,69.8502,0.264303,36.0787
0,93.2488,54.7673,239.866,69.8502,0.271936,36.0711
0,93.2488,54.7672,239.866,69.8502,0.279568,36.0635
0,93.2489,54.7671,239.866,69.8501,0.287197,36.0558
0,93.249,54.767,239.866,69.8501,0.294825,36.0482
0,93.2491,54.767,239.866,69.8501,0.302452,36.0406
0,93.2491,54.7669,239.866,69.85,0.310077,36.0329
0,93.2492,54.7668,239.866,69.85,0.3177,36.0253
0,93.2493,54.7668,239.866,69.85,0.325322,36.0177
0,93.2494,54.7667,239.866,69.8499,0.332942,36.0101
0,93.2494,54.7666,239.866,69.8499,0.34056,36.0025
0,93.2495,54.7665,239.866,69.8499,0.348177,35.9948
0,93.2496,54.7665,239.866,69.8498,0.355792,35.9872
0,93.2496,54.7664,239.866,69.8498,0.363406,35.9796
0,93.2497,54.7663,239.866,69.8498,0.371018,35.972
0,93.2498,54.7663,239.866,69.8498,0.378628,35.9644
0,93.2499,54.7662,239.866,69.8497,0.386237,35.9568
0,93.2499,54.7661,239.866,69.8497,0.393844,35.9492
0,93.25,54.766,239.866,69.8497,0.401449,35.9416
0,93.2501,54.766,239.866,69.8496,0.409053,35.934
0,93.2501,54.7659,239.866,69.8496,0.416656,35.9264
0,93.2502,54.7658,239.867,69.8496,0.424256,35.9188
0,93.2503,54.7657,239.867,69.8495,0.431856,35.9112
0,93.2504,54.7657,239.867,69.8495,0.439453,35.9036
0,93.2504,54.7656,239.867,69.8495,0.447049,35.896
0,93.2505,54.7655,239.867,69.8494,0.454643,35.8884
0,93.2506,54.7655,239.867,69.8494,0.462236,35.8808
0,93.2507,54.7654,239.867,69.8494,0.469827,35.8732
0,93.2507,54.7653,239.867,69.8494,0.477416,35.8656
0,93.2508,54.7652,239.867,69.8493,0.485004,35.858
0,93.2509,54.7652,239.867,69.8493,0.492591,35.8504
0,93.2509,54.7651,239.867,69.8493,0.500175,35.8428
0,93.251,54.765,239.867,69.8492,0.507758,35.8353
0,93.2511,54.7649,239.867,69.8492,0.51534,35.8277
0,93.2512,54.7649,239.867,69.8492,0.52292,35.8201
0,93.2512,54.7648,239.867,69.8491,0.530498,35.8125
0,93.2513,54.7647,239.867,69.8491,0.538074,35.8049
0,93.2514,54.7647,239.867,69.8491,0.545649,35.7974
0,93.2515,54.7646,239.867,69.849,0.553223,35.7898
0,93.2515,54.7645,239.867,69.849,0.560795,35.7822
0,93.2516,54.7644,239.867,69.849,0.568365,35.7747
0,93.2517,54.7644,239.867,69.849,0.575934,35.7671
0,93.2517,54.7643,239.867,69.8489,0.583501,35.7595
0,93.2518,54.7642,239.867,69.8489,0.591066,35.752
0,93.2519,54.7642,239.867,69.8489,0.59863,35.7444
0,93.252,54.7641,239.867,69.8488,0.606192,35.7368
0,93.2521,54.764,239.867,69.8488,0.615836,35.7272
0,93.2521,54.7639,239.867,69.8488,0.625476,35.7175
0,93.2522,54.7638,239.867,69.8487,0.635114,35.7079
0,93.2523,54.7637,239.867,69.8487,0.64475,35.6983
0,93.2524,54.7636,239.867,69.8486,0.654383,35.6886
0,93.2525,54.7635,239.867,69.8486,0.664013,35.679
0,93.2526,54.7634,239.868,69.8486,0.673641,35.6694
0,93.2527,54.7633,239.868,69.8485,0.683266,35.6598
0,93.2528,54.7632,239.868,69.8485,0.692889,35.6501
0,93.2529,54.7632,239.868,69.8484,0.702509,35.6405
0,93.253,54.7631,239.868,69.8484,0.712126,35.6309
0,93.2531,54.763,239.868,69.8484,0.721741,35.6213
0,93.2532,54.7629,239.868,69.8483,0.731353,35.6117
0,93.2533,54.7628,239.868,69.8483,0.740963,35.6021
0,93.2533,54.7627,239.868,69.8482,0.75057,35.5924
0,93.2534,54.7626,239.868,69.8482,0.760174,35.5828
0,93.2535,54.7625,239.868,69.8482,0.769776,35.5732
0,93.2536,54.7624,239.868,69.8481,0.779376,35.5636
0,93.2537,54.7623,239.868,69.8481,0.788972,35.554
0,93.2538,54.7622,239.868,69.848,0.798566,35.5445
0,93.2539,54.7621,239.868,69.848,0.808158,35.5349
0,93.254,54.762,239.868,69.848,0.817747,35.5253
0,93.2541,54.762,239.868,69.8479,0.827333,35.5157
0,93.2542,54.7619,239.868,69.8479,0.836917,35.5061
0,93.2543,54.7618,239.868,69.8478,0.846498,35.4965
0,93.2544,54.7617,239.868,69.8478,0.856077,35.4869
0,93.2545,54.7616,239.868,69.8478,0.865652,35.4774
0,93.2545,54.7615,239.868,69.8477,0.875226,35.4678
0,93.2546,54.7614,239.868,69.8477,0.884797,35.4582
0,93.2547,54.7613,239.868,69.8477,0.894365,35.4487
0,93.2548,54.7612,239.868,69.8476,0.903931,35.4391
0,93.2549,54.7611,239.869,69.8476,0.913494,35.4295
0,93.255,54.761,239.869,69.8475,0.923054,35.42
0,93.2551,54.7609,239.869,69.8475,0.932612,35.4104
0,93.2552,54.7608,239.869,69.8475,0.942167,35.4009
0,93.2553,54.7608,239.869,69.8474,0.95172,35.3913
0,93.2554,54.7607,239.869,69.8474,0.96127,35.3817
0,93.2555,54.7606,239.869,69.8473,0.970818,35.3722
0,93.2556,54.7605,239.869,69.8473,0.980363,35.3627
0,93.2557,54.7604,239.869,69.8473,0.989906,35.3531
0,93.2558,54.7603,239.869,69.8472,0.999445,35.3436
0,93.2558,54.7602,239.869,69.8472,1.00898,35.334
0,93.2559,54.7601,239.869,69.8471,1.01852,35.3245
0,93.256,54.76,239.869,69.8471,1.02805,35.315
0,93.2561,54.7599,239.869,69.8471,1.03758,35.3054
0,93.2562,54.7598,239.869,69.847,1.04711,35.2959
0,93.2563,54.7597,239.869,69.847,1.05663,35.2864
0,93.2564,54.7596,239.869,69.8469,1.06615,35.2769
0,93.2565,54.7595,239.869,69.8469,1.07567,35.2673
0,93.2566,54.7595,239.869,69.8469,1.08519,35.2578
0,93.2567,54.7594,239.869,69.8468,1.0947,35.2483
0,93.2568,54.7593,239.869,69.8468,1.10421,35.2388
0,93.2569,54.7592,239.869,69.8467,1.11372,35.2293
0,93.257,54.7591,239.869,69.8467,1.12323,35.2198
0,93.257,54.759,239.869,69.8467,1.13273,35.2103
0,93.2571,54.7589,239.869,69.8466,1.14224,35.2008
0,93.2572,54.7588,239.869,69.8466,1.15173,35.1913
0,93.2573,54.7587,239.87,69.8466,1.16123,35.1818
0,93.2574,54.7586,239.87,69.8465,1.17072,35.1723
0,93.2575,54.7585,239.87,69.8465,1.18022,35.1628
0,93.2576,54.7584,239.87,69.8464,1.1897,35.1533
0,93.2577,54.7583,239.87,69.8464,1.19919,35.1438
0,93.2578,54.7583,239.87,69.8464,1.20867,35.1343
0,93.2579,54.7582,239.87,69.8463,1.21815,35.1249
0,93.258,54.7581,239.87,69.8463,1.22763,35.1154
0,93.2581,54.758,239.87,69.8462,1.23711,35.1059
0,93.2582,54.7579,239.87,69.8462,1.24658,35.0964
0,93.2582,54.7578,239.87,69.8462,1.25605,35.087
0,93.2583,54.7577,239.87,69.8461,1.26552,35.0775
0,93.2584,54.7576,239.87,69.8461,1.27499,35.068
0,93.2585,54.7575,239.87,69.846,1.28445,35.0586
0,93.2586,54.7574,239.87,69.846,1.29391,35.0491
0,93.2587,54.7573,239.87,69.846,1.30337,35.0397
0,93.2588,54.7572,239.87,69.8459,1.31282,35.0302
0,93.2589,54.7571,239.87,69.8459,1.32228,35.0207
0,93.259,54.7571,239.87,69.8458,1.33173,35.0113
0,93.2591,54.757,239.87,69.8458,1.34117,35.0018
0,93.2592,54.7569,239.87,69.8458,1.35062,34.9924
0,93.2593,54.7568,239.87,69.8457,1.36006,34.983
0,93.2594,54.7567,239.87,69.8457,1.3695,34.9735
0,93.2594,54.7566,239.87,69.8456,1.37894,34.9641
0,93.2595,54.7565,239.87,69.8456,1.38837,34.9546
0,93.2596,54.7564,239.871,69.8456,1.39781,34.9452
0,93.2597,54.7563,239.871,69.8455,1.40724,34.9358
0,93.2598,54.7562,239.871,69.8455,1.41666,34.9264
0,93.2599,54.7561,239.871,69.8455,1.42609,34.9169
0,93.26,54.756,239.871,69.8454,1.43551,34.9075
0,93.2601,54.7559,239.871,69.8454,1.44493,34.8981
0,93.2602,54.7559,239.871,69.8453,1.45435,34.8887
0,93.2603,54.7558,239.871,69.8453,1.46376,34.8793
0,93.2604,54.7557,239.871,69.8453,1.47317,34.8698
0,93.2605,54.7556,239.871,69.8452,1.48258,34.8604
0,93.2606,54.7555,239.871,69.8452,1.49199,34.851
0,93.2606,54.7554,239.871,69.8451,1.5014,34.8416
0,93.2607,54.7553,239.871,69.8451,1.5108,34.8322
0,93.2608,54.7552,239.871,69.8451,1.5202,34.8228
0,93.2609,54.7551,239.871,69.845,1.52959,34.8134
0,93.261,54.755,239.871,69.845,1.53899,34.804
0,93.2611,54.7549,239.871,69.8449,1.55095,34.7921
0,93.2613,54.7548,239.871,69.8449,1.56291,34.7801
0,93.2614,54.7547,239.871,69.8448,1.57487,34.7682
0,93.2615,54.7545,239.871,69.8448,1.58682,34.7562
0,93.2616,54.7544,239.871,69.8447,1.59877,34.7443
0,93.2617,54.7543,239.871,69.8447,1.61071,34.7323
0,93.2618,54.7542,239.871,69.8446,1.62265,34.7204
0,93.262,54.7541,239.872,69.8446,1.63459,34.7084
0,93.2621,54.754,239.872,69.8445,1.64652,34.6965
0,93.2622,54.7538,239.872,69.8445,1.65845,34.6846
0,93.2623,54.7537,239.872,69.8444,1.67037,34.6727
0,93.2624,54.7536,239.872,69.8444,1.68229,34.6607
0,93.2626,54.7535,239.872,69.8443,1.6942,34.6488
0,93.2627,54.7534,239.872,69.8443,1.70611,34.6369
0,93.2628,54.7533,239.872,69.8442,1.71802,34.625
0,93.2629,54.7531,239.872,69.8442,1.72992,34.6131
0,93.263,54.753,239.872,69.8441,1.74182,34.6012
0,93.2631,54.7529,239.872,69.8441,1.75372,34.5893
0,93.2633,54.7528,239.872,69.844,1.76561,34.5774
0,93.2634,54.7527,239.872,69.844,1.77749,34.5655
0,93.2635,54.7525,239.872,69.8439,1.78938,34.5536
0,93.2636,54.7524,239.872,69.8439,1.80125,34.5418
0,93.2637,54.7523,239.872,69.8438,1.81313,34.5299
0,93.2638,54.7522,239.872,69.8438,1.825,34.518
0,93.264,54.7521,239.872,69.8437,1.83686,34.5062
0,93.2641,54.752,239.872,69.8437,1.84873,34.4943
0,93.2642,54.7518,239.872,69.8436,1.86058,34.4824
0,93.2643,54.7517,239.873,69.8436,1.87244,34.4706
0,93.2644,54.7516,239.873,69.8435,1.88429,34.4587
0,93.2646,54.7515,239.873,69.8435,1.89613,34.4469
0,93.2647,54.7514,239.873,69.8434,1.90797,34.435
0,93.2648,54.7513,239.873,69.8434,1.91981,34.4232
0,93.2649,54.7511,239.873,69.8433,1.93165,34.4114
0,93.265,54.751,239.873,69.8433,1.94347,34.3995
0,93.2651,54.7509,239.873,69.8432,1.9553,34.3877
0,93.2653,54.7508,239.873,69.8432,1.96712,34.3759
0,93.2654,54.7507,239.873,69.8431,1.97894,34.3641
0,93.2655,54.7505,239.873,69.8431,1.99075,34.3523
0,93.2656,54.7504,239.873,69.843,2.00256,34.3405
0,93.2657,54.7503,239.873,69.843,2.01437,34.3287
0,93.2658,54.7502,239.873,69.8429,2.02617,34.3169
0,93.266,54.7501,239.873,69.8429,2.03796,34.3051
0,93.2661,54.75,239.873,69.8428,2.04976,34.2933
0,93.2662,54.7498,239.873,69.8428,2.06154,34.2815
0,93.2663,54.7497,239.873,69.8427,2.07333,34.2697
0,93.2664,54.7496,239.873,69.8427,2.08511,34.2579
0,93.2666,54.7495,239.873,69.8426,2.09689,34.2461
0,93.2667,54.7494,239.874,69.8426,2.10866,34.2344
0,93.2668,54.7493,239.874,69.8425,2.12043,34.2226
0,93.2669,54.7491,239.874,69.8425,2.13219,34.2108
0,93.267,54.749,239.874,69.8424,2.14395,34.1991
0,93.2671,54.7489,239.874,69.8424,2.15571,34.1873
0,93.2673,54.7488,239.874,69.8423,2.16746,34.1756
0,93.2674,54.7487,239.874,69.8423,2.17921,34.1638
0,93.2675,54.7485,239.874,69.8422,2.19095,34.1521
0,93.2676,54.7484,239.874,69.8422,2.20269,34.1403
0,93.2677,54.7483,239.874,69.8421,2.21443,34.1286
0,93.2678,54.7482,239.874,69.8421,2.22616,34.1169
0,93.268,54.7481,239.874,69.842,2.23789,34.1051
0,93.2681,54.748,239.874,69.842,2.24962,34.0934
0,93.2682,54.7478,239.874,69.8419,2.26134,34.0817
0,93.2683,54.7477,239.874,69.8419,2.27305,34.07
0,93.2684,54.7476,239.874,69.8418,2.28476,34.0583
0,93.2686,54.7475,239.874,69.8418,2.29647,34.0465
0,93.2687,54.7474,239.874,69.8417,2.30818,34.0348
0,93.2688,54.7472,239.874,69.8417,2.31988,34.0231
0,93.2689,54.7471,239.874,69.8416,2.33157,34.0114
0,93.269,54.747,239.875,69.8416,2.34326,33.9998
0,93.2691,54.7469,239.875,69.8415,2.35495,33.9881
0,93.2693,54.7468,239.875,69.8415,2.36664,33.9764
0,93.2694,54.7467,239.875,69.8414,2.37832,33.9647
0,93.2695,54.7465,239.875,69.8414,2.38999,33.953
0,93.2696,54.7464,239.875,69.8413,2.40166,33.9414
0,93.2697,54.7463,239.875,69.8413,2.41333,33.9297
0,93.2698,54.7462,239.875,69.8412,2.42499,33.918
0,93.27,54.7461,239.875,69.8412,2.43665,33.9064
0,93.2701,54.746,239.875,69.8411,2.44831,33.8947
0,93.2702,54.7458,239.875,69.8411,2.45996,33.8831
0,93.2703,54.7457,239.875,69.841,2.47161,33.8714
0,93.2704,54.7456,239.875,69.841,2.48325,33.8598
0,93.2706,54.7455,239.875,69.8409,2.49489,33.8481
0,93.2707,54.7454,239.875,69.8409,2.50653,33.8365
0,93.2708,54.7452,239.875,69.8408,2.51816,33.8249
0,93.2709,54.7451,239.875,69.8408,2.52979,33.8132
0,93.271,54.745,239.875,69.8407,2.54141,33.8016
0,93.2711,54.7449,239.875,69.8407,2.55303,33.79
0,93.2713,54.7448,239.875,69.8406,2.56465,33.7784
0,93.2714,54.7447,239.876,69.8406,2.57626,33.7668
0,93.2715,54.7445,239.876,69.8405,2.58787,33.7552
0,93.2716,54.7444,239.876,69.8405,2.59947,33.7435
0,93.2717,54.7443,239.876,69.8404,2.61107,33.7319
0,93.2719,54.7442,239.876,69.8404,2.62267,33.7204
0,93.272,54.7441,239.876,69.8403,2.63426,33.7088
0,93.2721,54.744,239.876,69.8403,2.64585,33.6972
0,93.2722,54.7438,239.876,69.8402,2.65743,33.6856
0,93.2723,54.7437,239.876,69.8402,2.66901,33.674
0,93.2724,54.7436,239.876,69.8401,2.68059,33.6624
0,93.2726,54.7435,239.876,69.8401,2.69216,33.6509
0,93.2727,54.7434,239.876,69.84,2.70373,33.6393
0,93.2728,54.7432,239.876,69.84,2.71529,33.6277
0,93.2729,54.7431,239.876,69.8399,2.72685,33.6162
0,93.273,54.743,239.876,69.8399,2.73841,33.6046
0,93.2731,54.7429,239.876,69.8398,2.74996,33.5931
0,93.2733,54.7428,239.876,69.8398,2.76151,33.5815
0,93.2734,54.7427,239.876,69.8397,2.77305,33.57
0,93.2735,54.7425,239.876,69.8397,2.78459,33.5584
0,93.2736,54.7424,239.876,69.8396,2.79613,33.5469
0,93.2737,54.7423,239.877,69.8396,2.80766,33.5354
0,93.2739,54.7422,239.877,69.8395,2.81919,33.5238
0,93.274,54.7421,239.877,69.8395,2.83072,33.5123
0,93.2741,54.742,239.877,69.8394,2.84224,33.5008
0,93.2742,54.7418,239.877,69.8394,2.85375,33.4893
0,93.2743,54.7417,239.877,69.8393,2.86526,33.4778
0,93.2744,54.7416,239.877,69.8393,2.87677,33.4662
0,93.2746,54.7415,239.877,69.8392,2.88828,33.4547
0,93.2747,54.7414,239.877,69.8392,2.89978,33.4432
0,93.2748,54.7412,239.877,69.8391,2.91128,33.4317
0,93.2749,54.7411,239.877,69.8391,2.92277,33.4203
0,93.275,54.741,239.877,69.839,2.93426,33.4088
0,93.2751,54.7409,239.877,69.839,2.94574,33.3973
0,93.2753,54.7408,239.877,69.8389,2.95722,33.3858
0,93.2754,54.7406,239.877,69.8389,2.97185,33.3712
0,93.2756,54.7405,239.877,69.8388,2.98647,33.3565
0,93.2757,54.7403,239.877,69.8387,3.00109,33.3419
0,93.2759,54.7402,239.877,69.8387,3.01569,33.3273
0,93.276,54.74,239.877,69.8386,3.0303,33.3127
0,93.2762,54.7399,239.878,69.8385,3.04489,33.2981
0,93.2763,54.7397,239.878,69.8385,3.05948,33.2835
0,93.2765,54.7396,239.878,69.8384,3.07406,33.269
0,93.2766,54.7394,239.878,69.8383,3.08864,33.2544
0,93.2768,54.7393,239.878,69.8383,3.10321,33.2398
0,93.2769,54.7391,239.878,69.8382,3.11778,33.2252
0,93.2771,54.739,239.878,69.8382,3.13233,33.2107
0,93.2772,54.7388,239.878,69.8381,3.14688,33.1961
0,93.2774,54.7387,239.878,69.838,3.16143,33.1816
0,93.2775,54.7385,239.878,69.838,3.17597,33.1671
0,93.2777,54.7384,239.878,69.8379,3.1905,33.1525
0,93.2778,54.7382,239.878,69.8378,3.20502,33.138
0,93.278,54.7381,239.878,69.8378,3.21954,33.1235
0,93.2781,54.7379,239.878,69.8377,3.23406,33.109
0,93.2783,54.7378,239.878,69.8376,3.24856,33.0945
0,93.2784,54.7376,239.878,69.8376,3.26306,33.08
0,93.2786,54.7375,239.879,69.8375,3.27756,33.0655
0,93.2787,54.7373,239.879,69.8375,3.29204,33.051
0,93.2789,54.7372,239.879,69.8374,3.30652,33.0365
0,93.279,54.737,239.879,69.8373,3.321,33.022
0,93.2792,54.7369,239.879,69.8373,3.33547,33.0076
0,93.2793,54.7367,239.879,69.8372,3.34993,32.9931
0,93.2795,54.7366,239.879,69.8371,3.36439,32.9786
0,93.2796,54.7364,239.879,69.8371,3.37884,32.9642
0,93.2798,54.7363,239.879,69.837,3.39328,32.9497
0,93.2799,54.7361,239.879,69.8369,3.40771,32.9353
0,93.2801,54.736,239.879,69.8369,3.42215,32.9209
0,93.2802,54.7358,239.879,69.8368,3.43657,32.9065
0,93.2804,54.7357,239.879,69.8368,3.45099,32.892
0,93.2805,54.7355,239.879,69.8367,3.4654,32.8776
0,93.2807,54.7354,239.879,69.8366,3.4798,32.8632
0,93.2808,54.7352,239.88,69.8366,3.4942,32.8488
0,93.281,54.7351,239.88,69.8365,3.5086,32.8344
0,93.2811,54.7349,239.88,69.8364,3.52298,32.82
0,93.2813,54.7348,239.88,69.8364,3.53736,32.8057
0,93.2814,54.7346,239.88,69.8363,3.55173,32.7913
0,93.2816,54.7345,239.88,69.8362,3.5661,32.7769
0,93.2817,54.7343,239.88,69.8362,3.58046,32.7626
0,93.2819,54.7342,239.88,69.8361,3.59482,32.7482
0,93.282,54.734,239.88,69.8361,3.60917,32.7339
0,93.2822,54.7339,239.88,69.836,3.62351,32.7195
0,93.2823,54.7337,239.88,69.8359,3.63784,32.7052
0,93.2825,54.7336,239.88,69.8359,3.65217,32.6908
0,93.2826,54.7334,239.88,69.8358,3.6665,32.6765
0,93.2828,54.7333,239.88,69.8357,3.68081,32.6622
0,93.2829,54.7331,239.88,69.8357,3.69513,32.6479
0,93.2831,54.733,239.88,69.8356,3.70943,32.6336
0,93.2832,54.7328,239.881,69.8355,3.72373,32.6193
0,93.2834,54.7327,239.881,69.8355,3.73802,32.605
0,93.2835,54.7325,239.881,69.8354,3.75231,32.5907
0,93.2837,54.7324,239.881,69.8353,3.76659,32.5764
0,93.2838,54.7322,239.881,69.8353,3.78086,32.5622
0,93.284,54.7321,239.881,69.8352,3.79513,32.5479
0,93.2841,54.7319,239.881,69.8352,3.80939,32.5336
0,93.2843,54.7318,239.881,69.8351,3.82364,32.5194
0,93.2844,54.7316,239.881,69.835,3.83789,32.5051
0,93.2846,54.7315,239.881,69.835,3.85213,32.4909
0,93.2847,54.7313,239.881,69.8349,3.86637,32.4767
0,93.2849,54.7312,239.881,69.8348,3.8806,32.4624
0,93.285,54.731,239.881,69.8348,3.89482,32.4482
0,93.2852,54.7309,239.881,69.8347,3.90904,32.434
0,93.2853,54.7307,239.881,69.8346,3.92325,32.4198
0,93.2855,54.7306,239.881,69.8346,3.93745,32.4056
0,93.2856,54.7304,239.882,69.8345,3.95165,32.3914
0,93.2858,54.7303,239.882,69.8345,3.96584,32.3772
0,93.2859,54.7301,239.882,69.8344,3.98003,32.363
0,93.2861,54.73,239.882,69.8343,3.99421,32.3488
0,93.2862,54.7298,239.882,69.8343,4.00838,32.3346
0,93.2864,54.7297,239.882,69.8342,4.02255,32.3205
0,93.2865,54.7295,239.882,69.8341,4.03671,32.3063
0,93.2867,54.7294,239.882,69.8341,4.05087,32.2922
0,93.2868,54.7292,239.882,69.834,4.06502,32.278
0,93.287,54.7291,239.882,69.8339,4.07916,32.2639
0,93.2871,54.7289,239.882,69.8339,4.09329,32.2497
0,93.2873,54.7288,239.882,69.8338,4.10742,32.2356
0,93.2874,54.7286,239.882,69.8338,4.12155,32.2215
0,93.2876,54.7285,239.882,69.8337,4.13567,32.2074
0,93.2877,54.7283,239.882,69.8336,4.14978,32.1932
0,93.2879,54.7282,239.883,69.8336,4.16388,32.1791
0,93.288,54.728,239.883,69.8335,4.17798,32.165
0,93.2882,54.7279,239.883,69.8334,4.19208,32.1509
0,93.2883,54.7277,239.883,69.8334,4.20616,32.1369
0,93.2885,54.7276,239.883,69.8333,4.22024,32.1228
0,93.2886,54.7274,239.883,69.8332,4.23432,32.1087
0,93.2888,54.7273,239.883,69.8332,4.24839,32.0946
0,93.2889,54.7271,239.883,69.8331,4.26245,32.0806
0,93.2891,54.727,239.883,69.8331,4.27651,32.0665
0,93.2892,54.7268,239.883,69.833,4.29056,32.0525
0,93.2894,54.7267,239.883,69.8329,4.3046,32.0384
0,93.2895,54.7265,239.883,69.8329,4.31864,32.0244
0,93.2897,54.7264,239.883,69.8328,4.33267,32.0104
0,93.2898,54.7262,239.883,69.8327,4.34669,31.9963
0,93.29,54.7261,239.883,69.8327,4.36071,31.9823
0,93.2901,54.7259,239.883,69.8326,4.37473,31.9683
0,93.2903,54.7258,239.884,69.8325,4.38873,31.9543
0,93.2904,54.7256,239.884,69.8325,4.40273,31.9403
0,93.2906,54.7255,239.884,69.8324,4.41673,31.9263
0,93.2907,54.7253,239.884,69.8323,4.43072,31.9123
0,93.2909,54.7252,239.884,69.8323,4.4447,31.8983
0,93.291,54.725,239.884,69.8322,4.45868,31.8843
0,93.2912,54.7249,239.884,69.8322,4.47265,31.8704
0,93.2913,54.7247,239.884,69.8321,4.48661,31.8564
0,93.2915,54.7246,239.884,69.832,4.50057,31.8425
0,93.2916,54.7244,239.884,69.832,4.51452,31.8285
0,93.2918,54.7243,239.884,69.8319,4.52847,31.8146
0,93.2919,54.7241,239.884,69.8318,4.54241,31.8006
0,93.2921,54.724,239.884,69.8318,4.55634,31.7867
0,93.2922,54.7238,239.884,69.8317,4.57027,31.7728
0,93.2924,54.7237,239.884,69.8316,4.58419,31.7588
0,93.2925,54.7235,239.884,69.8316,4.5981,31.7449
0,93.2927,54.7234,239.885,69.8315,4.61201,31.731
0,93.2928,54.7232,239.885,69.8315,4.62592,31.7171
0,93.293,54.7231,239.885,69.8314,4.63981,31.7032
0,93.2931,54.7229,239.885,69.8313,4.6537,31.6893
0,93.2933,54.7228,239.885,69.8313,4.66759,31.6754
0,93.2934,54.7226,239.885,69.8312,4.68147,31.6616
0,93.2936,54.7225,239.885,69.8311,4.69534,31.6477
0,93.2937,54.7223,239.885,69.8311,4.70921,31.6338
0,93.2939,54.7222,239.885,69.831,4.72307,31.62
0,93.294,54.722,239.885,69.8309,4.73692,31.6061
0,93.2942,54.7219,239.885,69.8309,4.75077,31.5923
0,93.2943,54.7217,239.885,69.8308,4.76461,31.5784
0,93.2945,54.7216,239.885,69.8308,4.77845,31.5646
0,93.2946,54.7214,239.885,69.8307,4.79228,31.5507
0,93.2948,54.7213,239.885,69.8306,4.8061,31.5369
0,93.2949,54.7211,239.886,69.8306,4.81992,31.5231
0,93.2951,54.721,239.886,69.8305,4.83373,31.5093
0,93.2952,54.7208,239.886,69.8304,4.84754,31.4955
0,93.2954,54.7207,239.886,69.8304,4.86134,31.4817
0,93.2955,54.7205,239.886,69.8303,4.87513,31.4679
0,93.2957,54.7204,239.886,69.8302,4.88892,31.4541
0,93.2958,54.7202,239.886,69.8302,4.9027,31.4403
0,93.296,54.7201,239.886,69.8301,4.91648,31.4265
0,93.2961,54.7199,239.886,69.8301,4.93025,31.4128
0,93.2963,54.7198,239.886,69.83,4.94401,31.399
0,93.2964,54.7196,239.886,69.8299,4.95777,31.3853
0,93.2966,54.7195,239.886,69.8299,4.97152,31.3715
0,93.2967,54.7193,239.886,69.8298,4.98527,31.3578
0,93.2969,54.7192,239.886,69.8297,4.99901,31.344
0,93.297,54.719,239.886,69.8297,5.01274,31.3303
3.2419e-6,93.2975,54.7185,239.887,69.8294,5.06142,31.2816
6.73426e-6,93.2981,54.7179,239.887,69.8292,5.11377,31.2292
1.21584e-5,93.299,54.717,239.887,69.8288,5.19493,31.1481
3.94686e-5,93.3035,54.7125,239.889,69.8269,5.6004,30.7426
0.000100816,93.3136,54.7025,239.893,69.8226,6.4921,29.8509
0.000162163,93.3236,54.6924,239.898,69.8183,7.35795,28.9851
0.000240274,93.3364,54.6796,239.903,69.8129,8.42415,27.9189
0.000462542,93.3729,54.6431,239.919,69.7974,11.2483,25.0947
0.00069761,93.4114,54.6046,239.935,69.781,13.9251,22.4179
0.000958341,93.4541,54.5619,239.953,69.7628,16.5617,19.7813
0.00123159,93.4988,54.5172,239.972,69.7437,18.9929,17.3502
0.00151111,93.5445,54.4715,239.992,69.7242,21.1711,15.1719
0.00179062,93.5902,54.4259,240.011,69.7047,23.076,13.267
0.00222278,93.6607,54.3554,240.041,69.6746,25.5616,10.7814
0.00277992,93.7515,54.2646,240.08,69.6358,28.0921,8.25091
0.00333705,93.8421,54.174,240.119,69.597,30.0289,6.31408
0.00389419,93.9326,54.0835,240.158,69.5583,31.5113,4.8317
0.00463725,94.053,53.9631,240.209,69.5066,32.9617,3.38131
0.00540518,94.1772,53.8389,240.263,69.4532,34.005,2.338
0.00629574,94.3208,53.6952,240.325,69.3914,34.8191,1.52396
0.00726347,94.4765,53.5396,240.392,69.3243,35.386,0.95706
0.00814654,94.6181,53.3979,240.453,69.2631,35.7171,0.625937
0.00915899,94.7801,53.236,240.523,69.193,35.9584,0.384638
0.0103181,94.9649,53.0512,240.603,69.1129,36.1228,0.220215
0.011364,95.1311,52.885,240.675,69.0406,36.2099,0.133122
0.0125903,95.3253,52.6908,240.76,68.956,36.2693,0.0737694
0.0140297,95.5523,52.4637,240.859,68.8568,36.3061,0.0368833
0.0153537,95.7603,52.2558,240.95,68.7657,36.3235,0.0194899
0.0169947,96.0169,51.9991,241.063,68.653,36.3342,0.00883994
0.0187589,96.2914,51.7247,241.184,68.532,36.3392,0.0037753
0.0208082,96.6084,51.4076,241.324,68.3917,36.3416,0.00140695
0.0232328,96.981,51.0351,241.49,68.226,36.3426,0.000437529
0.0259555,97.3961,50.6199,241.676,68.0405,36.3429,0.000118817
0.0296128,97.9485,50.0675,241.924,67.7921,36.343,2.23993e-5
0.0335148,98.5312,49.4849,242.188,67.5281,36.343,3.01678e-6
0.0396576,99.4347,48.5813,242.601,67.1146,36.343,1.92293e-6
0.0461819,100.376,47.6397,243.038,66.6781,36.343,-2.44728e-7
0.0548248,101.596,46.4203,243.612,66.1043,36.343,-1.11811e-7
0.069061,103.537,44.4795,244.546,65.1699,36.343,1.48821e-6
0.0820925,105.242,42.7741,245.39,64.3262,36.343,-1.45389e-7
0.0963165,107.029,40.9873,246.298,63.4177,36.343,-3.44579e-7
0.116697,109.46,38.5564,247.578,62.1383,36.343,-5.86558e-8
0.146229,112.729,35.2873,249.386,60.33,36.343,3.61256e-8
0.185758,116.675,31.3413,251.724,57.9918,36.343,-1.70583e-7
0.239883,121.372,26.6439,254.78,54.9364,36.343,2.6964e-10
0.336599,128.082,19.9338,259.844,49.872,36.343,-1.04749e-7
0.449806,133.822,14.1937,265.182,44.534,36.343,1.39286e-7
0.591618,138.741,9.2754,271.07,38.6459,36.343,7.89014e-8
0.724268,141.786,6.23025,275.871,33.845,36.343,-2.32268e-7
0.861283,143.886,4.13041,280.205,29.5114,36.343,-1.1809e-7
1.00087,145.299,2.71728,284.049,25.6666,36.343,-2.28653e-7
1.1398,146.225,1.79112,287.379,22.3374,36.343,-9.90693e-7
1.28326,146.851,1.16471,290.364,19.3521,36.343,-5.3761e-7
1.4082,147.215,0.800624,292.637,17.0791,36.343,1.55696e-7
1.48645,147.383,0.633119,293.922,15.7937,36.343,7.93812e-8
1.56834,147.521,0.495208,295.164,14.5518,36.343,1.63114e-7
1.67539,147.657,0.359183,296.642,13.0746,36.343,8.40642e-8
1.80328,147.771,0.24473,298.211,11.5049,36.343,6.18149e-8
1.97836,147.871,0.144741,300.059,9.65713,36.343,9.81342e-9
2.15827,147.932,0.0843712,301.649,8.06703,36.343,1.37892e-7
2.36541,147.971,0.0453269,303.158,6.55777,36.343,1.11854e-8
2.60116,147.994,0.0223485,304.536,5.18047,36.343,-1.13207e-7
2.82906,148.005,0.0112811,305.591,4.12474,36.343,-3.11491e-7
3.09877,148.011,0.00502511,306.566,3.14965,36.343,-1.6883e-7
3.403,148.014,0.00201827,307.393,2.32347,36.343,-2.30303e-8
3.76279,148.015,0.000688225,308.095,1.62137,36.343,-1.14325e-9
4.1882,148.016,0.000193453,308.657,1.05958,36.343,-6.65015e-8
4.60279,148.016,5.58937e-5,309.016,0.699971,36.343,6.50242e-8
5.09572,148.016,1.30293e-5,309.289,0.427574,36.343,1.42203e-8
5.60114,148.016,2.83205e-6,309.458,0.257937,36.343,3.63262e-9
6.09058,148.016,6.56367e-7,309.558,0.15811,36.343,1.01961e-9
6.68318,148.016,1.16053e-7,309.629,0.0874212,36.343,1.10033e-11
7.28615,148.016,1.26108e-8,309.668,0.0478374,36.343,1.7852e-12
7.97594,148.016,4.99627e-9,309.692,0.0240028,36.343,2.67468e-12
8.71105,148.016,1.28136e-9,309.705,0.01151,36.343,1.68633e-11
9.54114,148.016,-5.2119e-10,309.711,0.00502114,36.343,6.50551e-11
10.4928,148.016,7.76506e-10,309.714,0.0019406,36.343,-3.79906e-10
11.4928,148.016,-4.04554e-11,309.715,0.000715755,36.343,6.46662e-11
12.4928,148.016,3.24474e-10,309.716,0.000263046,36.343,-4.29945e-11
13.4928,148.016,-1.63252e-9,309.716,9.6635e-5,36.343,3.60252e-8
14.4928,148.016,-1.16747e-9,309.716,3.36964e-5,36.343,-4.08385e-11
15.4928,148.016,1.6178e-9,309.716,1.38557e-5,36.343,-1.39357e-10
16.4928,148.016,-2.44526e-9,309.716,3.97556e-6,36.343,2.62638e-10
17.4928,148.016,9.99794e-10,309.716,1.68745e-6,36.343,-3.05969e-10
18.4928,148.016,-2.00281e-9,309.716,7.50982e-7,36.343,-1.791e-9
19.4928,148.016,-2.03058e-9,309.716,4.27716e-7,36.343,-6.80434e-10
20.4928,148.016,-5.69849e-10,309.716,2.5382e-7,36.343,-6.41878e-10
21.4928,148.016,1.38356e-10,309.716,1.30664e-7,36.343,3.02041e-13
22.4928,148.016,1.22686e-10,309.716,5.42942e-8,36.343,-3.01125e-13
23.4928,148.016,-6.08819e-12,309.716,1.81741e-8,36.343,6.15768e-13
24.4928,148.016,-3.2312e-11,309.716,5.87143e-9,36.343,-3.25799e-13
25.4928,148.016,-9.7052e-12,309.716,2.98277e-9,36.343,8.92667e-17
26.4928,148.016,3.58408e-12,309.716,2.18796e-9,36.343,-1.28486e-15
27.4928,148.016,3.00814e-12,309.716,1.4283e-9,36.343,7.99129e-16
28.4928,148.016,8.54991e-14,309.716,7.04904e-10,36.343,-1.64505e-16
29.4928,148.016,-6.33316e-13,309.716,2.47616e-10,36.343,2.03901e-18
30.4928,148.016,-2.12168e-13,309.716,5.70325e-11,36.343,-1.96715e-18
31.4928,148.016,-2.39287e-14,309.716,-3.89716e-12,36.343,5.15113e-19
32.4928,148.016,1.29393e-14,309.716,-1.45242e-11,36.343,-6.59721e-21
33.4928,148.016,8.40954e-15,309.716,-1.08399e-11,36.343,-9.08365e-22
34.4928,148.016,2.29987e-15,309.716,-5.76711e-12,36.343,-1.08449e-21
35.4928,148.016,5.74969e-16,309.716,-2.88356e-12,36.343,-1.74796e-24
36.4928,148.016,1.43742e-16,309.716,-1.44178e-12,36.343,-2.81731e-27
37.4928,148.016,3.59355e-17,309.716,-7.20889e-13,36.343,-4.53268e-30
38.4928,148.016,8.98389e-18,309.716,-3.60445e-13,36.343,-3.20146e-33
39.4928,148.016,2.24597e-18,309.716,-1.80222e-13,36.343,2.04695e-33
40.4928,148.016,5.61493e-19,309.716,-9.01111e-14,36.343,1.02935e-33
41.4928,148.016,1.40373e-19,309.716,-4.50556e-14,36.343,5.14686e-34
42.4928,148.016,3.50933e-20,309.716,-2.25278e-14,36.343,2.57343e-34
43.4928,148.016,8.77333e-21,309.716,-1.12639e-14,36.343,1.28672e-34
44.4928,148.016,2.19333e-21,309.716,-5.63195e-15,36.343,6.43358e-35
45.4928,148.016,5.48333e-22,309.716,-2.81597e-15,36.343,3.21679e-35
46.4928,148.016,1.37083e-22,309.716,-1.40799e-15,36.343,1.60839e-35
47.4928,148.016,3.42708e-23,309.716,-7.03993e-16,36.343,8.04197e-36
48.4928,148.016,8.5677e-24,309.716,-3.51997e-16,36.343,4.02098e-36
49.4928,148.016,2.14193e-24,309.716,-1.75998e-16,36.343,2.01049e-36
50.4928,148.016,5.35481e-25,309.716,-8.79992e-17,36.343,1.00525e-36
51.4928,148.016,1.3387e-25,309.716,-4.39996e-17,36.343,5.02623e-37
52.4928,148.016,3.34676e-26,309.716,-2.19998e-17,36.343,2.51312e-37
53.4928,148.016,8.3669e-27,309.716,-1.09999e-17,36.343,1.25656e-37
54.4928,148.016,2.09172e-27,309.716,-5.49995e-18,36.343,6.28279e-38
55.4928,148.016,5.22931e-28,309.716,-2.74997e-18,36.343,3.14139e-38
56.4928,148.016,1.30733e-28,309.716,-1.37499e-18,36.343,1.5707e-38
57.4928,148.016,3.26832e-29,309.716,-6.87493e-19,36.343,7.85349e-39
58.4928,148.016,8.1708e-30,309.716,-3.43747e-19,36.343,3.92674e-39
59.4928,148.016,2.0427e-30,309.716,-1.71873e-19,36.343,1.96337e-39
60.4928,148.016,5.10675e-31,309.716,-8.59367e-20,36.343,9.81686e-40
61.4928,148.016,1.27669e-31,309.716,-4.29683e-20,36.343,4.90843e-40
62.4928,148.016,3.19172e-32,309.716,-2.14842e-20,36.343,2.45421e-40
63.4928,148.016,7.97929e-33,309.716,-1.07421e-20,36.343,1.22711e-40
64.4928,148.016,1.99482e-33,309.716,-5.37104e-21,36.343,6.13554e-41
65.4928,148.016,4.98706e-34,309.716,-2.68552e-21,36.343,3.06777e-41
66.4928,148.016,1.24676e-34,309.716,-1.34276e-21,36.343,1.53388e-41
67.4928,148.016,3.11691e-35,309.716,-6.7138e-22,36.343,7.66942e-42
68.4928,148.016,7.79228e-36,309.716,-3.3569e-22,36.343,3.83471e-42
69.4928,148.016,1.94807e-36,309.716,-1.67845e-22,36.343,1.91735e-42
70.4928,148.016,4.87017e-37,309.716,-8.39225e-23,36.343,9.58677e-43
71.4928,148.016,1.21754e-37,309.716,-4.19613e-23,36.343,4.79339e-43
72.4928,148.016,3.04386e-38,309.716,-2.09806e-23,36.343,2.39669e-43
73.4928,148.016,7.60965e-39,309.716,-1.04903e-23,36.343,1.19835e-43
74.4928,148.016,1.90241e-39,309.716,-5.24516e-24,36.343,5.99173e-44
75.4928,148.016,4.75603e-40,309.716,-2.62258e-24,36.343,2.99587e-44
76.4928,148.016,1.18901e-40,309.716,-1.31129e-24,36.343,1.49793e-44
77.4928,148.016,2.97252e-41,309.716,-6.55645e-25,36.343,7.48967e-45
78.4928,148.016,7.4313e-42,309.716,-3.27822e-25,36.343,3.74483e-45
79.4928,148.016,1.85782e-42,309.716,-1.63911e-25,36.343,1.87242e-45
80.4928,148.016,4.64456e-43,309.716,-8.19556e-26,36.343,9.36208e-46
81.4928,148.016,1.16114e-43,309.716,-4.09778e-26,36.343,4.68104e-46
82.4928,148.016,2.90285e-44,309.716,-2.04889e-26,36.343,2.34052e-46
83.4928,148.016,7.25713e-45,309.716,-1.02445e-26,36.343,1.17026e-46
84.4928,148.016,1.81428e-45,309.716,-5.12223e-27,36.343,5.8513e-47
85.4928,148.016,4.5357e-46,309.716,-2.56111e-27,36.343,2.92565e-47
86.4928,148.016,1.13393e-46,309.716,-1.28056e-27,36.343,1.46283e-47
87.4928,148.016,2.83481e-47,309.716,-6.40278e-28,36.343,7.31413e-48
88.4928,148.016,7.08704e-48,309.716,-3.20139e-28,36.343,3.65706e-48
89.4928,148.016,1.77176e-48,309.716,-1.6007e-28,36.343,1.82853e-48
90.4928,148.016,4.4294e-49,309.716,-8.00348e-29,36.343,9.14266e-49
91.4928,148.016,1.10735e-49,309.716,-4.00174e-29,36.343,4.57133e-49
92.4928,148.016,2.76837e-50,309.716,-2.00087e-29,36.343,2.28567e-49
93.4928,148.016,6.92093e-51,309.716,-1.00043e-29,36.343,1.14283e-49
94.4928,148.016,1.73023e-51,309.716,-5.00217e-30,36.343,5.71416e-50
95.4928,148.016,4.32558e-52,309.716,-2.50109e-30,36.343,2.85708e-50
96.4928,148.016,1.0814e-52,309.716,-1.25054e-30,36.343,1.42854e-50
97.4928,148.016,2.70349e-53,309.716,-6.25272e-31,36.343,7.1427e-51
98.4928,148.016,6.75872e-54,309.716,-3.12636e-31,36.343,1.15125e-53
99.4928,148.016,1.68968e-54,309.716,-1.56318e-31,36.343,1.85556e-56
100,148.016,6.70087e-55,309.716,-1.03714e-31,36.343,5.88742e-59
