#Time,F,E,D,C,B,A
0,62.2118,40.763,0,19.0101,167.029,0
3.1e-5,62.2156,40.7592,0.000589299,19.0095,167.029,0
0.000740752,62.3023,40.6726,0.0140748,18.9961,167.029,0
0.00161788,62.4091,40.5657,0.030727,18.9794,167.029,0
0.00298674,62.5753,40.3995,0.0566887,18.9534,167.029,0
0.00970877,63.3819,39.593,0.183667,18.8265,167.029,0
0.0255608,65.2208,37.754,0.479754,18.5304,167.029,0
0.039835,66.8035,36.1713,0.742383,18.2677,167.029,0
0.0583447,68.7574,34.2175,1.0774,17.9327,167.029,0
0.102956,73.0435,29.9314,1.85982,17.1503,167.029,0
0.146536,76.7116,26.2632,2.59118,16.4189,167.029,0
0.192584,80.1003,22.8746,3.3301,15.68,167.029,0
0.273841,85.0488,17.926,4.55382,14.4563,167.029,0
0.361633,89.1996,13.7752,5.76885,13.2413,167.029,0
0.449425,92.3893,10.5856,6.88176,12.1284,167.029,0
0.538594,94.8739,8.10096,7.91643,11.0937,167.029,0
0.663632,97.4077,5.56711,9.22034,9.78979,167.029,0
0.809164,99.3772,3.59766,10.5462,8.46389,167.029,0
0.932677,100.491,2.48368,11.5297,7.48046,167.029,0
1.07514,101.355,1.61988,12.5229,6.48719,167.029,0
1.23276,101.965,1.00956,13.4689,5.54122,167.029,0
1.36615,102.298,0.676604,14.1609,4.84923,167.029,0
1.52656,102.557,0.418164,14.8796,4.13056,167.029,0
1.7062,102.731,0.24395,15.5588,3.45137,167.029,0
1.86147,102.822,0.153112,16.0551,2.95502,167.029,0
2.05613,102.889,0.0853898,16.5778,2.43231,167.029,0
2.2702,102.93,0.0449277,17.0465,1.96358,167.029,0
2.49214,102.952,0.0230885,17.4374,1.57275,167.029,0
2.76284,102.965,0.0102539,17.8104,1.19977,167.029,0
3.03267,102.97,0.00456393,18.0941,0.916037,167.029,0
3.34477,102.973,0.00179166,18.3397,0.670456,167.029,0
3.72354,102.974,0.000577102,18.5511,0.459063,167.029,0
4.11312,102.975,0.000179454,18.6992,0.310945,167.029,0
4.63021,102.975,3.96649e-5,18.8247,0.185406,167.029,0
5.1559,102.975,7.79593e-6,18.9005,0.109604,167.029,0
5.72604,102.975,1.54122e-6,18.9482,0.061978,167.029,0
6.40987,102.975,1.99423e-7,18.9788,0.0312821,167.029,0
7.10611,102.975,-2.2264e-9,18.9945,0.0155943,167.029,0
7.91702,102.975,4.16008e-9,19.0032,0.00693375,167.029,0
8.91702,102.975,1.50992e-8,19.0076,0.00255302,167.029,0
9.91702,102.975,-3.77332e-8,19.0092,0.000941965,167.029,0
10.8272,102.975,2.32337e-8,19.0098,0.000376632,167.029,0
11.8272,102.975,-3.03528e-8,19.01,0.000138914,167.029,0
12.8272,102.975,5.75707e-8,19.0101,5.13555e-5,167.029,0
13.8272,102.975,4.03867e-9,19.0101,2.00833e-5,167.029,0
14.8272,102.975,-1.51151e-9,19.0101,7.78482e-6,167.029,0
15.8272,102.975,1.10881e-9,19.0101,3.01079e-6,167.029,0
16.8272,102.975,-1.66969e-10,19.0101,9.52049e-7,167.029,0
17.8272,102.975,-1.9741e-10,19.0101,1.59481e-7,167.029,0
18.8272,102.975,-6.91856e-11,19.0101,-6.2825e-8,167.029,0
19.8272,102.975,-8.81473e-12,19.0101,-8.21562e-8,167.029,0
20.8272,102.975,3.76963e-12,19.0101,-5.316e-8,167.029,0
21.8272,102.975,2.65481e-12,19.0101,-2.60967e-8,167.029,0
22.8272,102.975,6.63702e-13,19.0101,-1.30484e-8,167.029,0
23.8272,102.975,1.65925e-13,19.0101,-6.52418e-9,167.029,0
24.8272,102.975,4.14814e-14,19.0101,-3.26209e-9,167.029,0
25.8272,102.975,1.03703e-14,19.0101,-1.63105e-9,167.029,0
26.8272,102.975,2.59258e-15,19.0101,-8.15523e-10,167.029,0
27.8272,102.975,6.48146e-16,19.0101,-4.07761e-10,167.029,0
28.8272,102.975,1.62037e-16,19.0101,-2.03881e-10,167.029,0
29.8272,102.975,4.05091e-17,19.0101,-1.0194e-10,167.029,0
30.8272,102.975,1.01273e-17,19.0101,-5.09702e-11,167.029,0
31.8272,102.975,2.53182e-18,19.0101,-2.54851e-11,167.029,0
32.8272,102.975,6.32955e-19,19.0101,-1.27425e-11,167.029,0
33.8272,102.975,1.58239e-19,19.0101,-6.37127e-12,167.029,0
34.8272,102.975,3.95597e-20,19.0101,-3.18564e-12,167.029,0
35.8272,102.975,9.88992e-21,19.0101,-1.59282e-12,167.029,0
36.8272,102.975,2.47248e-21,19.0101,-7.96409e-13,167.029,0
37.8272,102.975,6.1812e-22,19.0101,-3.98204e-13,167.029,0
38.8272,102.975,1.5453e-22,19.0101,-1.99102e-13,167.029,0
39.8272,102.975,3.86325e-23,19.0101,-9.95511e-14,167.029,0
40.8272,102.975,9.65813e-24,19.0101,-4.97756e-14,167.029,0
41.8272,102.975,2.41453e-24,19.0101,-2.48878e-14,167.029,0
42.8272,102.975,6.03633e-25,19.0101,-1.24439e-14,167.029,0
43.8272,102.975,1.50908e-25,19.0101,-6.22194e-15,167.029,0
44.8272,102.975,3.77271e-26,19.0101,-3.11097e-15,167.029,0
45.8272,102.975,9.43177e-27,19.0101,-1.55549e-15,167.029,0
46.8272,102.975,2.35794e-27,19.0101,-7.77743e-16,167.029,0
47.8272,102.975,5.89485e-28,19.0101,-3.88872e-16,167.029,0
48.8272,102.975,1.47371e-28,19.0101,-1.94436e-16,167.029,0
49.8272,102.975,3.68428e-29,19.0101,-9.72179e-17,167.029,0
50.8272,102.975,9.21071e-30,19.0101,-4.86089e-17,167.029,0
51.8272,102.975,2.30268e-30,19.0101,-2.43045e-17,167.029,0
52.8272,102.975,5.75669e-31,19.0101,-1.21522e-17,167.029,0
53.8272,102.975,1.43917e-31,19.0101,-6.07612e-18,167.029,0
54.8272,102.975,3.59793e-32,19.0101,-3.03806e-18,167.029,0
55.8272,102.975,8.99483e-33,19.0101,-1.51903e-18,167.029,0
56.8272,102.975,2.24871e-33,19.0101,-7.59515e-19,167.029,0
57.8272,102.975,5.62177e-34,19.0101,-3.79757e-19,167.029,0
58.8272,102.975,1.40544e-34,19.0101,-1.89879e-19,167.029,0
59.8272,102.975,3.51361e-35,19.0101,-9.49393e-20,167.029,0
60.8272,102.975,8.78402e-36,19.0101,-4.74697e-20,167.029,0
61.8272,102.975,2.196e-36,19.0101,-2.37348e-20,167.029,0
62.8272,102.975,5.49001e-37,19.0101,-1.18674e-20,167.029,0
63.8272,102.975,1.3725e-37,19.0101,-5.93371e-21,167.029,0
64.8272,102.975,3.43126e-38,19.0101,-2.96685e-21,167.029,0
65.8272,102.975,8.57814e-39,19.0101,-1.48343e-21,167.029,0
66.8272,102.975,2.14454e-39,19.0101,-7.41714e-22,167.029,0
67.8272,102.975,5.36134e-40,19.0101,-3.70857e-22,167.029,0
68.8272,102.975,1.34033e-40,19.0101,-1.85428e-22,167.029,0
69.8272,102.975,3.35084e-41,19.0101,-9.27142e-23,167.029,0
70.8272,102.975,8.37709e-42,19.0101,-4.63571e-23,167.029,0
71.8272,102.975,2.09427e-42,19.0101,-2.31786e-23,167.029,0
72.8272,102.975,5.23568e-43,19.0101,-1.15893e-23,167.029,0
73.8272,102.975,1.30892e-43,19.0101,-5.79464e-24,167.029,0
74.8272,102.975,3.2723e-44,19.0101,-2.89732e-24,167.029,0
75.8272,102.975,8.18075e-45,19.0101,-1.44866e-24,167.029,0
76.8272,102.975,2.04519e-45,19.0101,-7.2433e-25,167.029,0
77.8272,102.975,5.11297e-46,19.0101,-3.62165e-25,167.029,0
78.8272,102.975,1.27824e-46,19.0101,-1.81082e-25,167.029,0
79.8272,102.975,3.19561e-47,19.0101,-9.05412e-26,167.029,0
80.8272,102.975,7.98902e-48,19.0101,-4.52706e-26,167.029,0
81.8272,102.975,1.99725e-48,19.0101,-2.26353e-26,167.029,0
82.8272,102.975,4.99314e-49,19.0101,-1.13177e-26,167.029,0
83.8272,102.975,1.24828e-49,19.0101,-5.65883e-27,167.029,0
84.8272,102.975,3.12071e-50,19.0101,-2.82941e-27,167.029,0
85.8272,102.975,7.80177e-51,19.0101,-1.41471e-27,167.029,0
86.8272,102.975,1.95044e-51,19.0101,-7.07353e-28,167.029,0
87.8272,102.975,4.87611e-52,19.0101,-3.53677e-28,167.029,0
88.8272,102.975,1.21903e-52,19.0101,-1.76838e-28,167.029,0
89.8272,102.975,3.04757e-53,19.0101,-8.84192e-29,167.029,0
90.8272,102.975,7.61892e-54,19.0101,-4.42096e-29,167.029,0
91.8272,102.975,1.90473e-54,19.0101,-2.21048e-29,167.029,0
92.8272,102.975,4.76183e-55,19.0101,-1.10524e-29,167.029,0
93.8272,102.975,1.19046e-55,19.0101,-5.5262e-30,167.029,0
94.8272,102.975,2.97614e-56,19.0101,-2.7631e-30,167.029,0
95.8272,102.975,7.44035e-57,19.0101,-1.38155e-30,167.029,0
96.8272,102.975,1.86009e-57,19.0101,-6.90775e-31,167.029,0
97.8272,102.975,4.65022e-58,19.0101,-3.45387e-31,167.029,0
98.8272,102.975,1.16256e-58,19.0101,-1.72694e-31,167.029,0
99.8272,102.975,2.90639e-59,19.0101,-8.63468e-32,167.029,0
100,102.975,1.9141e-59,19.0101,-7.36243e-32,167.029,0
