#Time,F,E,D,C,B,A
0,0,102.636,47.8691,0,121.927,152.982
1.79249e-5,0.00551902,102.631,47.8691,0,122.19,152.72
5.36997e-5,0.016533,102.62,47.8691,0,122.711,152.198
0.000109123,0.033594,102.603,47.8691,0,123.517,151.393
0.00042127,0.129631,102.507,47.8691,0,127.974,146.935
0.000867623,0.266801,102.37,47.8691,0,134.121,140.788
0.00131398,0.403789,102.233,47.8691,0,140.011,134.898
0.00189091,0.58058,102.056,47.8691,0,147.261,127.649
0.00327037,1.00205,101.634,47.8691,0,163.053,111.857
0.0046123,1.41039,101.226,47.8691,0,176.538,98.3716
0.00603206,1.84062,100.796,47.8691,0,189.04,85.8696
0.00745182,2.26903,100.367,47.8691,0,199.953,74.9564
0.00914013,2.7761,99.8603,47.8691,0,211.14,63.7693
0.0118465,3.58359,99.0528,47.8691,0,225.696,49.2133
0.0145529,4.38455,98.2519,47.8691,0,236.93,37.98
0.0172592,5.17903,97.4574,47.8691,0,245.599,29.3107
0.0203962,6.0919,96.5445,47.8691,0,253.203,21.7068
0.0241659,7.17757,95.4588,47.8691,0,259.779,15.1307
0.0286088,8.44147,94.1949,47.8691,0,265.021,9.88855
0.0332174,9.73484,92.9016,47.8691,0,268.549,6.36078
0.0375565,10.9363,91.7001,47.8691,0,270.711,4.19856
0.042116,12.1821,90.4543,47.8691,0,272.196,2.71347
0.0467712,13.4366,89.1998,47.8691,0,273.172,1.73768
0.0513151,14.6443,87.9921,47.8691,0,273.785,1.12471
0.0561267,15.9053,86.7311,47.8691,0,274.2,0.709561
0.0613795,17.2613,85.3751,47.8691,0,274.481,0.429129
0.0659074,18.4132,84.2232,47.8691,0,274.632,0.27818
0.0716701,19.8567,82.7797,47.8691,0,274.749,0.160228
0.0775484,21.3038,81.3326,47.8691,0,274.818,0.0912699
0.0840505,22.8749,79.7615,47.8691,0,274.861,0.0489795
0.0913264,24.597,78.0394,47.8691,0,274.885,0.0244089
0.0984577,26.2489,76.3875,47.8691,0,274.897,0.0123331
0.107796,28.3592,74.2772,47.8691,0,274.905,0.00504743
0.115581,30.0738,72.5626,47.8691,0,274.907,0.0023927
0.124664,32.0243,70.6121,47.8691,0,274.909,0.00100109
0.135081,34.197,68.4394,47.8691,0,274.909,0.000367313
0.148052,36.809,65.8274,47.8691,0,274.91,0.000104582
0.16293,39.6826,62.9538,47.8691,0,274.91,2.42498e-5
0.185405,43.7872,58.8492,47.8691,0,274.91,1.00809e-6
0.211986,48.2979,54.3385,47.8691,0,274.91,-3.04676e-7
0.271386,57.1672,45.4692,47.8691,0,274.91,-1.04435e-6
0.343074,65.9661,36.6703,47.8691,0,274.91,2.99768e-7
0.434608,74.7716,27.8648,47.8691,0,274.91,-1.64863e-8
0.528054,81.5839,21.0525,47.8691,0,274.91,-1.2322e-8
0.621501,86.7308,15.9056,47.8691,0,274.91,2.44531e-9
0.714947,90.6193,12.0171,47.8691,0,274.91,2.19739e-9
0.839591,94.3683,8.26811,47.8691,0,274.91,1.98059e-10
0.969133,97.0307,5.60569,47.8691,0,274.91,-2.90167e-10
1.10992,98.9618,3.67456,47.8691,0,274.91,-7.9286e-11
1.2507,100.228,2.4087,47.8691,0,274.91,2.99345e-11
1.39149,101.057,1.57891,47.8691,0,274.91,3.86491e-11
1.53358,101.605,1.03093,47.8691,0,274.91,1.47078e-11
1.67924,101.97,0.665965,47.8691,0,274.91,-1.28944e-12
1.83206,102.215,0.421068,47.8691,0,274.91,-5.27449e-12
1.99336,102.377,0.259541,47.8691,0,274.91,-1.12892e-12
2.16132,102.48,0.156812,47.8691,0,274.91,3.72558e-13
2.34839,102.547,0.0894669,47.8691,0,274.91,9.33159e-13
2.54347,102.587,0.0498327,47.8691,0,274.91,1.01104e-12
2.76747,102.611,0.0254515,47.8691,0,274.91,1.03589e-12
3.00208,102.624,0.0125924,47.8691,0,274.91,-5.43321e-12
3.28145,102.631,0.00544955,47.8691,0,274.91,-8.36148e-13
3.58495,102.634,0.00219388,47.8691,0,274.91,-6.71275e-13
3.95499,102.636,0.000725941,47.8691,0,274.91,7.62195e-14
4.38886,102.636,0.000199287,47.8691,0,274.91,-1.6779e-12
4.84852,102.636,5.07997e-5,47.8691,0,274.91,2.23712e-12
5.69233,102.636,5.93116e-6,47.8691,0,274.91,-1.8599e-12
6.60288,102.636,6.74277e-8,47.8691,0,274.91,-3.97838e-12
7.60288,102.636,1.14906e-6,47.8691,0,274.91,8.00903e-12
8.39373,102.636,-6.63658e-7,47.8691,0,274.91,-9.39994e-12
9.31847,102.636,3.80575e-7,47.8691,0,274.91,6.21062e-11
10.3185,102.636,-3.16614e-7,47.8691,0,274.91,9.18883e-13
11.3185,102.636,5.49123e-7,47.8691,0,274.91,-4.40049e-12
12.3185,102.636,-7.13535e-7,47.8691,0,274.91,1.93443e-12
13.3185,102.636,6.26637e-7,47.8691,0,274.91,-3.67843e-12
14.3185,102.636,-3.8293e-8,47.8691,0,274.91,1.1049e-10
15.3185,102.636,-8.40486e-8,47.8691,0,274.91,2.61321e-12
16.3185,102.636,-3.31001e-8,47.8691,0,274.91,-5.1439e-13
17.3185,102.636,-5.37245e-9,47.8691,0,274.91,-2.40172e-14
18.3185,102.636,1.29004e-9,47.8691,0,274.91,2.15102e-15
19.3185,102.636,1.17029e-9,47.8691,0,274.91,1.67739e-16
20.3185,102.636,3.76791e-10,47.8691,0,274.91,-7.61049e-18
21.3185,102.636,3.74304e-11,47.8691,0,274.91,-1.01905e-18
22.3185,102.636,-2.52299e-11,47.8691,0,274.91,1.81734e-20
23.3185,102.636,-6.30748e-12,47.8691,0,274.91,1.87862e-22
24.3185,102.636,-1.57687e-12,47.8691,0,274.91,1.94196e-24
25.3185,102.636,-3.94217e-13,47.8691,0,274.91,2.00744e-26
26.3185,102.636,-9.85543e-14,47.8691,0,274.91,2.07513e-28
27.3185,102.636,-2.46386e-14,47.8691,0,274.91,2.1451e-30
28.3185,102.636,-6.15964e-15,47.8691,0,274.91,2.21742e-32
29.3185,102.636,-1.53991e-15,47.8691,0,274.91,2.29219e-34
30.3185,102.636,-3.84978e-16,47.8691,0,274.91,2.36948e-36
31.3185,102.636,-9.62444e-17,47.8691,0,274.91,2.44937e-38
32.3185,102.636,-2.40611e-17,47.8691,0,274.91,2.53196e-40
33.3185,102.636,-6.01528e-18,47.8691,0,274.91,2.61733e-42
34.3185,102.636,-1.50382e-18,47.8691,0,274.91,2.70558e-44
35.3185,102.636,-3.75955e-19,47.8691,0,274.91,2.79681e-46
36.3185,102.636,-9.39887e-20,47.8691,0,274.91,2.89111e-48
37.3185,102.636,-2.34972e-20,47.8691,0,274.91,2.98859e-50
38.3185,102.636,-5.87429e-21,47.8691,0,274.91,3.08936e-52
39.3185,102.636,-1.46857e-21,47.8691,0,274.91,3.19353e-54
40.3185,102.636,-3.67143e-22,47.8691,0,274.91,3.30121e-56
41.3185,102.636,-9.17858e-23,47.8691,0,274.91,3.41252e-58
42.3185,102.636,-2.29465e-23,47.8691,0,274.91,3.52758e-60
43.3185,102.636,-5.73662e-24,47.8691,0,274.91,3.64652e-62
44.3185,102.636,-1.43415e-24,47.8691,0,274.91,3.76947e-64
45.3185,102.636,-3.58538e-25,47.8691,0,274.91,3.89657e-66
46.3185,102.636,-8.96346e-26,47.8691,0,274.91,4.02796e-68
47.3185,102.636,-2.24087e-26,47.8691,0,274.91,4.16377e-70
48.3185,102.636,-5.60216e-27,47.8691,0,274.91,4.30416e-72
49.3185,102.636,-1.40054e-27,47.8691,0,274.91,4.44929e-74
50.3185,102.636,-3.50135e-28,47.8691,0,274.91,4.59931e-76
51.3185,102.636,-8.75338e-29,47.8691,0,274.91,4.75439e-78
52.3185,102.636,-2.18835e-29,47.8691,0,274.91,4.9147e-80
53.3185,102.636,-5.47086e-30,47.8691,0,274.91,5.08041e-82
54.3185,102.636,-1.36772e-30,47.8691,0,274.91,5.25171e-84
55.3185,102.636,-3.41929e-31,47.8691,0,274.91,5.42878e-86
56.3185,102.636,-8.54822e-32,47.8691,0,274.91,5.61183e-88
57.3185,102.636,-2.13706e-32,47.8691,0,274.91,5.80105e-90
58.3185,102.636,-5.34264e-33,47.8691,0,274.91,5.99665e-92
59.3185,102.636,-1.33566e-33,47.8691,0,274.91,6.19884e-94
60.3185,102.636,-3.33915e-34,47.8691,0,274.91,6.40785e-96
61.3185,102.636,-8.34787e-35,47.8691,0,274.91,6.62391e-98
62.3185,102.636,-2.08697e-35,47.8691,0,274.91,6.84726e-100
63.3185,102.636,-5.21742e-36,47.8691,0,274.91,7.07813e-102
64.3185,102.636,-1.30436e-36,47.8691,0,274.91,7.31679e-104
65.3185,102.636,-3.26089e-37,47.8691,0,274.91,7.5635e-106
66.3185,102.636,-8.15222e-38,47.8691,0,274.91,7.81852e-108
67.3185,102.636,-2.03806e-38,47.8691,0,274.91,8.08214e-110
68.3185,102.636,-5.09514e-39,47.8691,0,274.91,8.35466e-112
69.3185,102.636,-1.27378e-39,47.8691,0,274.91,8.63636e-114
70.3185,102.636,-3.18446e-40,47.8691,0,274.91,8.92756e-116
71.3185,102.636,-7.96115e-41,47.8691,0,274.91,9.22857e-118
72.3185,102.636,-1.99029e-41,47.8691,0,274.91,9.53974e-120
73.3185,102.636,-4.97572e-42,47.8691,0,274.91,9.8614e-122
74.3185,102.636,-1.24393e-42,47.8691,0,274.91,1.01939e-123
75.3185,102.636,-3.10983e-43,47.8691,0,274.91,1.05376e-125
76.3185,102.636,-7.77456e-44,47.8691,0,274.91,1.08929e-127
77.3185,102.636,-1.94364e-44,47.8691,0,274.91,1.12602e-129
78.3185,102.636,-4.8591e-45,47.8691,0,274.91,1.16399e-131
79.3185,102.636,-1.21478e-45,47.8691,0,274.91,1.20324e-133
80.3185,102.636,-3.03694e-46,47.8691,0,274.91,1.24381e-135
81.3185,102.636,-7.59235e-47,47.8691,0,274.91,1.28574e-137
82.3185,102.636,-1.89809e-47,47.8691,0,274.91,1.3291e-139
83.3185,102.636,-4.74522e-48,47.8691,0,274.91,1.37391e-141
84.3185,102.636,-1.1863e-48,47.8691,0,274.91,1.42024e-143
85.3185,102.636,-2.96576e-49,47.8691,0,274.91,1.46812e-145
86.3185,102.636,-7.4144e-50,47.8691,0,274.91,1.51763e-147
87.3185,102.636,-1.8536e-50,47.8691,0,274.91,1.5688e-149
88.3185,102.636,-4.634e-51,47.8691,0,274.91,1.62169e-151
89.3185,102.636,-1.1585e-51,47.8691,0,274.91,1.67637e-153
90.3185,102.636,-2.89625e-52,47.8691,0,274.91,1.7329e-155
91.3185,102.636,-7.24063e-53,47.8691,0,274.91,1.79133e-157
92.3185,102.636,-1.81016e-53,47.8691,0,274.91,1.85173e-159
93.3185,102.636,-4.52539e-54,47.8691,0,274.91,1.91416e-161
94.3185,102.636,-1.13135e-54,47.8691,0,274.91,1.9787e-163
95.3185,102.636,-2.82837e-55,47.8691,0,274.91,2.04542e-165
96.3185,102.636,-7.07092e-56,47.8691,0,274.91,2.11439e-167
97.3185,102.636,-1.76773e-56,47.8691,0,274.91,2.18568e-169
98.3185,102.636,-4.41933e-57,47.8691,0,274.91,2.25938e-171
99.3185,102.636,-1.10483e-57,47.8691,0,274.91,2.33556e-173
100,102.636,-3.62882e-58,47.8691,0,274.91,3.52543e-175
