#Time,F,E,D,C,B,A
0,47.3342,23.6741,101.608,42.8435,24.9133,49.6852
1.00585e-5,47.3349,23.6734,101.609,42.8431,25.0147,49.5838
2.36462e-5,47.3359,23.6724,101.609,42.8425,25.1513,49.4472
4.47174e-5,47.3374,23.6709,101.61,42.8416,25.3626,49.2359
0.000157301,47.3454,23.6629,101.615,42.8368,26.4763,48.1221
0.000347573,47.3589,23.6494,101.623,42.8286,28.3018,46.2967
0.000537844,47.3724,23.6359,101.631,42.8205,30.0582,44.5403
0.000782958,47.3897,23.6185,101.642,42.81,32.223,42.3754
0.00143229,47.4357,23.5726,101.67,42.7822,37.4636,37.1348
0.00207242,47.4809,23.5273,101.697,42.7548,41.9964,32.6021
0.00275169,47.5288,23.4795,101.726,42.7258,46.2039,28.3946
0.00395107,47.6132,23.3951,101.777,42.6746,52.3535,22.245
0.00524665,47.7039,23.3044,101.833,42.6193,57.5115,17.087
0.00654224,47.7943,23.214,101.888,42.5641,61.4753,13.1232
0.00785733,47.8857,23.1226,101.944,42.5082,64.5611,10.0374
0.00969598,48.0129,22.9954,102.022,42.4301,67.7,6.89849
0.0118192,48.1589,22.8494,102.112,42.3401,70.1262,4.47224
0.0136207,48.2821,22.7262,102.188,42.2639,71.5033,3.09515
0.0157147,48.4244,22.5839,102.276,42.1755,72.5813,2.01716
0.018094,48.585,22.4233,102.377,42.0753,73.3589,1.23958
0.0200877,48.7187,22.2895,102.46,41.9915,73.7745,0.823977
0.0225498,48.8828,22.1255,102.564,41.8882,74.1011,0.49739
0.0251573,49.0552,21.9531,102.673,41.7791,74.3072,0.291261
0.0273867,49.2015,21.8068,102.766,41.6861,74.4142,0.184237
0.0301519,49.3817,21.6266,102.881,41.571,74.4941,0.104335
0.0333015,49.585,21.4232,103.012,41.4403,74.5439,0.0545523
0.0361224,49.7656,21.2427,103.128,41.3235,74.568,0.0304986
0.039897,50.0048,21.0035,103.284,41.1678,74.5845,0.0139971
0.0436631,50.2407,20.7675,103.439,41.0131,74.5921,0.00642572
0.0479379,50.5054,20.5029,103.614,40.8381,74.5958,0.00265395
0.0534624,50.8424,20.1659,103.839,40.6131,74.5976,0.000846697
0.0588323,51.1646,19.8436,104.056,40.3956,74.5982,0.000276971
0.0655076,51.5581,19.4502,104.325,40.1269,74.5984,7.06389e-5
0.0735461,52.0215,18.9868,104.646,39.8056,74.5985,1.34263e-5
0.0847148,52.6471,18.3611,105.088,39.3635,74.5985,2.34774e-6
0.0979525,53.362,17.6463,105.606,38.8459,74.5985,-5.72432e-7
0.118936,54.4386,16.5697,106.413,38.0392,74.5985,1.41819e-7
0.175105,57.0082,14.0001,108.49,35.9615,74.5985,-1.107e-7
0.260158,60.1611,10.8472,111.423,33.0293,74.5985,-2.33166e-9
0.349506,62.7116,8.29667,114.246,30.2062,74.5985,3.61384e-9
0.446456,64.8055,6.20279,117.037,27.4152,74.5985,1.34378e-8
0.543405,66.3709,4.63736,119.57,24.8821,74.5985,7.30484e-9
0.640355,67.5413,3.467,121.869,22.583,74.5985,-6.5708e-9
0.737304,68.4163,2.59202,123.956,20.4964,74.5985,1.68394e-8
0.868133,69.2577,1.7506,126.469,17.9829,74.5985,3.32101e-10
1.00479,69.8465,1.16182,128.766,15.6859,74.5985,1.53824e-9
1.15787,70.2743,0.734009,130.992,13.4595,74.5985,-3.07281e-9
1.31243,70.5466,0.461671,132.92,11.532,74.5985,-9.93112e-9
1.46995,70.7205,0.287807,134.601,9.85128,74.5985,-1.85935e-8
1.64179,70.8364,0.171879,136.156,8.2959,74.5985,-2.09059e-9
1.82001,70.9076,0.100701,137.51,6.94167,74.5985,4.09867e-7
2.02021,70.953,0.0552353,138.77,5.68221,74.5985,1.44342e-7
2.22885,70.9787,0.02954,139.84,4.61218,74.5985,2.89338e-7
2.4678,70.9939,0.0144271,140.82,3.63191,74.5985,-2.00054e-7
2.69972,71.0011,0.00719561,141.572,2.88013,74.5985,-1.11987e-6
2.8495,71.0037,0.00459113,141.972,2.47949,74.5985,8.62836e-8
2.9755,71.0051,0.00314596,142.266,2.18595,74.5985,-6.81597e-8
3.12914,71.0063,0.00198423,142.577,1.87464,74.5985,5.84446e-7
3.30431,71.0071,0.00117323,142.879,1.57341,74.5985,-4.74251e-7
3.39988,71.0074,0.000880772,143.022,1.43,74.5985,5.17966e-8
3.49041,71.0076,0.000671303,143.146,1.30623,74.5985,-2.74169e-7
3.62508,71.0078,0.000448165,143.31,1.14165,74.5985,-1.34596e-8
3.86613,71.0081,0.000217272,143.555,0.897107,74.5985,-1.0642e-9
4.15215,71.0082,9.19203e-5,143.778,0.673949,74.5985,1.62774e-9
4.46292,71.0082,3.60748e-5,143.958,0.49392,74.5985,-2.71984e-9
4.78583,71.0083,1.36443e-5,144.094,0.357612,74.5985,-4.04442e-9
5.12096,71.0083,4.96854e-6,144.196,0.255777,74.5985,-2.42634e-9
5.48032,71.0083,1.6796e-6,144.273,0.178562,74.5985,5.18349e-9
5.85131,71.0083,5.47624e-7,144.329,0.123214,74.5985,2.43196e-8
6.25613,71.0083,1.60265e-7,144.37,0.0821923,74.5985,-3.50554e-10
6.68689,71.0083,4.32439e-8,144.398,0.0534242,74.5985,-2.76742e-11
7.14439,71.0083,1.06082e-8,144.418,0.0338078,74.5985,-3.33058e-11
7.66043,71.0083,2.13265e-9,144.432,0.0201768,74.5985,-1.59002e-10
8.21286,71.0083,3.72972e-10,144.44,0.0116107,74.5985,-3.5205e-10
8.8324,71.0083,4.59843e-11,144.446,0.00624672,74.5985,8.53572e-10
9.54134,71.0083,3.74342e-12,144.449,0.00307251,74.5985,-3.82532e-9
10.3173,71.0083,-1.11598e-13,144.45,0.00141254,74.5985,-1.19112e-9
11.2678,71.0083,-1.13956e-13,144.451,0.000544119,74.5985,-5.16427e-9
12.2678,71.0083,9.42892e-15,144.452,0.000199214,74.5985,1.21353e-8
13.2678,71.0083,-5.65189e-15,144.452,7.22228e-5,74.5985,2.39766e-10
14.2678,71.0083,1.41042e-14,144.452,2.81836e-5,74.5985,-2.06721e-9
15.2678,71.0083,-2.03975e-14,144.452,9.40973e-6,74.5985,4.3336e-9
16.1605,71.0083,-1.92277e-16,144.452,3.75357e-6,74.5985,-7.23557e-11
17.1605,71.0083,1.01841e-15,144.452,1.14707e-6,74.5985,2.29452e-11
18.1605,71.0083,2.54602e-16,144.452,5.73534e-7,74.5985,7.91353e-14
19.1605,71.0083,6.36504e-17,144.452,2.86767e-7,74.5985,1.26173e-15
20.1605,71.0083,1.59126e-17,144.452,1.43383e-7,74.5985,1.06518e-17
21.1605,71.0083,3.97815e-18,144.452,7.16917e-8,74.5985,1.58788e-18
22.1605,71.0083,9.94538e-19,144.452,3.58458e-8,74.5985,7.54618e-19
23.1605,71.0083,2.48635e-19,144.452,1.79229e-8,74.5985,3.77015e-19
24.1605,71.0083,6.21586e-20,144.452,8.96146e-9,74.5985,1.88505e-19
25.1605,71.0083,1.55397e-20,144.452,4.48073e-9,74.5985,9.42525e-20
26.1605,71.0083,3.88491e-21,144.452,2.24037e-9,74.5985,4.71262e-20
27.1605,71.0083,9.71229e-22,144.452,1.12018e-9,74.5985,2.35631e-20
28.1605,71.0083,2.42807e-22,144.452,5.60091e-10,74.5985,1.17816e-20
29.1605,71.0083,6.07018e-23,144.452,2.80046e-10,74.5985,5.89078e-21
30.1605,71.0083,1.51754e-23,144.452,1.40023e-10,74.5985,2.94539e-21
31.1605,71.0083,3.79386e-24,144.452,7.00114e-11,74.5985,1.4727e-21
32.1605,71.0083,9.48465e-25,144.452,3.50057e-11,74.5985,7.36348e-22
33.1605,71.0083,2.37116e-25,144.452,1.75029e-11,74.5985,3.68174e-22
34.1605,71.0083,5.92791e-26,144.452,8.75143e-12,74.5985,1.84087e-22
35.1605,71.0083,1.48198e-26,144.452,4.37571e-12,74.5985,9.20434e-23
36.1605,71.0083,3.70494e-27,144.452,2.18786e-12,74.5985,4.60217e-23
37.1605,71.0083,9.26236e-28,144.452,1.09393e-12,74.5985,2.30109e-23
38.1605,71.0083,2.31559e-28,144.452,5.46964e-13,74.5985,1.15054e-23
39.1605,71.0083,5.78897e-29,144.452,2.73482e-13,74.5985,5.75272e-24
40.1605,71.0083,1.44724e-29,144.452,1.36741e-13,74.5985,2.87636e-24
41.1605,71.0083,3.61811e-30,144.452,6.83705e-14,74.5985,1.43818e-24
42.1605,71.0083,9.04527e-31,144.452,3.41853e-14,74.5985,7.19089e-25
43.1605,71.0083,2.26132e-31,144.452,1.70926e-14,74.5985,3.59545e-25
44.1605,71.0083,5.65329e-32,144.452,8.54632e-15,74.5985,1.79772e-25
45.1605,71.0083,1.41332e-32,144.452,4.27316e-15,74.5985,8.98862e-26
46.1605,71.0083,3.53331e-33,144.452,2.13658e-15,74.5985,4.49431e-26
47.1605,71.0083,8.83327e-34,144.452,1.06829e-15,74.5985,2.24715e-26
48.1605,71.0083,2.20832e-34,144.452,5.34145e-16,74.5985,1.12358e-26
49.1605,71.0083,5.5208e-35,144.452,2.67072e-16,74.5985,5.61789e-27
50.1605,71.0083,1.3802e-35,144.452,1.33536e-16,74.5985,2.80894e-27
51.1605,71.0083,3.4505e-36,144.452,6.67681e-17,74.5985,1.40447e-27
52.1605,71.0083,8.62624e-37,144.452,3.3384e-17,74.5985,7.02236e-28
53.1605,71.0083,2.15656e-37,144.452,1.6692e-17,74.5985,3.51118e-28
54.1605,71.0083,5.3914e-38,144.452,8.34601e-18,74.5985,1.75559e-28
55.1605,71.0083,1.34785e-38,144.452,4.17301e-18,74.5985,8.77795e-29
56.1605,71.0083,3.36963e-39,144.452,2.0865e-18,74.5985,4.38897e-29
57.1605,71.0083,8.42406e-40,144.452,1.04325e-18,74.5985,2.19449e-29
58.1605,71.0083,2.10602e-40,144.452,5.21626e-19,74.5985,1.09724e-29
59.1605,71.0083,5.26504e-41,144.452,2.60813e-19,74.5985,5.48622e-30
60.1605,71.0083,1.31626e-41,144.452,1.30406e-19,74.5985,1.89243e-32
61.1605,71.0083,3.29065e-42,144.452,6.52032e-20,74.5985,6.52777e-35
62.1605,71.0083,8.22663e-43,144.452,3.26016e-20,74.5985,2.2517e-37
63.1605,71.0083,2.05666e-43,144.452,1.63008e-20,74.5985,7.76707e-40
64.1605,71.0083,5.14164e-44,144.452,8.1504e-21,74.5985,2.67919e-42
65.1605,71.0083,1.28541e-44,144.452,4.0752e-21,74.5985,9.24165e-45
66.1605,71.0083,3.21353e-45,144.452,2.0376e-21,74.5985,3.18783e-47
67.1605,71.0083,8.03381e-46,144.452,1.0188e-21,74.5985,1.09962e-49
68.1605,71.0083,2.00845e-46,144.452,5.094e-22,74.5985,3.79304e-52
69.1605,71.0083,5.02113e-47,144.452,2.547e-22,74.5985,1.30838e-54
70.1605,71.0083,1.25528e-47,144.452,1.2735e-22,74.5985,4.51315e-57
71.1605,71.0083,3.13821e-48,144.452,6.3675e-23,74.5985,1.55677e-59
72.1605,71.0083,7.84552e-49,144.452,3.18375e-23,74.5985,5.36997e-62
73.1605,71.0083,1.96138e-49,144.452,1.59188e-23,74.5985,1.85233e-64
74.1605,71.0083,4.90345e-50,144.452,7.95938e-24,74.5985,6.38946e-67
75.1605,71.0083,1.22586e-50,144.452,3.97969e-24,74.5985,2.20399e-69
76.1605,71.0083,3.06466e-51,144.452,1.98984e-24,74.5985,7.60249e-72
77.1605,71.0083,7.66164e-52,144.452,9.94922e-25,74.5985,2.62242e-74
78.1605,71.0083,1.91541e-52,144.452,4.97461e-25,74.5985,9.04582e-77
79.1605,71.0083,4.78853e-53,144.452,2.48731e-25,74.5985,3.12028e-79
80.1605,71.0083,1.19713e-53,144.452,1.24365e-25,74.5985,1.07632e-81
81.1605,71.0083,2.99283e-54,144.452,6.21826e-26,74.5985,3.71267e-84
82.1605,71.0083,7.48207e-55,144.452,3.10913e-26,74.5985,1.28066e-86
83.1605,71.0083,1.87052e-55,144.452,1.55457e-26,74.5985,4.41752e-89
84.1605,71.0083,4.6763e-56,144.452,7.77283e-27,74.5985,1.52379e-91
85.1605,71.0083,1.16907e-56,144.452,3.88641e-27,74.5985,5.25618e-94
86.1605,71.0083,2.92268e-57,144.452,1.94321e-27,74.5985,1.81308e-96
87.1605,71.0083,7.30671e-58,144.452,9.71604e-28,74.5985,6.25407e-99
88.1605,71.0083,1.82668e-58,144.452,4.85802e-28,74.5985,2.15729e-101
89.1605,71.0083,4.56669e-59,144.452,2.42901e-28,74.5985,7.4414e-104
90.1605,71.0083,1.14167e-59,144.452,1.2145e-28,74.5985,2.56685e-106
91.1605,71.0083,2.85418e-60,144.452,6.07252e-29,74.5985,8.85415e-109
92.1605,71.0083,7.13546e-61,144.452,3.03626e-29,74.5985,3.05417e-111
93.1605,71.0083,1.78387e-61,144.452,1.51813e-29,74.5985,1.05351e-113
94.1605,71.0083,4.45966e-62,144.452,7.59065e-30,74.5985,3.634e-116
95.1605,71.0083,1.11492e-62,144.452,3.79533e-30,74.5985,1.25352e-118
96.1605,71.0083,2.78729e-63,144.452,1.89766e-30,74.5985,4.32392e-121
97.1605,71.0083,6.96822e-64,144.452,9.48832e-31,74.5985,1.4915e-123
98.1605,71.0083,1.74206e-64,144.452,4.74416e-31,74.5985,5.14481e-126
99.1605,71.0083,4.35514e-65,144.452,2.37208e-31,74.5985,1.77466e-128
100,71.0083,2.92702e-66,144.452,1.21659e-31,74.5985,-6.85546e-127
