#Time,F,E,D,C,B,A
0,116.095,92.7543,93.9488,1.05056,36.7708,8.15813
1.31777e-5,116.099,92.7506,93.9489,1.05055,36.791,8.13797
3.47107e-5,116.105,92.7446,93.9489,1.05052,36.8238,8.10513
6.79282e-5,116.114,92.7354,93.9489,1.05049,36.8742,8.0547
0.000244454,116.163,92.6863,93.9491,1.0503,37.137,7.79191
0.000487917,116.231,92.6186,93.9494,1.05005,37.4855,7.44346
0.00073138,116.299,92.551,93.9496,1.04979,37.8183,7.1106
0.00104043,116.384,92.4652,93.9499,1.04947,38.2195,6.70944
0.0017682,116.586,92.2636,93.9507,1.04871,39.077,5.85193
0.00248472,116.784,92.0655,93.9514,1.04795,39.8141,5.1148
0.00324451,116.994,91.8559,93.9522,1.04716,40.4946,4.43431
0.00459611,117.366,91.4842,93.9537,1.04574,41.4892,3.43974
0.00605609,117.765,91.0843,93.9552,1.04422,42.3145,2.61443
0.00751608,118.163,90.6863,93.9567,1.04269,42.9418,1.98713
0.00901211,118.57,90.2802,93.9583,1.04114,43.4288,1.50015
0.011197,119.159,89.6903,93.9605,1.03886,43.9339,0.994994
0.0138619,119.874,88.9761,93.9633,1.0361,44.3259,0.60302
0.0161505,120.482,88.3674,93.9657,1.03373,44.5367,0.392237
0.0189688,121.226,87.6234,93.9686,1.03082,44.698,0.230958
0.0219153,121.997,86.8522,93.9716,1.02779,44.7962,0.132752
0.0248893,122.769,86.0808,93.9747,1.02474,44.853,0.0759108
0.0284641,123.687,85.1626,93.9783,1.02108,44.8901,0.0387754
0.032095,124.61,84.2399,93.982,1.01738,44.9093,0.0195964
0.0360912,125.614,83.2361,93.9861,1.01332,44.9197,0.00924847
0.0409227,126.811,82.0383,93.991,1.00844,44.9252,0.00373145
0.0460347,128.06,80.7897,93.9961,1.00329,44.9275,0.0014287
0.0525174,129.616,79.2337,94.0026,0.996812,44.9285,0.000425193
0.0599058,131.353,77.4968,94.0099,0.989474,44.9288,0.000106764
0.0685223,133.33,75.5192,94.0184,0.980985,44.9289,2.20211e-5
0.07875,135.612,73.2372,94.0284,0.971003,44.9289,3.21566e-6
0.0921191,138.492,70.358,94.0413,0.958108,44.9289,7.37176e-7
0.112317,142.628,66.2214,94.0605,0.938951,44.9289,1.17096e-6
0.133574,146.719,62.1303,94.0802,0.919202,44.9289,-8.96926e-7
0.160459,151.534,57.3158,94.1046,0.894818,44.9289,6.93636e-7
0.193403,156.928,51.9221,94.1336,0.865819,44.9289,-1.22383e-7
0.243641,164.192,44.6579,94.176,0.823397,44.9289,-8.06109e-7
0.300408,171.185,37.6649,94.2214,0.777957,44.9289,2.50499e-7
0.379947,179.18,29.6693,94.2809,0.718476,44.9289,1.88162e-7
0.479776,186.859,21.9908,94.3492,0.650215,44.9289,-4.28223e-8
0.611884,194.054,14.7953,94.4297,0.569749,44.9289,-4.31883e-8
0.743628,198.885,9.96498,94.5,0.499422,44.9289,-1.50111e-8
0.881515,202.261,6.58914,94.5643,0.435095,44.9289,-1.9537e-9
1.02036,204.505,4.34448,94.6207,0.378692,44.9289,1.02466e-9
1.15967,205.989,2.86039,94.67,0.329444,44.9289,1.28799e-9
1.29899,206.966,1.88327,94.7128,0.286601,44.9289,8.31411e-10
1.43929,207.613,1.23631,94.7503,0.249085,44.9289,2.06567e-10
1.58393,208.049,0.801087,94.7839,0.215542,44.9289,1.35079e-11
1.73394,208.339,0.51078,94.8139,0.185516,44.9289,-8.80716e-12
1.88947,208.529,0.320332,94.8406,0.158794,44.9289,-1.18944e-11
2.05849,208.657,0.192926,94.8653,0.1341,44.9289,-2.20115e-11
2.23377,208.736,0.114034,94.8869,0.11254,44.9289,-2.69866e-11
2.43009,208.786,0.0632802,94.9069,0.0924794,44.9289,-4.08468e-11
2.63451,208.815,0.0342735,94.924,0.075382,44.9289,1.54673e-11
2.87008,208.833,0.0169091,94.9398,0.0595612,44.9289,2.18126e-11
3.126,208.842,0.00784825,94.9533,0.0461123,44.9289,1.18145e-10
3.42259,208.846,0.0032264,94.9651,0.0342774,44.9289,1.12989e-10
3.7621,208.849,0.00116723,94.975,0.0244096,44.9289,8.1947e-9
4.15454,208.849,0.000361513,94.9829,0.0164865,44.9289,-3.98302e-8
4.6373,208.85,8.71677e-5,94.9892,0.0101736,44.9289,-2.8055e-8
5.17606,208.85,1.74523e-5,94.9935,0.00593614,44.9289,9.64713e-8
5.9712,208.85,3.146e-6,94.9967,0.00268128,44.9289,5.47626e-8
6.90694,208.85,-2.11446e-7,94.9983,0.00105258,44.9289,2.77843e-8
7.90694,208.85,4.9911e-8,94.999,0.000388677,44.9289,9.29842e-9
8.90694,208.85,-3.95964e-8,94.9993,0.000141844,44.9289,-1.24951e-8
9.90694,208.85,8.55539e-9,94.9993,5.36981e-5,44.9289,2.10713e-8
10.9069,208.85,-9.32461e-10,94.9994,1.86658e-5,44.9289,-5.78198e-7
11.9069,208.85,-1.82818e-9,94.9994,7.44753e-6,44.9289,-2.14235e-8
12.9069,208.85,1.08064e-10,94.9994,2.56024e-6,44.9289,-1.48409e-7
13.9069,208.85,6.86363e-10,94.9994,9.36282e-7,44.9289,1.19179e-8
14.9069,208.85,-2.2045e-9,94.9994,4.81924e-7,44.9289,-1.32436e-8
15.8643,208.85,1.0785e-9,94.9994,3.95329e-8,44.9289,9.57578e-8
16.8643,208.85,-4.65822e-9,94.9994,2.03956e-7,44.9289,-8.37791e-8
17.8643,208.85,1.12315e-10,94.9994,8.97164e-8,44.9289,-8.09145e-8
18.8643,208.85,-1.82166e-10,94.9994,1.95596e-8,44.9289,1.13357e-7
19.8643,208.85,3.11882e-11,94.9994,2.3405e-8,44.9289,-6.0642e-9
20.8643,208.85,-6.78382e-11,94.9994,-2.95615e-9,44.9289,8.92019e-9
21.8643,208.85,1.6358e-11,94.9994,-8.98469e-10,44.9289,-6.93033e-9
22.8643,208.85,-5.95748e-12,94.9994,1.27367e-10,44.9289,5.36346e-9
23.8643,208.85,-7.31688e-13,94.9994,1.05338e-10,44.9289,-1.11496e-9
24.8643,208.85,1.14001e-13,94.9994,4.41692e-11,44.9289,1.89164e-10
25.8643,208.85,8.04342e-14,94.9994,1.3711e-11,44.9289,2.34156e-10
26.8643,208.85,2.30817e-14,94.9994,2.13498e-12,44.9289,1.95161e-12
27.8643,208.85,5.77042e-15,94.9994,1.06749e-12,44.9289,1.0218e-14
28.8643,208.85,1.44261e-15,94.9994,5.33746e-13,44.9289,5.35096e-17
29.8643,208.85,3.60652e-16,94.9994,2.66873e-13,44.9289,2.86025e-19
30.8643,208.85,9.01629e-17,94.9994,1.33437e-13,44.9289,4.43115e-21
31.8643,208.85,2.25407e-17,94.9994,6.67183e-14,44.9289,1.49001e-21
32.8643,208.85,5.63518e-18,94.9994,3.33591e-14,44.9289,7.41207e-22
33.8643,208.85,1.4088e-18,94.9994,1.66796e-14,44.9289,3.70584e-22
34.8643,208.85,3.52199e-19,94.9994,8.33978e-15,44.9289,1.85292e-22
35.8643,208.85,8.80497e-20,94.9994,4.16989e-15,44.9289,9.26458e-23
36.8643,208.85,2.20124e-20,94.9994,2.08495e-15,44.9289,4.63229e-23
37.8643,208.85,5.50311e-21,94.9994,1.04247e-15,44.9289,2.31615e-23
38.8643,208.85,1.37578e-21,94.9994,5.21236e-16,44.9289,1.15807e-23
39.8643,208.85,3.43944e-22,94.9994,2.60618e-16,44.9289,5.79037e-24
40.8643,208.85,8.5986e-23,94.9994,1.30309e-16,44.9289,2.89518e-24
41.8643,208.85,2.14965e-23,94.9994,6.51545e-17,44.9289,1.44759e-24
42.8643,208.85,5.37413e-24,94.9994,3.25773e-17,44.9289,7.23796e-25
43.8643,208.85,1.34353e-24,94.9994,1.62886e-17,44.9289,3.61898e-25
44.8643,208.85,3.35883e-25,94.9994,8.14432e-18,44.9289,1.80949e-25
45.8643,208.85,8.39707e-26,94.9994,4.07216e-18,44.9289,9.04745e-26
46.8643,208.85,2.09927e-26,94.9994,2.03608e-18,44.9289,4.52372e-26
47.8643,208.85,5.24817e-27,94.9994,1.01804e-18,44.9289,2.26186e-26
48.8643,208.85,1.31204e-27,94.9994,5.0902e-19,44.9289,1.13093e-26
49.8643,208.85,3.28011e-28,94.9994,2.5451e-19,44.9289,5.65465e-27
50.8643,208.85,8.20027e-29,94.9994,1.27255e-19,44.9289,2.82733e-27
51.8643,208.85,2.05007e-29,94.9994,6.36275e-20,44.9289,1.41366e-27
52.8643,208.85,5.12517e-30,94.9994,3.18137e-20,44.9289,7.06832e-28
53.8643,208.85,1.28129e-30,94.9994,1.59069e-20,44.9289,3.53416e-28
54.8643,208.85,3.20323e-31,94.9994,7.95344e-21,44.9289,1.76708e-28
55.8643,208.85,8.00807e-32,94.9994,3.97672e-21,44.9289,8.8354e-29
56.8643,208.85,2.00202e-32,94.9994,1.98836e-21,44.9289,4.4177e-29
57.8643,208.85,5.00505e-33,94.9994,9.94179e-22,44.9289,2.20885e-29
58.8643,208.85,1.25126e-33,94.9994,4.9709e-22,44.9289,1.10442e-29
59.8643,208.85,3.12815e-34,94.9994,2.48545e-22,44.9289,5.52212e-30
60.8643,208.85,7.82038e-35,94.9994,1.24272e-22,44.9289,2.76106e-30
61.8643,208.85,1.9551e-35,94.9994,6.21362e-23,44.9289,1.38053e-30
62.8643,208.85,4.88774e-36,94.9994,3.10681e-23,44.9289,6.90265e-31
63.8643,208.85,1.22193e-36,94.9994,1.55341e-23,44.9289,3.45133e-31
64.8643,208.85,3.05484e-37,94.9994,7.76703e-24,44.9289,1.72566e-31
65.8643,208.85,7.63709e-38,94.9994,3.88351e-24,44.9289,8.62832e-32
66.8643,208.85,1.90927e-38,94.9994,1.94176e-24,44.9289,4.31416e-32
67.8643,208.85,4.77318e-39,94.9994,9.70878e-25,44.9289,2.15708e-32
68.8643,208.85,1.1933e-39,94.9994,4.85439e-25,44.9289,1.07854e-32
69.8643,208.85,2.98324e-40,94.9994,2.4272e-25,44.9289,5.64684e-35
70.8643,208.85,7.4581e-41,94.9994,1.2136e-25,44.9289,2.95648e-37
71.8643,208.85,1.86452e-41,94.9994,6.06799e-26,44.9289,1.5479e-39
72.8643,208.85,4.66131e-42,94.9994,3.03399e-26,44.9289,8.10426e-42
73.8643,208.85,1.16533e-42,94.9994,1.517e-26,44.9289,4.2431e-44
74.8643,208.85,2.91332e-43,94.9994,7.58499e-27,44.9289,2.22153e-46
75.8643,208.85,7.2833e-44,94.9994,3.79249e-27,44.9289,1.16311e-48
76.8643,208.85,1.82082e-44,94.9994,1.89625e-27,44.9289,6.08963e-51
77.8643,208.85,4.55206e-45,94.9994,9.48123e-28,44.9289,3.18831e-53
78.8643,208.85,1.13802e-45,94.9994,4.74062e-28,44.9289,1.66928e-55
79.8643,208.85,2.84504e-46,94.9994,2.37031e-28,44.9289,8.73975e-58
80.8643,208.85,7.1126e-47,94.9994,1.18515e-28,44.9289,4.57581e-60
81.8643,208.85,1.77815e-47,94.9994,5.92577e-29,44.9289,2.39573e-62
82.8643,208.85,4.44537e-48,94.9994,2.96289e-29,44.9289,1.25432e-64
83.8643,208.85,1.11134e-48,94.9994,1.48144e-29,44.9289,6.56714e-67
84.8643,208.85,2.77836e-49,94.9994,7.40721e-30,44.9289,3.43832e-69
85.8643,208.85,6.9459e-50,94.9994,3.70361e-30,44.9289,1.80018e-71
86.8643,208.85,1.73647e-50,94.9994,1.8518e-30,44.9289,9.42507e-74
87.8643,208.85,4.34119e-51,94.9994,9.25902e-31,44.9289,4.93462e-76
88.8643,208.85,1.0853e-51,94.9994,4.62951e-31,44.9289,2.58359e-78
89.8643,208.85,2.71324e-52,94.9994,2.31475e-31,44.9289,1.35267e-80
90.8643,208.85,6.7831e-53,94.9994,1.15738e-31,44.9289,7.0821e-83
91.8643,208.85,1.69578e-53,94.9994,5.78689e-32,44.9289,3.70793e-85
92.8643,208.85,4.23944e-54,94.9994,2.89344e-32,44.9289,1.94134e-87
93.8643,208.85,1.05986e-54,94.9994,1.44672e-32,44.9289,1.01641e-89
94.8643,208.85,2.64965e-55,94.9994,7.23361e-33,44.9289,5.32157e-92
95.8643,208.85,6.62412e-56,94.9994,3.6168e-33,44.9289,2.78618e-94
96.8643,208.85,1.65603e-56,94.9994,1.8084e-33,44.9289,1.45874e-96
97.8643,208.85,4.14008e-57,94.9994,9.04201e-34,44.9289,7.63743e-99
98.8643,208.85,1.03502e-57,94.9994,4.521e-34,44.9289,3.99868e-101
99.8643,208.85,2.58755e-58,94.9994,2.2605e-34,44.9289,2.09356e-103
100,208.85,1.83904e-58,94.9994,1.99046e-34,44.9289,7.81851e-105
