#Time,F,E,D,C,B,A
0,13.715,11.5933,341.225,0,3.93137,137.705
0,13.7151,11.5933,341.225,0,3.95016,137.686
0,13.7151,11.5932,341.225,0,3.98338,137.653
0,13.7151,11.5932,341.225,0,4.0166,137.62
0,13.7151,11.5932,341.225,0,4.0498,137.587
0,13.7151,11.5932,341.225,0,4.083,137.553
0,13.7151,11.5932,341.225,0,4.11619,137.52
0,13.7151,11.5932,341.225,0,4.14937,137.487
0,13.7151,11.5932,341.225,0,4.18254,137.454
0,13.7152,11.5932,341.225,0,4.2157,137.421
0,13.7152,11.5931,341.225,0,4.24886,137.388
0,13.7152,11.5931,341.225,0,4.28201,137.354
0,13.7152,11.5931,341.225,0,4.31515,137.321
0,13.7152,11.5931,341.225,0,4.34828,137.288
0,13.7152,11.5931,341.225,0,4.38141,137.255
0,13.7152,11.5931,341.225,0,4.41452,137.222
0,13.7152,11.5931,341.225,0,4.44763,137.189
0,13.7153,11.5931,341.225,0,4.48073,137.156
0,13.7153,11.593,341.225,0,4.51383,137.123
0,13.7153,11.593,341.225,0,4.54691,137.09
0,13.7153,11.593,341.225,0,4.57999,137.056
0,13.7153,11.593,341.225,0,4.61306,137.023
0,13.7153,11.593,341.225,0,4.64612,136.99
0,13.7153,11.593,341.225,0,4.67917,136.957
0,13.7153,11.593,341.225,0,4.71221,136.924
0,13.7154,11.593,341.225,0,4.74525,136.891
0,13.7154,11.5929,341.225,0,4.77828,136.858
0,13.7154,11.5929,341.225,0,4.8113,136.825
0,13.7154,11.5929,341.225,0,4.84431,136.792
0,13.7154,11.5929,341.225,0,4.87732,136.759
0,13.7154,11.5929,341.225,0,4.91031,136.726
0,13.7154,11.5929,341.225,0,4.9433,136.693
0,13.7154,11.5929,341.225,0,4.97628,136.66
0,13.7155,11.5929,341.225,0,5.00926,136.627
0,13.7155,11.5928,341.225,0,5.04222,136.594
0,13.7155,11.5928,341.225,0,5.07518,136.561
0,13.7155,11.5928,341.225,0,5.10813,136.528
0,13.7155,11.5928,341.225,0,5.14107,136.495
0,13.7155,11.5928,341.225,0,5.174,136.462
0,13.7155,11.5928,341.225,0,5.20693,136.43
0,13.7155,11.5928,341.225,0,5.23985,136.397
0,13.7155,11.5928,341.225,0,5.27276,136.364
0,13.7156,11.5927,341.225,0,5.30566,136.331
0,13.7156,11.5927,341.225,0,5.33855,136.298
0,13.7156,11.5927,341.225,0,5.37144,136.265
0,13.7156,11.5927,341.225,0,5.40431,136.232
0,13.7156,11.5927,341.225,0,5.43718,136.199
0,13.7156,11.5927,341.225,0,5.47005,136.166
0,13.7156,11.5927,341.225,0,5.5029,136.134
0,13.7156,11.5927,341.225,0,5.53575,136.101
0,13.7157,11.5927,341.225,0,5.56858,136.068
0,13.7157,11.5926,341.225,0,5.60141,136.035
0,13.7157,11.5926,341.225,0,5.63424,136.002
0,13.7157,11.5926,341.225,0,5.66705,135.969
0,13.7157,11.5926,341.225,0,5.69986,135.937
0,13.7157,11.5926,341.225,0,5.73266,135.904
0,13.7157,11.5926,341.225,0,5.76545,135.871
0,13.7157,11.5926,341.225,0,5.79823,135.838
0,13.7158,11.5926,341.225,0,5.831,135.805
0,13.7158,11.5925,341.225,0,5.86377,135.773
0,13.7158,11.5925,341.225,0,5.89653,135.74
0,13.7158,11.5925,341.225,0,5.92928,135.707
0,13.7158,11.5925,341.225,0,5.96202,135.674
0,13.7158,11.5925,341.225,0,5.99476,135.642
0,13.7158,11.5925,341.225,0,6.02749,135.609
0,13.7158,11.5925,341.225,0,6.06021,135.576
0,13.7159,11.5925,341.225,0,6.09292,135.544
0,13.7159,11.5924,341.225,0,6.12562,135.511
0,13.7159,11.5924,341.225,0,6.15832,135.478
0,13.7159,11.5924,341.225,0,6.191,135.445
0,13.7159,11.5924,341.225,0,6.22368,135.413
0,13.7159,11.5924,341.225,0,6.25636,135.38
0,13.7159,11.5924,341.225,0,6.28902,135.347
0,13.7159,11.5924,341.225,0,6.32168,135.315
0,13.716,11.5924,341.225,0,6.35433,135.282
0,13.716,11.5923,341.225,0,6.38697,135.25
0,13.716,11.5923,341.225,0,6.4196,135.217
0,13.716,11.5923,341.225,0,6.45222,135.184
0,13.716,11.5923,341.225,0,6.48484,135.152
0,13.716,11.5923,341.225,0,6.51745,135.119
0,13.716,11.5923,341.225,0,6.55005,135.086
0,13.716,11.5923,341.225,0,6.58264,135.054
0,13.7161,11.5923,341.225,0,6.61523,135.021
0,13.7161,11.5922,341.225,0,6.64781,134.989
0,13.7161,11.5922,341.225,0,6.68038,134.956
0,13.7161,11.5922,341.225,0,6.71294,134.924
0,13.7161,11.5922,341.225,0,6.74549,134.891
0,13.7161,11.5922,341.225,0,6.77804,134.858
0,13.7161,11.5922,341.225,0,6.81058,134.826
0,13.7161,11.5922,341.225,0,6.84311,134.793
0,13.7162,11.5922,341.225,0,6.87563,134.761
0,13.7162,11.5921,341.225,0,6.91708,134.719
0,13.7162,11.5921,341.225,0,6.95852,134.678
0,13.7162,11.5921,341.225,0,6.99995,134.637
0,13.7162,11.5921,341.225,0,7.04136,134.595
0,13.7162,11.5921,341.225,0,7.08276,134.554
0,13.7162,11.5921,341.225,0,7.12415,134.512
0,13.7163,11.592,341.225,0,7.16553,134.471
0,13.7163,11.592,341.225,0,7.20689,134.43
0,13.7163,11.592,341.225,0,7.24824,134.388
0,13.7163,11.592,341.225,0,7.28958,134.347
0,13.7163,11.592,341.225,0,7.3309,134.306
0,13.7163,11.592,341.225,0,7.37222,134.264
0,13.7164,11.592,341.225,0,7.41352,134.223
0,13.7164,11.5919,341.225,0,7.4548,134.182
0,13.7164,11.5919,341.225,0,7.49608,134.14
0,13.7164,11.5919,341.225,0,7.53734,134.099
0,13.7164,11.5919,341.225,0,7.57859,134.058
0,13.7164,11.5919,341.225,0,7.61982,134.017
0,13.7164,11.5919,341.225,0,7.66105,133.975
0,13.7165,11.5918,341.225,0,7.70226,133.934
0,13.7165,11.5918,341.225,0,7.74346,133.893
0,13.7165,11.5918,341.225,0,7.78464,133.852
0,13.7165,11.5918,341.225,0,7.82581,133.811
0,13.7165,11.5918,341.225,0,7.86697,133.769
0,13.7165,11.5918,341.225,0,7.90812,133.728
0,13.7166,11.5918,341.225,0,7.94926,133.687
0,13.7166,11.5917,341.225,0,7.99038,133.646
0,13.7166,11.5917,341.225,0,8.03149,133.605
0,13.7166,11.5917,341.225,0,8.07258,133.564
0,13.7166,11.5917,341.225,0,8.11367,133.523
0,13.7166,11.5917,341.225,0,8.15474,133.482
0,13.7167,11.5917,341.225,0,8.1958,133.441
0,13.7167,11.5916,341.225,0,8.23684,133.4
0,13.7167,11.5916,341.225,0,8.27788,133.359
0,13.7167,11.5916,341.225,0,8.3189,133.318
0,13.7167,11.5916,341.225,0,8.35991,133.277
0,13.7167,11.5916,341.225,0,8.4009,133.236
0,13.7167,11.5916,341.225,0,8.44189,133.195
0,13.7168,11.5915,341.225,0,8.48286,133.154
0,13.7168,11.5915,341.225,0,8.52381,133.113
0,13.7168,11.5915,341.225,0,8.56476,133.072
0,13.7168,11.5915,341.225,0,8.60569,133.031
0,13.7168,11.5915,341.225,0,8.64661,132.99
0,13.7168,11.5915,341.225,0,8.68752,132.949
0,13.7169,11.5915,341.225,0,8.72841,132.908
0,13.7169,11.5914,341.225,0,8.7693,132.867
0,13.7169,11.5914,341.225,0,8.81017,132.826
0,13.7169,11.5914,341.225,0,8.85102,132.785
0,13.7169,11.5914,341.225,0,8.89187,132.745
0,13.7169,11.5914,341.225,0,8.9327,132.704
0,13.717,11.5914,341.225,0,8.97352,132.663
0,13.717,11.5913,341.225,0,9.01433,132.622
0,13.717,11.5913,341.225,0,9.05512,132.581
0,13.717,11.5913,341.225,0,9.0959,132.541
0,13.717,11.5913,341.225,0,9.13667,132.5
0,13.717,11.5913,341.225,0,9.17743,132.459
0,13.717,11.5913,341.225,0,9.21817,132.418
0,13.7171,11.5912,341.225,0,9.25891,132.378
0,13.7171,11.5912,341.225,0,9.29963,132.337
0,13.7171,11.5912,341.225,0,9.34033,132.296
0,13.7171,11.5912,341.225,0,9.38103,132.255
0,13.7171,11.5912,341.225,0,9.42171,132.215
0,13.7171,11.5912,341.225,0,9.46238,132.174
0,13.7172,11.5912,341.225,0,9.50303,132.133
0,13.7172,11.5911,341.225,0,9.54368,132.093
0,13.7172,11.5911,341.225,0,9.58431,132.052
0,13.7172,11.5911,341.225,0,9.62493,132.012
0,13.7172,11.5911,341.225,0,9.66553,131.971
0,13.7172,11.5911,341.225,0,9.70613,131.93
0,13.7172,11.5911,341.225,0,9.74671,131.89
0,13.7173,11.591,341.225,0,9.78728,131.849
0,13.7173,11.591,341.225,0,9.82784,131.809
0,13.7173,11.591,341.225,0,9.86838,131.768
0,13.7173,11.591,341.225,0,9.90891,131.728
0,13.7173,11.591,341.225,0,9.94943,131.687
0,13.7173,11.591,341.225,0,9.98994,131.647
0,13.7174,11.591,341.225,0,10.0304,131.606
0,13.7174,11.5909,341.225,0,10.0709,131.566
0,13.7174,11.5909,341.225,0,10.1114,131.525
0,13.7174,11.5909,341.225,0,10.1518,131.485
0,13.7174,11.5909,341.225,0,10.1923,131.444
0,13.7174,11.5909,341.225,0,10.2327,131.404
0,13.7175,11.5909,341.225,0,10.2731,131.363
0,13.7175,11.5908,341.225,0,10.3135,131.323
0,13.7175,11.5908,341.225,0,10.3539,131.283
0,13.7175,11.5908,341.225,0,10.3943,131.242
0,13.7175,11.5908,341.225,0,10.4347,131.202
0,13.7175,11.5908,341.225,0,10.475,131.161
0,13.7175,11.5908,341.225,0,10.5154,131.121
0,13.7176,11.5907,341.225,0,10.5557,131.081
0,13.7176,11.5907,341.225,0,10.596,131.04
0,13.7176,11.5907,341.225,0,10.6364,131
0,13.7176,11.5907,341.225,0,10.6767,130.96
0,13.7176,11.5907,341.225,0,10.7169,130.92
0,13.7176,11.5907,341.225,0,10.7572,130.879
0,13.7177,11.5907,341.225,0,10.7975,130.839
0,13.7177,11.5906,341.225,0,10.8377,130.799
0,13.7177,11.5906,341.225,0,10.8779,130.759
0,13.7177,11.5906,341.225,0,10.9182,130.718
0,13.7177,11.5906,341.225,0,10.9584,130.678
0,13.7177,11.5906,341.225,0,10.9986,130.638
0,13.7178,11.5906,341.225,0,11.0388,130.598
0,13.7178,11.5905,341.225,0,11.0789,130.558
0,13.7178,11.5905,341.225,0,11.1191,130.517
0,13.7178,11.5905,341.225,0,11.1592,130.477
0,13.7178,11.5905,341.225,0,11.1994,130.437
0,13.7178,11.5905,341.225,0,11.2395,130.397
0,13.7178,11.5905,341.225,0,11.2796,130.357
0,13.7179,11.5904,341.225,0,11.3197,130.317
0,13.7179,11.5904,341.225,0,11.3598,130.277
0,13.7179,11.5904,341.225,0,11.4108,130.226
0,13.7179,11.5904,341.225,0,11.4619,130.175
0,13.7179,11.5904,341.225,0,11.5129,130.124
0,13.718,11.5904,341.225,0,11.5639,130.073
0,13.718,11.5903,341.225,0,11.6148,130.022
0,13.718,11.5903,341.225,0,11.6658,129.971
0,13.718,11.5903,341.225,0,11.7167,129.92
0,13.718,11.5903,341.225,0,11.7676,129.869
0,13.7181,11.5903,341.225,0,11.8185,129.818
0,13.7181,11.5902,341.225,0,11.8694,129.767
0,13.7181,11.5902,341.225,0,11.9203,129.716
0,13.7181,11.5902,341.225,0,11.9711,129.665
0,13.7181,11.5902,341.225,0,12.0219,129.615
0,13.7182,11.5902,341.225,0,12.0727,129.564
0,13.7182,11.5901,341.225,0,12.1235,129.513
0,13.7182,11.5901,341.225,0,12.1742,129.462
0,13.7182,11.5901,341.225,0,12.225,129.411
0,13.7182,11.5901,341.225,0,12.2757,129.361
0,13.7183,11.5901,341.225,0,12.3264,129.31
0,13.7183,11.59,341.225,0,12.3771,129.259
0,13.7183,11.59,341.225,0,12.4277,129.209
0,13.7183,11.59,341.225,0,12.4783,129.158
0,13.7183,11.59,341.225,0,12.529,129.108
0,13.7184,11.59,341.225,0,12.5796,129.057
0,13.7184,11.5899,341.225,0,12.6301,129.006
0,13.7184,11.5899,341.225,0,12.6807,128.956
0,13.7184,11.5899,341.225,0,12.7312,128.905
0,13.7184,11.5899,341.225,0,12.7817,128.855
0,13.7185,11.5899,341.225,0,12.8322,128.804
0,13.7185,11.5898,341.225,0,12.8827,128.754
0,13.7185,11.5898,341.225,0,12.9332,128.703
0,13.7185,11.5898,341.225,0,12.9836,128.653
0,13.7185,11.5898,341.225,0,13.034,128.602
0,13.7186,11.5898,341.225,0,13.0844,128.552
0,13.7186,11.5897,341.225,0,13.1348,128.502
0,13.7186,11.5897,341.225,0,13.1852,128.451
0,13.7186,11.5897,341.225,0,13.2355,128.401
0,13.7186,11.5897,341.225,0,13.2858,128.351
0,13.7187,11.5897,341.225,0,13.3361,128.3
0,13.7187,11.5896,341.225,0,13.3864,128.25
0,13.7187,11.5896,341.225,0,13.4367,128.2
0,13.7187,11.5896,341.225,0,13.4869,128.15
0,13.7187,11.5896,341.225,0,13.5371,128.099
0,13.7188,11.5896,341.225,0,13.5873,128.049
0,13.7188,11.5895,341.225,0,13.6375,127.999
0,13.7188,11.5895,341.225,0,13.6877,127.949
0,13.7188,11.5895,341.225,0,13.7378,127.899
0,13.7188,11.5895,341.225,0,13.7879,127.849
0,13.7189,11.5895,341.225,0,13.838,127.798
0,13.7189,11.5894,341.225,0,13.8881,127.748
0,13.7189,11.5894,341.225,0,13.9382,127.698
0,13.7189,11.5894,341.225,0,13.9882,127.648
0,13.7189,11.5894,341.225,0,14.0382,127.598
0,13.719,11.5894,341.225,0,14.0882,127.548
0,13.719,11.5893,341.225,0,14.1382,127.498
0,13.719,11.5893,341.225,0,14.1882,127.448
0,13.719,11.5893,341.225,0,14.2381,127.398
0,13.719,11.5893,341.225,0,14.2881,127.348
0,13.7191,11.5893,341.225,0,14.338,127.299
0,13.7191,11.5892,341.225,0,14.3878,127.249
0,13.7191,11.5892,341.225,0,14.4377,127.199
0,13.7191,11.5892,341.225,0,14.4876,127.149
0,13.7191,11.5892,341.225,0,14.5374,127.099
0,13.7192,11.5892,341.225,0,14.5872,127.049
0,13.7192,11.5891,341.225,0,14.637,126.999
0,13.7192,11.5891,341.225,0,14.6868,126.95
0,13.7192,11.5891,341.225,0,14.7365,126.9
0,13.7192,11.5891,341.225,0,14.7862,126.85
0,13.7193,11.5891,341.225,0,14.8359,126.801
0,13.7193,11.589,341.225,0,14.8856,126.751
0,13.7193,11.589,341.225,0,14.9353,126.701
0,13.7193,11.589,341.225,0,14.985,126.652
0,13.7193,11.589,341.225,0,15.0346,126.602
0,13.7194,11.589,341.225,0,15.0842,126.552
0,13.7194,11.5889,341.225,0,15.1338,126.503
0,13.7194,11.5889,341.225,0,15.1834,126.453
0,13.7194,11.5889,341.225,0,15.2329,126.404
0,13.7194,11.5889,341.225,0,15.2825,126.354
0,13.7195,11.5889,341.225,0,15.332,126.304
0,13.7195,11.5888,341.225,0,15.3815,126.255
0,13.7195,11.5888,341.225,0,15.431,126.206
0,13.7195,11.5888,341.225,0,15.4804,126.156
0,13.7195,11.5888,341.225,0,15.5299,126.107
0,13.7196,11.5888,341.225,0,15.5793,126.057
0,13.7196,11.5887,341.225,0,15.6287,126.008
0,13.7196,11.5887,341.225,0,15.6781,125.958
0,13.7196,11.5887,341.225,0,15.7274,125.909
0,13.7196,11.5887,341.225,0,15.7768,125.86
0,13.7197,11.5887,341.225,0,15.8261,125.81
0,13.7197,11.5886,341.225,0,15.8754,125.761
0,13.7197,11.5886,341.225,0,15.9247,125.712
0,13.7197,11.5886,341.225,0,15.9739,125.663
0,13.7197,11.5886,341.225,0,16.0232,125.613
0,13.7198,11.5886,341.225,0,16.0724,125.564
0,13.7198,11.5885,341.225,0,16.1216,125.515
0,13.7198,11.5885,341.225,0,16.1708,125.466
0,13.7198,11.5885,341.225,0,16.22,125.417
0,13.7198,11.5885,341.225,0,16.2691,125.367
0,13.7199,11.5885,341.225,0,16.3182,125.318
0,13.7199,11.5884,341.225,0,16.3674,125.269
0,13.7199,11.5884,341.225,0,16.4164,125.22
0,13.7199,11.5884,341.225,0,16.4655,125.171
0,13.7199,11.5884,341.225,0,16.5146,125.122
0,13.72,11.5884,341.225,0,16.5636,125.073
0,13.72,11.5883,341.225,0,16.6126,125.024
0,13.72,11.5883,341.225,0,16.6616,124.975
0,13.72,11.5883,341.225,0,16.7106,124.926
0,13.72,11.5883,341.225,0,16.7595,124.877
0,13.7201,11.5883,341.225,0,16.8085,124.828
0,13.7201,11.5882,341.225,0,16.8574,124.779
0,13.7201,11.5882,341.225,0,16.9063,124.73
0,13.7201,11.5882,341.225,0,16.9552,124.681
0,13.7201,11.5882,341.225,0,17.004,124.632
0,13.7202,11.5882,341.225,0,17.0529,124.584
0,13.7202,11.5881,341.225,0,17.1017,124.535
0,13.7202,11.5881,341.225,0,17.1505,124.486
0,13.7202,11.5881,341.225,0,17.1993,124.437
0,13.7202,11.5881,341.225,0,17.2481,124.388
0,13.7203,11.5881,341.225,0,17.2968,124.34
0,13.7203,11.588,341.225,0,17.3455,124.291
0,13.7203,11.588,341.225,0,17.3942,124.242
0,13.7203,11.588,341.225,0,17.4429,124.194
0,13.7203,11.588,341.225,0,17.4916,124.145
0,13.7204,11.588,341.225,0,17.5402,124.096
0,13.7204,11.5879,341.225,0,17.5889,124.048
0,13.7204,11.5879,341.225,0,17.6375,123.999
0,13.7204,11.5879,341.225,0,17.6861,123.95
0,13.7204,11.5879,341.225,0,17.7347,123.902
0,13.7205,11.5879,341.225,0,17.7832,123.853
0,13.7205,11.5878,341.225,0,17.8318,123.805
0,13.7205,11.5878,341.225,0,17.8803,123.756
0,13.7205,11.5878,341.225,0,17.9288,123.708
0,13.7205,11.5878,341.225,0,17.9772,123.659
0,13.7206,11.5878,341.225,0,18.0257,123.611
0,13.7206,11.5877,341.225,0,18.0874,123.549
0,13.7206,11.5877,341.225,0,18.1491,123.487
0,13.7206,11.5877,341.225,0,18.2107,123.426
0,13.7207,11.5877,341.225,0,18.2723,123.364
0,13.7207,11.5876,341.225,0,18.3339,123.303
0,13.7207,11.5876,341.225,0,18.3954,123.241
0,13.7207,11.5876,341.225,0,18.4569,123.18
0,13.7208,11.5876,341.225,0,18.5184,123.118
0,13.7208,11.5875,341.225,0,18.5798,123.057
0,13.7208,11.5875,341.225,0,18.6413,122.995
0,13.7208,11.5875,341.225,0,18.7026,122.934
0,13.7209,11.5875,341.225,0,18.764,122.872
0,13.7209,11.5874,341.225,0,18.8253,122.811
0,13.7209,11.5874,341.225,0,18.8866,122.75
0,13.7209,11.5874,341.225,0,18.9479,122.689
0,13.721,11.5874,341.225,0,19.0091,122.627
0,13.721,11.5873,341.225,0,19.0703,122.566
0,13.721,11.5873,341.225,0,19.1315,122.505
0,13.721,11.5873,341.225,0,19.1926,122.444
0,13.7211,11.5872,341.225,0,19.2537,122.383
0,13.7211,11.5872,341.225,0,19.3148,122.322
0,13.7211,11.5872,341.225,0,19.3759,122.261
0,13.7211,11.5872,341.225,0,19.4369,122.2
0,13.7212,11.5871,341.225,0,19.4979,122.139
0,13.7212,11.5871,341.225,0,19.5588,122.078
0,13.7212,11.5871,341.225,0,19.6198,122.017
0,13.7212,11.5871,341.225,0,19.6807,121.956
0,13.7213,11.587,341.225,0,19.7415,121.895
0,13.7213,11.587,341.225,0,19.8024,121.834
0,13.7213,11.587,341.225,0,19.8632,121.773
0,13.7213,11.587,341.225,0,19.924,121.713
0,13.7214,11.5869,341.225,0,19.9847,121.652
0,13.7214,11.5869,341.225,0,20.0454,121.591
0,13.7214,11.5869,341.225,0,20.1061,121.53
0,13.7214,11.5869,341.225,0,20.1668,121.47
0,13.7215,11.5868,341.225,0,20.2274,121.409
0,13.7215,11.5868,341.225,0,20.288,121.348
0,13.7215,11.5868,341.225,0,20.3485,121.288
0,13.7215,11.5868,341.225,0,20.4091,121.227
0,13.7216,11.5867,341.225,0,20.4696,121.167
0,13.7216,11.5867,341.225,0,20.5301,121.106
0,13.7216,11.5867,341.225,0,20.5905,121.046
0,13.7216,11.5867,341.225,0,20.6509,120.986
0,13.7217,11.5866,341.225,0,20.7113,120.925
0,13.7217,11.5866,341.225,0,20.7716,120.865
0,13.7217,11.5866,341.225,0,20.832,120.804
0,13.7217,11.5866,341.225,0,20.8923,120.744
0,13.7218,11.5865,341.225,0,20.9525,120.684
0,13.7218,11.5865,341.225,0,21.0128,120.624
0,13.7218,11.5865,341.225,0,21.073,120.564
0,13.7218,11.5865,341.225,0,21.1331,120.503
0,13.7219,11.5864,341.225,0,21.1933,120.443
0,13.7219,11.5864,341.225,0,21.2534,120.383
0,13.7219,11.5864,341.225,0,21.3135,120.323
0,13.722,11.5864,341.225,0,21.3735,120.263
0,13.722,11.5863,341.225,0,21.4335,120.203
0,13.722,11.5863,341.225,0,21.4935,120.143
0,13.722,11.5863,341.225,0,21.5535,120.083
0,13.7221,11.5863,341.225,0,21.6134,120.023
0,13.7221,11.5862,341.225,0,21.6733,119.963
0,13.7221,11.5862,341.225,0,21.7332,119.903
0,13.7221,11.5862,341.225,0,21.7931,119.843
0,13.7222,11.5862,341.225,0,21.8529,119.784
0,13.7222,11.5861,341.225,0,21.9127,119.724
0,13.7222,11.5861,341.225,0,21.9724,119.664
0,13.7222,11.5861,341.225,0,22.0321,119.604
0,13.7223,11.5861,341.225,0,22.0918,119.545
0,13.7223,11.586,341.225,0,22.1515,119.485
0,13.7223,11.586,341.225,0,22.2111,119.425
0,13.7223,11.586,341.225,0,22.2707,119.366
0,13.7224,11.586,341.225,0,22.3303,119.306
0,13.7224,11.5859,341.225,0,22.3898,119.247
0,13.7224,11.5859,341.225,0,22.4494,119.187
0,13.7224,11.5859,341.225,0,22.5088,119.128
0,13.7225,11.5859,341.225,0,22.5683,119.068
0,13.7225,11.5858,341.225,0,22.6277,119.009
0,13.7225,11.5858,341.225,0,22.6871,118.949
0,13.7225,11.5858,341.225,0,22.7465,118.89
0,13.7226,11.5857,341.225,0,22.8058,118.831
0,13.7226,11.5857,341.225,0,22.8651,118.771
0,13.7226,11.5857,341.225,0,22.9244,118.712
0,13.7226,11.5857,341.225,0,22.9837,118.653
0,13.7227,11.5856,341.225,0,23.0429,118.594
0,13.7227,11.5856,341.225,0,23.1021,118.534
0,13.7227,11.5856,341.225,0,23.1612,118.475
0,13.7227,11.5856,341.225,0,23.2204,118.416
0,13.7228,11.5855,341.225,0,23.2795,118.357
0,13.7228,11.5855,341.225,0,23.3385,118.298
0,13.7228,11.5855,341.225,0,23.3976,118.239
0,13.7228,11.5855,341.225,0,23.4566,118.18
0,13.7229,11.5854,341.225,0,23.5156,118.121
0,13.7229,11.5854,341.225,0,23.5745,118.062
0,13.7229,11.5854,341.225,0,23.6335,118.003
0,13.7229,11.5854,341.225,0,23.6923,117.944
0,13.723,11.5853,341.225,0,23.7512,117.885
0,13.723,11.5853,341.225,0,23.81,117.826
0,13.723,11.5853,341.225,0,23.8689,117.768
0,13.723,11.5853,341.225,0,23.9276,117.709
0,13.7231,11.5852,341.225,0,23.9864,117.65
0,13.7231,11.5852,341.225,0,24.0451,117.591
0,13.7231,11.5852,341.225,0,24.1038,117.533
0,13.7231,11.5852,341.225,0,24.1624,117.474
0,13.7232,11.5851,341.225,0,24.2211,117.415
0,13.7232,11.5851,341.225,0,24.2797,117.357
0,13.7232,11.5851,341.225,0,24.3382,117.298
0,13.7232,11.5851,341.225,0,24.3968,117.24
0,13.7233,11.585,341.225,0,24.4553,117.181
0,13.7233,11.585,341.225,0,24.5138,117.123
0,13.7233,11.585,341.225,0,24.5722,117.064
0,13.7234,11.585,341.225,0,24.6307,117.006
0,13.7234,11.5849,341.225,0,24.6891,116.947
0,13.7234,11.5849,341.225,0,24.7474,116.889
0,13.7234,11.5849,341.225,0,24.8058,116.831
0,13.7235,11.5849,341.225,0,24.8641,116.772
0,13.7235,11.5848,341.225,0,24.9224,116.714
0,13.7235,11.5848,341.225,0,24.9806,116.656
0,13.7235,11.5848,341.225,0,25.0388,116.598
0,13.7236,11.5848,341.225,0,25.097,116.539
0,13.7236,11.5847,341.225,0,25.1552,116.481
0,13.7236,11.5847,341.225,0,25.2133,116.423
0,13.7236,11.5847,341.225,0,25.2714,116.365
0,13.7237,11.5847,341.225,0,25.3295,116.307
0,13.7237,11.5846,341.225,0,25.3876,116.249
0,13.7237,11.5846,341.225,0,25.4456,116.191
0,13.7237,11.5846,341.225,0,25.5036,116.133
0,13.7238,11.5846,341.225,0,25.5615,116.075
0,13.7238,11.5845,341.225,0,25.6195,116.017
0,13.7238,11.5845,341.225,0,25.6774,115.959
0,13.7238,11.5845,341.225,0,25.7352,115.901
0,13.7239,11.5845,341.225,0,25.7931,115.843
0,13.7239,11.5844,341.225,0,25.8509,115.786
0,13.7239,11.5844,341.225,0,25.9087,115.728
0,13.7239,11.5844,341.225,0,25.9665,115.67
0,13.724,11.5843,341.225,0,26.0242,115.612
0,13.724,11.5843,341.225,0,26.0819,115.555
0,13.724,11.5843,341.225,0,26.1396,115.497
0,13.724,11.5843,341.225,0,26.1972,115.439
0,13.7241,11.5842,341.225,0,26.2548,115.382
0,13.7241,11.5842,341.225,0,26.3124,115.324
0,13.7241,11.5842,341.225,0,26.37,115.267
0,13.7241,11.5842,341.225,0,26.4275,115.209
0,13.7242,11.5841,341.225,0,26.485,115.151
0,13.7242,11.5841,341.225,0,26.5425,115.094
0,13.7242,11.5841,341.225,0,26.5999,115.037
0,13.7242,11.5841,341.225,0,26.6573,114.979
0,13.7243,11.584,341.225,0,26.7147,114.922
0,13.7243,11.584,341.225,0,26.7721,114.864
0,13.7243,11.584,341.225,0,26.8294,114.807
0,13.7243,11.584,341.225,0,26.8867,114.75
0,13.7244,11.5839,341.225,0,26.944,114.693
0,13.7244,11.5839,341.225,0,27.0012,114.635
0,13.7244,11.5839,341.225,0,27.0584,114.578
0,13.7244,11.5839,341.225,0,27.1156,114.521
0,13.7245,11.5838,341.225,0,27.1728,114.464
0,13.7245,11.5838,341.225,0,27.2299,114.407
0,13.7245,11.5838,341.225,0,27.287,114.349
0,13.7245,11.5838,341.225,0,27.3441,114.292
0,13.7246,11.5837,341.225,0,27.4011,114.235
0,13.7246,11.5837,341.225,0,27.4581,114.178
0,13.7246,11.5837,341.225,0,27.5151,114.121
0,13.7247,11.5837,341.225,0,27.5877,114.049
0,13.7247,11.5836,341.225,0,27.6602,113.976
0,13.7247,11.5836,341.225,0,27.7326,113.904
0,13.7248,11.5836,341.225,0,27.8051,113.831
0,13.7248,11.5835,341.225,0,27.8774,113.759
0,13.7248,11.5835,341.225,0,27.9498,113.687
0,13.7248,11.5835,341.225,0,28.0221,113.614
0,13.7249,11.5834,341.225,0,28.0943,113.542
0,13.7249,11.5834,341.225,0,28.1665,113.47
0,13.7249,11.5834,341.225,0,28.2386,113.398
0,13.725,11.5833,341.225,0,28.3107,113.326
0,13.725,11.5833,341.225,0,28.3828,113.254
0,13.725,11.5833,341.225,0,28.4548,113.182
0,13.7251,11.5832,341.225,0,28.5268,113.11
0,13.7251,11.5832,341.225,0,28.5987,113.038
0,13.7251,11.5832,341.225,0,28.6706,112.966
0,13.7252,11.5831,341.225,0,28.7424,112.894
0,13.7252,11.5831,341.225,0,28.8142,112.822
0,13.7252,11.5831,341.225,0,28.8859,112.751
0,13.7253,11.583,341.225,0,28.9576,112.679
0,13.7253,11.583,341.225,0,29.0292,112.607
0,13.7253,11.583,341.225,0,29.1008,112.536
0,13.7254,11.5829,341.225,0,29.1724,112.464
0,13.7254,11.5829,341.225,0,29.2439,112.393
0,13.7254,11.5829,341.225,0,29.3153,112.321
0,13.7255,11.5828,341.225,0,29.3868,112.25
0,13.7255,11.5828,341.225,0,29.4581,112.178
0,13.7255,11.5828,341.225,0,29.5295,112.107
0,13.7256,11.5827,341.225,0,29.6007,112.036
0,13.7256,11.5827,341.225,0,29.672,111.964
0,13.7256,11.5827,341.225,0,29.7432,111.893
0,13.7257,11.5827,341.225,0,29.8143,111.822
0,13.7257,11.5826,341.225,0,29.8854,111.751
0,13.7257,11.5826,341.225,0,29.9565,111.68
0,13.7258,11.5826,341.225,0,30.0275,111.609
0,13.7258,11.5825,341.225,0,30.0984,111.538
0,13.7258,11.5825,341.225,0,30.1694,111.467
0,13.7259,11.5825,341.225,0,30.2402,111.396
0,13.7259,11.5824,341.225,0,30.3111,111.325
0,13.7259,11.5824,341.225,0,30.3818,111.255
0,13.7259,11.5824,341.225,0,30.4526,111.184
0,13.726,11.5823,341.225,0,30.5233,111.113
0,13.726,11.5823,341.225,0,30.5939,111.043
0,13.726,11.5823,341.225,0,30.6645,110.972
0,13.7261,11.5822,341.225,0,30.7351,110.901
0,13.7261,11.5822,341.225,0,30.8056,110.831
0,13.7261,11.5822,341.225,0,30.8761,110.76
0,13.7262,11.5821,341.225,0,30.9465,110.69
0,13.7262,11.5821,341.225,0,31.0169,110.62
0,13.7262,11.5821,341.225,0,31.0872,110.549
0,13.7263,11.582,341.225,0,31.1575,110.479
0,13.7263,11.582,341.225,0,31.2277,110.409
0,13.7263,11.582,341.225,0,31.2979,110.339
0,13.7264,11.5819,341.225,0,31.3681,110.268
0,13.7264,11.5819,341.225,0,31.4382,110.198
0,13.7264,11.5819,341.225,0,31.5083,110.128
0,13.7265,11.5818,341.225,0,31.5783,110.058
0,13.7265,11.5818,341.225,0,31.6483,109.988
0,13.7265,11.5818,341.225,0,31.7182,109.918
0,13.7266,11.5817,341.225,0,31.7881,109.848
0,13.7266,11.5817,341.225,0,31.8579,109.779
0,13.7266,11.5817,341.225,0,31.9277,109.709
0,13.7267,11.5816,341.225,0,31.9975,109.639
0,13.7267,11.5816,341.225,0,32.0672,109.569
0,13.7267,11.5816,341.225,0,32.1369,109.5
0,13.7268,11.5816,341.225,0,32.2065,109.43
0,13.7268,11.5815,341.225,0,32.2761,109.36
0,13.7268,11.5815,341.225,0,32.3456,109.291
0,13.7269,11.5815,341.225,0,32.4151,109.221
0,13.7269,11.5814,341.225,0,32.4845,109.152
0,13.7269,11.5814,341.225,0,32.5539,109.083
0,13.727,11.5814,341.225,0,32.6233,109.013
0,13.727,11.5813,341.225,0,32.6926,108.944
0,13.727,11.5813,341.225,0,32.7619,108.875
0,13.7271,11.5813,341.225,0,32.8311,108.805
0,13.7271,11.5812,341.225,0,32.9003,108.736
0,13.7271,11.5812,341.225,0,32.9694,108.667
0,13.7271,11.5812,341.225,0,33.0385,108.598
0,13.7272,11.5811,341.225,0,33.1076,108.529
0,13.7272,11.5811,341.225,0,33.1766,108.46
0,13.7272,11.5811,341.225,0,33.2455,108.391
0,13.7273,11.581,341.225,0,33.3144,108.322
0,13.7273,11.581,341.225,0,33.3833,108.253
0,13.7273,11.581,341.225,0,33.4521,108.184
0,13.7274,11.5809,341.225,0,33.5209,108.116
0,13.7274,11.5809,341.225,0,33.5897,108.047
0,13.7274,11.5809,341.225,0,33.6584,107.978
0,13.7275,11.5808,341.225,0,33.727,107.909
0,13.7275,11.5808,341.225,0,33.7956,107.841
0,13.7275,11.5808,341.225,0,33.8642,107.772
0,13.7276,11.5807,341.225,0,33.9327,107.704
0,13.7276,11.5807,341.225,0,34.0012,107.635
0,13.7276,11.5807,341.225,0,34.0696,107.567
0,13.7277,11.5806,341.225,0,34.138,107.498
0,13.7277,11.5806,341.225,0,34.2064,107.43
0,13.7277,11.5806,341.225,0,34.2747,107.362
0,13.7278,11.5805,341.225,0,34.343,107.294
0,13.7278,11.5805,341.225,0,34.4112,107.225
0,13.7278,11.5805,341.225,0,34.4794,107.157
0,13.7279,11.5804,341.225,0,34.5475,107.089
0,13.7279,11.5804,341.225,0,34.6156,107.021
0,13.7279,11.5804,341.225,0,34.6836,106.953
0,13.728,11.5804,341.225,0,34.7516,106.885
0,13.728,11.5803,341.225,0,34.8196,106.817
0,13.728,11.5803,341.225,0,34.8875,106.749
0,13.7281,11.5803,341.225,0,34.9554,106.681
0,13.7281,11.5802,341.225,0,35.0232,106.613
0,13.7281,11.5802,341.225,0,35.091,106.545
0,13.7282,11.5802,341.225,0,35.1587,106.478
0,13.7282,11.5801,341.225,0,35.2264,106.41
0,13.7282,11.5801,341.225,0,35.2941,106.342
0,13.7282,11.5801,341.225,0,35.3617,106.275
0,13.7283,11.58,341.225,0,35.4293,106.207
0,13.7283,11.58,341.225,0,35.4968,106.14
0,13.7283,11.58,341.225,0,35.5643,106.072
0,13.7284,11.5799,341.225,0,35.6317,106.005
0,13.7284,11.5799,341.225,0,35.6991,105.937
0,13.7284,11.5799,341.225,0,35.7665,105.87
0,13.7285,11.5798,341.225,0,35.8338,105.803
0,13.7285,11.5798,341.225,0,35.9011,105.735
0,13.7285,11.5798,341.225,0,35.9683,105.668
0,13.7286,11.5797,341.225,0,36.0355,105.601
0,13.7286,11.5797,341.225,0,36.1026,105.534
0,13.7286,11.5797,341.225,0,36.1697,105.467
0,13.7287,11.5796,341.225,0,36.2368,105.4
0,13.7287,11.5796,341.225,0,36.3038,105.333
0,13.7287,11.5796,341.225,0,36.3708,105.266
0,13.7288,11.5795,341.225,0,36.4377,105.199
0,13.7288,11.5795,341.225,0,36.5046,105.132
0,13.7288,11.5795,341.225,0,36.5714,105.065
0,13.7289,11.5794,341.225,0,36.6382,104.998
0,13.7289,11.5794,341.225,0,36.705,104.931
0,13.7289,11.5794,341.225,0,36.7717,104.865
0,13.729,11.5793,341.225,0,36.8384,104.798
0,13.729,11.5793,341.225,0,36.905,104.731
0,13.729,11.5793,341.225,0,36.9716,104.665
0,13.7291,11.5793,341.225,0,37.0382,104.598
0,13.7291,11.5792,341.225,0,37.1047,104.532
0,13.7291,11.5792,341.225,0,37.1711,104.465
0,13.7292,11.5792,341.225,0,37.2376,104.399
0,13.7292,11.5791,341.225,0,37.3039,104.333
0,13.7292,11.5791,341.225,0,37.3703,104.266
0,13.7293,11.5791,341.225,0,37.4366,104.2
0,13.7293,11.579,341.225,0,37.5028,104.134
0,13.7293,11.579,341.225,0,37.569,104.067
0,13.7294,11.579,341.225,0,37.6352,104.001
0,13.7294,11.5789,341.225,0,37.7013,103.935
0,13.7294,11.5789,341.225,0,37.7674,103.869
0,13.7294,11.5789,341.225,0,37.8335,103.803
0,13.7295,11.5788,341.225,0,37.8995,103.737
0,13.7295,11.5788,341.225,0,37.9654,103.671
0,13.7295,11.5788,341.225,0,38.0313,103.605
0,13.7296,11.5787,341.225,0,38.0972,103.539
0,13.7296,11.5787,341.225,0,38.163,103.473
0,13.7296,11.5787,341.225,0,38.2288,103.408
0,13.7297,11.5786,341.225,0,38.2946,103.342
0,13.7297,11.5786,341.225,0,38.3603,103.276
0,13.7297,11.5786,341.225,0,38.426,103.211
0,13.7298,11.5785,341.225,0,38.4916,103.145
0,13.7298,11.5785,341.225,0,38.5572,103.079
0,13.7298,11.5785,341.225,0,38.6227,103.014
0,13.7299,11.5784,341.225,0,38.6882,102.948
0,13.7299,11.5784,341.225,0,38.7537,102.883
0,13.7299,11.5784,341.225,0,38.8191,102.817
0,13.73,11.5783,341.225,0,38.8844,102.752
0,13.73,11.5783,341.225,0,38.9498,102.687
0,13.73,11.5783,341.225,0,39.0151,102.621
0,13.7301,11.5782,341.225,0,39.0803,102.556
0,13.7301,11.5782,341.225,0,39.1455,102.491
0,13.7301,11.5782,341.225,0,39.2107,102.426
0,13.7302,11.5781,341.225,0,39.2758,102.361
0,13.7302,11.5781,341.225,0,39.3409,102.296
0,13.7302,11.5781,341.225,0,39.4059,102.231
0,13.7303,11.5781,341.225,0,39.4709,102.166
0,13.7303,11.578,341.225,0,39.5359,102.101
0,13.7303,11.578,341.225,0,39.6008,102.036
0,13.7304,11.578,341.225,0,39.6657,101.971
0,13.7304,11.5779,341.225,0,39.7305,101.906
0,13.7304,11.5779,341.225,0,39.7953,101.841
0,13.7305,11.5779,341.225,0,39.8601,101.776
0,13.7305,11.5778,341.225,0,39.9248,101.712
0,13.7305,11.5778,341.225,0,39.9895,101.647
0,13.7305,11.5778,341.225,0,40.0541,101.582
3.30618e-6,13.7307,11.5776,341.225,0,40.2829,101.354
6.86706e-6,13.7308,11.5775,341.225,0,40.5288,101.108
1.23904e-5,13.731,11.5773,341.225,0,40.9092,100.727
4.13056e-5,13.732,11.5763,341.225,0,42.8774,98.7591
9.435e-5,13.7338,11.5745,341.225,0,46.3887,95.2477
0.000147395,13.7357,11.5726,341.225,0,49.7752,91.8613
0.000215153,13.738,11.5703,341.225,0,53.9263,87.7101
0.000396879,13.7443,11.564,341.225,0,64.1564,77.4801
0.000585484,13.7509,11.5574,341.225,0,73.5138,68.1227
0.000792123,13.758,11.5503,341.225,0,82.4736,59.1628
0.000998763,13.7652,11.5431,341.225,0,90.2551,51.3814
0.00123803,13.7735,11.5348,341.225,0,97.9957,43.6408
0.00160845,13.7863,11.522,341.225,0,107.744,33.8924
0.00198569,13.7993,11.509,341.225,0,115.437,26.1994
0.00237658,13.8128,11.4955,341.225,0,121.572,20.0649
0.00276747,13.8263,11.482,341.225,0,126.27,15.3668
0.00315835,13.8397,11.4686,341.225,0,129.868,11.7687
0.00360344,13.855,11.4533,341.225,0,132.951,8.68584
0.00417834,13.8748,11.4335,341.225,0,135.769,5.8671
0.00476995,13.895,11.4133,341.225,0,137.718,3.91816
0.00538621,13.9161,11.3922,341.225,0,139.064,2.57297
0.00600247,13.9372,11.3711,341.225,0,139.947,1.68961
0.00662223,13.9583,11.35,341.225,0,140.53,1.10688
0.00726587,13.9802,11.3281,341.225,0,140.923,0.713412
0.00793223,14.0028,11.3055,341.225,0,141.184,0.452737
0.00863322,14.0266,11.2818,341.225,0,141.356,0.280601
0.00938443,14.052,11.2564,341.225,0,141.468,0.168054
0.0101666,14.0783,11.23,341.225,0,141.538,0.098545
0.0110473,14.108,11.2003,341.225,0,141.582,0.0540304
0.0119665,14.1388,11.1695,341.225,0,141.608,0.0288554
0.0130479,14.175,11.1333,341.225,0,141.623,0.0137981
0.0141844,14.2129,11.0954,341.225,0,141.63,0.00635431
0.0155575,14.2585,11.0498,341.225,0,141.634,0.00249246
0.0170859,14.309,10.9993,341.225,0,141.636,0.000879759
0.0188096,14.3658,10.9425,341.225,0,141.636,0.000273069
0.0211437,14.4421,10.8662,341.225,0,141.636,5.73178e-5
0.023517,14.5192,10.7891,341.225,0,141.636,1.10701e-5
0.0266035,14.6187,10.6896,341.225,0,141.636,2.5819e-6
0.0304071,14.7399,10.5684,341.225,0,141.636,3.18137e-7
0.0365379,14.9325,10.3758,341.225,0,141.636,1.02313e-6
0.0433474,15.1424,10.1659,341.225,0,141.636,-2.92551e-7
0.0528282,15.4274,9.88088,341.225,0,141.636,-3.38067e-7
0.0670896,15.8413,9.46705,341.225,0,141.636,-3.36747e-8
0.0878402,16.4126,8.89568,341.225,0,141.636,-7.77562e-8
0.112331,17.0428,8.26552,341.225,0,141.636,-3.55717e-8
0.147549,17.8715,7.43679,341.225,0,141.636,1.528e-7
0.193978,18.8385,6.46985,341.225,0,141.636,5.8498e-8
0.270278,20.1621,5.14616,341.225,0,141.636,-2.79706e-8
0.376927,21.5712,3.73709,341.225,0,141.636,1.20418e-7
0.498305,22.7118,2.59652,341.225,0,141.636,-4.42323e-7
0.628581,23.5518,1.75655,341.225,0,141.636,-4.16249e-8
0.728597,24.0071,1.30122,341.225,0,141.636,-5.93165e-7
0.836388,24.3666,0.941699,341.225,0,141.636,-3.62063e-7
0.941294,24.6209,0.687437,341.225,0,141.636,-8.97872e-7
1.03286,24.786,0.522318,341.225,0,141.636,-1.6027e-6
1.10459,24.8871,0.421191,341.225,0,141.636,-1.74682e-6
1.10653,24.8896,0.418745,341.225,0,141.636,-5.89646e-7
1.10887,24.8925,0.41582,341.225,0,141.636,-1.63966e-7
1.11249,24.897,0.411329,341.225,0,141.636,-5.06196e-9
1.12896,24.9168,0.391504,341.225,0,141.636,5.40258e-9
1.15275,24.9438,0.364531,341.225,0,141.636,9.81746e-11
1.19791,24.99,0.318341,341.225,0,141.636,1.36258e-10
1.25781,25.0423,0.265985,341.225,0,141.636,2.41809e-11
1.32256,25.0893,0.219033,341.225,0,141.636,2.34504e-15
1.40477,25.1372,0.171156,341.225,0,141.636,-9.61618e-13
1.53952,25.1941,0.114239,341.225,0,141.636,-5.93543e-14
1.67665,25.2326,0.0757062,341.225,0,141.636,-3.47794e-15
1.82608,25.26,0.0483513,341.225,0,141.636,-1.4278e-15
1.98456,25.2783,0.0300537,341.225,0,141.636,-1.51429e-15
2.15862,25.2905,0.0178265,341.225,0,141.636,-1.23136e-15
2.35269,25.2984,0.00995662,341.225,0,141.636,6.30478e-16
2.56182,25.303,0.00531486,341.225,0,141.636,1.68877e-14
2.80725,25.3058,0.0025431,341.225,0,141.636,9.04449e-16
3.07802,25.3072,0.00112719,341.225,0,141.636,1.38457e-15
3.39865,25.3079,0.000429093,341.225,0,141.636,-1.86536e-16
3.79024,25.3082,0.000131197,341.225,0,141.636,-2.62849e-14
4.25188,25.3083,3.19016e-5,341.225,0,141.636,-1.16614e-13
4.90216,25.3083,3.32034e-6,341.225,0,141.636,-6.43318e-14
5.6714,25.3083,-1.6338e-8,341.225,0,141.636,2.54834e-13
6.6714,25.3083,-6.52207e-7,341.225,0,141.636,-6.06489e-15
7.6714,25.3083,-3.38196e-7,341.225,0,141.636,-2.99895e-16
8.6714,25.3083,1.58626e-7,341.225,0,141.636,2.38296e-16
9.6714,25.3083,-1.56046e-7,341.225,0,141.636,-4.4084e-16
10.6714,25.3083,8.33075e-7,341.225,0,141.636,2.02809e-15
11.6714,25.3083,-6.1751e-7,341.225,0,141.636,-3.38458e-14
12.6714,25.3083,4.36885e-7,341.225,0,141.636,8.39766e-14
13.6714,25.3083,-6.12368e-8,341.225,0,141.636,-6.67105e-14
14.6714,25.3083,-1.87061e-8,341.225,0,141.636,-2.19386e-13
15.6714,25.3083,-1.50972e-9,341.225,0,141.636,-5.92758e-16
16.6714,25.3083,1.40747e-9,341.225,0,141.636,1.58648e-16
17.6714,25.3083,7.93287e-10,341.225,0,141.636,8.97252e-19
18.6714,25.3083,1.98322e-10,341.225,0,141.636,1.31283e-21
19.6714,25.3083,4.95804e-11,341.225,0,141.636,1.92088e-24
20.6714,25.3083,1.23951e-11,341.225,0,141.636,2.81057e-27
21.6714,25.3083,3.09878e-12,341.225,0,141.636,4.11233e-30
22.6714,25.3083,7.74694e-13,341.225,0,141.636,6.01702e-33
23.6714,25.3083,1.93674e-13,341.225,0,141.636,8.80389e-36
24.6714,25.3083,4.84184e-14,341.225,0,141.636,1.28816e-38
25.6714,25.3083,1.21046e-14,341.225,0,141.636,1.88478e-41
26.6714,25.3083,3.02615e-15,341.225,0,141.636,2.75775e-44
27.6714,25.3083,7.56537e-16,341.225,0,141.636,4.03504e-47
28.6714,25.3083,1.89134e-16,341.225,0,141.636,5.90394e-50
29.6714,25.3083,4.72836e-17,341.225,0,141.636,8.63843e-53
30.6714,25.3083,1.18209e-17,341.225,0,141.636,1.26395e-55
31.6714,25.3083,2.95522e-18,341.225,0,141.636,1.84936e-58
32.6714,25.3083,7.38806e-19,341.225,0,141.636,2.70592e-61
33.6714,25.3083,1.84701e-19,341.225,0,141.636,3.95921e-64
34.6714,25.3083,4.61754e-20,341.225,0,141.636,5.79298e-67
35.6714,25.3083,1.15438e-20,341.225,0,141.636,8.47609e-70
36.6714,25.3083,2.88596e-21,341.225,0,141.636,1.24019e-72
37.6714,25.3083,7.2149e-22,341.225,0,141.636,1.8146e-75
38.6714,25.3083,1.80373e-22,341.225,0,141.636,2.65507e-78
39.6714,25.3083,4.50931e-23,341.225,0,141.636,3.8848e-81
40.6714,25.3083,1.12733e-23,341.225,0,141.636,5.68411e-84
41.6714,25.3083,2.81832e-24,341.225,0,141.636,8.31679e-87
42.6714,25.3083,7.0458e-25,341.225,0,141.636,1.21688e-89
43.6714,25.3083,1.76145e-25,341.225,0,141.636,1.7805e-92
44.6714,25.3083,4.40363e-26,341.225,0,141.636,2.60517e-95
45.6714,25.3083,1.10091e-26,341.225,0,141.636,3.81179e-98
46.6714,25.3083,2.75227e-27,341.225,0,141.636,5.57728e-101
47.6714,25.3083,6.88067e-28,341.225,0,141.636,8.16048e-104
48.6714,25.3083,1.72017e-28,341.225,0,141.636,1.19401e-106
49.6714,25.3083,4.30042e-29,341.225,0,141.636,1.74704e-109
50.6714,25.3083,1.0751e-29,341.225,0,141.636,2.55621e-112
51.6714,25.3083,2.68776e-30,341.225,0,141.636,3.74015e-115
52.6714,25.3083,6.7194e-31,341.225,0,141.636,5.47246e-118
53.6714,25.3083,1.67985e-31,341.225,0,141.636,8.00712e-121
54.6714,25.3083,4.19963e-32,341.225,0,141.636,1.17157e-123
55.6714,25.3083,1.04991e-32,341.225,0,141.636,1.71421e-126
56.6714,25.3083,2.62477e-33,341.225,0,141.636,2.50817e-129
57.6714,25.3083,6.56191e-34,341.225,0,141.636,3.66986e-132
58.6714,25.3083,1.64048e-34,341.225,0,141.636,5.36961e-135
59.6714,25.3083,4.1012e-35,341.225,0,141.636,7.85663e-138
60.6714,25.3083,1.0253e-35,341.225,0,141.636,1.14956e-140
61.6714,25.3083,2.56325e-36,341.225,0,141.636,1.68199e-143
62.6714,25.3083,6.40812e-37,341.225,0,141.636,2.46103e-146
63.6714,25.3083,1.60203e-37,341.225,0,141.636,3.60089e-149
64.6714,25.3083,4.00507e-38,341.225,0,141.636,5.2687e-152
65.6714,25.3083,1.00127e-38,341.225,0,141.636,7.70898e-155
66.6714,25.3083,2.50317e-39,341.225,0,141.636,1.12795e-157
67.6714,25.3083,6.25793e-40,341.225,0,141.636,1.65038e-160
68.6714,25.3083,1.56448e-40,341.225,0,141.636,2.41478e-163
69.6714,25.3083,3.91121e-41,341.225,0,141.636,3.53322e-166
70.6714,25.3083,9.77801e-42,341.225,0,141.636,5.16968e-169
71.6714,25.3083,2.4445e-42,341.225,0,141.636,7.56409e-172
72.6714,25.3083,6.11126e-43,341.225,0,141.636,1.10675e-174
73.6714,25.3083,1.52781e-43,341.225,0,141.636,1.61936e-177
74.6714,25.3083,3.81954e-44,341.225,0,141.636,2.36939e-180
75.6714,25.3083,9.54884e-45,341.225,0,141.636,3.46681e-183
76.6714,25.3083,2.38721e-45,341.225,0,141.636,5.07252e-186
77.6714,25.3083,5.96803e-46,341.225,0,141.636,7.42194e-189
78.6714,25.3083,1.49201e-46,341.225,0,141.636,1.08595e-191
79.6714,25.3083,3.73002e-47,341.225,0,141.636,1.58893e-194
80.6714,25.3083,9.32504e-48,341.225,0,141.636,2.32486e-197
81.6714,25.3083,2.33126e-48,341.225,0,141.636,3.40166e-200
82.6714,25.3083,5.82815e-49,341.225,0,141.636,4.97719e-203
83.6714,25.3083,1.45704e-49,341.225,0,141.636,7.28245e-206
84.6714,25.3083,3.64259e-50,341.225,0,141.636,1.06554e-208
85.6714,25.3083,9.10649e-51,341.225,0,141.636,1.55907e-211
86.6714,25.3083,2.27662e-51,341.225,0,141.636,2.28117e-214
87.6714,25.3083,5.69155e-52,341.225,0,141.636,3.33773e-217
88.6714,25.3083,1.42289e-52,341.225,0,141.636,4.88365e-220
89.6714,25.3083,3.55722e-53,341.225,0,141.636,7.14558e-223
90.6714,25.3083,8.89305e-54,341.225,0,141.636,1.04552e-225
91.6714,25.3083,2.22326e-54,341.225,0,141.636,1.52976e-228
92.6714,25.3083,5.55816e-55,341.225,0,141.636,2.2383e-231
93.6714,25.3083,1.38954e-55,341.225,0,141.636,3.275e-234
94.6714,25.3083,3.47385e-56,341.225,0,141.636,4.79187e-237
95.6714,25.3083,8.68462e-57,341.225,0,141.636,7.01129e-240
96.6714,25.3083,2.17116e-57,341.225,0,141.636,1.02587e-242
97.6714,25.3083,5.42789e-58,341.225,0,141.636,1.50101e-245
98.6714,25.3083,1.35697e-58,341.225,0,141.636,2.19623e-248
99.6714,25.3083,3.39243e-59,341.225,0,141.636,3.21345e-251
100,25.3083,1.70836e-59,341.225,0,141.636,1.42662e-253
