#Time,E,D,C,B,A
0,73.8778,30.1352,161.65,0,123.422
3.1e-5,73.8787,30.1393,161.645,0.00382589,123.418
0.000274504,73.8861,30.1713,161.606,0.0338681,123.388
0.000655477,73.8976,30.2213,161.544,0.0808442,123.341
0.00251787,73.9541,30.4654,161.244,0.309975,123.112
0.0103641,74.1971,31.4826,159.99,1.26597,122.15
0.0190841,74.4765,32.5923,158.617,2.31089,121.089
0.0278041,74.7655,33.6806,157.264,3.33756,120.038
0.0378497,75.11,34.9082,155.731,4.49801,118.838
0.0768994,76.5626,39.424,150.023,8.78859,114.287
0.13253,78.92,45.2009,142.535,14.3268,108.103
0.193679,81.8577,50.7476,135.095,19.6952,101.69
0.259794,85.3879,55.906,127.879,24.7282,95.1844
0.329902,89.4746,60.5407,121.055,29.2752,88.7398
0.403887,94.1095,64.6206,114.659,33.2846,82.4114
0.481633,99.2749,68.1333,108.707,36.7227,76.247
0.563817,105.001,71.1075,103.148,39.5971,70.2314
0.64822,111.108,73.4894,98.1008,41.84,64.5469
0.738656,117.845,75.4031,93.3163,43.5547,58.9658
0.829092,124.73,76.7618,89.0662,44.6601,53.8672
0.926528,132.259,77.7075,84.977,45.2751,48.8662
1.02396,139.859,78.206,81.3003,45.3909,44.3296
1.12663,147.898,78.3306,77.7839,45.069,40.0042
1.23598,156.453,78.0908,74.3591,44.3219,35.8604
1.4349,171.881,76.8852,68.7534,42.1737,29.3918
1.64977,188.186,74.7604,63.3164,39.1136,23.7087
1.88525,205.448,71.7544,57.8294,35.319,18.7344
2.12405,222.168,68.2147,52.6081,31.3399,14.7547
2.36623,238.218,64.2919,47.5899,27.4039,11.5812
2.61518,253.699,60.0449,42.7003,23.6124,9.02885
2.88203,269.1,55.3732,37.7707,19.9271,6.91413
3.15216,283.416,50.6254,33.1309,16.6357,5.27744
3.42228,296.457,45.9491,28.8653,13.786,4.02818
3.6924,308.253,41.4178,24.9871,11.3532,3.07465
3.96252,318.851,37.0894,21.4987,9.29967,2.34683
4.23969,328.544,32.9043,18.3163,7.54145,1.77871
4.64403,340.699,27.3285,14.3569,5.51333,1.18716
5.1319,352.569,21.4949,10.5522,3.74036,0.728839
5.54681,360.594,17.3049,8.03498,2.66984,0.481323
6.05506,368.275,13.0801,5.68711,1.7532,0.289547
6.57341,374.14,9.68894,3.951,1.13341,0.172425
7.12239,378.67,6.94985,2.65623,0.709263,0.0995866
7.74445,382.251,4.69377,1.67316,0.414019,0.0534651
8.4017,384.76,3.05023,1.01417,0.232792,0.0277121
9.05896,386.38,1.95305,0.608015,0.130092,0.0143638
9.73485,387.433,1.21807,0.355701,0.0711197,0.00730759
10.4634,388.125,0.72226,0.197612,0.0368954,0.00352746
11.2019,388.537,0.419773,0.107907,0.0188759,0.00168582
11.9803,388.785,0.233995,0.0565295,0.00927069,0.000774284
12.7933,388.926,0.125557,0.02853,0.0043916,0.000343526
13.6275,389.004,0.0655314,0.0140318,0.00203171,0.000149222
14.5208,389.046,0.0322957,0.00651197,0.000886523,6.11248e-5
15.451,389.067,0.0152859,0.0029053,0.000372317,2.41317e-5
16.451,389.077,0.00676425,0.00121095,0.00014601,8.89528e-6
17.451,389.082,0.00296198,0.000500985,5.70038e-5,3.27271e-6
18.451,389.084,0.00128214,0.00020535,2.21195e-5,1.20333e-6
19.451,389.085,0.000553136,8.42877e-5,8.62114e-6,4.43124e-7
20.451,389.085,0.000234515,3.39157e-5,3.29214e-6,1.61264e-7
21.451,389.085,0.00010101,1.40545e-5,1.31136e-6,6.11585e-8
22.451,389.085,4.23084e-5,5.57486e-6,4.92e-7,2.20526e-8
23.451,389.085,1.84391e-5,2.29006e-6,1.90435e-7,8.5315e-9
24.451,389.085,6.87068e-6,8.03391e-7,6.30451e-8,2.65949e-9
25.451,389.085,2.20328e-6,2.33418e-7,1.64744e-8,6.12058e-10
26.451,389.085,7.03308e-7,6.7051e-8,4.17093e-9,1.29397e-10
27.451,389.085,3.68946e-7,3.45844e-8,2.11782e-9,6.46983e-11
28.451,389.085,1.93388e-7,1.78297e-8,1.07508e-9,3.23492e-11
29.451,389.085,1.01288e-7,9.18769e-9,5.45629e-10,1.61746e-11
30.451,389.085,5.301e-8,4.73227e-9,2.76858e-10,8.08729e-12
31.451,389.085,2.77232e-8,2.43636e-9,1.40451e-10,4.04364e-12
32.451,389.085,1.44885e-8,1.2538e-9,7.12363e-11,2.02182e-12
33.451,389.085,7.56673e-9,6.44961e-10,3.61236e-11,1.01091e-12
34.451,389.085,3.94918e-9,3.31638e-10,1.83145e-11,5.05456e-13
35.451,389.085,2.05982e-9,1.70461e-10,9.28363e-12,2.52728e-13
36.451,389.085,1.0737e-9,8.75829e-11,4.705e-12,1.26364e-13
37.451,389.085,5.59343e-10,4.49835e-11,2.38409e-12,6.31819e-14
38.451,389.085,2.91219e-10,2.30957e-11,1.20784e-12,3.1591e-14
39.451,389.085,1.51537e-10,1.18537e-11,6.11818e-13,1.57955e-14
40.451,389.085,7.88092e-11,6.0818e-12,3.09858e-13,7.89774e-15
41.451,389.085,4.09643e-11,3.11935e-12,1.56903e-13,3.94887e-15
42.451,389.085,2.12818e-11,1.5994e-12,7.94389e-14,1.97444e-15
43.451,389.085,1.10508e-11,8.19804e-13,4.0213e-14,9.87218e-16
44.451,389.085,5.73545e-12,4.20079e-13,2.03533e-14,4.93609e-16
45.451,389.085,2.97532e-12,2.15189e-13,1.03001e-14,2.46804e-16
46.451,389.085,1.54276e-12,1.10201e-13,5.21173e-15,1.23402e-16
47.451,389.085,7.99589e-13,5.64186e-14,2.63672e-15,6.17011e-17
48.451,389.085,4.14233e-13,2.88762e-14,1.33378e-15,3.08506e-17
49.451,389.085,2.14504e-13,1.47754e-14,6.74605e-16,1.54253e-17
50.451,389.085,1.11031e-13,7.55828e-15,3.41159e-16,7.71264e-18
51.451,389.085,5.74483e-14,3.8654e-15,1.72507e-16,3.85632e-18
52.451,389.085,2.97123e-14,1.97631e-15,8.72178e-17,1.92816e-18
53.451,389.085,1.53612e-14,1.0102e-15,4.4091e-17,9.6408e-19
54.451,389.085,7.93874e-15,5.16243e-16,2.22865e-17,4.8204e-19
55.451,389.085,4.10125e-15,2.63753e-16,1.12638e-17,2.4102e-19
56.451,389.085,2.11799e-15,1.34723e-16,5.69213e-18,1.2051e-19
57.451,389.085,1.09339e-15,6.87994e-17,2.87619e-18,6.0255e-20
58.451,389.085,5.64259e-16,3.51263e-17,1.45316e-18,3.01275e-20
59.451,389.085,2.91095e-16,1.79302e-17,7.34112e-19,1.50637e-20
60.451,389.085,1.50123e-16,9.15051e-18,3.70822e-19,7.53187e-21
61.451,389.085,7.73958e-17,4.6689e-18,1.87294e-19,3.76594e-21
62.451,389.085,3.98888e-17,2.38175e-18,9.45885e-20,1.88297e-21
63.451,389.085,2.05518e-17,1.21476e-18,4.7765e-20,9.41484e-22
64.451,389.085,1.05856e-17,6.19437e-19,2.41179e-20,4.70742e-22
65.451,389.085,5.4507e-18,3.15807e-19,1.21766e-20,2.35371e-22
66.451,389.085,2.80584e-18,1.60977e-19,6.14715e-21,1.17686e-22
67.451,389.085,1.44394e-18,8.204e-20,3.103e-21,5.88428e-23
68.451,389.085,7.42871e-19,4.18031e-20,1.56621e-21,2.94214e-23
69.451,389.085,3.82084e-19,2.12968e-20,7.9046e-22,1.47107e-23
70.451,389.085,1.96466e-19,1.08478e-20,3.98908e-22,7.35535e-24
71.451,389.085,1.00995e-19,5.52457e-21,2.01293e-22,3.67767e-24
72.451,389.085,5.19042e-20,2.81307e-21,1.01566e-22,1.83884e-24
73.451,389.085,2.66682e-20,1.43215e-21,5.12426e-23,9.19418e-25
74.451,389.085,1.36986e-20,7.29003e-22,2.58512e-23,4.59709e-25
75.451,389.085,7.0348e-21,3.71022e-22,1.30405e-23,2.29855e-25
76.451,389.085,3.6118e-21,1.888e-22,6.57772e-24,1.14927e-25
77.451,389.085,1.85393e-21,9.60586e-23,3.31759e-24,5.74636e-26
78.451,389.085,9.51398e-22,4.88659e-23,1.67316e-24,2.87318e-26
79.451,389.085,4.88126e-22,2.48548e-23,8.43763e-25,1.43659e-26
80.451,389.085,2.50383e-22,1.26402e-23,4.25473e-25,7.18296e-27
81.451,389.085,1.28405e-22,6.42734e-24,2.14532e-25,3.59148e-27
82.451,389.085,6.58365e-23,3.26775e-24,1.08164e-25,1.79574e-27
83.451,389.085,3.37488e-23,1.66114e-24,5.45309e-26,8.97869e-28
84.451,389.085,1.72966e-23,8.44316e-25,2.74899e-26,4.48935e-28
85.451,389.085,8.86283e-24,4.29087e-25,1.38572e-26,2.24467e-28
86.451,389.085,4.54043e-24,2.18036e-25,6.98472e-27,1.12234e-28
87.451,389.085,2.32561e-24,1.10778e-25,3.52042e-27,5.61168e-29
88.451,389.085,1.19094e-24,5.62761e-26,1.77424e-27,2.80584e-29
89.451,389.085,6.09763e-25,2.85851e-26,8.94134e-28,1.40292e-29
90.451,389.085,3.1214e-25,1.45179e-26,4.50574e-28,7.0146e-30
91.451,389.085,1.59756e-25,7.37245e-27,2.27041e-28,3.5073e-30
92.451,389.085,8.17499e-26,3.74342e-27,1.14397e-28,1.75365e-30
93.451,389.085,4.18252e-26,1.90053e-27,5.7637e-29,8.76826e-31
94.451,389.085,2.1395e-26,9.64784e-28,2.90377e-29,4.38413e-31
95.451,389.085,1.09424e-26,4.89706e-28,1.46285e-29,2.19206e-31
96.451,389.085,5.59545e-27,2.48538e-28,7.36903e-30,1.09603e-31
97.451,389.085,2.86079e-27,1.26125e-28,3.71192e-30,5.48016e-32
98.451,389.085,1.46239e-27,6.39972e-29,1.86966e-30,2.74008e-32
99.451,389.085,7.4743e-28,3.24694e-29,9.41679e-31,1.37004e-32
100,389.085,4.9003e-28,2.11781e-29,6.11061e-31,8.84466e-33
