#Time,E,D,C,B,A
0,17.2471,0,40.4029,55.9586,33.9055
3.1e-5,17.2471,0.00125247,40.4033,55.9579,33.9044
0.000668267,17.2471,0.0269925,40.4132,55.9438,33.8828
0.00143667,17.2471,0.0580155,40.4252,55.9269,33.8568
0.00264614,17.2472,0.10682,40.4439,55.9002,33.8159
0.00841699,17.2485,0.339184,40.5325,55.7725,33.6213
0.0284757,17.2634,1.14037,40.8307,55.326,32.9536
0.0526554,17.3025,2.09267,41.1705,54.782,32.1663
0.0806084,17.3761,3.17501,41.5369,54.1463,31.2796
0.112512,17.4968,4.38573,41.9213,53.4128,30.2974
0.148062,17.6762,5.7036,42.3082,52.5868,29.2392
0.185436,17.9146,7.05318,42.6692,51.7105,28.1665
0.234475,18.3028,8.76772,43.0739,50.551,26.8186
0.351987,19.5627,12.613,43.7447,47.7484,23.8452
0.469498,21.2525,16.0841,44.03,44.9459,21.2016
0.592881,23.4413,19.3274,43.9637,42.041,18.7406
0.72603,26.2227,22.3746,43.5282,38.9841,16.4044
0.862593,29.4648,25.0273,42.7495,35.962,14.3104
0.999157,33.0376,27.2233,41.6931,33.0762,12.4838
1.13572,36.8807,28.9889,40.4129,30.3412,10.8903
1.27655,41.0667,30.3903,38.9096,27.6877,9.45968
1.52337,48.7796,31.9239,35.9637,23.4561,7.39064
1.79002,57.3862,32.4536,32.5379,19.4755,5.66077
2.05667,66.004,32.047,29.0539,16.0732,4.33579
2.32333,74.4137,30.9282,25.6544,13.1967,3.32094
2.58998,82.4526,29.2962,22.4355,10.7861,2.54363
2.86574,90.2557,27.2494,19.3593,8.71896,1.93058
3.14151,97.4621,24.9907,16.5742,7.02169,1.46529
3.42802,104.274,22.5515,14.001,5.5877,1.10025
3.71855,110.466,20.0873,11.7197,4.41791,0.822836
4.01713,116.096,17.647,9.70032,3.45977,0.610432
4.33457,121.308,15.2183,7.88389,2.65982,0.444397
4.65943,125.877,12.9512,6.33847,2.02638,0.32113
5.00458,129.969,10.8071,4.99717,1.51339,0.227393
5.36679,133.52,8.85364,3.8707,1.11086,0.158294
5.74625,136.541,7.11862,2.94466,0.801174,0.108307
6.12572,138.96,5.67547,2.22817,0.576301,0.0741046
6.51413,140.921,4.4656,1.66658,0.410325,0.0502516
6.91184,142.491,3.46771,1.23201,0.289102,0.0337606
7.32436,143.746,2.64855,0.896414,0.200597,0.0223482
7.76153,144.75,1.97627,0.63697,0.135864,0.014433
8.21259,145.518,1.45074,0.445687,0.0906836,0.00919265
8.67058,146.086,1.0529,0.308798,0.0600234,0.00581445
9.14063,146.507,0.752946,0.21102,0.0392194,0.00363358
9.62373,146.814,0.530216,0.142118,0.0252748,0.00224125
10.1406,147.042,0.362064,0.0927243,0.0157635,0.0013365
10.6574,147.197,0.245785,0.0602635,0.00981253,0.00079698
11.1921,147.305,0.163707,0.0384457,0.00599807,0.000466864
11.7467,147.379,0.106795,0.0240292,0.00359294,0.000268068
12.3211,147.429,0.0682388,0.0147156,0.00210945,0.000150905
12.9433,147.462,0.0417617,0.00861778,0.00118241,8.09724e-5
13.5889,147.483,0.0249438,0.00492705,0.000647238,4.24409e-5
14.3054,147.497,0.0139887,0.00263778,0.000330853,2.07161e-5
15.0812,147.505,0.00742615,0.00133471,0.000159595,9.5269e-6
15.9475,147.51,0.00363223,0.00062027,7.04743e-5,3.99732e-6
16.9374,147.512,0.0015891,0.00025668,2.75853e-5,1.4798e-6
17.9374,147.513,0.000682951,0.000104565,1.0651e-5,5.41436e-7
18.9374,147.514,0.000290916,4.23238e-5,4.09609e-6,1.97802e-7
19.9374,147.514,0.000125637,1.75563e-5,1.6359e-6,7.62817e-8
20.9374,147.514,5.42745e-5,7.30148e-6,6.56063e-7,2.95515e-8
21.9374,147.514,2.18376e-5,2.79025e-6,2.37825e-7,1.01463e-8
22.9374,147.514,8.13969e-6,9.74013e-7,7.73913e-8,3.06009e-9
23.9374,147.514,2.95348e-6,3.29352e-7,2.42017e-8,8.75761e-10
24.9374,147.514,1.46077e-6,1.5908e-7,1.14245e-8,4.04411e-10
25.9374,147.514,7.7161e-7,8.24468e-8,5.81336e-9,2.02206e-10
26.9374,147.514,4.07156e-7,4.2702e-8,2.95723e-9,1.01103e-10
27.9374,147.514,2.14629e-7,2.21029e-8,1.50389e-9,5.05514e-11
28.9374,147.514,1.13032e-7,1.14338e-8,7.64583e-10,2.52757e-11
29.9374,147.514,5.94714e-8,5.91119e-9,3.8861e-10,1.26378e-11
30.9374,147.514,3.12629e-8,3.05433e-9,1.97465e-10,6.31892e-12
31.9374,147.514,1.64201e-8,1.57732e-9,1.00312e-10,3.15946e-12
32.9374,147.514,8.61711e-9,8.14132e-10,5.09459e-11,1.57973e-12
33.9374,147.514,4.51856e-9,4.2e-10,2.58679e-11,7.89865e-13
34.9374,147.514,2.36756e-9,2.16566e-10,1.31314e-11,3.94933e-13
35.9374,147.514,1.23959e-9,1.11615e-10,6.66444e-12,1.97466e-13
36.9374,147.514,6.48543e-10,5.74983e-11,3.38158e-12,9.87332e-14
37.9374,147.514,3.39075e-10,2.96069e-11,1.71548e-12,4.93666e-14
38.9374,147.514,1.77157e-10,1.52385e-11,8.7008e-13,2.46833e-14
39.9374,147.514,9.24983e-11,7.83985e-12,4.41211e-13,1.23416e-14
40.9374,147.514,4.8265e-11,4.03177e-12,2.23691e-13,6.17082e-15
41.9374,147.514,2.51688e-11,2.07258e-12,1.13388e-13,3.08541e-15
42.9374,147.514,1.31169e-11,1.06502e-12,5.74654e-14,1.54271e-15
43.9374,147.514,6.83199e-12,5.4707e-13,2.91184e-14,7.71353e-16
44.9374,147.514,3.55645e-12,2.80911e-13,1.4752e-14,3.85677e-16
45.9374,147.514,1.85032e-12,1.44192e-13,7.47243e-15,1.92838e-16
46.9374,147.514,9.62155e-13,7.39881e-14,3.78442e-15,9.64191e-17
47.9374,147.514,5.00054e-13,3.79522e-14,1.91632e-15,4.82096e-17
48.9374,147.514,2.59757e-13,1.94612e-14,9.70211e-16,2.41048e-17
49.9374,147.514,1.34867e-13,9.97617e-15,4.91132e-16,1.20524e-17
50.9374,147.514,6.99896e-14,5.11238e-15,2.48579e-16,6.0262e-18
51.9374,147.514,3.63043e-14,2.61909e-15,1.25796e-16,3.0131e-18
52.9374,147.514,1.88229e-14,1.34137e-15,6.36513e-17,1.50655e-18
53.9374,147.514,9.75482e-15,6.86786e-16,3.22023e-17,7.53274e-19
54.9374,147.514,5.05318e-15,3.51538e-16,1.62895e-17,3.76637e-19
55.9374,147.514,2.61653e-15,1.79888e-16,8.23889e-18,1.88319e-19
56.9374,147.514,1.35428e-15,9.20274e-17,4.16652e-18,9.41593e-20
57.9374,147.514,7.00674e-16,4.70671e-17,2.1068e-18,4.70797e-20
58.9374,147.514,3.6237e-16,2.40661e-17,1.06517e-18,2.35398e-20
59.9374,147.514,1.87336e-16,1.23023e-17,5.3847e-19,1.17699e-20
60.9374,147.514,9.68117e-17,6.28724e-18,2.72178e-19,5.88496e-21
61.9374,147.514,5.0012e-17,3.2124e-18,1.3756e-19,2.94248e-21
62.9374,147.514,2.58265e-17,1.64096e-18,6.95156e-20,1.47124e-21
63.9374,147.514,1.33323e-17,8.38041e-19,3.51256e-20,7.3562e-22
64.9374,147.514,6.88008e-18,4.27894e-19,1.77467e-20,3.6781e-22
65.9374,147.514,3.54926e-18,2.1843e-19,8.96531e-21,1.83905e-22
66.9374,147.514,1.83037e-18,1.11479e-19,4.52863e-21,9.19524e-23
67.9374,147.514,9.43625e-19,5.68832e-20,2.2873e-21,4.59762e-23
68.9374,147.514,4.86322e-19,2.90192e-20,1.15515e-21,2.29881e-23
69.9374,147.514,2.50562e-19,1.48013e-20,5.8332e-22,1.14941e-23
70.9374,147.514,1.29055e-19,7.54789e-21,2.94534e-22,5.74703e-24
71.9374,147.514,6.64516e-20,3.8483e-21,1.48704e-22,2.87351e-24
72.9374,147.514,3.42066e-20,1.96168e-21,7.50702e-23,1.43676e-24
73.9374,147.514,1.76032e-20,9.99789e-22,3.78943e-23,7.18378e-25
74.9374,147.514,9.05633e-21,5.09458e-22,1.91267e-23,3.59189e-25
75.9374,147.514,4.65794e-21,2.59556e-22,9.65316e-24,1.79595e-25
76.9374,147.514,2.39508e-21,1.32214e-22,4.87148e-24,8.97973e-26
77.9374,147.514,1.23121e-21,6.73359e-23,2.45819e-24,4.48987e-26
78.9374,147.514,6.32748e-22,3.42881e-23,1.24032e-24,2.24493e-26
79.9374,147.514,3.25102e-22,1.74569e-23,6.25772e-25,1.12247e-26
80.9374,147.514,1.66994e-22,8.88631e-24,3.15692e-25,5.61233e-27
81.9374,147.514,8.57586e-23,4.52278e-24,1.59249e-25,2.80617e-27
82.9374,147.514,4.40301e-23,2.30155e-24,8.03261e-26,1.40308e-27
83.9374,147.514,2.26005e-23,1.17103e-24,4.05138e-26,7.01541e-28
84.9374,147.514,1.15981e-23,5.95733e-25,2.04323e-26,3.50771e-28
85.9374,147.514,5.95058e-24,3.03018e-25,1.03038e-26,1.75385e-28
86.9374,147.514,3.05234e-24,1.54107e-25,5.19577e-27,8.76927e-29
87.9374,147.514,1.56535e-24,7.83635e-26,2.61981e-27,4.38463e-29
88.9374,147.514,8.02598e-25,3.98422e-26,1.32087e-27,2.19232e-29
89.9374,147.514,4.11426e-25,2.0254e-26,6.65913e-28,1.09616e-29
90.9374,147.514,2.1086e-25,1.02949e-26,3.35697e-28,5.48079e-30
91.9374,147.514,1.08046e-25,5.23204e-27,1.69219e-28,2.7404e-30
92.9374,147.514,5.53524e-26,2.65867e-27,8.52945e-29,1.3702e-30
93.9374,147.514,2.83516e-26,1.35083e-27,4.29898e-29,6.85099e-31
94.9374,147.514,1.45189e-26,6.86248e-28,2.16662e-29,3.4255e-31
95.9374,147.514,7.43376e-27,3.48583e-28,1.09187e-29,1.71275e-31
96.9374,147.514,3.8054e-27,1.77043e-28,5.50218e-30,8.56374e-32
97.9374,147.514,1.94765e-27,8.99076e-29,2.7725e-30,4.28187e-32
98.9374,147.514,9.96653e-28,4.56523e-29,1.39695e-30,2.14093e-32
99.9374,147.514,5.09916e-28,2.31781e-29,7.03829e-31,1.07047e-32
100,147.514,4.81162e-28,2.18516e-29,6.62958e-31,1.0074e-32
