#Time,E,D,C,B,A
0,135.568,57.0014,299.035,139.681,197.778
3.1e-5,135.57,57.0089,299.03,139.683,197.772
0.0011241,135.633,57.2732,298.856,139.746,197.556
0.00257624,135.716,57.6234,298.625,139.83,197.269
0.00482846,135.847,58.1652,298.268,139.958,196.826
0.0164771,136.54,60.9352,296.439,140.604,194.546
0.0389474,137.968,66.1296,292.989,141.754,190.223
0.0614177,139.51,71.133,289.64,142.784,185.997
0.0900194,141.633,77.2354,285.516,143.928,180.752
0.165491,148.031,91.9947,275.311,146.115,167.613
0.243864,155.78,105.438,265.622,147.247,154.978
0.329788,165.402,118.214,255.888,147.343,142.218
0.419747,176.565,129.643,246.514,146.359,129.983
0.514369,189.326,139.771,237.386,144.334,118.248
0.61428,203.747,148.613,228.399,141.301,107.004
0.722616,220.282,156.321,219.248,137.195,96.018
0.836997,238.539,162.615,210.108,132.162,85.6402
0.954402,257.926,167.366,201.156,126.462,76.1536
1.07472,278.277,170.683,192.333,120.25,67.5209
1.20086,299.95,172.705,183.384,113.507,59.519
1.39778,334.069,173.362,169.909,102.844,48.8802
1.64634,376.901,170.723,153.631,89.6866,38.1228
1.90114,419.727,165.001,137.746,77.0426,29.5479
2.15906,461.29,156.985,122.543,65.416,22.8303
2.41698,500.576,147.448,108.307,55.094,17.6399
2.6749,537.269,136.965,95.1165,46.0841,13.6295
2.93282,571.187,125.997,83.0265,38.3234,10.5309
3.19074,602.253,114.906,72.0589,31.7095,8.13677
3.54293,640.09,100.065,58.8755,24.3115,5.72139
3.90379,673.576,85.6978,47.4159,18.3861,3.98825
4.32254,706.225,70.5326,36.4884,13.1943,2.62375
4.77009,734.545,56.392,27.2657,9.18431,1.67709
5.17763,755.232,45.4291,20.7221,6.56486,1.11574
5.6201,773.064,35.4997,15.2492,4.53476,0.716814
6.1179,788.416,26.5438,10.6956,2.97342,0.435727
6.57617,799.041,20.0872,7.65434,2.00661,0.275547
7.12634,808.388,14.1961,5.07629,1.24497,0.158954
7.69928,815.179,9.76267,3.27926,0.753353,0.089631
8.28141,819.884,6.594,2.08566,0.450062,0.0500797
8.87623,823.102,4.36693,1.30315,0.264719,0.0276285
9.48054,825.249,2.8436,0.802283,0.153781,0.0150982
10.1282,826.72,1.77705,0.473575,0.0855862,0.00790086
10.7799,827.639,1.09665,0.276757,0.0472895,0.00411797
11.4517,828.218,0.660705,0.158075,0.0255704,0.00210373
12.1595,828.579,0.383906,0.08707,0.0133342,0.00103675
12.8888,828.793,0.217504,0.0468133,0.00679553,0.00050005
13.6366,828.916,0.12046,0.0246352,0.00339448,0.00023678
14.4088,828.985,0.0649148,0.012625,0.00165282,0.00010941
15.2568,829.025,0.0326483,0.00602507,0.000747821,4.68822e-5
16.1479,829.045,0.015721,0.00275313,0.000324018,1.92428e-5
17.1479,829.056,0.00685953,0.0011363,0.000126418,7.09178e-6
18.1479,829.061,0.00296616,0.000466078,4.91557e-5,2.61212e-6
19.1479,829.063,0.00127344,0.00019043,1.91115e-5,9.6637e-7
20.1211,829.064,0.000551646,7.84043e-5,7.45588e-6,3.55662e-7
21.1211,829.064,0.000234015,3.19186e-5,2.92402e-6,1.35245e-7
22.1211,829.064,9.8276e-5,1.26838e-5,1.08472e-6,4.56954e-8
23.1211,829.064,4.2436e-5,5.23216e-6,4.21869e-7,1.6296e-8
24.1211,829.064,1.80621e-5,2.164e-6,1.71929e-7,6.75985e-9
25.1211,829.064,7.0931e-6,8.15551e-7,6.27236e-8,2.43493e-9
26.1211,829.064,2.31121e-6,2.46024e-7,1.75725e-8,6.44014e-10
27.1211,829.064,4.44075e-7,3.43186e-8,1.52457e-9,2.82251e-11
28.1211,829.064,-1.16056e-7,-2.26848e-8,-2.33733e-9,-1.06223e-10
29.1211,829.064,-1.92018e-7,-2.5896e-8,-2.21103e-9,-9.06232e-11
30.1211,829.064,-1.37087e-7,-1.67086e-8,-1.32186e-9,-5.1254e-11
31.1211,829.064,-7.46407e-8,-8.43743e-9,-6.24433e-10,-2.28786e-11
32.1211,829.064,-3.36967e-8,-3.50359e-9,-2.38395e-10,-8.05206e-12
33.1211,829.064,-1.2486e-8,-1.14202e-9,-6.65759e-11,-1.86593e-12
34.1211,829.064,-3.33551e-9,-2.15108e-10,-5.53466e-12,1.17667e-13
35.1211,829.064,-1.47229e-10,5.99461e-11,9.07439e-12,4.6732e-13
36.1211,829.064,5.87071e-10,9.43812e-11,8.50657e-12,3.50322e-13
37.1211,829.064,5.25319e-10,6.55418e-11,5.0651e-12,1.86794e-13
38.1211,829.064,2.7969e-10,3.40605e-11,2.57925e-12,9.3397e-14
39.1211,829.064,1.48688e-10,1.76867e-11,1.31297e-12,4.66985e-14
40.1211,829.064,7.89329e-11,9.17745e-12,6.68161e-13,2.33492e-14
41.1211,829.064,4.18458e-11,4.75869e-12,3.39918e-13,1.16746e-14
42.1211,829.064,2.21558e-11,2.46578e-12,1.72878e-13,5.83731e-15
43.1211,829.064,1.17163e-11,1.27684e-12,8.78981e-14,2.91866e-15
44.1211,829.064,6.18854e-12,6.60759e-13,4.46787e-14,1.45933e-15
45.1211,829.064,3.26513e-12,3.41732e-13,2.27042e-14,7.29664e-16
46.1211,829.064,1.72088e-12,1.76633e-13,1.15345e-14,3.64832e-16
47.1211,829.064,9.06065e-13,9.12458e-14,5.85846e-15,1.82416e-16
48.1211,829.064,4.76587e-13,4.71103e-14,2.97484e-15,9.1208e-17
49.1211,829.064,2.50449e-13,2.43103e-14,1.51022e-15,4.5604e-17
50.1211,829.064,1.31494e-13,1.25384e-14,7.66511e-16,2.2802e-17
51.1211,829.064,6.89787e-14,6.46367e-15,3.88956e-16,1.1401e-17
52.1211,829.064,3.61546e-14,3.3305e-15,1.97328e-16,5.7005e-18
53.1211,829.064,1.89349e-14,1.71529e-15,1.00089e-16,2.85025e-18
54.1211,829.064,9.90898e-15,8.83026e-16,5.07572e-17,1.42512e-18
55.1211,829.064,5.18168e-15,4.5438e-16,2.57349e-17,7.12562e-19
56.1211,829.064,2.7077e-15,2.33713e-16,1.30456e-17,3.56281e-19
57.1211,829.064,1.41393e-15,1.20162e-16,6.61186e-18,1.78141e-19
58.1211,829.064,7.37843e-16,6.17565e-17,3.35047e-18,8.90703e-20
59.1211,829.064,3.84785e-16,3.1727e-17,1.6975e-18,4.45352e-20
60.1211,829.064,2.00539e-16,1.62934e-17,8.59884e-19,2.22676e-20
61.1211,829.064,1.04452e-16,8.36447e-18,4.35509e-19,1.11338e-20
62.1211,829.064,5.43722e-17,4.2925e-18,2.20538e-19,5.56689e-21
63.1211,829.064,2.82871e-17,2.20208e-18,1.11661e-19,2.78345e-21
64.1211,829.064,1.47082e-17,1.1293e-18,5.65262e-20,1.39172e-21
65.1211,829.064,7.64359e-18,5.78958e-19,2.8611e-20,6.95862e-22
66.1211,829.064,3.97015e-18,2.96719e-19,1.44795e-20,3.47931e-22
67.1211,829.064,2.06109e-18,1.52023e-19,7.32672e-21,1.73965e-22
68.1211,829.064,1.06948e-18,7.78647e-20,3.70685e-21,8.69827e-23
69.1211,829.064,5.54673e-19,3.987e-20,1.87517e-21,4.34914e-23
70.1211,829.064,2.87541e-19,2.04092e-20,9.48459e-22,2.17457e-23
71.1211,829.064,1.48993e-19,1.04444e-20,4.79666e-22,1.08728e-23
72.1211,829.064,7.71681e-20,5.34349e-21,2.42551e-22,5.43642e-24
73.1211,829.064,3.99506e-20,2.73306e-21,1.22635e-22,2.71821e-24
74.1211,829.064,2.06741e-20,1.39753e-21,6.19969e-23,1.3591e-24
75.1211,829.064,1.06943e-20,7.14434e-22,3.13382e-23,6.79552e-25
76.1211,829.064,5.52969e-21,3.65137e-22,1.5839e-23,3.39776e-25
77.1211,829.064,2.85813e-21,1.86571e-22,8.00444e-24,1.69888e-25
78.1211,829.064,1.47672e-21,9.53076e-23,4.04469e-24,8.49441e-26
79.1211,829.064,7.62698e-22,4.86756e-23,2.04358e-24,4.2472e-26
80.1211,829.064,3.93776e-22,2.4854e-23,1.03241e-24,2.1236e-26
81.1211,829.064,2.03232e-22,1.26878e-23,5.21514e-25,1.0618e-26
82.1211,829.064,1.04854e-22,6.47559e-24,2.63411e-25,5.309e-27
83.1211,829.064,5.4079e-23,3.30431e-24,1.33033e-25,2.6545e-27
84.1211,829.064,2.78824e-23,1.68574e-24,6.71801e-26,1.32725e-27
85.1211,829.064,1.43711e-23,8.59833e-25,3.39219e-26,6.63625e-28
86.1211,829.064,7.40479e-24,4.3848e-25,1.71268e-26,3.31813e-28
87.1211,829.064,3.81418e-24,2.23563e-25,8.64637e-27,1.65906e-28
88.1211,829.064,1.96407e-24,1.13964e-25,4.36466e-27,8.29532e-29
89.1211,829.064,1.01108e-24,5.80835e-26,2.20307e-27,4.14766e-29
90.1211,829.064,5.20337e-25,2.95977e-26,1.1119e-27,2.07383e-29
91.1211,829.064,2.67708e-25,1.50794e-26,5.61136e-28,1.03691e-29
92.1211,829.064,1.37695e-25,7.68129e-27,2.83161e-28,5.18457e-30
93.1211,829.064,7.08035e-26,3.91208e-27,1.42876e-28,2.59229e-30
94.1211,829.064,3.63978e-26,1.99208e-27,7.20863e-29,1.29614e-30
95.1211,829.064,1.8706e-26,1.01423e-27,3.63672e-29,6.48072e-31
96.1211,829.064,9.61114e-27,5.16286e-28,1.83456e-29,3.24036e-31
97.1211,829.064,4.93696e-27,2.6277e-28,9.25381e-30,1.62018e-31
98.1211,829.064,2.53534e-27,1.33719e-28,4.66741e-30,8.1009e-32
99.1211,829.064,1.30169e-27,6.80363e-29,2.35396e-30,4.05045e-32
100,829.064,6.80995e-28,3.52259e-29,1.20637e-30,2.05492e-32
