#Time,E,D,C,B,A
0,20.6983,70.6653,0,13.9626,0
3.1e-5,20.7005,70.6631,0.000432817,13.9621,0
0.000638295,20.7434,70.6202,0.00890471,13.9537,0
0.00136174,20.7945,70.5691,0.0189832,13.9436,0
0.00248589,20.8738,70.4899,0.0346184,13.9279,0
0.00799909,21.2613,70.1027,0.110793,13.8513,0
0.022454,22.2674,69.0997,0.306554,13.6525,0
0.0380281,23.3353,68.0382,0.511163,13.4416,0
0.0573645,24.6383,66.7473,0.756308,13.1842,0
0.114986,28.3773,63.0718,1.4311,12.4459,0
0.178483,32.2609,59.3003,2.08471,11.6802,0
0.250555,36.3903,55.3448,2.72302,10.868,0
0.324534,40.3446,51.613,3.27551,10.093,0
0.402327,44.2177,48.0141,3.75675,9.33764,0
0.484668,48.0256,44.533,4.16789,8.59959,0
0.569281,51.6536,41.2723,4.49833,7.90188,0
0.660263,55.2613,38.0866,4.76352,7.21469,0
0.751245,58.5929,35.1974,4.94856,6.58727,0
0.865905,62.4376,31.929,5.08595,5.87366,0
1.08858,68.9295,26.578,5.11752,4.70112,0
1.30788,74.2767,22.3363,4.93774,3.77538,0
1.55045,79.219,18.5522,4.59277,2.9622,0
1.79301,83.336,15.4987,4.16733,2.32417,0
2.03558,86.7833,13.0072,3.71208,1.82357,0
2.28489,89.7553,10.9024,3.24729,1.42117,0
2.54663,92.3631,9.08335,2.7858,1.09389,0
2.81744,94.6065,7.53445,2.35087,0.834372,0
3.11075,96.608,6.16014,1.93579,0.622266,0
3.41306,98.2899,5.00652,1.56979,0.459915,0
3.74111,99.7603,3.99511,1.23946,0.331288,0
4.08269,100.976,3.1537,0.961236,0.235425,0
4.43848,101.969,2.45958,0.732146,0.16494,0
4.82512,102.802,1.87155,0.540696,0.112046,0
5.22323,103.45,1.40744,0.393083,0.0752469,0
5.64995,103.967,1.0325,0.277501,0.0491076,0
6.08445,104.351,0.74971,0.193521,0.0317998,0
6.55161,104.647,0.528738,0.130605,0.01993,0
7.01877,104.855,0.371005,0.0876948,0.0124909,0
7.50736,105.006,0.254805,0.0575423,0.00766233,0
8.01591,105.113,0.171422,0.036946,0.00460737,0
8.54408,105.187,0.112967,0.0232202,0.0027165,0
9.10903,105.239,0.0719093,0.0140693,0.00154374,0
9.69264,105.272,0.0448419,0.00835076,0.000861025,0
10.3319,105.294,0.0265685,0.00469594,0.000454151,0
11.0165,105.308,0.0150712,0.00252428,0.00022891,0
11.7565,105.317,0.00810992,0.00128463,0.000109124,0
12.5956,105.322,0.00398431,0.00059407,4.70726e-5,0
13.5135,105.324,0.00181525,0.000254124,1.87511e-5,0
14.5135,105.325,0.000763122,0.000100043,6.85927e-6,0
15.5135,105.326,0.00031807,3.91928e-5,2.51068e-6,0
16.5135,105.326,0.000133846,1.5663e-5,9.50969e-7,0
17.5135,105.326,5.65709e-5,6.32213e-6,3.66218e-7,0
18.5135,105.326,2.21421e-5,2.3226e-6,1.2541e-7,0
19.5135,105.326,8.05929e-6,7.81154e-7,3.84817e-8,0
20.5135,105.326,2.84705e-6,2.53328e-7,1.12575e-8,0
21.5135,105.326,9.43007e-7,7.56158e-8,2.93589e-9,0
22.5135,105.326,4.90774e-7,3.85419e-8,1.46794e-9,0
23.5135,105.326,2.55206e-7,1.96379e-8,7.33971e-10,0
24.5135,105.326,1.32604e-7,1.00024e-8,3.66986e-10,0
25.5135,105.326,6.88486e-8,5.09297e-9,1.83493e-10,0
26.5135,105.326,3.57205e-8,2.59236e-9,9.17464e-11,0
27.5135,105.326,1.85198e-8,1.31912e-9,4.58732e-11,0
28.5135,105.326,9.59541e-9,6.71026e-10,2.29366e-11,0
29.5135,105.326,4.96833e-9,3.41247e-10,1.14683e-11,0
30.5135,105.326,2.57091e-9,1.73491e-10,5.73415e-12,0
31.5135,105.326,1.32954e-9,8.81789e-11,2.86708e-12,0
32.5135,105.326,6.87175e-10,4.48062e-11,1.43354e-12,0
33.5135,105.326,3.54968e-10,2.27615e-11,7.16769e-13,0
34.5135,105.326,1.83264e-10,1.15599e-11,3.58385e-13,0
35.5135,105.326,9.45669e-11,5.86957e-12,1.79192e-13,0
36.5135,105.326,4.87732e-11,2.97958e-12,8.95961e-14,0
37.5135,105.326,2.51427e-11,1.51219e-12,4.47981e-14,0
38.5135,105.326,1.2955e-11,7.67294e-13,2.2399e-14,0
39.5135,105.326,6.67212e-12,3.89247e-13,1.11995e-14,0
40.5135,105.326,3.43477e-12,1.97423e-13,5.59976e-15,0
41.5135,105.326,1.76744e-12,1.00112e-13,2.79988e-15,0
42.5135,105.326,9.09099e-13,5.07558e-14,1.39994e-15,0
43.5135,105.326,4.67414e-13,2.57279e-14,6.9997e-16,0
44.5135,105.326,2.40226e-13,1.30389e-14,3.49985e-16,0
45.5135,105.326,1.23417e-13,6.60696e-15,1.74992e-16,0
46.5135,105.326,6.33819e-14,3.34723e-15,8.74962e-17,0
47.5135,105.326,3.25387e-14,1.69549e-15,4.37481e-17,0
48.5135,105.326,1.66987e-14,8.58681e-16,2.18741e-17,0
49.5135,105.326,8.56675e-15,4.34809e-16,1.0937e-17,0
50.5135,105.326,4.39344e-15,2.20139e-16,5.46851e-18,0
51.5135,105.326,2.25244e-15,1.11437e-16,2.73426e-18,0
52.5135,105.326,1.15442e-15,5.64018e-17,1.36713e-18,0
53.5135,105.326,5.91482e-16,2.85427e-17,6.83564e-19,0
54.5135,105.326,3.02962e-16,1.44422e-17,3.41782e-19,0
55.5135,105.326,1.55134e-16,7.30656e-18,1.70891e-19,0
56.5135,105.326,7.94152e-17,3.696e-18,8.54455e-20,0
57.5135,105.326,4.06423e-17,1.86936e-18,4.27228e-20,0
58.5135,105.326,2.07938e-17,9.45363e-19,2.13614e-20,0
59.5135,105.326,1.06359e-17,4.78022e-19,1.06807e-20,0
60.5135,105.326,5.4388e-18,2.41681e-19,5.34035e-21,0
61.5135,105.326,2.78049e-18,1.22176e-19,2.67017e-21,0
62.5135,105.326,1.42112e-18,6.17553e-20,1.33509e-21,0
63.5135,105.326,7.26166e-19,3.12114e-20,6.67543e-22,0
64.5135,105.326,3.7097e-19,1.57726e-20,3.33772e-22,0
65.5135,105.326,1.8947e-19,7.96975e-21,1.66886e-22,0
66.5135,105.326,9.67481e-20,4.02659e-21,8.34429e-23,0
67.5135,105.326,4.93911e-20,2.03416e-21,4.17214e-23,0
68.5135,105.326,2.52093e-20,1.02751e-21,2.08607e-23,0
69.5135,105.326,1.28641e-20,5.1897e-22,1.04304e-23,0
70.5135,105.326,6.56312e-21,2.62093e-22,5.21518e-24,0
71.5135,105.326,3.34773e-21,1.3235e-22,2.60759e-24,0
72.5135,105.326,1.70728e-21,6.68269e-23,1.3038e-24,0
73.5135,105.326,8.7051e-22,3.37394e-23,6.51898e-25,0
74.5135,105.326,4.43771e-22,1.70327e-23,3.25949e-25,0
75.5135,105.326,2.26185e-22,8.59783e-24,1.62974e-25,0
76.5135,105.326,1.15262e-22,4.33966e-24,8.14872e-26,0
77.5135,105.326,5.87262e-23,2.1902e-24,4.07436e-26,0
78.5135,105.326,2.99157e-23,1.10529e-24,2.03718e-26,0
79.5135,105.326,1.52367e-23,5.57736e-25,1.01859e-26,0
80.5135,105.326,7.75907e-24,2.81414e-25,5.09295e-27,0
81.5135,105.326,3.95053e-24,1.4198e-25,2.54648e-27,0
82.5135,105.326,2.01108e-24,7.16269e-26,1.27324e-27,0
83.5135,105.326,1.0236e-24,3.61317e-26,6.36619e-28,0
84.5135,105.326,5.20915e-25,1.8225e-26,3.18309e-28,0
85.5135,105.326,2.65053e-25,9.19209e-27,1.59155e-28,0
86.5135,105.326,1.34845e-25,4.63583e-27,7.95773e-29,0
87.5135,105.326,6.85912e-26,2.33781e-27,3.97887e-29,0
88.5135,105.326,3.4885e-26,1.17885e-27,1.98943e-29,0
89.5135,105.326,1.77397e-26,5.944e-28,9.94717e-30,0
90.5135,105.326,9.0197e-27,2.99687e-28,4.97358e-30,0
91.5135,105.326,4.58539e-27,1.51087e-28,2.48679e-30,0
92.5135,105.326,2.33078e-27,7.61651e-29,1.2434e-30,0
93.5135,105.326,1.18459e-27,3.83934e-29,6.21698e-31,0
94.5135,105.326,6.01969e-28,1.93521e-29,3.10849e-31,0
95.5135,105.326,3.05862e-28,9.75377e-30,1.55425e-31,0
96.5135,105.326,1.55389e-28,4.91574e-30,7.77123e-32,0
97.5135,105.326,7.8933e-29,2.4773e-30,3.88561e-32,0
98.5135,105.326,4.00907e-29,1.24836e-30,1.94281e-32,0
99.5135,105.326,2.03599e-29,6.29039e-31,9.71403e-33,0
100,105.326,1.38354e-29,4.25299e-31,6.53471e-33,0
