#Time,E,D,C,B,A
0,63.8284,7.20594,0,0,0
3.1e-5,63.8287,7.20572,0,0,0
0.0021393,63.8438,7.19055,0,0,0
0.00621422,63.8731,7.16133,0,0,0
0.0125005,63.9179,7.11646,0,0,0
0.0457798,64.1509,6.88352,0,0,0
0.091846,64.4608,6.57359,0,0,0
0.137912,64.7568,6.27761,0,0,0
0.196326,65.113,5.92142,0,0,0
0.333688,65.8729,5.16145,0,0,0
0.468958,66.526,4.50844,0,0,0
0.612453,67.1286,3.90578,0,0,0
0.867975,68.0093,3.02506,0,0,0
1.14397,68.7389,2.29545,0,0,0
1.41997,69.2926,1.74181,0,0,0
1.70312,69.7221,1.31229,0,0,0
2.1188,70.1684,0.865981,0,0,0
2.61748,70.5085,0.525939,0,0,0
3.04315,70.6908,0.343613,0,0,0
3.5613,70.8297,0.204669,0,0,0
4.14288,70.92,0.114416,0,0,0
4.69796,70.9687,0.0656794,0,0,0
5.38979,71.0015,0.0328858,0,0,0
6.14553,71.0189,0.015448,0,0,0
6.87162,71.0269,0.00747455,0,0,0
7.82862,71.0315,0.00287322,0,0,0
8.82862,71.0333,0.00105782,0,0,0
9.82862,71.034,0.000391029,0,0,0
10.8286,71.0343,0.000142383,0,0,0
11.8286,71.0343,5.44332e-5,0,0,0
12.8286,71.0344,1.76966e-5,0,0,0
13.8286,71.0344,7.23118e-6,0,0,0
14.8286,71.0344,1.77389e-6,0,0,0
15.8286,71.0344,-2.83038e-8,0,0,0
16.8286,71.0344,3.98737e-7,0,0,0
17.8286,71.0344,-3.91777e-7,0,0,0
18.8286,71.0344,1.35819e-6,0,0,0
19.8286,71.0344,1.18674e-6,0,0,0
20.8286,71.0344,1.74661e-7,0,0,0
21.8286,71.0344,-3.92861e-8,0,0,0
22.8286,71.0344,-6.63611e-8,0,0,0
23.8286,71.0344,-4.52317e-8,0,0,0
24.8286,71.0344,-2.29131e-8,0,0,0
25.8286,71.0344,-9.28415e-9,0,0,0
26.8286,71.0344,-2.8447e-9,0,0,0
27.8286,71.0344,-4.1893e-10,0,0,0
28.8286,71.0344,2.33796e-10,0,0,0
29.8286,71.0344,2.70823e-10,0,0,0
30.8286,71.0344,1.69899e-10,0,0,0
31.8286,71.0344,8.49495e-11,0,0,0
32.8286,71.0344,4.24748e-11,0,0,0
33.8286,71.0344,2.12374e-11,0,0,0
34.8286,71.0344,1.06187e-11,0,0,0
35.8286,71.0344,5.30935e-12,0,0,0
36.8286,71.0344,2.65467e-12,0,0,0
37.8286,71.0344,1.32734e-12,0,0,0
38.8286,71.0344,6.63668e-13,0,0,0
39.8286,71.0344,3.31834e-13,0,0,0
40.8286,71.0344,1.65917e-13,0,0,0
41.8286,71.0344,8.29585e-14,0,0,0
42.8286,71.0344,4.14793e-14,0,0,0
43.8286,71.0344,2.07396e-14,0,0,0
44.8286,71.0344,1.03698e-14,0,0,0
45.8286,71.0344,5.18491e-15,0,0,0
46.8286,71.0344,2.59245e-15,0,0,0
47.8286,71.0344,1.29623e-15,0,0,0
48.8286,71.0344,6.48113e-16,0,0,0
49.8286,71.0344,3.24057e-16,0,0,0
50.8286,71.0344,1.62028e-16,0,0,0
51.8286,71.0344,8.10142e-17,0,0,0
52.8286,71.0344,4.05071e-17,0,0,0
53.8286,71.0344,2.02535e-17,0,0,0
54.8286,71.0344,1.01268e-17,0,0,0
55.8286,71.0344,5.06339e-18,0,0,0
56.8286,71.0344,2.53169e-18,0,0,0
57.8286,71.0344,1.26585e-18,0,0,0
58.8286,71.0344,6.32923e-19,0,0,0
59.8286,71.0344,3.16462e-19,0,0,0
60.8286,71.0344,1.58231e-19,0,0,0
61.8286,71.0344,7.91154e-20,0,0,0
62.8286,71.0344,3.95577e-20,0,0,0
63.8286,71.0344,1.97789e-20,0,0,0
64.8286,71.0344,9.88943e-21,0,0,0
65.8286,71.0344,4.94471e-21,0,0,0
66.8286,71.0344,2.47236e-21,0,0,0
67.8286,71.0344,1.23618e-21,0,0,0
68.8286,71.0344,6.18089e-22,0,0,0
69.8286,71.0344,3.09045e-22,0,0,0
70.8286,71.0344,1.54522e-22,0,0,0
71.8286,71.0344,7.72611e-23,0,0,0
72.8286,71.0344,3.86306e-23,0,0,0
73.8286,71.0344,1.93153e-23,0,0,0
74.8286,71.0344,9.65764e-24,0,0,0
75.8286,71.0344,4.82882e-24,0,0,0
76.8286,71.0344,2.41441e-24,0,0,0
77.8286,71.0344,1.20721e-24,0,0,0
78.8286,71.0344,6.03603e-25,0,0,0
79.8286,71.0344,3.01801e-25,0,0,0
80.8286,71.0344,1.50901e-25,0,0,0
81.8286,71.0344,7.54503e-26,0,0,0
82.8286,71.0344,3.77252e-26,0,0,0
83.8286,71.0344,1.88626e-26,0,0,0
84.8286,71.0344,9.43129e-27,0,0,0
85.8286,71.0344,4.71565e-27,0,0,0
86.8286,71.0344,2.35782e-27,0,0,0
87.8286,71.0344,1.17891e-27,0,0,0
88.8286,71.0344,5.89456e-28,0,0,0
89.8286,71.0344,2.94728e-28,0,0,0
90.8286,71.0344,1.47364e-28,0,0,0
91.8286,71.0344,7.3682e-29,0,0,0
92.8286,71.0344,3.6841e-29,0,0,0
93.8286,71.0344,1.84205e-29,0,0,0
94.8286,71.0344,9.21025e-30,0,0,0
95.8286,71.0344,4.60512e-30,0,0,0
96.8286,71.0344,2.30256e-30,0,0,0
97.8286,71.0344,1.15128e-30,0,0,0
98.8286,71.0344,5.7564e-31,0,0,0
99.8286,71.0344,2.8782e-31,0,0,0
100,71.0344,2.4571e-31,0,0,0
