#Time,E,D,C,B,A
0,0,0,0,0,7.03478
3.1e-5,3.57634e-18,1.42834e-13,5.6696e-9,0.000218067,7.03456
0.000835104,7.02132e-13,1.5934e-9,3.31656e-6,0.00586813,7.02891
0.00185376,8.30854e-12,1.17643e-8,1.41368e-5,0.0130125,7.02175
0.003434,5.96068e-11,5.67479e-8,4.36924e-5,0.0240699,7.01066
0.0113107,6.57107e-9,1.85865e-6,0.000446992,0.0786686,6.95566
0.0284996,2.24651e-7,2.77161e-5,0.00277513,0.194854,6.83712
0.0438497,1.13698e-6,9.6711e-5,0.00646893,0.29524,6.73297
0.0642994,4.91112e-6,0.000294362,0.0136322,0.424164,6.59668
0.121695,5.89572e-5,0.00187045,0.0461233,0.758005,6.22872
0.177774,0.00025495,0.00551229,0.0930605,1.04691,5.88904
0.238825,0.000789431,0.0125742,0.158007,1.32314,5.54026
0.299875,0.00186806,0.0234203,0.23436,1.56298,5.21215
0.362486,0.00379439,0.0388583,0.321657,1.77465,4.89581
0.428218,0.00701527,0.05999,0.420331,1.96309,4.58435
0.536588,0.0158812,0.105919,0.592204,2.20726,4.11352
0.680309,0.0366665,0.186969,0.824477,2.42383,3.56284
0.838647,0.074859,0.298968,1.06944,2.55041,3.0411
1.01131,0.13851,0.441116,1.30852,2.58779,2.55884
1.19568,0.234929,0.606275,1.52114,2.54443,2.12801
1.39141,0.371167,0.785571,1.69373,2.43459,1.74972
1.60908,0.563278,0.977276,1.82203,2.26473,1.40746
1.84109,0.811825,1.16078,1.89143,2.05472,1.11602
2.09705,1.1312,1.32796,1.89975,1.81187,0.863993
2.35794,1.49513,1.4543,1.8503,1.56946,0.665589
2.64037,1.91916,1.53954,1.74924,1.32502,0.501815
2.93454,2.37851,1.57492,1.61007,1.09735,0.373926
3.24137,2.86089,1.5616,1.44534,0.891819,0.275122
3.58021,3.38071,1.49953,1.25654,0.701944,0.19605
3.93437,3.89447,1.39652,1.06488,0.541327,0.137578
4.3362,4.42711,1.25094,0.865485,0.399189,0.0920491
4.73804,4.89803,1.09192,0.691393,0.291843,0.0615872
5.15368,5.31748,0.927347,0.539828,0.209486,0.0406411
5.59638,5.69101,0.762697,0.408858,0.146108,0.0261022
6.06951,6.01396,0.606202,0.299631,0.0987259,0.0162617
6.56933,6.28087,0.466288,0.212937,0.0648203,0.00986394
7.07683,6.48713,0.35092,0.148757,0.0420345,0.00593751
7.61957,6.65026,0.254551,0.100217,0.0262998,0.00345001
8.2168,6.77746,0.175678,0.0641347,0.0156062,0.00189817
8.87634,6.87187,0.114518,0.0386978,0.00871566,0.000981083
9.67021,6.94235,0.0669394,0.0207591,0.00428998,0.000442968
10.4778,6.98368,0.0379645,0.0108634,0.00207117,0.000197268
11.3452,7.00817,0.0202388,0.00534668,0.000940932,8.27006e-5
12.2383,7.02139,0.0103952,0.00254477,0.000414918,3.37807e-5
13.1953,7.02846,0.00500011,0.00113455,0.000171412,1.29265e-5
14.1953,7.03194,0.00228732,0.000482061,6.76277e-5,4.73387e-6
15.1953,7.03352,0.00103022,0.000202619,2.65159e-5,1.73052e-6
16.1953,7.03422,0.000458173,8.45876e-5,1.04041e-5,6.39703e-7
17.1953,7.03454,0.000199659,3.45571e-5,3.98288e-6,2.29605e-7
18.1953,7.03468,8.70191e-5,1.42457e-5,1.55058e-6,8.3945e-8
19.1953,7.03474,3.551e-5,5.30354e-6,5.39994e-7,3.1076e-8
20.1953,7.03476,1.80702e-5,2.93124e-6,3.02601e-7,1.11579e-8
21.1953,7.03477,5.61213e-6,6.1422e-7,4.58339e-8,4.3064e-9
22.1953,7.03477,4.12416e-6,7.58199e-7,8.31916e-8,1.35659e-9
23.1953,7.03478,-3.54511e-7,-3.05395e-7,-4.67239e-8,7.77088e-10
24.1953,7.03478,1.09492e-6,2.77035e-7,3.71853e-8,9.99007e-11
25.1953,7.03478,5.61383e-7,1.29318e-7,1.52303e-8,2.62414e-11
26.1953,7.03478,2.47499e-7,4.92215e-8,4.67484e-9,1.80557e-12
27.1953,7.03478,9.12389e-8,1.37905e-8,6.92287e-10,-3.80383e-12
28.1953,7.03478,2.39054e-8,1.03512e-9,-3.82499e-10,-3.40418e-12
29.1953,7.03478,3.32697e-11,-2.1081e-9,-4.45242e-10,-1.96258e-12
30.1953,7.03478,-5.66169e-10,-1.16561e-9,-2.23112e-10,-9.81288e-13
31.1953,7.03478,-6.02437e-10,-6.38705e-10,-1.11801e-10,-4.90644e-13
32.1953,7.03478,-4.749e-10,-3.47364e-10,-5.60232e-11,-2.45322e-13
33.1953,7.03478,-3.31309e-10,-1.87718e-10,-2.80729e-11,-1.22661e-13
34.1953,7.03478,-2.16101e-10,-1.00893e-10,-1.40671e-11,-6.13305e-14
35.1953,7.03478,-1.35036e-10,-5.39708e-11,-7.0489e-12,-3.06652e-14
36.1953,7.03478,-8.18937e-11,-2.87515e-11,-3.53212e-12,-1.53326e-14
37.1953,7.03478,-4.85772e-11,-1.52607e-11,-1.76989e-12,-7.66631e-15
38.1953,7.03478,-2.83255e-11,-8.07377e-12,-8.86862e-13,-3.83316e-15
39.1953,7.03478,-1.62923e-11,-4.25908e-12,-4.4439e-13,-1.91658e-15
40.1953,7.03478,-9.26658e-12,-2.24088e-12,-2.22674e-13,-9.58289e-16
41.1953,7.03478,-5.22141e-12,-1.17623e-12,-1.11577e-13,-4.79144e-16
42.1953,7.03478,-2.91874e-12,-6.16068e-13,-5.5908e-14,-2.39572e-16
43.1953,7.03478,-1.62039e-12,-3.22041e-13,-2.80139e-14,-1.19786e-16
44.1953,7.03478,-8.94214e-13,-1.68039e-13,-1.40369e-14,-5.98931e-17
45.1953,7.03478,-4.90875e-13,-8.75361e-14,-7.03343e-15,-2.99465e-17
46.1953,7.03478,-2.68203e-13,-4.55302e-14,-3.5242e-15,-1.49733e-17
47.1953,7.03478,-1.45925e-13,-2.3648e-14,-1.76584e-15,-7.48663e-18
48.1953,7.03478,-7.90958e-14,-1.22664e-14,-8.84793e-16,-3.74332e-18
49.1953,7.03478,-4.27254e-14,-6.35487e-15,-4.43332e-16,-1.87166e-18
50.1953,7.03478,-2.30069e-14,-3.2885e-15,-2.22134e-16,-9.35829e-19
51.1953,7.03478,-1.23534e-14,-1.6999e-15,-1.11301e-16,-4.67914e-19
52.1953,7.03478,-6.61562e-15,-8.77834e-16,-5.57675e-17,-2.33957e-19
53.1953,7.03478,-3.53426e-15,-4.52888e-16,-2.79422e-17,-1.16979e-19
54.1953,7.03478,-1.88385e-15,-2.33444e-16,-1.40004e-17,-5.84893e-20
55.1953,7.03478,-1.00204e-15,-1.2023e-16,-7.0148e-18,-2.92447e-20
56.1953,7.03478,-5.31956e-16,-6.18721e-17,-3.51471e-18,-1.46223e-20
57.1953,7.03478,-2.81886e-16,-3.18166e-17,-1.76101e-18,-7.31116e-21
58.1953,7.03478,-1.49118e-16,-1.63494e-17,-8.82334e-19,-3.65558e-21
59.1953,7.03478,-7.87568e-17,-8.39576e-18,-4.42081e-19,-1.82779e-21
60.1953,7.03478,-4.15327e-17,-4.30863e-18,-2.21497e-19,-9.13895e-22
61.1953,7.03478,-2.18713e-17,-2.2098e-18,-1.10977e-19,-4.56948e-22
62.1953,7.03478,-1.1502e-17,-1.1327e-18,-5.56028e-20,-2.28474e-22
63.1953,7.03478,-6.04113e-18,-5.80281e-19,-2.78585e-20,-1.14237e-22
64.1953,7.03478,-3.16913e-18,-2.97119e-19,-1.39578e-20,-5.71185e-23
65.1953,7.03478,-1.66059e-18,-1.52056e-19,-6.99319e-21,-2.85592e-23
66.1953,7.03478,-8.69185e-19,-7.778e-20,-3.50373e-21,-1.42796e-23
67.1953,7.03478,-4.54477e-19,-3.97677e-20,-1.75544e-21,-7.13981e-24
68.1953,7.03478,-2.374e-19,-2.03236e-20,-8.79504e-22,-3.5699e-24
69.1953,7.03478,-1.23891e-19,-1.03821e-20,-4.40644e-22,-1.78495e-24
70.1953,7.03478,-6.45963e-20,-5.30145e-21,-2.20768e-22,-8.92476e-25
71.1953,7.03478,-3.36512e-20,-2.70603e-21,-1.10607e-22,-4.46238e-25
72.1953,7.03478,-1.75159e-20,-1.38072e-21,-5.54152e-23,-2.23119e-25
73.1953,7.03478,-9.11009e-21,-7.04243e-22,-2.77634e-23,-1.1156e-25
74.1953,7.03478,-4.73458e-21,-3.59076e-22,-1.39096e-23,-5.57798e-26
75.1953,7.03478,-2.4588e-21,-1.83022e-22,-6.96874e-24,-2.78899e-26
76.1953,7.03478,-1.27603e-21,-9.32569e-23,-3.49134e-24,-1.39449e-26
77.1953,7.03478,-6.61766e-22,-4.7503e-23,-1.74916e-24,-6.97247e-27
78.1953,7.03478,-3.42978e-22,-2.41897e-23,-8.76321e-25,-3.48623e-27
79.1953,7.03478,-1.77646e-22,-1.23143e-23,-4.39032e-25,-1.74312e-27
80.1953,7.03478,-9.19567e-23,-6.26715e-24,-2.19952e-25,-8.71559e-28
81.1953,7.03478,-4.75727e-23,-3.18867e-24,-1.10194e-25,-4.35779e-28
82.1953,7.03478,-2.45973e-23,-1.62194e-24,-5.52059e-26,-2.1789e-28
83.1953,7.03478,-1.27111e-23,-8.24798e-25,-2.76574e-26,-1.08945e-28
84.1953,7.03478,-6.56519e-24,-4.19327e-25,-1.38559e-26,-5.44724e-29
85.1953,7.03478,-3.38916e-24,-2.13134e-25,-6.94159e-27,-2.72362e-29
86.1953,7.03478,-1.74873e-24,-1.08306e-25,-3.4776e-27,-1.36181e-29
87.1953,7.03478,-9.01879e-25,-5.50241e-26,-1.74221e-27,-6.80905e-30
88.1953,7.03478,-4.64914e-25,-2.79484e-26,-8.72805e-28,-3.40453e-30
89.1953,7.03478,-2.39553e-25,-1.41929e-26,-4.37254e-28,-1.70226e-30
90.1953,7.03478,-1.2338e-25,-7.20595e-27,-2.19052e-28,-8.51132e-31
91.1953,7.03478,-6.35187e-26,-3.65785e-27,-1.09739e-28,-4.25566e-31
92.1953,7.03478,-3.26876e-26,-1.85641e-27,-5.49759e-29,-2.12783e-31
93.1953,7.03478,-1.68148e-26,-9.41976e-28,-2.75411e-29,-1.06391e-31
94.1953,7.03478,-8.64633e-27,-4.77887e-28,-1.37972e-29,-5.31957e-32
95.1953,7.03478,-4.44436e-27,-2.42399e-28,-6.91188e-30,-2.65979e-32
96.1953,7.03478,-2.28365e-27,-1.22931e-28,-3.46259e-30,-1.32989e-32
97.1953,7.03478,-1.17299e-27,-6.23328e-29,-1.73462e-30,-6.64946e-33
98.1953,7.03478,-6.02296e-28,-3.16009e-29,-8.68973e-31,-3.32473e-33
99.1953,7.03478,-3.09157e-28,-1.60181e-29,-4.35317e-31,-1.66237e-33
100,7.03478,-1.65619e-28,-8.45347e-30,-2.26489e-31,-8.62879e-34
