#Time,E,D,C,B,A
0,0,0,38.7512,112.577,82.8618
3.1e-5,3.12342e-8,0.00120131,38.7535,112.576,82.8592
0.000564898,8.12032e-6,0.0218978,38.7929,112.561,82.815
0.00117824,3.12778e-5,0.0456866,38.8381,112.542,82.7642
0.00212351,9.23954e-5,0.0823718,38.9077,112.514,82.686
0.00640803,0.000802657,0.249037,39.2221,112.386,82.3325
0.0166928,0.0054326,0.651643,39.9691,112.074,81.4901
0.0269775,0.0142211,1.05772,40.7053,111.757,80.6562
0.0409176,0.0328324,1.6134,41.6859,111.319,79.5397
0.0831412,0.137027,3.33014,44.5363,109.936,76.2512
0.124679,0.311173,5.06119,47.168,108.501,73.1487
0.169345,0.5795,6.95942,49.812,106.886,69.9534
0.216537,0.955866,8.99568,52.4018,105.108,66.7288
0.267433,1.47011,11.2148,54.9678,103.12,63.4176
0.322431,2.15315,13.6253,57.485,100.903,60.0239
0.382174,3.04537,16.2419,59.9308,98.4293,56.5429
0.447345,4.19635,19.0748,62.2721,95.6716,52.9755
0.519128,5.67618,22.1465,64.4776,92.584,49.3061
0.599634,7.59495,25.5036,66.5147,89.0849,45.4922
0.6871,9.98033,29.0151,68.2428,85.2698,41.6823
0.787541,13.0886,32.8372,69.6577,80.9078,37.6991
0.892981,16.7504,36.5723,70.5527,76.3883,33.9265
1.00395,21.0114,40.1657,70.9156,71.7344,30.3632
1.12096,25.9138,43.5563,70.7365,66.9734,27.0103
1.24802,31.6568,46.7589,69.9825,62.0046,23.7875
1.38131,38.0831,49.5782,68.6676,57.0422,20.8193
1.5177,45.0102,51.8993,66.8694,52.2466,18.1648
1.6541,52.2161,53.6706,64.7083,47.7466,15.8487
1.81736,61.1056,55.1095,61.7616,42.7522,13.4614
2.07992,75.7297,56.0195,56.4897,35.5984,10.353
2.34247,90.3929,55.4581,50.9082,29.4689,7.9623
2.60502,104.749,53.7313,45.3144,24.2719,6.12368
2.86757,118.531,51.1318,39.9142,19.9038,4.70962
3.13012,131.545,47.923,34.8414,16.2587,3.6221
3.44183,145.824,43.6325,29.3502,12.7312,2.65207
3.82439,161.457,38.0736,23.4747,9.37617,1.80903
4.3005,177.95,31.2743,17.4828,6.35946,1.12377
4.60284,186.788,27.2398,14.3804,4.95131,0.83056
4.91964,194.792,23.3464,11.6488,3.79857,0.605035
5.26572,202.198,19.5326,9.1967,2.83546,0.428032
5.61179,208.366,16.1924,7.21865,2.11076,0.302811
5.95786,213.458,13.3138,5.63653,1.56741,0.214224
6.318,217.783,10.7756,4.3354,1.14721,0.149436
6.67813,221.27,8.65873,3.31926,0.83781,0.104242
7.04283,224.095,6.89257,2.52191,0.608177,0.072385
7.41664,226.387,5.42118,1.89525,0.437104,0.0498073
7.8072,228.255,4.19218,1.40056,0.30894,0.0337027
8.21297,229.744,3.1899,1.01882,0.215009,0.0224609
8.63867,230.922,2.38027,0.726728,0.146711,0.0146734
9.08202,231.829,1.74405,0.509144,0.0983441,0.00941801
9.52537,232.492,1.27065,0.355386,0.0658035,0.00604491
9.96873,232.974,0.920944,0.24722,0.0439569,0.0038799
10.4432,233.343,0.649128,0.16707,0.028495,0.00241395
10.9229,233.605,0.453444,0.112039,0.0183531,0.00149401
11.4086,233.789,0.313819,0.0745258,0.0117381,0.000919149
11.9062,233.919,0.214231,0.0489282,0.007414,0.000558756
12.4207,234.01,0.143706,0.0315721,0.00460355,0.00033398
12.9683,234.074,0.0935104,0.019745,0.00276788,0.000193121
13.533,234.117,0.0597581,0.0121317,0.00163554,0.000109783
14.1501,234.146,0.0364441,0.00709948,0.000918672,5.92044e-5
14.8076,234.164,0.0214046,0.00399756,0.000496051,3.06646e-5
15.5149,234.176,0.0120061,0.00214687,0.000255124,1.51071e-5
16.3113,234.183,0.00621976,0.00106128,0.000120366,6.80384e-6
17.1774,234.187,0.00302012,0.000490847,5.30341e-5,2.85634e-6
18.1641,234.189,0.00131432,0.000202569,2.07559e-5,1.06011e-6
19.1641,234.19,0.000560821,8.21188e-5,7.99367e-6,3.87855e-7
20.1641,234.19,0.000237033,3.30347e-5,3.06036e-6,1.41303e-7
21.1641,234.19,9.83035e-5,1.2997e-5,1.13988e-6,4.96926e-8
22.1641,234.19,4.08459e-5,5.15786e-6,4.32005e-7,1.79852e-8
23.1641,234.19,1.67903e-5,2.02446e-6,1.61741e-7,6.41435e-9
24.1641,234.19,6.74874e-6,7.71207e-7,5.80617e-8,2.15145e-9
25.1641,234.19,3.31243e-6,3.94979e-7,3.2084e-8,1.33935e-9
26.1641,234.19,2.17794e-6,2.87127e-7,2.61947e-8,1.23637e-9
27.1641,234.19,1.41413e-6,1.91951e-7,1.78818e-8,8.53143e-10
28.1641,234.19,7.69588e-7,1.00873e-7,8.98391e-9,4.06349e-10
29.1641,234.19,3.36576e-7,4.00845e-8,3.17104e-9,1.24043e-10
30.1641,234.19,1.19504e-7,1.18724e-8,7.10982e-10,1.65838e-11
31.1641,234.19,4.00381e-8,3.26316e-9,1.3084e-10,-3.04875e-13
32.1641,234.19,1.94585e-8,1.85586e-9,1.15607e-10,3.52415e-12
33.1641,234.19,9.82473e-9,9.30974e-10,5.05096e-11,7.39612e-13
34.1641,234.19,1.07958e-9,-1.83771e-10,-4.66135e-11,-3.50212e-12
35.1641,234.19,-2.29701e-9,-4.5344e-10,-4.91881e-11,-2.35228e-12
36.1641,234.19,-6.44494e-10,-3.90909e-11,5.82526e-12,9.12601e-13
37.1641,234.19,1.15337e-9,2.26011e-10,2.72039e-11,1.51672e-12
38.1641,234.19,8.15551e-10,1.02203e-10,6.39408e-12,4.31533e-14
39.1641,234.19,-2.29458e-10,-7.15383e-11,-1.07794e-11,-6.95968e-13
40.1641,234.19,-4.3337e-10,-6.62922e-11,-5.56384e-12,-1.63769e-13
41.1641,234.19,-8.713e-14,2.00654e-11,4.3728e-12,3.40943e-13
42.1641,234.19,2.32736e-10,4.21074e-11,4.33548e-12,1.86499e-13
43.1641,234.19,8.60564e-11,3.95306e-12,-9.11183e-13,-1.24818e-13
44.1641,234.19,-3.80125e-11,-1.67387e-11,-2.81292e-12,-1.90784e-13
45.1641,234.19,-6.39251e-11,-1.55775e-11,-2.02617e-12,-1.13985e-13
46.1641,234.19,-4.0063e-11,-7.44074e-12,-7.75494e-13,-3.43716e-14
47.1641,234.19,-1.36238e-11,-1.62863e-12,-7.88317e-14,1.50656e-15
48.1641,234.19,-5.89776e-13,4.14253e-13,9.09658e-14,6.38188e-15
49.1641,234.19,2.53026e-12,6.93311e-13,9.04607e-14,4.80419e-15
50.1641,234.19,2.33972e-12,4.9388e-13,5.52022e-14,2.56698e-15
51.1641,234.19,1.47254e-12,2.67044e-13,2.65067e-14,1.09274e-15
52.1641,234.19,7.57681e-13,1.18983e-13,1.03092e-14,3.608e-16
53.1641,234.19,4.09897e-13,6.21139e-14,5.24482e-15,1.804e-16
54.1641,234.19,2.21144e-13,3.23907e-14,2.66751e-15,9.01999e-17
55.1641,234.19,1.19009e-13,1.68735e-14,1.35631e-15,4.50999e-17
56.1641,234.19,6.38951e-14,8.78147e-15,6.89428e-16,2.255e-17
57.1641,234.19,3.42305e-14,4.56591e-15,3.50351e-16,1.1275e-17
58.1641,234.19,1.83012e-14,2.37195e-15,1.77994e-16,5.63749e-18
59.1641,234.19,9.76621e-15,1.23118e-15,9.04066e-17,2.81875e-18
60.1641,234.19,5.20237e-15,6.38544e-16,4.5908e-17,1.40937e-18
61.1641,234.19,2.76665e-15,3.30925e-16,2.33063e-17,7.04687e-19
62.1641,234.19,1.46901e-15,1.71377e-16,1.18293e-17,3.52343e-19
63.1641,234.19,7.78852e-16,8.869e-17,6.00275e-18,1.76172e-19
64.1641,234.19,4.1236e-16,4.58677e-17,3.04542e-18,8.80858e-20
65.1641,234.19,2.18033e-16,2.37062e-17,1.54473e-18,4.40429e-20
66.1641,234.19,1.15139e-16,1.22448e-17,7.83376e-19,2.20215e-20
67.1641,234.19,6.07299e-17,6.32099e-18,3.97194e-19,1.10107e-20
68.1641,234.19,3.19956e-17,3.26117e-18,2.01349e-19,5.50536e-21
69.1641,234.19,1.68386e-17,1.68161e-18,1.02051e-19,2.75268e-21
70.1641,234.19,8.85262e-18,8.66662e-19,5.17137e-20,1.37634e-21
71.1641,234.19,4.64953e-18,4.46432e-19,2.62009e-20,6.88171e-22
72.1641,234.19,2.43969e-18,2.29852e-19,1.32725e-20,3.44085e-22
73.1641,234.19,1.27899e-18,1.18287e-19,6.72228e-21,1.72043e-22
74.1641,234.19,6.69917e-19,6.08457e-20,3.40415e-21,8.60213e-23
75.1641,234.19,3.50601e-19,3.12846e-20,1.72358e-21,4.30107e-23
76.1641,234.19,1.8334e-19,1.60786e-20,8.72543e-22,2.15053e-23
77.1641,234.19,9.57999e-20,8.26012e-21,4.41648e-22,1.07527e-23
78.1641,234.19,5.00209e-20,4.24181e-21,2.23512e-22,5.37633e-24
79.1641,234.19,2.60992e-20,2.17746e-21,1.131e-22,2.68817e-24
80.1641,234.19,1.36082e-20,1.11734e-21,5.72221e-23,1.34408e-24
81.1641,234.19,7.0907e-21,5.73143e-22,2.89471e-23,6.72042e-25
82.1641,234.19,3.69229e-21,2.93892e-22,1.46415e-23,3.36021e-25
83.1641,234.19,1.92147e-21,1.50649e-22,7.40478e-24,1.6801e-25
84.1641,234.19,9.99334e-22,7.71965e-23,3.74439e-24,8.40052e-26
85.1641,234.19,5.19439e-22,3.95448e-23,1.8932e-24,4.20026e-26
86.1641,234.19,2.69845e-22,2.0251e-23,9.57099e-25,2.10013e-26
87.1641,234.19,1.40106e-22,1.03674e-23,4.838e-25,1.05006e-26
88.1641,234.19,7.27061e-23,5.30596e-24,2.44525e-25,5.25032e-27
89.1641,234.19,3.77104e-23,2.71477e-24,1.23575e-25,2.62516e-27
90.1641,234.19,1.95495e-23,1.3886e-24,6.24438e-26,1.31258e-27
91.1641,234.19,1.01298e-23,7.10077e-25,3.15501e-26,6.56291e-28
92.1641,234.19,5.2464e-24,3.63008e-25,1.59391e-26,3.28145e-28
93.1641,234.19,2.71597e-24,1.8553e-25,8.05159e-27,1.64073e-28
94.1641,234.19,1.40538e-24,9.47984e-26,4.06681e-27,8.20363e-29
95.1641,234.19,7.26904e-25,4.84261e-26,2.05392e-27,4.10182e-29
96.1641,234.19,3.75818e-25,2.47317e-26,1.03721e-27,2.05091e-29
97.1641,234.19,1.94223e-25,1.26277e-26,5.23733e-28,1.02545e-29
98.1641,234.19,1.00334e-25,6.44607e-27,2.6443e-28,5.12727e-30
99.1641,234.19,5.18121e-26,3.28978e-27,1.33497e-28,2.56364e-30
100,234.19,2.76415e-26,1.73105e-27,6.93456e-29,1.31634e-30
