#Time,E,D,C,B,A
0,13.0781,159.86,238.813,0,0
3.1e-5,13.083,159.862,238.806,0,0
0.0012322,13.2751,159.957,238.519,0,0
0.00284651,13.5335,160.083,238.135,0,0
0.00537984,13.9393,160.28,237.532,0,0
0.0173765,15.8676,161.184,234.7,0,0
0.0351241,18.7394,162.441,230.571,0,0
0.0782243,25.8001,165.107,220.845,0,0
0.14078,36.2267,168.072,207.453,0,0
0.217167,49.1624,170.393,192.196,0,0
0.298136,63.0125,171.491,177.248,0,0
0.38568,78.0282,171.333,162.391,0,0
0.480989,94.2962,169.827,147.628,0,0
0.584278,111.698,166.913,133.141,0,0
0.693147,129.649,162.695,119.407,0,0
0.804645,147.504,157.438,106.809,0,0
0.921402,165.528,151.185,95.0392,0,0
1.10464,192.253,140.371,79.1268,0,0
1.33856,223.387,125.742,62.6224,0,0
1.57957,251.868,110.673,49.2107,0,0
1.82412,277.129,96.0874,38.5347,0,0
2.08546,300.335,81.7442,29.6725,0,0
2.34985,320.198,68.7753,22.7786,0,0
2.61425,336.845,57.4202,17.4864,0,0
2.87864,350.699,47.629,13.4237,0,0
3.14304,362.159,39.288,10.305,0,0
3.40743,371.589,32.2518,7.91078,0,0
3.75705,381.489,24.686,5.5768,0,0
4.11953,389.283,18.587,3.88118,0,0
4.5323,395.822,13.3613,2.56862,0,0
4.97943,400.83,9.27851,1.64255,0,0
5.38746,404.044,6.61546,1.09222,0,0
5.83191,406.498,4.55293,0.700313,0,0
6.33302,408.356,2.97106,0.424294,0,0
6.79263,409.484,1.99947,0.267957,0,0
7.34417,410.36,1.23696,0.154364,0,0
7.91468,410.915,0.748961,0.0872545,0,0
8.48852,411.252,0.450147,0.0491574,0,0
9.08439,411.46,0.264214,0.0270912,0,0
9.6891,411.583,0.153273,0.0147987,0,0
10.3341,411.658,0.0854292,0.00776518,0,0
11.0219,411.702,0.0456282,0.00390361,0,0
11.7658,411.727,0.0230694,0.0018558,0,0
12.6043,411.74,0.0106493,0.000802735,0,0
13.4983,411.747,0.00465098,0.000328566,0,0
14.4983,411.75,0.00183367,0.000121094,0,0
15.4983,411.751,0.000719326,4.45406e-5,0,0
16.4983,411.751,0.00027845,1.65536e-5,0,0
17.4983,411.751,0.000110195,5.73952e-6,0,0
18.4983,411.751,3.99845e-5,2.29598e-6,0,0
19.4983,411.751,1.66151e-5,7.95711e-7,0,0
20.4983,411.751,7.10931e-6,3.15404e-7,0,0
21.4983,411.751,2.58649e-6,1.18502e-7,0,0
22.4983,411.751,8.16529e-7,3.63789e-8,0,0
23.4983,411.751,1.38087e-7,5.40275e-9,0,0
24.4983,411.751,-5.40177e-8,-2.95358e-9,0,0
25.4983,411.751,-7.22089e-8,-3.44341e-9,0,0
26.4983,411.751,-4.78292e-8,-2.16401e-9,0,0
27.4983,411.751,-2.42386e-8,-1.04253e-9,0,0
28.4983,411.751,-1.23799e-8,-5.21264e-10,0,0
29.4983,411.751,-6.32028e-9,-2.60632e-10,0,0
30.4983,411.751,-3.2253e-9,-1.30316e-10,0,0
31.4983,411.751,-1.64523e-9,-6.51581e-11,0,0
32.4983,411.751,-8.38903e-10,-3.2579e-11,0,0
33.4983,411.751,-4.27596e-10,-1.62895e-11,0,0
34.4983,411.751,-2.17871e-10,-8.14476e-12,0,0
35.4983,411.751,-1.10971e-10,-4.07238e-12,0,0
36.4983,411.751,-5.65038e-11,-2.03619e-12,0,0
37.4983,411.751,-2.8761e-11,-1.01809e-12,0,0
38.4983,411.751,-1.4635e-11,-5.09047e-13,0,0
39.4983,411.751,-7.44477e-12,-2.54524e-13,0,0
40.4983,411.751,-3.78601e-12,-1.27262e-13,0,0
41.4983,411.751,-1.92482e-12,-6.36309e-14,0,0
42.4983,411.751,-9.78319e-13,-3.18155e-14,0,0
43.4983,411.751,-4.97113e-13,-1.59077e-14,0,0
44.4983,411.751,-2.52534e-13,-7.95386e-15,0,0
45.4983,411.751,-1.28255e-13,-3.97693e-15,0,0
46.4983,411.751,-6.51219e-14,-1.98847e-15,0,0
47.4983,411.751,-3.3058e-14,-9.94233e-16,0,0
48.4983,411.751,-1.67776e-14,-4.97117e-16,0,0
49.4983,411.751,-8.51307e-15,-2.48558e-16,0,0
50.4983,411.751,-4.31867e-15,-1.24279e-16,0,0
51.4983,411.751,-2.19041e-15,-6.21396e-17,0,0
52.4983,411.751,-1.11074e-15,-3.10698e-17,0,0
53.4983,411.751,-5.63137e-16,-1.55349e-17,0,0
54.4983,411.751,-2.85452e-16,-7.76745e-18,0,0
55.4983,411.751,-1.44668e-16,-3.88372e-18,0,0
56.4983,411.751,-7.33049e-17,-1.94186e-18,0,0
57.4983,411.751,-3.71379e-17,-9.70931e-19,0,0
58.4983,411.751,-1.88117e-17,-4.85465e-19,0,0
59.4983,411.751,-9.52721e-18,-2.42733e-19,0,0
60.4983,411.751,-4.82429e-18,-1.21366e-19,0,0
61.4983,411.751,-2.44249e-18,-6.06832e-20,0,0
62.4983,411.751,-1.23641e-18,-3.03416e-20,0,0
63.4983,411.751,-6.25792e-19,-1.51708e-20,0,0
64.4983,411.751,-3.16689e-19,-7.5854e-21,0,0
65.4983,411.751,-1.60241e-19,-3.7927e-21,0,0
66.4983,411.751,-8.10685e-20,-1.89635e-21,0,0
67.4983,411.751,-4.10084e-20,-9.48175e-22,0,0
68.4983,411.751,-2.07412e-20,-4.74087e-22,0,0
69.4983,411.751,-1.04891e-20,-2.37044e-22,0,0
70.4983,411.751,-5.30383e-21,-1.18522e-22,0,0
71.4983,411.751,-2.68154e-21,-5.92609e-23,0,0
72.4983,411.751,-1.35559e-21,-2.96305e-23,0,0
73.4983,411.751,-6.85201e-22,-1.48152e-23,0,0
74.4983,411.751,-3.46304e-22,-7.40761e-24,0,0
75.4983,411.751,-1.75004e-22,-3.70381e-24,0,0
76.4983,411.751,-8.8428e-23,-1.8519e-24,0,0
77.4983,411.751,-4.4677e-23,-9.25952e-25,0,0
78.4983,411.751,-2.257e-23,-4.62976e-25,0,0
79.4983,411.751,-1.14007e-23,-2.31488e-25,0,0
80.4983,411.751,-5.75824e-24,-1.15744e-25,0,0
81.4983,411.751,-2.90806e-24,-5.7872e-26,0,0
82.4983,411.751,-1.4685e-24,-2.8936e-26,0,0
83.4983,411.751,-7.41482e-25,-1.4468e-26,0,0
84.4983,411.751,-3.74358e-25,-7.234e-27,0,0
85.4983,411.751,-1.88987e-25,-3.617e-27,0,0
86.4983,411.751,-9.5398e-26,-1.8085e-27,0,0
87.4983,411.751,-4.81511e-26,-9.0425e-28,0,0
88.4983,411.751,-2.43016e-26,-4.52125e-28,0,0
89.4983,411.751,-1.22638e-26,-2.26062e-28,0,0
90.4983,411.751,-6.18844e-27,-1.13031e-28,0,0
91.4983,411.751,-3.12248e-27,-5.65156e-29,0,0
92.4983,411.751,-1.57537e-27,-2.82578e-29,0,0
93.4983,411.751,-7.94748e-28,-1.41289e-29,0,0
94.4983,411.751,-4.00906e-28,-7.06445e-30,0,0
95.4983,411.751,-2.02219e-28,-3.53223e-30,0,0
96.4983,411.751,-1.01993e-28,-1.76611e-30,0,0
97.4983,411.751,-5.14379e-29,-8.83056e-31,0,0
98.4983,411.751,-2.59397e-29,-4.41528e-31,0,0
99.4983,411.751,-1.30802e-29,-2.20764e-31,0,0
100,411.751,-8.75952e-30,-1.47012e-31,0,0
