#Time,E,D,C,B,A
0,161.928,0,97.3641,0,50.2271
3.1e-5,161.928,0.00301813,97.3611,0.00155696,50.2255
0.00030505,161.928,0.0296894,97.3344,0.0153158,50.2118
0.000733164,161.928,0.0713284,97.2928,0.0367961,50.1903
0.00282619,161.928,0.274389,97.0895,0.141549,50.0853
0.0111352,161.934,1.07217,96.289,0.553094,49.6709
0.0191132,161.945,1.82578,95.5298,0.94183,49.2762
0.0275151,161.964,2.60646,94.7401,1.3445,48.8639
0.0367645,161.992,3.45076,93.8823,1.77993,48.414
0.0468465,162.031,4.35328,92.9607,2.24529,47.9284
0.0573449,162.082,5.2737,92.0158,2.71976,47.4278
0.0722294,162.17,6.54549,90.7014,3.37509,46.7271
0.123806,162.616,10.6646,86.3663,5.49429,44.3782
0.178477,163.308,14.5766,82.1186,7.49907,42.0171
0.237519,164.281,18.325,77.8969,9.40766,39.6082
0.30129,165.566,21.873,73.7229,11.1963,37.1612
0.36898,167.159,25.1308,69.6856,12.8142,34.729
0.440504,169.065,28.0687,65.8115,14.2422,32.3318
0.515775,171.278,30.6675,62.1189,15.4667,29.9875
0.596657,173.855,32.9677,58.5367,16.5019,27.6575
0.679942,176.683,34.8739,55.2119,17.3026,25.4474
0.768032,179.828,36.4508,52.0425,17.8962,23.3017
0.86101,183.278,37.6969,49.0299,18.2814,21.2328
0.956431,186.921,38.5971,46.2413,18.4592,19.3004
1.05899,190.914,39.2057,43.5342,18.4463,17.4192
1.16155,194.952,39.504,41.081,18.2606,15.7213
1.2915,200.091,39.5184,38.275,17.8293,13.8054
1.51726,208.948,38.8107,34.0323,16.7131,11.0154
1.74303,217.566,37.4546,30.3892,15.3199,8.78927
1.9775,226.139,35.6104,27.0698,13.748,6.95216
2.21566,234.368,33.4641,24.0688,12.1393,5.47886
2.46982,242.564,31.0138,21.1971,10.4949,4.24921
2.72793,250.24,28.4645,18.5769,8.95471,3.28255
3.00325,257.704,25.764,16.0724,7.48582,2.49251
3.27858,264.435,23.1454,13.8409,6.20528,1.89262
3.5539,270.461,20.6521,11.8615,5.10751,1.43711
3.84022,276.022,18.2222,10.0508,4.14488,1.07929
4.13082,280.982,15.9452,8.45092,3.33415,0.807103
4.43,285.427,13.8101,7.03213,2.65107,0.598408
4.74821,289.491,11.774,5.75123,2.06704,0.435307
5.07395,293.02,9.9343,4.65516,1.59477,0.314285
5.42023,296.159,8.23603,3.6966,1.20498,0.222295
5.78374,298.869,6.71675,2.88473,0.893916,0.154544
6.1647,301.166,5.38505,2.21119,0.650951,0.105583
6.58281,303.159,4.19181,1.64084,0.457568,0.0695007
7.01402,304.747,3.21148,1.19849,0.316762,0.0451544
7.45579,305.985,2.42532,0.863294,0.216466,0.0290279
7.91642,306.95,1.79577,0.609488,0.144998,0.0183122
8.39447,307.686,1.30449,0.422146,0.0953223,0.0113525
8.89128,308.235,0.928643,0.286525,0.0614296,0.0069069
9.3881,308.626,0.656358,0.193426,0.039464,0.00420219
9.90512,308.91,0.454215,0.127837,0.0248263,0.00250544
10.4389,309.111,0.308457,0.0829368,0.0153404,0.00146889
10.9811,309.249,0.206834,0.0531844,0.00938219,0.000853967
11.5394,309.343,0.136186,0.0335033,0.00564066,0.000488544
12.1144,309.407,0.0880033,0.0207216,0.00333169,0.000274847
12.7316,309.45,0.0547175,0.0123145,0.00188842,0.000148217
13.3823,309.478,0.0329358,0.00708083,0.00103525,7.72936e-5
14.0672,309.495,0.0191712,0.00393546,0.000548399,3.89437e-5
14.8358,309.506,0.0103656,0.00202471,0.000267981,1.80387e-5
15.6586,309.513,0.00532307,0.000988225,0.000124104,7.91152e-6
16.5815,309.516,0.00249692,0.00043896,5.21118e-5,3.1344e-6
17.5815,309.518,0.00108836,0.000180859,2.02614e-5,1.14788e-6
18.5815,309.518,0.000469582,7.39297e-5,7.83392e-6,4.19011e-7
19.5815,309.519,0.000203103,3.05131e-5,3.08649e-6,1.57725e-7
20.5815,309.519,8.69502e-5,1.24356e-5,1.19396e-6,5.76507e-8
21.5815,309.519,3.79444e-5,5.2118e-6,4.79706e-7,2.21291e-8
22.5815,309.519,1.63387e-5,2.16245e-6,1.92315e-7,8.61981e-9
23.5815,309.519,7.09198e-6,9.07018e-7,7.80085e-8,3.38388e-9
24.5815,309.519,2.6733e-6,3.23194e-7,2.61973e-8,1.06649e-9
25.5815,309.519,7.51974e-7,7.93226e-8,5.42674e-9,1.76418e-10
26.5815,309.519,6.62986e-8,-1.55153e-9,-9.26944e-10,-7.21638e-11
27.5815,309.519,-1.04496e-7,-1.78514e-8,-1.86411e-9,-9.30147e-11
28.5815,309.519,-1.02658e-7,-1.45028e-8,-1.32989e-9,-5.9979e-11
29.5815,309.519,-6.45523e-8,-8.31307e-9,-7.02842e-10,-2.93803e-11
30.5815,309.519,-3.44441e-8,-4.33592e-9,-3.58766e-10,-1.46901e-11
31.5815,309.519,-1.83518e-8,-2.25949e-9,-1.83056e-10,-7.34507e-12
32.5815,309.519,-9.76412e-9,-1.17643e-9,-9.33641e-11,-3.67253e-12
33.5815,309.519,-5.18806e-9,-6.12013e-10,-4.76002e-11,-1.83627e-12
34.5815,309.519,-2.7531e-9,-3.18136e-10,-2.42591e-11,-9.18134e-13
35.5815,309.519,-1.45917e-9,-1.65248e-10,-1.23591e-11,-4.59067e-13
36.5815,309.519,-7.72472e-10,-8.57709e-11,-6.29432e-12,-2.29533e-13
37.5815,309.519,-4.0848e-10,-4.44877e-11,-3.20454e-12,-1.14767e-13
38.5815,309.519,-2.1577e-10,-2.30594e-11,-1.63096e-12,-5.73833e-14
39.5815,309.519,-1.13857e-10,-1.19446e-11,-8.29828e-13,-2.86917e-14
40.5815,309.519,-6.00202e-11,-6.18334e-12,-4.22087e-13,-1.43458e-14
41.5815,309.519,-3.16096e-11,-3.19898e-12,-2.1463e-13,-7.17292e-15
42.5815,309.519,-1.66318e-11,-1.65405e-12,-1.09108e-13,-3.58646e-15
43.5815,309.519,-8.74329e-12,-8.54748e-13,-5.54507e-14,-1.79323e-15
44.5815,309.519,-4.59238e-12,-4.41461e-13,-2.81736e-14,-8.96615e-16
45.5815,309.519,-2.41013e-12,-2.27886e-13,-1.4311e-14,-4.48307e-16
46.5815,309.519,-1.26385e-12,-1.17577e-13,-7.26757e-15,-2.24154e-16
47.5815,309.519,-6.62244e-13,-6.06333e-14,-3.68982e-15,-1.12077e-16
48.5815,309.519,-3.46748e-13,-3.12531e-14,-1.87293e-15,-5.60384e-17
49.5815,309.519,-1.81425e-13,-1.61018e-14,-9.50475e-16,-2.80192e-17
50.5815,309.519,-9.48585e-14,-8.29202e-15,-4.82242e-16,-1.40096e-17
51.5815,309.519,-4.95634e-14,-4.26832e-15,-2.44623e-16,-7.0048e-18
52.5815,309.519,-2.58798e-14,-2.19619e-15,-1.24063e-16,-3.5024e-18
53.5815,309.519,-1.35047e-14,-1.12955e-15,-6.29071e-17,-1.7512e-18
54.5815,309.519,-7.0427e-15,-5.8072e-16,-3.18913e-17,-8.756e-19
55.5815,309.519,-3.67057e-15,-2.98442e-16,-1.61646e-17,-4.378e-19
56.5815,309.519,-1.91194e-15,-1.53317e-16,-8.19173e-18,-2.189e-19
57.5815,309.519,-9.95339e-16,-7.87339e-17,-4.15059e-18,-1.0945e-19
58.5815,309.519,-5.17879e-16,-4.04183e-17,-2.10266e-18,-5.4725e-20
59.5815,309.519,-2.6931e-16,-2.07416e-17,-1.06501e-18,-2.73625e-20
60.5815,309.519,-1.39975e-16,-1.06405e-17,-5.39346e-19,-1.36813e-20
61.5815,309.519,-7.27161e-17,-5.45679e-18,-2.73093e-19,-6.84063e-21
62.5815,309.519,-3.77568e-17,-2.79752e-18,-1.38257e-19,-3.42031e-21
63.5815,309.519,-1.95953e-17,-1.43375e-18,-6.99835e-20,-1.71016e-21
64.5815,309.519,-1.01649e-17,-7.34586e-19,-3.54193e-20,-8.55078e-22
65.5815,309.519,-5.27059e-18,-3.76255e-19,-1.79234e-20,-4.27539e-22
66.5815,309.519,-2.73163e-18,-1.92662e-19,-9.06859e-21,-2.1377e-22
67.5815,309.519,-1.41513e-18,-9.86248e-20,-4.58774e-21,-1.06885e-22
68.5815,309.519,-7.32799e-19,-5.04727e-20,-2.32059e-21,-5.34424e-23
69.5815,309.519,-3.79311e-19,-2.58232e-20,-1.17366e-21,-2.67212e-23
70.5815,309.519,-1.9626e-19,-1.32083e-20,-5.93508e-22,-1.33606e-23
71.5815,309.519,-1.01507e-19,-6.75421e-21,-3.00094e-22,-6.6803e-24
72.5815,309.519,-5.248e-20,-3.45297e-21,-1.51717e-22,-3.34015e-24
73.5815,309.519,-2.71224e-20,-1.76483e-21,-7.66936e-23,-1.67008e-24
74.5815,309.519,-1.40121e-20,-9.01797e-22,-3.87643e-23,-8.35038e-25
75.5815,309.519,-7.2364e-21,-4.60694e-22,-1.95909e-23,-4.17519e-25
76.5815,309.519,-3.73585e-21,-2.35297e-22,-9.89984e-24,-2.08759e-25
77.5815,309.519,-1.928e-21,-1.2015e-22,-5.00211e-24,-1.0438e-25
78.5815,309.519,-9.94668e-22,-6.13383e-23,-2.52715e-24,-5.21898e-26
79.5815,309.519,-5.12988e-22,-3.13075e-23,-1.27662e-24,-2.60949e-26
80.5815,309.519,-2.64482e-22,-1.59762e-23,-6.44835e-25,-1.30475e-26
81.5815,309.519,-1.36316e-22,-8.15092e-24,-3.25679e-25,-6.52373e-27
82.5815,309.519,-7.02371e-23,-4.15769e-24,-1.64471e-25,-3.26187e-27
83.5815,309.519,-3.61787e-23,-2.12037e-24,-8.30508e-26,-1.63093e-27
84.5815,309.519,-1.86299e-23,-1.08115e-24,-4.19331e-26,-8.15466e-28
85.5815,309.519,-9.59055e-24,-5.51162e-25,-2.11704e-26,-4.07733e-28
86.5815,309.519,-4.93574e-24,-2.80924e-25,-1.06871e-26,-2.03867e-28
87.5815,309.519,-2.53945e-24,-1.43159e-25,-5.39454e-27,-1.01933e-28
88.5815,309.519,-1.30619e-24,-7.29411e-26,-2.72275e-27,-5.09666e-29
89.5815,309.519,-6.71676e-25,-3.71576e-26,-1.37412e-27,-2.54833e-29
90.5815,309.519,-3.45301e-25,-1.89255e-26,-6.9343e-28,-1.27417e-29
91.5815,309.519,-1.77469e-25,-9.63771e-27,-3.499e-28,-6.37083e-30
92.5815,309.519,-9.11882e-26,-4.90713e-27,-1.76543e-28,-3.18542e-30
93.5815,309.519,-4.68432e-26,-2.4981e-27,-8.90678e-29,-1.59271e-30
94.5815,309.519,-2.40573e-26,-1.27151e-27,-4.49321e-29,-7.96354e-31
95.5815,309.519,-1.23522e-26,-6.4709e-28,-2.26651e-29,-3.98177e-31
96.5815,309.519,-6.34074e-27,-3.29261e-28,-1.14321e-29,-1.99088e-31
97.5815,309.519,-3.25412e-27,-1.67513e-28,-5.76583e-30,-9.95442e-32
98.5815,309.519,-1.66967e-27,-8.52106e-29,-2.9078e-30,-4.97721e-32
99.5815,309.519,-8.56503e-28,-4.33385e-29,-1.46634e-30,-2.48861e-32
100,309.519,-6.12917e-28,-3.0859e-29,-1.03891e-30,-1.7544e-32
