#Time,E,D,C,B,A
0,46.577,77.3867,338.738,0,13.5685
3.1e-5,46.5794,77.3948,338.727,0.000420602,13.5681
0.000645233,46.6271,77.5551,338.519,0.00874737,13.5598
0.00137908,46.6841,77.7464,338.271,0.0186821,13.5498
0.00251931,46.7729,78.0431,337.885,0.0340924,13.5344
0.008114,47.2136,79.4875,336.001,0.1092,13.4589
0.0222495,48.3625,83.0548,331.288,0.295248,13.27
0.036385,49.5609,86.5063,326.643,0.476053,13.0837
0.055157,51.2265,90.9154,320.579,0.708241,12.8404
0.116391,57.2038,103.981,301.602,1.40573,12.0777
0.17986,64.1808,115.555,283.161,2.03869,11.335
0.252808,73.0283,126.634,263.406,2.66395,10.5375
0.325756,82.6052,135.595,245.082,3.19115,9.79622
0.40526,93.7032,143.238,226.615,3.66656,9.04755
0.48698,105.66,149.075,209.136,4.06018,8.33759
0.573133,118.7,153.315,192.222,4.38403,7.64936
0.663497,132.686,155.954,176.005,4.63674,6.98845
0.755967,147.169,157.036,160.878,4.81633,6.37121
0.853354,162.457,156.698,146.402,4.93228,5.77999
0.9532,178.031,155.06,132.962,4.98585,5.23076
1.05784,194.116,152.211,120.249,4.98346,4.71111
1.16911,210.838,148.182,108.108,4.92768,4.215
1.37258,240.08,138.936,89.0939,4.72022,3.439
1.59249,269.378,127.331,72.4056,4.3954,2.7601
1.83413,298.522,113.844,57.7602,3.97567,2.16761
2.07937,324.767,100.268,46.0123,3.52702,1.69619
2.33101,348.316,87.0536,36.5073,3.07422,1.31882
2.58586,368.909,74.7607,28.9348,2.64313,1.02213
2.85109,387.188,63.3039,22.7589,2.2353,0.783997
3.11633,402.614,53.2481,17.9325,1.87403,0.601344
3.38156,415.554,44.5429,14.1522,1.55977,0.461244
3.65601,426.694,36.85,11.094,1.28162,0.35054
3.93046,435.89,30.3572,8.70867,1.04714,0.266406
4.20832,443.538,24.8567,6.82408,0.849168,0.201775
4.49302,449.929,20.1862,5.32135,0.681993,0.151783
4.78096,455.164,16.3063,4.14194,0.544134,0.113807
5.07537,459.472,13.074,3.20862,0.430323,0.0847821
5.37361,462.962,10.4272,2.47923,0.338118,0.0629185
5.67949,465.806,8.24973,1.90421,0.263189,0.0463375
5.99311,468.105,6.47496,1.45358,0.202958,0.0338631
6.31059,469.926,5.05716,1.10632,0.155576,0.0246514
6.64339,471.408,3.89578,0.831228,0.117416,0.0176727
6.98927,472.587,2.96514,0.617657,0.0874081,0.012505
7.34799,473.513,2.23012,0.453937,0.0641939,0.00873545
7.71904,474.229,1.65811,0.330067,0.0465305,0.0060274
8.0901,474.761,1.23085,0.239946,0.0336493,0.00415886
8.46587,475.16,0.908872,0.173668,0.0241819,0.00285606
8.85109,475.461,0.665055,0.124627,0.0171993,0.00194294
9.24657,475.686,0.481921,0.0885995,0.0120985,0.00130825
9.65263,475.853,0.34573,0.0623751,0.00841467,0.000871615
10.0847,475.978,0.242442,0.0429033,0.00570677,0.000565786
10.5344,476.069,0.167315,0.029038,0.00380218,0.000360861
11.0022,476.134,0.113574,0.019327,0.00248726,0.00022602
11.5127,476.182,0.0742815,0.0123789,0.00156197,0.000135638
12.0428,476.213,0.0477086,0.00778352,0.000961525,7.98173e-5
12.6302,476.236,0.0291482,0.00464703,0.000560385,4.43509e-5
13.2632,476.25,0.0170979,0.00266018,0.000312404,2.3542e-5
13.9516,476.259,0.00954509,0.00144681,0.000165022,1.18196e-5
14.7372,476.264,0.00489083,0.00071989,7.94014e-5,5.38179e-6
15.5976,476.267,0.00234174,0.000333937,3.55022e-5,2.27225e-6
16.5909,476.269,0.000994877,0.000136824,1.39411e-5,8.37617e-7
17.5909,476.269,0.000417993,5.54581e-5,5.41668e-6,3.06493e-7
18.5909,476.27,0.000174602,2.23609e-5,2.09515e-6,1.12053e-7
19.5909,476.27,7.13944e-5,8.78973e-6,7.85306e-7,3.92967e-8
20.5909,476.27,2.95271e-5,3.51279e-6,3.0157e-7,1.43477e-8
21.5909,476.27,1.16941e-5,1.32047e-6,1.05617e-7,4.44466e-9
22.5909,476.27,6.48781e-6,8.06518e-7,7.58582e-8,4.47592e-9
23.5909,476.27,2.28676e-7,-9.08125e-8,-2.33082e-8,-2.67603e-9
24.5909,476.27,2.38332e-6,3.56571e-7,4.18022e-8,3.31303e-9
25.5909,476.27,2.06407e-7,6.16789e-9,-1.94617e-9,-3.96565e-10
26.5909,476.27,1.12121e-6,1.93326e-7,2.5733e-8,2.40432e-9
27.5909,476.27,1.46996e-6,2.56581e-7,3.40424e-8,3.03417e-9
28.5909,476.27,-4.41558e-7,-9.1378e-8,-1.38882e-8,-1.522e-9
29.5909,476.27,6.7145e-8,1.18961e-8,1.65326e-9,2.04309e-10
30.5909,476.27,-7.09469e-8,-1.58534e-8,-2.51333e-9,-3.15869e-10
31.5909,476.27,-1.79946e-7,-3.70894e-8,-5.63676e-9,-6.62848e-10
32.5909,476.27,-1.56051e-7,-3.11105e-8,-4.62346e-9,-5.10579e-10
33.5909,476.27,-9.62692e-8,-1.85432e-8,-2.68177e-9,-2.75893e-10
34.5909,476.27,-4.9453e-8,-9.11973e-9,-1.26816e-9,-1.18599e-10
35.5909,476.27,-2.18225e-8,-3.78477e-9,-4.94058e-10,-3.97004e-11
36.5909,476.27,-8.07209e-9,-1.2618e-9,-1.44829e-10,-8.04058e-12
37.5909,476.27,-2.19681e-9,-2.59066e-10,-1.6449e-11,1.50762e-12
38.5909,476.27,-1.22275e-10,5.18802e-11,1.69324e-11,2.81421e-12
39.5909,476.27,3.81687e-10,1.00364e-10,1.76157e-11,1.94985e-12
40.5909,476.27,3.59547e-10,7.43568e-11,1.11049e-11,9.97035e-13
41.5909,476.27,1.99813e-10,4.00792e-11,5.80169e-12,4.98517e-13
42.5909,476.27,1.10683e-10,2.15524e-11,3.02547e-12,2.49259e-13
43.5909,476.27,6.11232e-11,1.15637e-11,1.57505e-12,1.24629e-13
44.5909,476.27,3.36572e-11,6.19119e-12,8.18683e-13,6.23147e-14
45.5909,476.27,1.84826e-11,3.30806e-12,4.2492e-13,3.11573e-14
46.5909,476.27,1.01234e-11,1.76415e-12,2.20249e-13,1.55787e-14
47.5909,476.27,5.53124e-12,9.39086e-13,1.14019e-13,7.78933e-15
48.5909,476.27,3.01513e-12,4.99022e-13,5.8957e-14,3.89467e-15
49.5909,476.27,1.63993e-12,2.64737e-13,3.04522e-14,1.94733e-15
50.5909,476.27,8.90079e-13,1.40225e-13,1.57129e-14,9.73667e-16
51.5909,476.27,4.82121e-13,7.41624e-14,8.09988e-15,4.86833e-16
52.5909,476.27,2.60644e-13,3.9167e-14,4.17165e-15,2.43417e-16
53.5909,476.27,1.4065e-13,2.06568e-14,2.14668e-15,1.21708e-16
54.5909,476.27,7.57653e-14,1.08803e-14,1.10377e-15,6.08542e-17
55.5909,476.27,4.07445e-14,5.7237e-15,5.67096e-16,3.04271e-17
56.5909,476.27,2.1876e-14,3.00743e-15,2.91155e-16,1.52135e-17
57.5909,476.27,1.17272e-14,1.5784e-15,1.49381e-16,7.60677e-18
58.5909,476.27,6.27734e-15,8.27498e-16,7.65921e-17,3.80339e-18
59.5909,476.27,3.35536e-15,4.33373e-16,3.92469e-17,1.90169e-18
60.5909,476.27,1.79105e-15,2.26736e-16,2.00989e-17,9.50846e-19
61.5909,476.27,9.54779e-16,1.18511e-16,1.02872e-17,4.75423e-19
62.5909,476.27,5.08333e-16,6.18869e-17,5.26243e-18,2.37712e-19
63.5909,476.27,2.70311e-16,3.22888e-17,2.69064e-18,1.18856e-19
64.5909,476.27,1.43571e-16,1.68319e-17,1.37504e-18,5.94279e-20
65.5909,476.27,7.61693e-17,8.76714e-18,7.02375e-19,2.97139e-20
66.5909,476.27,4.03661e-17,4.56288e-18,3.58616e-19,1.4857e-20
67.5909,476.27,2.13695e-17,2.37295e-18,1.83022e-19,7.42849e-21
68.5909,476.27,1.13013e-17,1.23316e-18,9.33682e-20,3.71424e-21
69.5909,476.27,5.97086e-18,6.40386e-19,4.76127e-20,1.85712e-21
70.5909,476.27,3.1516e-18,3.32328e-19,2.42706e-20,9.28561e-22
71.5909,476.27,1.66197e-18,1.72348e-19,1.23674e-20,4.6428e-22
72.5909,476.27,8.75648e-19,8.93239e-20,6.29979e-21,2.3214e-22
73.5909,476.27,4.60957e-19,4.62659e-20,3.20793e-21,1.1607e-22
74.5909,476.27,2.42453e-19,2.39494e-20,1.63298e-21,5.80351e-23
75.5909,476.27,1.27422e-19,1.23902e-20,8.31001e-22,2.90175e-23
76.5909,476.27,6.69141e-20,6.40649e-21,4.22755e-22,1.45088e-23
77.5909,476.27,3.51124e-20,3.31075e-21,2.15005e-22,7.25438e-24
78.5909,476.27,1.84112e-20,1.71003e-21,1.09316e-22,3.62719e-24
79.5909,476.27,9.64701e-21,8.82798e-22,5.55647e-23,1.8136e-24
80.5909,476.27,5.05126e-21,4.55517e-22,2.82358e-23,9.06798e-25
81.5909,476.27,2.6431e-21,2.34931e-22,1.43446e-23,4.53399e-25
82.5909,476.27,1.3821e-21,1.21108e-22,7.28564e-24,2.26699e-25
83.5909,476.27,7.22253e-22,6.24038e-23,3.69949e-24,1.1335e-25
84.5909,476.27,3.77197e-22,3.2141e-23,1.87808e-24,5.66749e-26
85.5909,476.27,1.96872e-22,1.65471e-23,9.53211e-25,2.83374e-26
86.5909,476.27,1.02694e-22,8.51539e-24,4.8369e-25,1.41687e-26
87.5909,476.27,5.35371e-23,4.38039e-24,2.45387e-25,7.08436e-27
88.5909,476.27,2.78947e-23,2.25243e-24,1.24465e-25,3.54218e-27
89.5909,476.27,1.45263e-23,1.15777e-24,6.31179e-26,1.77109e-27
90.5909,476.27,7.56057e-24,5.94887e-25,3.20017e-26,8.85545e-28
91.5909,476.27,3.93306e-24,3.05554e-25,1.62222e-26,4.42772e-28
92.5909,476.27,2.04498e-24,1.56888e-25,8.22181e-27,2.21386e-28
93.5909,476.27,1.06275e-24,8.05272e-26,4.16625e-27,1.10693e-28
94.5909,476.27,5.52035e-25,4.1319e-26,2.1108e-27,5.53465e-29
95.5909,476.27,2.86615e-25,2.11941e-26,1.06924e-27,2.76733e-29
96.5909,476.27,1.48741e-25,1.08678e-26,5.41537e-28,1.38366e-29
97.5909,476.27,7.71561e-26,5.57103e-27,2.74227e-28,6.91832e-30
98.5909,476.27,4.00055e-26,2.85494e-27,1.38843e-28,3.45916e-30
99.5909,476.27,2.07341e-26,1.46261e-27,7.02864e-29,1.72958e-30
100,476.27,1.50203e-26,1.05258e-27,5.02377e-29,1.22746e-30
