#Time,E,D,C,B,A
0,49.5072,246.912,0,173.188,112.426
3.1e-5,49.5148,246.904,0.00536863,173.186,112.422
0.000281314,49.5766,246.842,0.0487084,173.171,112.394
0.000675336,49.6739,246.745,0.116903,173.147,112.35
0.00262266,50.1539,246.265,0.453406,173.028,112.131
0.0124307,52.5575,243.875,2.13483,172.428,111.037
0.0241067,55.3887,241.08,4.10745,171.708,109.748
0.0370449,58.4882,238.047,6.25676,170.903,108.337
0.0519832,62.0186,234.629,8.69106,169.963,106.731
0.109436,75.1377,222.268,17.5918,166.263,100.772
0.199403,94.347,205.218,30.122,160.244,92.1016
0.289369,112.137,190.641,41.0472,154.03,84.1774
0.384959,129.713,177.479,51.0361,147.301,76.5036
0.483361,146.599,166.056,59.7252,140.319,69.3341
0.581763,162.452,156.446,66.9458,133.352,62.8365
0.705404,181.158,146.484,74.1544,124.708,55.5284
0.921711,211.338,133.336,82.5052,110.126,44.7274
1.13802,239.108,123.911,86.4874,96.4984,36.0273
1.35433,265.106,116.745,87.1567,84.0055,29.0195
1.5848,291.272,110.485,85.204,72.0253,23.0461
1.82079,316.663,104.764,81.2242,61.18,18.2014
2.07199,342.242,98.9021,75.5831,51.1467,14.1583
2.33009,366.987,92.8211,68.9517,42.3348,10.9375
2.59163,390.44,86.4826,61.8955,34.7941,8.4203
2.85318,412.212,79.9778,54.8785,28.482,6.48241
3.11473,432.269,73.3865,48.1544,23.2324,4.99052
3.37628,450.602,66.8165,41.8815,18.8905,3.84198
3.68314,469.943,59.2843,35.2126,14.7662,2.82675
4.07275,491.254,50.2247,27.8921,10.7474,1.91463
4.51522,511.369,40.8893,21.0948,7.44894,1.23006
4.95336,527.473,32.8191,15.793,5.15402,0.793678
5.41129,540.818,25.6859,11.5362,3.49031,0.50208
5.91375,552.064,19.3212,8.07931,2.26443,0.303784
6.41651,560.467,14.3205,5.59867,1.46205,0.183749
6.98391,567.321,10.0574,3.66155,0.888099,0.10419
7.56896,572.224,6.88274,2.33915,0.528703,0.0580433
8.10869,575.344,4.79367,1.53477,0.326447,0.0338344
8.74529,577.816,3.08897,0.925611,0.18412,0.0179027
9.38068,579.397,1.96796,0.554215,0.103562,0.00948411
10.0761,580.472,1.18679,0.313562,0.0549587,0.00473216
10.7715,581.117,0.707606,0.176069,0.0290608,0.00236103
11.4721,581.502,0.415985,0.0977703,0.0152436,0.00117183
12.224,581.74,0.232875,0.0516624,0.00760386,0.000552666
12.9853,581.873,0.128184,0.0269088,0.0037483,0.000258174
13.7846,581.949,0.067857,0.0134844,0.00177847,0.000116123
14.6212,581.99,0.0345574,0.00650409,0.000812667,5.03219e-5
15.5321,582.013,0.0164211,0.0029227,0.000345448,2.02559e-5
16.5321,582.024,0.00718298,0.00120663,0.000134652,7.46233e-6
17.5321,582.029,0.00311322,0.000495254,5.23596e-5,2.75162e-6
18.5321,582.031,0.00133785,0.000202072,2.02899e-5,1.01368e-6
19.5321,582.032,0.000566881,8.12431e-5,7.72394e-6,3.63345e-7
20.5321,582.032,0.000241722,3.32132e-5,3.04107e-6,1.39514e-7
21.5321,582.032,9.91766e-5,1.28297e-5,1.09269e-6,4.51033e-8
22.5321,582.032,4.0091e-5,4.87508e-6,3.84875e-7,1.41923e-8
23.5321,582.032,1.75495e-5,2.08863e-6,1.62059e-7,5.84945e-9
24.5321,582.032,8.10977e-6,9.60616e-7,7.45542e-8,2.67441e-9
25.5321,582.032,3.29399e-6,3.68963e-7,2.69171e-8,9.18093e-10
26.5321,582.032,1.14944e-6,1.18014e-7,7.76263e-9,2.40962e-10
27.5321,582.032,2.69131e-7,2.09508e-8,8.30342e-10,9.15069e-12
28.5321,582.032,-1.74638e-8,-7.20399e-9,-9.04601e-10,-4.08718e-11
29.5321,582.032,-7.19232e-8,-1.03148e-8,-9.03561e-10,-3.45276e-11
30.5321,582.032,-5.68582e-8,-7.03091e-9,-5.49707e-10,-1.94477e-11
31.5321,582.032,-3.25686e-8,-3.66678e-9,-2.62515e-10,-8.65264e-12
32.5321,582.032,-1.72343e-8,-1.9001e-9,-1.33421e-10,-4.32632e-12
33.5321,582.032,-9.10915e-9,-9.83946e-10,-6.77918e-11,-2.16316e-12
34.5321,582.032,-4.80917e-9,-5.09191e-10,-3.44367e-11,-1.08158e-12
35.5321,582.032,-2.53625e-9,-2.6334e-10,-1.74888e-11,-5.4079e-13
36.5321,582.032,-1.33618e-9,-1.3611e-10,-8.87957e-12,-2.70395e-13
37.5321,582.032,-7.03245e-10,-7.03086e-11,-4.50739e-12,-1.35198e-13
38.5321,582.032,-3.69772e-10,-3.6298e-11,-2.28749e-12,-6.75988e-14
39.5321,582.032,-1.94251e-10,-1.87293e-11,-1.16065e-12,-3.37994e-14
40.5321,582.032,-1.01955e-10,-9.65906e-12,-5.88773e-13,-1.68997e-14
41.5321,582.032,-5.34668e-11,-4.97883e-12,-2.98611e-13,-8.44985e-15
42.5321,582.032,-2.8016e-11,-2.56513e-12,-1.51418e-13,-4.22492e-15
43.5321,582.032,-1.46685e-11,-1.32095e-12,-7.67653e-14,-2.11246e-15
44.5321,582.032,-7.67419e-12,-6.79928e-13,-3.89108e-14,-1.05623e-15
45.5321,582.032,-4.01201e-12,-3.49824e-13,-1.97194e-14,-5.28115e-16
46.5321,582.032,-2.09596e-12,-1.79908e-13,-9.99175e-15,-2.64058e-16
47.5321,582.032,-1.09422e-12,-9.24848e-14,-5.06189e-15,-1.32029e-16
48.5321,582.032,-5.70873e-13,-4.75244e-14,-2.56395e-15,-6.60144e-17
49.5321,582.032,-2.97642e-13,-2.44114e-14,-1.29848e-15,-3.30072e-17
50.5321,582.032,-1.55088e-13,-1.25345e-14,-6.57491e-16,-1.65036e-17
51.5321,582.032,-8.0761e-14,-6.43367e-15,-3.32872e-16,-8.2518e-18
52.5321,582.032,-4.2031e-14,-3.30108e-15,-1.68499e-16,-4.1259e-18
53.5321,582.032,-2.18621e-14,-1.69318e-15,-8.52808e-17,-2.06295e-18
54.5321,582.032,-1.13651e-14,-8.68169e-16,-4.31562e-17,-1.03148e-18
55.5321,582.032,-5.90507e-15,-4.45003e-16,-2.1836e-17,-5.15738e-19
56.5321,582.032,-3.06655e-15,-2.28025e-16,-1.10469e-17,-2.57869e-19
57.5321,582.032,-1.59168e-15,-1.16806e-16,-5.58792e-18,-1.28934e-19
58.5321,582.032,-8.25747e-16,-5.98163e-17,-2.82619e-18,-6.44672e-20
59.5321,582.032,-4.28185e-16,-3.06227e-17,-1.42921e-18,-3.22336e-20
60.5321,582.032,-2.21929e-16,-1.56727e-17,-7.22665e-19,-1.61168e-20
61.5321,582.032,-1.14974e-16,-8.01903e-18,-3.65362e-19,-8.0584e-21
62.5321,582.032,-5.95379e-17,-4.10186e-18,-1.84696e-19,-4.0292e-21
63.5321,582.032,-3.08177e-17,-2.09761e-18,-9.33551e-20,-2.0146e-21
64.5321,582.032,-1.59451e-17,-1.0724e-18,-4.71812e-20,-1.0073e-21
65.5321,582.032,-8.24659e-18,-5.48119e-19,-2.38424e-20,-5.0365e-22
66.5321,582.032,-4.26334e-18,-2.80083e-19,-1.20471e-20,-2.51825e-22
67.5321,582.032,-2.20321e-18,-1.43085e-19,-6.08652e-21,-1.25913e-22
68.5321,582.032,-1.13815e-18,-7.30797e-20,-3.07474e-21,-6.29563e-23
69.5321,582.032,-5.87731e-19,-3.73164e-20,-1.55311e-21,-3.14781e-23
70.5321,582.032,-3.03391e-19,-1.90504e-20,-7.84423e-22,-1.57391e-23
71.5321,582.032,-1.56557e-19,-9.72329e-21,-3.96146e-22,-7.86953e-24
72.5321,582.032,-8.07593e-20,-4.96166e-21,-2.00041e-22,-3.93477e-24
73.5321,582.032,-4.16453e-20,-2.53133e-21,-1.01004e-22,-1.96738e-24
74.5321,582.032,-2.14682e-20,-1.29116e-21,-5.09938e-23,-9.83692e-25
75.5321,582.032,-1.10634e-20,-6.58453e-22,-2.57428e-23,-4.91846e-25
76.5321,582.032,-5.69954e-21,-3.35724e-22,-1.29944e-23,-2.45923e-25
77.5321,582.032,-2.93534e-21,-1.71141e-22,-6.55867e-24,-1.22961e-25
78.5321,582.032,-1.51128e-21,-8.72257e-23,-3.31008e-24,-6.14807e-26
79.5321,582.032,-7.77865e-22,-4.4448e-23,-1.67041e-24,-3.07404e-26
80.5321,582.032,-4.00255e-22,-2.26455e-23,-8.42889e-25,-1.53702e-26
81.5321,582.032,-2.05895e-22,-1.15354e-23,-4.25287e-25,-7.68509e-27
82.5321,582.032,-1.05885e-22,-5.87497e-24,-2.14565e-25,-3.84254e-27
83.5321,582.032,-5.44384e-23,-2.99161e-24,-1.08243e-25,-1.92127e-27
84.5321,582.032,-2.79807e-23,-1.5231e-24,-5.46019e-26,-9.60636e-28
85.5321,582.032,-1.4378e-23,-7.75323e-25,-2.75411e-26,-4.80318e-28
86.5321,582.032,-7.38632e-24,-3.94607e-25,-1.38906e-26,-2.40159e-28
87.5321,582.032,-3.79356e-24,-2.00806e-25,-7.00535e-27,-1.2008e-28
88.5321,582.032,-1.94787e-24,-1.02169e-25,-3.5327e-27,-6.00398e-29
89.5321,582.032,-9.99921e-25,-5.19753e-26,-1.78136e-27,-3.00199e-29
90.5321,582.032,-5.13179e-25,-2.64368e-26,-8.98184e-28,-1.50099e-29
91.5321,582.032,-2.63312e-25,-1.34448e-26,-4.52844e-28,-7.50497e-30
92.5321,582.032,-1.35074e-25,-6.83655e-27,-2.28298e-28,-3.75249e-30
93.5321,582.032,-6.9275e-26,-3.47582e-27,-1.15087e-28,-1.87624e-30
94.5321,582.032,-3.5521e-26,-1.76692e-27,-5.80127e-29,-9.38121e-31
95.5321,582.032,-1.82095e-26,-8.98079e-28,-2.92409e-29,-4.69061e-31
96.5321,582.032,-9.33296e-27,-4.56408e-28,-1.47377e-29,-2.3453e-31
97.5321,582.032,-4.78244e-27,-2.31918e-28,-7.42749e-30,-1.17265e-31
98.5321,582.032,-2.45014e-27,-1.1783e-28,-3.74306e-30,-5.86326e-32
99.5321,582.032,-1.255e-27,-5.98583e-29,-1.88619e-30,-2.93163e-32
100,582.032,-8.68109e-28,-4.11907e-29,-1.29135e-30,-1.9972e-32
