#Time,E,D,C,B,A
0,0,0,79.2729,0,0
3.1e-5,6.38907e-8,0.00245733,79.2704,0,0
0.00033463,5.68023e-6,0.0265157,79.2463,0,0
0.000808359,2.74293e-5,0.0640261,79.2088,0,0
0.00311348,0.000385112,0.246044,79.0264,0,0
0.0115547,0.00525017,0.905451,78.3622,0,0
0.0203141,0.0161318,1.57798,77.6787,0,0
0.0309891,0.0372811,2.38165,76.8539,0,0
0.0625943,0.148965,4.66095,74.4629,0,0
0.0990566,0.364169,7.11194,71.7968,0,0
0.140149,0.709477,9.65711,68.9063,0,0
0.181241,1.15488,11.9858,66.1322,0,0
0.226162,1.74615,14.2996,63.2271,0,0
0.274415,2.49106,16.5331,60.2487,0,0
0.32647,3.40852,18.6716,57.1927,0,0
0.382589,4.51427,20.6871,54.0715,0,0
0.443034,5.82257,22.5503,50.9,0,0
0.508062,7.3454,24.2321,47.6954,0,0
0.577939,9.09203,25.7045,44.4764,0,0
0.652945,11.0685,26.9419,41.2624,0,0
0.733387,13.2775,27.9221,38.0732,0,0
0.819607,15.7178,28.627,34.9281,0,0
0.91199,18.3842,29.0428,31.8459,0,0
1.01098,21.2677,29.1608,28.8444,0,0
1.11236,24.2176,28.9916,26.0637,0,0
1.21849,27.2737,28.5599,23.4392,0,0
1.32462,30.2726,27.9212,21.0791,0,0
1.45784,33.9263,26.8966,18.45,0,0
1.69046,39.9366,24.7155,14.6208,0,0
1.92551,45.4594,22.2552,11.5582,0,0
2.18259,50.827,19.5079,8.93793,0,0
2.43968,55.4987,16.8625,6.91168,0,0
2.69677,59.5142,14.4139,5.34479,0,0
2.96143,63.0232,12.1478,4.10191,0,0
3.22989,66.0071,10.1296,3.13613,0,0
3.49835,68.4867,8.38839,2.39775,0,0
3.77323,70.5783,6.87305,1.82147,0,0
4.05132,72.3056,5.58802,1.37926,0,0
4.33746,73.7429,4.49395,1.03603,0,0
4.62762,74.9107,3.58702,0.775097,0,0
4.93125,75.8793,2.82144,0.572126,0,0
5.24742,76.6673,2.1885,0.417038,0,0
5.57588,77.2982,1.67441,0.300276,0,0
5.92612,77.8076,1.25374,0.211547,0,0
6.28714,78.1984,0.927041,0.147438,0,0
6.67959,78.5081,0.665203,0.0995772,0,0
7.08752,78.7373,0.469383,0.0662186,0,0
7.50321,78.9013,0.327901,0.0436951,0,0
7.93014,79.0182,0.226126,0.0285101,0,0
8.36907,79.1006,0.153855,0.0183804,0,0
8.83882,79.1598,0.101578,0.0114897,0,0
9.33208,79.2004,0.0654852,0.00701537,0,0
9.84941,79.2275,0.0411975,0.00418141,0,0
10.424,79.246,0.0245426,0.00235348,0,0
11.0254,79.2573,0.0142234,0.00128939,0,0
11.7078,79.2646,0.00763114,0.000651317,0,0
12.4671,79.2688,0.00380069,0.000304524,0,0
13.2963,79.271,0.00176712,0.000132676,0,0
14.2947,79.2721,0.000698037,4.86672e-5,0,0
15.2947,79.2726,0.000273821,1.78141e-5,0,0
16.2947,79.2727,0.000106201,6.45057e-6,0,0
17.2947,79.2728,4.4168e-5,2.62404e-6,0,0
18.2947,79.2728,1.81741e-5,1.04214e-6,0,0
19.2947,79.2729,6.71753e-6,3.59841e-7,0,0
20.2947,79.2729,2.02098e-6,9.54881e-8,0,0
21.2947,79.2729,5.65436e-7,2.25574e-8,0,0
22.2947,79.2729,2.88357e-7,1.12787e-8,0,0
23.2947,79.2729,1.46998e-7,5.63936e-9,0,0
24.2947,79.2729,7.4909e-8,2.81968e-9,0,0
25.2947,79.2729,3.81594e-8,1.40984e-9,0,0
26.2947,79.2729,1.94322e-8,7.0492e-10,0,0
27.2947,79.2729,9.89231e-9,3.5246e-10,0,0
28.2947,79.2729,5.03427e-9,1.7623e-10,0,0
29.2947,79.2729,2.56119e-9,8.8115e-11,0,0
30.2947,79.2729,1.30263e-9,4.40575e-11,0,0
31.2947,79.2729,6.62327e-10,2.20287e-11,0,0
32.2947,79.2729,3.36671e-10,1.10144e-11,0,0
33.2947,79.2729,1.71089e-10,5.50719e-12,0,0
34.2947,79.2729,8.69213e-11,2.75359e-12,0,0
35.2947,79.2729,4.4149e-11,1.3768e-12,0,0
36.2947,79.2729,2.24187e-11,6.88398e-13,0,0
37.2947,79.2729,1.13815e-11,3.44199e-13,0,0
38.2947,79.2729,5.77678e-12,1.721e-13,0,0
39.2947,79.2729,2.93141e-12,8.60498e-14,0,0
40.2947,79.2729,1.48722e-12,4.30249e-14,0,0
41.2947,79.2729,7.54366e-13,2.15124e-14,0,0
42.2947,79.2729,3.82561e-13,1.07562e-14,0,0
43.2947,79.2729,1.9397e-13,5.37811e-15,0,0
44.2947,79.2729,9.83293e-14,2.68906e-15,0,0
45.2947,79.2729,4.98369e-14,1.34453e-15,0,0
46.2947,79.2729,2.52546e-14,6.72264e-16,0,0
47.2947,79.2729,1.27954e-14,3.36132e-16,0,0
48.2947,79.2729,6.48172e-15,1.68066e-16,0,0
49.2947,79.2729,3.28287e-15,8.4033e-17,0,0
50.2947,79.2729,1.66245e-15,4.20165e-17,0,0
51.2947,79.2729,8.41727e-16,2.10082e-17,0,0
52.2947,79.2729,4.26115e-16,1.05041e-17,0,0
53.2947,79.2729,2.15684e-16,5.25206e-18,0,0
54.2947,79.2729,1.09155e-16,2.62603e-18,0,0
55.2947,79.2729,5.5234e-17,1.31302e-18,0,0
56.2947,79.2729,2.79452e-17,6.56508e-19,0,0
57.2947,79.2729,1.41367e-17,3.28254e-19,0,0
58.2947,79.2729,7.15043e-18,1.64127e-19,0,0
59.2947,79.2729,3.61625e-18,8.20635e-20,0,0
60.2947,79.2729,1.82864e-18,4.10317e-20,0,0
61.2947,79.2729,9.24578e-19,2.05159e-20,0,0
62.2947,79.2729,4.67418e-19,1.02579e-20,0,0
63.2947,79.2729,2.36274e-19,5.12897e-21,0,0
64.2947,79.2729,1.19419e-19,2.56448e-21,0,0
65.2947,79.2729,6.03506e-20,1.28224e-21,0,0
66.2947,79.2729,3.04959e-20,6.41121e-22,0,0
67.2947,79.2729,1.54082e-20,3.2056e-22,0,0
68.2947,79.2729,7.78425e-21,1.6028e-22,0,0
69.2947,79.2729,3.93219e-21,8.01401e-23,0,0
70.2947,79.2729,1.98613e-21,4.007e-23,0,0
71.2947,79.2729,1.00308e-21,2.0035e-23,0,0
72.2947,79.2729,5.0655e-22,1.00175e-23,0,0
73.2947,79.2729,2.5578e-22,5.00876e-24,0,0
74.2947,79.2729,1.29142e-22,2.50438e-24,0,0
75.2947,79.2729,6.51971e-23,1.25219e-24,0,0
76.2947,79.2729,3.29116e-23,6.26095e-25,0,0
77.2947,79.2729,1.66123e-23,3.13047e-25,0,0
78.2947,79.2729,8.38442e-24,1.56524e-25,0,0
79.2947,79.2729,4.23134e-24,7.82618e-26,0,0
80.2947,79.2729,2.13524e-24,3.91309e-26,0,0
81.2947,79.2729,1.0774e-24,1.95655e-26,0,0
82.2947,79.2729,5.43592e-25,9.78273e-27,0,0
83.2947,79.2729,2.74242e-25,4.89136e-27,0,0
84.2947,79.2729,1.38344e-25,2.44568e-27,0,0
85.2947,79.2729,6.97832e-26,1.22284e-27,0,0
86.2947,79.2729,3.51973e-26,6.1142e-28,0,0
87.2947,79.2729,1.77515e-26,3.0571e-28,0,0
88.2947,79.2729,8.95219e-27,1.52855e-28,0,0
89.2947,79.2729,4.51431e-27,7.64276e-29,0,0
90.2947,79.2729,2.27626e-27,3.82138e-29,0,0
91.2947,79.2729,1.14768e-27,1.91069e-29,0,0
92.2947,79.2729,5.78619e-28,9.55344e-30,0,0
93.2947,79.2729,2.91698e-28,4.77672e-30,0,0
94.2947,79.2729,1.47043e-28,2.38836e-30,0,0
95.2947,79.2729,7.41186e-29,1.19418e-30,0,0
96.2947,79.2729,3.73578e-29,5.9709e-31,0,0
97.2947,79.2729,1.88282e-29,2.98545e-31,0,0
98.2947,79.2729,9.48873e-30,1.49273e-31,0,0
99.2947,79.2729,4.78169e-30,7.46363e-32,0,0
100,79.2729,2.82208e-30,4.37667e-32,0,0
