#Time,E,D,C,B,A
0,4.10129,0,0,110.038,123.836
3.1e-5,4.10129,8.86868e-8,0.00341111,110.039,123.832
0.000395015,4.10129,1.10467e-5,0.0434572,110.044,123.787
0.000956469,4.10129,5.33567e-5,0.105202,110.052,123.718
0.00361776,4.10129,0.000721775,0.397459,110.087,123.389
0.0114763,4.10132,0.00719479,1.25648,110.188,122.423
0.0192803,4.10142,0.0202035,2.10363,110.279,121.471
0.0289471,4.10173,0.0452693,3.1448,110.381,120.303
0.0591598,4.10498,0.185527,6.34016,110.623,116.722
0.0960176,4.1168,0.477404,10.1169,110.766,112.498
0.139665,4.14805,0.982235,14.4156,110.736,107.694
0.184493,4.20678,1.66501,18.6336,110.497,102.973
0.232824,4.30844,2.56936,22.9575,110.026,98.1143
0.284671,4.47054,3.71227,27.3391,109.297,93.157
0.33898,4.70848,5.07732,31.646,108.311,88.2327
0.39837,5.05854,6.73859,36.0297,107.004,83.1451
0.459337,5.52529,8.59679,40.1819,105.444,78.2275
0.523454,6.14279,10.6858,44.1781,103.6,73.3692
0.590759,6.93905,12.993,47.9768,101.473,68.5936
0.659657,7.91816,15.4417,51.4604,99.1285,64.0268
0.734869,9.18213,18.1772,54.8154,96.4129,59.3878
0.814263,10.741,21.095,57.875,93.4094,54.8551
0.89964,12.6758,24.2234,60.6448,90.0654,50.3662
0.991096,15.0424,27.5176,63.0539,86.3975,45.9642
1.08687,17.8389,30.8582,65.0056,82.5066,41.7662
1.18716,21.1023,34.1925,66.4774,78.4226,37.7808
1.29473,24.9628,37.5416,67.4694,74.0741,33.9277
1.40767,29.3878,40.7679,67.9297,69.5857,30.3044
1.52633,34.4093,43.8076,67.8516,64.9933,26.9137
1.65106,40.0515,46.5952,67.2358,60.3352,23.7579
1.78636,46.5338,49.1358,66.0474,55.5073,20.7513
1.92167,53.3258,51.1747,64.4148,50.9351,18.1252
2.05698,60.3605,52.7251,62.4275,46.6311,15.8314
2.19229,67.5732,53.8091,60.1646,42.6008,13.8279
2.39887,78.7907,54.6312,56.3335,36.9732,11.247
2.6644,93.294,54.3874,51.0288,30.6412,8.62424
2.92992,107.567,52.943,45.6009,25.2518,6.61308
3.19545,121.328,50.5799,40.2872,20.7096,5.07091
3.46097,134.369,47.5594,35.246,16.9127,3.88838
3.72649,146.547,44.1115,30.5755,13.7604,2.98162
4.09263,161.77,39.0063,24.8333,10.2985,2.06748
4.46829,175.425,33.71,19.8138,7.60688,1.42003
4.91713,189.187,27.6994,14.9194,5.26287,0.906512
5.3983,201.098,21.9437,10.851,3.52234,0.560278
5.8434,209.823,17.3842,7.99304,2.41677,0.359006
6.37391,217.817,12.9272,5.48634,1.53385,0.21121
6.94134,224.057,9.23816,3.62339,0.93762,0.119755
7.52407,228.578,6.4284,2.33964,0.562514,0.0668708
8.11762,231.749,4.37387,1.48326,0.332639,0.0369388
8.71783,233.912,2.92202,0.92706,0.194687,0.0202691
9.35102,235.411,1.88409,0.559776,0.110175,0.0107616
10.0255,236.421,1.1652,0.324275,0.0598268,0.00548288
10.7353,237.067,0.693719,0.18102,0.0313345,0.00269652
11.4624,237.456,0.40299,0.0988496,0.0160935,0.00130352
12.2132,237.687,0.227419,0.0525336,0.00805854,0.000615357
13.0208,237.824,0.121534,0.0264207,0.00381598,0.000274518
13.8403,237.897,0.0636713,0.0130618,0.00178093,0.000121003
14.7177,237.937,0.0315377,0.00610225,0.000785066,5.03546e-5
15.6444,237.958,0.0148613,0.00271293,0.000329404,1.9949e-5
16.6444,237.968,0.00652927,0.00112362,0.000128668,7.35266e-6
17.6444,237.972,0.00284032,0.000462271,5.00776e-5,2.70807e-6
18.6444,237.974,0.00122384,0.000188812,1.93809e-5,9.9169e-7
19.6444,237.975,0.000527023,7.75292e-5,7.57439e-6,3.65221e-7
20.6444,237.975,0.000221021,3.07923e-5,2.85585e-6,1.33331e-7
21.6444,237.975,9.46139e-5,1.27127e-5,1.13461e-6,4.94953e-8
22.6444,237.976,3.79661e-5,4.73248e-6,3.92548e-7,1.74123e-8
23.6444,237.976,1.79551e-5,2.35218e-6,2.04848e-7,7.45475e-9
24.6444,237.976,6.22958e-6,6.50208e-7,4.23549e-8,2.08497e-9
25.6444,237.976,2.36753e-6,2.2904e-7,1.38939e-8,6.89614e-10
26.6444,237.976,6.84216e-7,5.63393e-8,2.88364e-9,1.41242e-10
27.6444,237.976,7.34946e-8,-9.29329e-10,-4.81852e-10,-2.49288e-11
28.6444,237.976,-8.3009e-8,-1.24039e-8,-9.81485e-10,-4.81915e-11
29.6444,237.976,-8.51134e-8,-1.00182e-8,-7.02245e-10,-3.35675e-11
30.6444,237.976,-4.51511e-8,-5.18884e-9,-3.59514e-10,-1.67837e-11
31.6444,237.976,-2.39188e-8,-2.6864e-9,-1.83953e-10,-8.39187e-12
32.6444,237.976,-1.26545e-8,-1.39024e-9,-9.40745e-11,-4.19593e-12
33.6444,237.976,-6.68683e-9,-7.19161e-10,-4.80862e-11,-2.09797e-12
34.6444,237.976,-3.52935e-9,-3.71864e-10,-2.45676e-11,-1.04898e-12
35.6444,237.976,-1.86078e-9,-1.92205e-10,-1.25461e-11,-5.24492e-13
36.6444,237.976,-9.8004e-10,-9.93047e-11,-6.40415e-12,-2.62246e-13
37.6444,237.976,-5.15663e-10,-5.12861e-11,-3.26764e-12,-1.31123e-13
38.6444,237.976,-2.7107e-10,-2.64764e-11,-1.6666e-12,-6.55615e-14
39.6444,237.976,-1.42366e-10,-1.3663e-11,-8.4969e-13,-3.27807e-14
40.6444,237.976,-7.47072e-11,-7.04804e-12,-4.3304e-13,-1.63904e-14
41.6444,237.976,-3.91708e-11,-3.63433e-12,-2.20618e-13,-8.19518e-15
42.6444,237.976,-2.05221e-11,-1.87334e-12,-1.12358e-13,-4.09759e-15
43.6444,237.976,-1.07437e-11,-9.65273e-13,-5.72032e-14,-2.0488e-15
44.6444,237.976,-5.62043e-12,-4.97193e-13,-2.91138e-14,-1.0244e-15
45.6444,237.976,-2.93822e-12,-2.56003e-13,-1.4813e-14,-5.12199e-16
46.6444,237.976,-1.53499e-12,-1.31769e-13,-7.53455e-15,-2.56099e-16
47.6444,237.976,-8.01396e-13,-6.78001e-14,-3.8313e-15,-1.2805e-16
48.6444,237.976,-4.18135e-13,-3.48739e-14,-1.94766e-15,-6.40249e-17
49.6444,237.976,-2.18033e-13,-1.79318e-14,-9.89837e-16,-3.20124e-17
50.6444,237.976,-1.13625e-13,-9.21739e-15,-5.02922e-16,-1.60062e-17
51.6444,237.976,-5.91809e-14,-4.73642e-15,-2.55462e-16,-8.00311e-18
52.6444,237.976,-3.0807e-14,-2.43308e-15,-1.29732e-16,-4.00155e-18
53.6444,237.976,-1.60282e-14,-1.24947e-15,-6.58664e-17,-2.00078e-18
54.6444,237.976,-8.33484e-15,-6.41453e-16,-3.34334e-17,-1.00039e-18
55.6444,237.976,-4.33203e-15,-3.2921e-16,-1.69668e-17,-5.00194e-19
56.6444,237.976,-2.25047e-15,-1.68909e-16,-8.60844e-18,-2.50097e-19
57.6444,237.976,-1.16855e-15,-8.66379e-17,-4.36675e-18,-1.25049e-19
58.6444,237.976,-6.0649e-16,-4.44263e-17,-2.21463e-18,-6.25243e-20
59.6444,237.976,-3.14632e-16,-2.27746e-17,-1.12295e-18,-3.12621e-20
60.6444,237.976,-1.63152e-16,-1.1672e-17,-5.6929e-19,-1.56311e-20
61.6444,237.976,-8.45662e-17,-5.98025e-18,-2.88553e-19,-7.81554e-21
62.6444,237.976,-4.38147e-17,-3.06324e-18,-1.4623e-19,-3.90777e-21
63.6444,237.976,-2.26917e-17,-1.56867e-18,-7.40921e-20,-1.95388e-21
64.6444,237.976,-1.17474e-17,-8.03101e-19,-3.75345e-20,-9.76942e-22
65.6444,237.976,-6.07922e-18,-4.11056e-19,-1.90115e-20,-4.88471e-22
66.6444,237.976,-3.14478e-18,-2.10342e-19,-9.62786e-21,-2.44235e-22
67.6444,237.976,-1.6262e-18,-1.07608e-19,-4.87499e-21,-1.22118e-22
68.6444,237.976,-8.40617e-19,-5.50382e-20,-2.46802e-21,-6.10589e-23
69.6444,237.976,-4.3438e-19,-2.81438e-20,-1.24928e-21,-3.05294e-23
70.6444,237.976,-2.24384e-19,-1.4388e-20,-6.32271e-22,-1.52647e-23
71.6444,237.976,-1.15869e-19,-7.35398e-21,-3.19952e-22,-7.63236e-24
72.6444,237.976,-5.98135e-20,-3.75793e-21,-1.61884e-22,-3.81618e-24
73.6444,237.976,-3.08667e-20,-1.91991e-21,-8.1896e-23,-1.90809e-24
74.6444,237.976,-1.59237e-20,-9.8067e-22,-4.1425e-23,-9.54045e-25
75.6444,237.976,-8.21225e-21,-5.0081e-22,-2.0951e-23,-4.77022e-25
76.6444,237.976,-4.23398e-21,-2.55703e-22,-1.05948e-23,-2.38511e-25
77.6444,237.976,-2.18225e-21,-1.3053e-22,-5.35701e-24,-1.19256e-25
78.6444,237.976,-1.12444e-21,-6.66191e-23,-2.70832e-24,-5.96278e-26
79.6444,237.976,-5.79215e-22,-3.39941e-23,-1.36907e-24,-2.98139e-26
80.6444,237.976,-2.98279e-22,-1.7343e-23,-6.91987e-25,-1.4907e-26
81.6444,237.976,-1.53563e-22,-8.84637e-24,-3.4972e-25,-7.45348e-27
82.6444,237.976,-7.90371e-23,-4.51155e-24,-1.76723e-25,-3.72674e-27
83.6444,237.976,-4.06688e-23,-2.30042e-24,-8.92934e-26,-1.86337e-27
84.6444,237.976,-2.09208e-23,-1.17277e-24,-4.51125e-26,-9.31684e-28
85.6444,237.976,-1.07593e-23,-5.97778e-25,-2.27892e-26,-4.65842e-28
86.6444,237.976,-5.53196e-24,-3.04645e-25,-1.15111e-26,-2.32921e-28
87.6444,237.976,-2.84359e-24,-1.55229e-25,-5.81376e-27,-1.16461e-28
88.6444,237.976,-1.46134e-24,-7.90826e-26,-2.93599e-27,-5.82303e-29
89.6444,237.976,-7.50811e-25,-4.02826e-26,-1.48255e-27,-2.91151e-29
90.6444,237.976,-3.85663e-25,-2.05156e-26,-7.48556e-28,-1.45576e-29
91.6444,237.976,-1.98055e-25,-1.04467e-26,-3.77917e-28,-7.27878e-30
92.6444,237.976,-1.01687e-25,-5.31876e-27,-1.90778e-28,-3.63939e-30
93.6444,237.976,-5.21972e-26,-2.70753e-27,-9.6299e-29,-1.8197e-30
94.6444,237.976,-2.67876e-26,-1.37807e-27,-4.86044e-29,-9.09848e-31
95.6444,237.976,-1.37445e-26,-7.01298e-28,-2.45297e-29,-4.54924e-31
96.6444,237.976,-7.05065e-27,-3.56838e-28,-1.23786e-29,-2.27462e-31
97.6444,237.976,-3.6161e-27,-1.81542e-28,-6.24615e-30,-1.13731e-31
98.6444,237.976,-1.85422e-27,-9.23469e-29,-3.15151e-30,-5.68655e-32
99.6444,237.976,-9.50595e-28,-4.69684e-29,-1.58997e-30,-2.84328e-32
100,237.976,-7.10411e-28,-3.49571e-29,-1.1784e-30,-2.09745e-32
